ID,od,popis,x,y,ts_flags
10,2013-04-04 09:15:00,'Od 4.4.2013 10:15 do 12:15; v ulici Karlovarská v obci Plzeň; nehoda s únikem paliva; 3 havarovaná vozidla; probíhají záchranné a vyprošťovací práce, nebezpečí; 3 x OA bez zranění, únik provozních kapalin,na místo HZS.',137.507194312435,87.0863343592025,'{accindet,personal_cars}'
11,2013-04-04 11:35:00,'Od 4.4.2013 12:35 do 15:40; v ulici U Prazdroje v obci Plzeň; U prazdroje.; nehoda nákladního vozidla; 2 havarovaná vozidla; překážka na vozovce, průjezd se zvýšenou opatrností; NA x OA bez zranění, a úniku provozních kapalin, místo částečně neprůjezdné, PČR jede na místo.',137.518862934658,87.1013636432051,'{accindet,personal_cars,trucks}'
12,2013-04-04 11:40:00,'Od 4.4.2013 12:40 do 14:45; na silnici 18050 u obce Město Touškov okres Plzeň-sever; nehoda; 2 havarovaná vozidla; OA x multivan bez zranění,  PČR jede na místo.',137.433505423535,87.069065545317,'{accindet,personal_cars}'
13,2013-04-04 11:45:00,'Od 4.4.2013 12:45 do 15:50; v ulici Jízdecká v obci Plzeň; nehoda nákladního vozidla; neprůjezdná zpevněná krajnice; překážka na vozovce, průjezd se zvýšenou opatrností; NA x OA bez zranění a úniku provozních kapalin, místo  špatně průjezdné, PČR jede na místo.',137.508615112435,87.0982799857666,'{accindet,personal_cars,trucks}'
14,2013-04-04 13:20:00,Od 4.4.2013 14:20 do 16:25; na silnici 2042 v obci Dolní Bělá okres Plzeň-sever; nehoda; 2 havarovaná vozidla; 2 x OA bez zranění a úniku PHM.,137.437953423536,86.9353665978238,'{accindet,personal_cars}'
15,2013-04-04 13:45:00,'Od 4.4.2013 14:45 do 17:50; v ulici sady Pětatřicátníků v obci Plzeň; nehoda nákladního vozidla; překážka na vozovce, průjezd se zvýšenou opatrností; probíhá vyšetřování nehody; NA x OA bez zranění a úniku provozních kapalin ,částečně překáží provozu, PČR jede na místo.',137.510530845768,87.0988687778008,'{accindet,personal_cars,trucks}'
16,2013-04-04 18:40:00,'Od 4.4.2013 19:40 do 21:45; v ulici Francouzská třída v obci Plzeň; FrancouzskáxStrnadova, Plzeň; nehoda; 2xOA bez zranění, bez úniku, PČR na místě',137.530078579104,87.1191115702421,{accindet}
17,2013-04-05 02:15:00,'Od 5.4.2013 03:15 do 05:20; na silnici 27 u obce Třemošná okres Plzeň-sever; silnice č. 27 u odbočky Třemošná a odbočka Horní Bříza; nehoda; OAx srna, zvýšená opatrnost, PČR jede na místo',137.520945779103,87.0061900256286,'{accindet,animal_hit}'
18,2013-04-05 06:45:00,'Od 5.4.2013 07:45 do 08:50; v ulici Vejprnická v obci Plzeň; křiž. s ul. Terezie Brzkové; nehoda; neprůjezdný pruh, 2 havarovaná vozidla; 2 x OA bez zranění, na místo PČR.',137.479355023542,87.106190166967,'{accindet,personal_cars}'
19,2013-04-05 09:10:00,'Od 5.4.2013 10:10 do 11:15; na silnici 20 u obce Chotíkov okres Plzeň-sever; nehoda; srážka OA se psem, na místo PČR.',137.486448356876,87.0632621455982,'{accindet,personal_cars}'
