ID,od,popis,x,y,ts_flags
10000,2016-06-17 06:35:00,Od 17.6.2016 07:35 do 09:40; v ulici Koterovská v obci Plzeň; nehoda; 2 havarovaná vozidla; probíhá vyšetřování nehody; 2 x OA bez zranění. Na místě PČR.,137.534176712438,87.1185692070399,'{accindet,personal_cars}'
10001,2016-06-17 07:00:00,'Od 17.6.2016 08:00 do 10:05; na silnici 19112 v obci Mladý Smolivec okres Plzeň-jih; nehoda; havarované vozidlo; překážka na vozovce, průjezd se zvýšenou opatrností; Havárie OA mimo komunikaci, se zraněním osob. PČR a ZZS na místě.',137.744475023579,87.3443035993329,'{accindet,injury,personal_cars}'
10002,2016-06-17 07:35:00,Od 17.6.2016 08:35 do 10:40; na silnici 26 u obce Chotěšov okres Plzeň-jih; nehoda; 3 havarovaná vozidla; probíhá vyšetřování nehody; 3 x OA se zraněním. ZZS a PČR na místě.,137.377888001305,87.2085536287132,'{accindet,injury,personal_cars}'
10003,2016-06-17 07:35:00,Od 17.6.2016 08:35 do 11:40; v ulici Palackého v obci Plzeň; nehoda nákladního vozidla; 2 havarovaná vozidla; probíhá vyšetřování nehody; NA x OA bez zranění. PČR na místě.,137.508632179101,87.0992484626779,'{accindet,personal_cars,trucks}'
10004,2016-06-17 07:50:00,Od 17.6.2016 08:50 do 10:55; v ulici Průběžná v obci Kralovice okres Plzeň-sever; nehoda; 2 havarovaná vozidla; probíhá vyšetřování nehody; 2 x OA bez zranění. Na místě PČR.,137.591065601335,86.8391238806877,'{accindet,personal_cars}'
10005,2016-06-17 09:15:00,Od 17.6.2016 10:15 do 12:20; v ulici Malostranská v obci Plzeň; nehoda; 2 havarovaná vozidla; probíhá vyšetřování nehody; 2 x OA bez zranění. Na místě PČR.,137.522627556881,87.1241366938878,'{accindet,personal_cars}'
10006,2016-06-17 09:35:00,Od 17.6.2016 10:35 do 12:40; v ulici nám. ČSA v obci Stod okres Plzeň-jih; nehoda; 2 havarovaná vozidla; probíhá vyšetřování nehody; 2 x OA bez zranění. Na místě PČR.,137.361203912414,87.2182143477239,'{accindet,personal_cars}'
10007,2016-06-17 10:20:00,Od 17.6.2016 11:20 do 13:25; v ulici náměstí T. G. Masaryka v obci Plzeň; nehoda; 2 havarovaná vozidla; probíhá vyšetřování nehody; 2 x OA bez zranění. Na místě PČR.,137.509129245768,87.1058886595642,'{accindet,personal_cars}'
10008,2016-06-17 11:10:00,Od 17.6.2016 12:10 do 14:15; v ulici Zborovská v obci Plzeň; nehoda; 2 havarovaná vozidla; probíhá vyšetřování nehody; 2 x OA bez zranění. Na místě PČR.,137.516938667991,87.1206902228556,'{accindet,personal_cars}'
10009,2016-06-17 11:15:00,Od 17.6.2016 12:15 do 14:20; v ulici Plaská v obci Plzeň; nehoda; 2 havarovaná vozidla; probíhá vyšetřování nehody; 2 x OA bez zranění. Na místě PČR.,137.51757795688,87.0604075663771,'{accindet,personal_cars}'
