ID,od,popis,x,y,ts_flags
10010,2016-06-17 12:15:00,Od 17.6.2016 13:15 do 15:20; na silnici 20 u obce Klášter okres Plzeň-jih; nehoda; 2 havarovaná vozidla; probíhá vyšetřování nehody; 2 x OA bez zranění. Na místě PČR.,137.645504001343,87.373651672007,'{accindet,personal_cars}'
10011,2016-06-17 12:35:00,Od 17.6.2016 13:35 do 15:40; v ulici Havlíčkovo nám. v obci Přeštice okres Plzeň-jih; nehoda; 2 havarovaná vozidla; probíhá vyšetřování nehody; 2 x OA bez zranění. Na místě PČR.,137.482877156876,87.2905028685661,'{accindet,personal_cars}'
10012,2016-06-17 13:10:00,Od 17.6.2016 14:10 do 16:15; v ulici Plzeňská v obci Líně okres Plzeň-sever; nehoda; 2 havarovaná vozidla; probíhá vyšetřování nehody; 2 x OA se zraněním. ZZS a PČR na místo.,137.426424890201,87.1580637052811,'{accindet,injury,personal_cars}'
10013,2016-06-17 13:10:00,Od 17.6.2016 14:10 do 16:15; na silnici 2293 u obce Kožlany okres Plzeň-sever; nehoda; 2 havarovaná vozidla; probíhá vyšetřování nehody; 2 x OA se zraněním. ZZS a PČR na místě.,137.639004445786,86.829574536907,'{accindet,injury,personal_cars}'
10014,2016-06-17 15:15:00,'Od 17.6.2016 16:15 do 18:20; na silnici u obce Nýřany okres Plzeň-sever; nehoda; havarované vozidlo; probíhá vyšetřování nehody; Havárie OA, bez zranění osob.  PČR na místě.',137.396837690197,87.1448328426465,'{accindet,personal_cars}'
10015,2016-06-17 16:25:00,Od 17.6.2016 17:25 do 19:30; v ulici Barrandova v obci Plzeň; nehoda; 2 havarovaná vozidla; probíhá vyšetřování nehody; 2 x OA bez zranění. Na místě PČR.,137.521063823548,87.106543390627,'{accindet,personal_cars}'
10016,2016-06-17 16:35:00,Od 17.6.2016 17:35 do 19:40; v ulici Karla Steinera v obci Plzeň; nehoda; 2 havarovaná vozidla; probíhá vyšetřování nehody; 2 x OA bez zranění. Na místě PČR.,137.478423467986,87.1025598606493,'{accindet,personal_cars}'
10017,2016-06-17 18:10:00,'Od 17.6.2016 19:10 do 21:15; v ulici Pod Vinicemi v obci Plzeň; nehoda; 3 havarovaná vozidla; překážka na vozovce, průjezd se zvýšenou opatrností; 3x OA bez zranění.',137.491959467988,87.0908705560021,'{accindet,personal_cars}'
10018,2016-06-17 18:55:00,'Od 17.6.2016 19:55 do 22:00; na silnici 187 u obce Nepomuk okres Plzeň-jih; nehoda; 2 havarovaná vozidla; překážka na vozovce, průjezd se zvýšenou opatrností; 2x OA bez zranění.',137.646482490232,87.3981554059948,'{accindet,personal_cars}'
10019,2016-06-17 20:50:00,Od 17.6.2016 21:50 do 23:55; na silnici 27 u obce Přeštice okres Plzeň-jih; nehoda; havarované vozidlo; zvěř na vozovce; OA x zvěř bez zranění.,137.472778667985,87.3057708644779,'{accindet,personal_cars,animal_hit}'
