ID,od,popis,x,y,ts_flags
10070,2016-06-23 18:15:00,'Od 23.6.2016 19:15 do 21:20; D5 - 101.2km na trase Rozvadov - Praha; nehoda; probíhá vyšetřování nehody, nebezpečí; 1 x OA bez zranění osob',137.330092090188,87.1305758174505,'{accindet,personal_cars}'
10071,2016-06-23 20:30:00,Od 23.6.2016 21:30 do 23:35; na silnici 180 u obce Úherce okres Plzeň-sever; nehoda; havarované vozidlo; probíhá vyšetřování nehody; havárie OA se zraněním. Na místě PČR a ZZS.,137.40549831242,87.1493277893952,'{accindet,injury,personal_cars}'
10072,2016-06-24 05:55:00,'Od 24.6.2016 06:55 do 09:00; v ulici Masarykova v obci Plzeň; nehoda; probíhá vyšetřování nehody, nebezpečí; srážka OA s chodkyní se zraněním. Na místě ZZS a PČR.',137.539296712439,87.0945853050935,'{accindet,injury,personal_cars}'
10073,2016-06-24 06:35:00,'Od 24.6.2016 07:35 do 09:40; v ulici Masarykova v obci Plzeň; nehoda; 2 havarovaná vozidla; překážka na vozovce, průjezd se zvýšenou opatrností; 2x OA, PČR jede na místo.',137.538864356883,87.0957519581315,'{accindet,personal_cars}'
10074,2016-06-24 06:50:00,'Od 24.6.2016 07:50 do 10:55; na silnici 26 v obci Plzeň; nehoda nákladního vozidla; 2 havarovaná vozidla; překážka na vozovce, průjezd se zvýšenou opatrností; OA x NA bez zranění.',137.472345601319,87.1167902610754,'{accindet,personal_cars,trucks}'
10075,2016-06-24 08:25:00,'Od 24.6.2016 09:25 do 12:30; v ulici Červenohrádecká v obci Plzeň; nehoda nákladního vozidla; 2 havarovaná vozidla; překážka na vozovce, průjezd se zvýšenou opatrností; OA x NA bez zranění.',137.562669512442,87.0902618628344,'{accindet,personal_cars,trucks}'
10076,2016-06-24 10:00:00,'Od 24.6.2016 11:00 do 14:05; na silnici 0274 v obci Plasy okres Plzeň-sever; nehoda nákladního vozidla; překážka na vozovce, průjezd se zvýšenou opatrností; havárie NA bez zranění.',137.509818312435,86.8695986458383,'{accindet,trucks}'
10077,2016-06-24 10:20:00,'Od 24.6.2016 11:20 do 13:25; na silnici 605 v obci Plzeň; nehoda; 2 havarovaná vozidla; překážka na vozovce, průjezd se zvýšenou opatrností; OA x motocykl bez zranění.',137.461206756873,87.0894682397985,'{accindet,personal_cars}'
10078,2016-06-24 10:20:00,'Od 24.6.2016 11:20 do 13:25; v ulici Mikulášská v obci Plzeň; nehoda, silný provoz; 2 havarovaná vozidla; překážka na vozovce, průjezd se zvýšenou opatrností; 2x OA bez zranění.',137.519259023547,87.1070781734032,'{accindet,personal_cars}'
10079,2016-06-24 10:20:00,'Od 24.6.2016 11:20 do 14:25; v ulici K Starým valům v obci Plzeň; nehoda autobusu; 2 havarovaná vozidla; překážka na vozovce, průjezd se zvýšenou opatrností; OA x BUS bez zranění.',137.531209956882,87.1351852427314,'{accindet,personal_cars}'
