ID,od,popis,x,y,ts_flags
10080,2016-06-24 12:45:00,'Od 24.6.2016 13:45 do 16:50; v ulici Klatovská třída v obci Plzeň; nehoda nákladního vozidla; 2 havarovaná vozidla, silný provoz; překážka na vozovce, průjezd se zvýšenou opatrností; OA x NA.',137.509346134657,87.1025125406891,'{accindet,personal_cars}'
10081,2016-06-24 13:15:00,'Od 24.6.2016 14:15 do 17:20; na silnici 20 u obce Chválenice okres Plzeň-město; nehoda nákladního vozidla; 2 havarovaná vozidla; překážka na vozovce, průjezd se zvýšenou opatrností; OA x NA bez zranění.',137.584433068001,87.2213712464741,'{accindet,personal_cars,trucks}'
10082,2016-06-24 13:35:00,'Od 24.6.2016 14:35 do 16:40; v ulici Plzeňská v obci Chotěšov okres Plzeň-jih; nehoda; 3 havarovaná vozidla; překážka na vozovce, průjezd se zvýšenou opatrností; 3x OA bez zranění.',137.386622579084,87.19952718049,'{accindet,personal_cars}'
10083,2016-06-24 13:50:00,'Od 24.6.2016 14:50 do 17:55; v ulici Hlavní v obci Tlučná okres Plzeň-sever; nehoda autobusu; 2 havarovaná vozidla; překážka na vozovce, průjezd se zvýšenou opatrností; OA x BUS bez zranění.',137.412631467977,87.124945201801,'{accindet,personal_cars}'
10084,2016-06-24 15:25:00,'Od 24.6.2016 16:25 do 18:30; na silnici 26 u obce Chotěšov okres Plzeň-jih; nehoda; 2 havarovaná vozidla; probíhá vyšetřování nehody, nebezpečí; 2x OA bez zranění.',137.378078579083,87.2084339157779,'{accindet,personal_cars}'
10085,2016-06-24 20:10:00,Od 24.6.2016 21:10 do 23:15; na silnici 2043 u obce Horní Bělá okres Plzeň-sever; nehoda; Havárie MOTO. PČR na místo.,137.4162872902,86.9478703282991,{accindet}
10086,2016-06-25 06:50:00,'Od 25.6.2016 07:50 do 08:50; D5 - 69.2km na trase Rozvadov - Praha; U sjezdu na Ejpovice ve směru Rozvadov - Praha; nehoda; 2 havarovaná vozidla; probíhá vyšetřování nehody; 2x OA bez zranění a bez úniku provozních kapalin, místo je průjezdné.',137.602034490225,87.1161312549167,'{accindet,personal_cars}'
10087,2016-06-25 10:00:00,'Od 25.6.2016 11:00 do 12:00; v ulici V Zahradách v obci Plzeň; Křižovatka ulic V Zahradách x Společná v Plnzni.; nehoda; 2 havarovaná vozidla; probíhá vyšetřování nehody; 2 x OA bez zranění, únik provozních kapalin nehlášen.',137.541631290217,87.140734502605,'{accindet,personal_cars}'
10088,2016-06-25 13:40:00,Od 25.6.2016 14:40 do 15:40; v ulici Veleslavínova v obci Plzeň; V ulici Veleslavínova před archivem.; nehoda; 2 havarovaná vozidla; 2 x Oa bez zranění a bez úniku provozních kapalin.,137.511857067991,87.097936612461,'{accindet,personal_cars}'
10089,2016-06-25 13:50:00,'Od 25.6.2016 14:50 do 15:50; v ulici Pod Záhorskem v obci Plzeň; Plzeň, ulice Pod Záhorskem.; nehoda; 2 havarovaná vozidla; 2 x OA bez zranění a bez úniku provozních kapalin.',137.511112534657,87.0875485258547,'{accindet,personal_cars}'
