ID,od,popis,x,y,ts_flags
10090,2016-06-25 13:55:00,'Od 25.6.2016 14:55 do 17:00; v ulici Plzeňská v obci Kaznějov okres Plzeň-sever; Plzeňská ulice v Kaznějově, pod železničním přejezdem.; nehoda; Střet tří OA bez uzranění, na místo PČR',137.516174223547,86.9388923994366,'{accindet,personal_cars}'
10091,2016-06-25 20:00:00,Od 25.6.2016 21:00 do 22:00; D5 - 104km na trase Praha - Rozvadov; nehoda; havarované vozidlo; probíhá vyšetřování nehody; havárie OA bez zranění.,137.301783467961,87.1276577389265,'{accindet,personal_cars}'
10092,2016-06-25 20:55:00,'Od 25.6.2016 21:55 do 23:15; D5 - 85.7-86.2km na trase Rozvadov - Praha; všechny nehody byly odstraněny, nejsou hlášeny žádné další problémy; OA x NA.',137.457353956872,87.1649098354964,'{accindet,personal_cars}'
10093,2016-06-25 22:05:00,'Od 25.6.2016 23:05 do 26.6.2016 01:05; na silnici 2038 u obce Přehýšov okres Plzeň-sever , délka 538m; nehoda; havarované vozidlo; probíhá vyšetřování nehody; havárie OA bez zranění.',137.322076445742,87.1455552703118,'{accindet,personal_cars}'
10094,2016-06-25 23:00:00,'D5 - 106.3-100.5km na trase Rozvadov - Praha,  6  nehod, uzavřeno, probíhají záchranné a vyprošťovací práce, havarované vozidlo, Od 26.06.2016 00:00 Do 26.06.2016 03:10, 6 nehod; uzavřeno, probíhají záchranné a vyprošťovací práce; 6 havarovaných vozidel; havárie šesti OA, jedna se zraněním.',137.272531201291,87.144251154823,'{accindet,injury,personal_cars}'
10095,2016-06-25 23:05:00,'D5 - 105.3km na trase Rozvadov - Praha, nehoda, havarované vozidlo, překážka na vozovce, průjezd se zvýšenou opatrností, Od 26.06.2016 00:05 Do 26.06.2016 03:10, nehoda; havarované vozidlo; překážka na vozovce, průjezd se zvýšenou opatrností; havárie OA do svodidel bez zranění.',137.291007290182,87.1362102386196,'{accindet,personal_cars}'
10096,2016-06-25 23:30:00,Od 26.6.2016 00:30 do 01:30; na silnici 2051 v obci Líšťany okres Plzeň-sever; nehoda; havarované vozidlo; probíhají záchranné a vyprošťovací práce; havárie OA se zraněním.,137.346968179079,87.0255929795213,'{accindet,injury,personal_cars}'
10097,2016-06-26 00:50:00,Od 26.6.2016 01:50 do 02:50; na silnici 2038 u obce Přehýšov okres Plzeň-sever; nehoda; havarované vozidlo; probíhá vyšetřování nehody; havárie OA bez zranění.,137.329280001299,87.1462633938839,'{accindet,personal_cars}'
10098,2016-06-26 10:35:00,Od 26.6.2016 11:35 do 13:40; na silnici 183 u obce Merklín okres Plzeň-jih; nehoda; 2 havarovaná vozidla; probíhá vyšetřování nehody; 2 x OA bez zranění. Na místě PČR.,137.36515626797,87.3240691789697,'{accindet,personal_cars}'
10099,2016-06-26 11:10:00,'Od 26.6.2016 12:10 do 13:45; D5 - 94.1km na trase Praha - Rozvadov; nehoda odstraněna; provoz v jízdním pruhu obnoven; náraz OA do svodidel, bez zranění osob.',137.393721601308,87.1475960481936,'{accindet,personal_cars}'
