ID,od,popis,x,y,ts_flags
10130,2016-06-30 12:55:00,Od 30.6.2016 13:55 do 16:00; na silnici 18018 u obce Tymákov okres Plzeň-město; nehoda; 2 havarovaná vozidla; probíhá vyšetřování nehody; 2 x OA se zraněním. Na místě PČR a RZS.,137.601969068003,87.1285530879281,'{accindet,injury,personal_cars}'
10131,2016-06-30 13:00:00,Od 30.6.2016 14:00 do 16:05; v ulici U Prazdroje v obci Plzeň; nehoda; 3 havarovaná vozidla; 3 x OA bez zranění. Na místě PČR.,137.520979201325,87.1004414259952,'{accindet,personal_cars}'
10132,2016-06-30 13:20:00,'Od 30.6.2016 14:20 do 16:25; v ulici Tyršova v obci Plzeň; nehoda; 2 havarovaná vozidla; překážka na vozovce, průjezd se zvýšenou opatrností; 2 x OA bez zranění.',137.515174401325,87.0975018898834,'{accindet,personal_cars}'
10133,2016-06-30 13:20:00,'Od 30.6.2016 14:20 do 16:25; v ulici Borská v obci Plzeň; nehoda; 2 havarovaná vozidla; překážka na vozovce, průjezd se zvýšenou opatrností; 2 x OA, bez zranění a úniku PHM.',137.495945245766,87.1123926987558,'{accindet,personal_cars}'
10134,2016-06-30 16:30:00,'Od 30.6.2016 17:30 do 19:35; v ulici Jateční v obci Plzeň; křižovatka s ul. U Prazdroje.; nehoda; 2 havarovaná vozidla; překážka na vozovce, průjezd se zvýšenou opatrností; 2 x OA bez zranění. Na místě PČR.',137.530656712438,87.0985694301389,'{accindet,personal_cars}'
10135,2016-07-01 04:40:00,'Od 1.7.2016 05:40 do 08:00; na silnici 20 u obce Vlčtejn okres Plzeň-jih; nehoda; kyvadlový provoz jedním jízdním pruhem; 2x OA se zraněním, zvýšená opatrnost, na místo policie a RZS, místo je průjezdné jedním pruhem, provoz kyvadlový.',137.593465601335,87.2462915760195,'{accindet,injury,personal_cars}'
10136,2016-07-01 05:55:00,'Od 1.7.2016 06:55 do 09:00; v ulici Žižkova v obci Starý Plzenec okres Plzeň-město; nehoda; 2xOA bez zranění, bez úniku PHM, zvýšená opatrnost',137.578633956889,87.1554604506191,{accindet}
10137,2016-07-01 06:00:00,'Od 1.7.2016 07:00 do 09:05; v ulici Líšťanská v obci Město Touškov okres Plzeň-sever; Lesní x Líšťanská; nehoda; 2xOA se zraněním, zvýšená opatrnost,ohrožení BESIP, na místo RZS a policie',137.421078045756,87.0642973333548,'{accindet,injury}'
10138,2016-07-01 06:25:00,Od 1.7.2016 07:25 do 08:25; v ulici Smetanova v obci Starý Plzenec okres Plzeň-město; V Plzenci naproti lékárně.; nehoda; 2 havarovaná vozidla; probíhá vyšetřování nehody; 2x OA bez zranění a bez úniku provozních kapalin. Místo je s omezením průjezdné.,137.581915734667,87.1545446640681,'{accindet,personal_cars}'
10139,2016-07-01 06:50:00,'Od 1.7.2016 07:50 do 08:50; v ulici Palackého náměstí v obci Plzeň; Křiž. s ul. Jízdecká, naproti Plaze u baru Štefi.; nehoda; 3 havarovaná vozidla; probíhá vyšetřování nehody; 3x OA bez zranění a bez úniku provozních kapalin.',137.50843306799,87.0987884383357,'{accindet,personal_cars}'
