ID,od,popis,x,y,ts_flags
10140,2016-07-01 09:50:00,Od 1.7.2016 10:50 do 11:50; na silnici 230 v obci Přestavlky okres Plzeň-jih; Na návsi v obci Přestavlky; nehoda; havarované vozidlo; Havárie 1 x OA bez zranění a bez úniku provozních kapalin.,137.418392179089,87.2618574594082,'{accindet,personal_cars}'
10141,2016-07-01 09:55:00,Od 1.7.2016 10:55 do 11:55; na silnici 19 v obci Spálené Poříčí okres Plzeň-jih; V obci Vlkov ve směru od Nezvěstic.; nehoda; havarované vozidlo; Havárie 1 x OA bez zranění a bez úniku provozních kapalin.,137.654294756899,87.2390244831632,'{accindet,personal_cars}'
10142,2016-07-01 10:05:00,'Od 1.7.2016 11:05 do 16:05; na silnici 193 u obce Pernarec okres Plzeň-sever; nehoda nákladního vozidla; probíhá vyšetřování nehody, nebezpečí; NA a OA bez zranění',137.328469334632,86.9750476516066,'{accindet,personal_cars,trucks}'
10143,2016-07-01 12:40:00,'Od 1.7.2016 13:40 do 14:40; na silnici 180 u obce Letkov okres Plzeň-město; Pod dálničním mostem.; nehoda; 2 havarovaná vozidla; probíhá vyšetřování nehody; 2x OA bez zranění, únik provozních kapalin nehlášen.',137.573185423555,87.127284855738,'{accindet,personal_cars}'
10144,2016-07-01 12:50:00,'Od 1.7.2016 13:50 do 14:50; na silnici 18020 u obce Starý Plzenec okres Plzeň-město; z Koterova na Starý Plzenec po podjetí dálnice.; nehoda; havarované vozidlo; probíhá vyšetřování nehody; 2x OA se zraněním jedné osoby, únik provozních kapalin nehlášen.',137.563552712442,87.140292430504,'{accindet,injury,personal_cars}'
10145,2016-07-01 13:05:00,'Od 1.7.2016 14:05 do 17:15; na silnici 18020 u obce Starý Plzenec okres Plzeň-město; nehoda; probíhají záchranné a vyprošťovací práce, nebezpečí; 2x OA se zranění jedné osoby',137.565612801332,87.1413910059142,'{accindet,injury,personal_cars}'
10146,2016-07-01 15:10:00,Od 1.7.2016 16:10 do 17:10; v ulici Skrétova v obci Plzeň; Na rohu u křižovatky s ul. Husova; nehoda; havarované vozidlo; poškození zaparkovanéhu OA nezjištěným vozidlem. Bez zranění a bez úniku provozních kapalin.,137.50705706799,87.1019612050396,'{accindet,personal_cars}'
10147,2016-07-01 17:25:00,'Od 1.7.2016 18:25 do 19:25; na silnici 206 u obce Žihle okres Plzeň-sever; Za Novým Dvorem za lesem ve směru na Rabštejn.; nehoda; probíhá vyšetřování nehody, nebezpečí; Srážka OA s chodcem, zřejmě se zraněním, únik provozních kapalin nehhlášen.',137.468119467985,86.7607694810513,'{accindet,pedestrian_involvement,injury,personal_cars}'
10148,2016-07-02 10:15:00,Od 2.7.2016 11:15 do 14:20; na silnici 20 u obce Losiná okres Plzeň-město; nehoda; neprůjezdná komunikace; 2x  OA se zraněním. IZS a PČR na místo. Neprůjezdná komunikace. Odklon dopravy. Řídí PČR.,137.563384179109,87.1790544069477,'{accindet,injury,personal_cars}'
10149,2016-07-02 13:15:00,Od 2.7.2016 14:15 do 16:20; na silnici 19340 u obce Hradec okres Plzeň-jih; nehoda; Střet 2xOA. PČR na místo.,137.322812445742,87.2248079365261,{accindet}
