ID,od,popis,x,y,ts_flags
10160,2016-07-04 07:25:00,'Od 4.7.2016 08:25 do 09:25; na silnici 180 u obce Starý Plzenec okres Plzeň-město; na vjezdu do obce od Plzně u autoservisu Bosch; nehoda; 3 havarovaná vozidla; Pozor! Olej na vozovce; 2 OA x dodávka bez zranění, únik oleje na vozovku, zasypáno sorbentem. Na místo HZS a hlídka PČR.',137.569626312443,87.1555516985991,'{accindet,personal_cars}'
10161,2016-07-04 09:35:00,Od 4.7.2016 10:35 do 11:35; v ulici Masarykovo náměstí v obci Blovice okres Plzeň-jih; Křižovatka u Masarykova náměstí.; nehoda; 2 havarovaná vozidla; 2 x OA bez zranění a bez úniku provozních kapalin. Místo je průjezdné. Na místo hlídka PČR.,137.628935823563,87.28247404797,'{accindet,personal_cars}'
10162,2016-07-04 12:25:00,Od 4.7.2016 13:25 do 14:25; v ulici Dítětova v obci Plzeň; křiž. s ul. Dítětova; nehoda; 3 havarovaná vozidla; probíhá vyšetřování nehody; 3 x OA bez zraněním a bez úniku provozních kapalin. Na místo PČR.,137.534942579105,87.098799443749,'{accindet,personal_cars}'
10163,2016-07-04 15:30:00,'Od 4.7.2016 16:30 do 17:30; na silnici 180 u obce Dolany okres Plzeň-sever; asi 100 před křižovatkou na Dolany ve směru Zruč-Senec; nehoda; 2 havarovaná vozidla; probíhá vyšetřování nehody, nebezpečí; OA x NA bez zranění, únik provozních kapalin nehlášen. Na místo hlídka PČR.',137.574302579111,87.041717973312,'{accindet,personal_cars,trucks}'
10164,2016-07-04 17:20:00,'Od 4.7.2016 18:20 do 19:20; na silnici 605 v obci Kozolupy okres Plzeň-sever; křiž. se silnicí II/180; nehoda; 2 havarovaná vozidla; probíhá vyšetřování nehody, nebezpečí; DN 2 x OA bez zranění, únik provozních kapalin nehlášen. Na místo hlídka PČR.',137.421632712423,87.0810898987257,'{accindet,personal_cars}'
10165,2016-07-04 19:25:00,'Od 4.7.2016 20:25 do 21:25; v ulici Tylova v obci Plzeň; Křižovatka s ul. Skvrňanská.; nehoda; 2 havarovaná vozidla; probíhá vyšetřování nehody; 2 x OA, bez zranění a úniku provozních kapalin.',137.498860801322,87.1014186675947,'{accindet,personal_cars}'
10166,2016-07-04 21:55:00,'Od 4.7.2016 22:55 do 23:55; na silnici 182 u obce Merklín okres Plzeň-jih; u rybníka u lihovaru.; nehoda; zvěř na vozovce; probíhá vyšetřování nehody; srážka OA se srnou, bez zranění osob a úniku provozních kapalin. Na místě PČR.',137.390998045752,87.3081705864332,'{accindet,personal_cars,animal_hit}'
10167,2016-07-05 10:55:00,'Od 5.7.2016 11:55 do 14:00; na silnici 605 u obce Bdeněves okres Plzeň-sever; nehoda; OA v příkopu, bez zranění, bez úniku PHM, zvýšená opatrnost, na místo policie a HZS',137.402205867975,87.0765847995514,'{accindet,personal_cars}'
10168,2016-07-05 13:20:00,'Od 5.7.2016 14:20 do 16:25; na silnici 180 u obce Kyšice okres Plzeň-město; nehoda; OA + MOTO, se zraněním, zvýšená opatrnost,',137.58366435689,87.1040630729014,'{accindet,injury,personal_cars}'
10169,2016-07-05 14:35:00,'Od 5.7.2016 15:35 do 17:40; na silnici 27 u obce Kralovice okres Plzeň-sever; nehoda; OA + MOTO, zvýšená opatrnost, ohrožení BESIP',137.589176890224,86.8479262511969,'{accindet,personal_cars}'
