ID,od,popis,x,y,ts_flags
1020,2013-08-09 19:50:00,'Od 9.8.2013 20:50 do 10.8.2013 02:00; na silnici 19 u obce Žákava okres Plzeň-jih; nehoda nákladního vozidla; uzavřeno, probíhají záchranné a vyprošťovací práce; dochází k vyproštování nákladního havarovaného vozidla, komunikace uzavřena',137.639628090231,87.2311504103814,{accindet}
1021,2013-08-10 04:30:00,'Od 10.8.2013 05:30 do 09:35; na silnici 178 u obce Řenče okres Plzeň-jih; vážná nehoda; probíhá vyšetřování nehody, nebezpečí; neprůjezdná komunikace; střet OA s chodcem se smrtelným zraněním.',137.530124801327,87.2781164197975,'{accindet,pedestrian_involvement,injury,death,personal_cars}'
1022,2013-08-10 10:00:00,'Od 10.8.2013 11:00 do 12:00; v ulici Klatovská třída v obci Plzeň; U strojní průmyslovky.; nehoda; 2 havarovaná vozidla; 2 x OA se zraněním, únik provozních kapalin nehlášen.',137.504019201323,87.1235888815695,'{accindet,injury,personal_cars}'
1023,2013-08-10 10:05:00,'Od 10.8.2013 11:05 do 12:05; v ulici Sukova v obci Plzeň; Křiž. s ul. Klatovská; nehoda; 2 havarovaná vozidla; 2 x OA bez zranění, únik provozních kapalin nehlášen.',137.507311645768,87.1189850559918,'{accindet,personal_cars}'
1024,2013-08-10 12:41:00,'D5, km 89, ve směru Rozvadov, nehoda, neprůjezdná zpevněná krajnice, Od 10.08.2013 13:41 Do 10.08.2013 15:00, dopravní nehoda 1OA na střeše.',137.442982401314,87.1417736875377,{accindet}
1025,2013-08-10 12:45:00,'Od 10.8.2013 13:45 do 14:45; D5 - 89km na trase Praha - Rozvadov; Exit 89 - Sulkov ve směru na Rozvadov.; nehoda; havarované vozidlo; havárie OA bez zranění, únik provozních kapalin nehlášen, vozidlo na střeše.',137.442690134648,87.1416890139665,'{accindet,personal_cars}'
1026,2013-08-10 13:20:00,'Od 10.8.2013 14:20 do 15:20; v ulici Koterovská v obci Plzeň; na kruhovém objezdu u Penny; nehoda; 2 havarovaná vozidla; 2 x OA bez zranění, únik provozních kapalin nehlášen, provoz není blokován.',137.52925013466,87.1155459538126,'{accindet,personal_cars}'
1027,2013-08-10 13:25:00,Od 10.8.2013 14:25 do 15:25; v ulici Folmavská v obci Plzeň; kruhový objezd u Area Bory; nehoda; 2 havarovaná vozidla; 2 x OA bez zranění a bez úniku provozních kapalin.,137.473473423541,87.1171885212886,'{accindet,personal_cars}'
1028,2013-08-10 16:10:00,'Od 10.8.2013 17:10 do 18:10; na silnici 20 u obce Starý Plzenec okres Plzeň-město; u Oc Olympia; nehoda; havarované vozidlo; Havárie OA bez zranění, bez úniku provozních kapalin.',137.552920179108,87.1472222046301,'{accindet,personal_cars}'
1029,2013-08-10 16:45:00,'Od 10.8.2013 17:45 do 18:45; na silnici 605 v obci Kozolupy okres Plzeň-sever; před odbočkou na Město Touškov; nehoda; havarované vozidlo; střet OA s chodcem se zraněním, únik provozních kapalin nehlášen.',137.422027379089,87.0813199876698,'{accindet,pedestrian_involvement,injury,personal_cars}'
