ID,od,popis,x,y,ts_flags
10260,2016-07-17 14:05:00,'Od 17.7.2016 15:05 do 19:35; na silnici 180 u obce Zruč-Senec okres Plzeň-sever; nehoda; 2 OA, se zraněním, na místo PČR',137.554082845774,87.0322324306039,'{accindet,injury,personal_cars}'
10261,2016-07-17 16:25:00,Od 17.7.2016 17:25 do 19:30; v ulici Náves v obci Kyšice okres Plzeň-město; nehoda; Střet 2x OA. PČR na místo.,137.589137068001,87.0922486204938,'{accindet,personal_cars}'
10262,2016-07-17 16:50:00,Od 17.7.2016 17:50 do 19:55; na silnici 231 u obce Hromnice okres Plzeň-sever; nehoda; 2 havarovaná vozidla; Střet 2xOA se zraněním. IZS a PČR na místo.,137.577028268,87.0054480694325,'{accindet,injury}'
10263,2016-07-17 16:55:00,Od 17.7.2016 17:55 do 20:00; na silnici 20 u obce Nezbavětice okres Plzeň-město; nehoda; OA do příkopu. PČR na místo.,137.576851201333,87.1942828368447,'{accindet,personal_cars}'
10264,2016-07-17 17:05:00,Od 17.7.2016 18:05 do 20:10; na silnici 26 v obci Plzeň; nehoda; Střet 2xOA- PČR na místo.,137.473148445763,87.1179388266595,{accindet}
10265,2016-07-17 21:25:00,'Od 17.7.2016 22:25 do 18.7.2016 00:30; na silnici 27 u obce Lužany okres Plzeň-jih; nehoda; střet OA se zvěří, bez zranění osob. PČR na místo.',137.464010667984,87.3278400862203,'{accindet,personal_cars,animal_hit}'
10266,2016-07-17 21:30:00,Od 17.7.2016 22:30 do 18.7.2016 00:35; v ulici Neumannova v obci Plzeň; nehoda; 2 havarovaná vozidla; 2 x OA bez zranění. PČR na místo.,137.528407467993,87.1168342678748,'{accindet,personal_cars}'
10267,2016-07-18 04:45:00,Od 18.7.2016 05:45 do 07:50; v ulici Klatovská třída v obci Plzeň; nehoda; 2 havarovaná vozidla; 2 x OA bez zranění. PČR na místo.,137.509029690213,87.1041125923506,'{accindet,personal_cars}'
10268,2016-07-18 04:45:00,Od 18.7.2016 05:45 do 07:50; v ulici Husova v obci Přeštice okres Plzeň-jih; nehoda; 2 havarovaná vozidla; 2 x OA bez zranění. PČR na místo.,137.479495823542,87.2881473170534,'{accindet,personal_cars}'
10269,2016-07-18 06:55:00,'Od 18.7.2016 07:55 do 10:00; v ulicích Částkova, Slovanská v obci Plzeň , délka 36m; nehoda; 2 havarovaná vozidla; probíhá vyšetřování nehody, nebezpečí; 2x OA bez zranění.',137.524888890215,87.1178497146965,'{accindet,personal_cars}'
