ID,od,popis,x,y,ts_flags
10300,2016-07-20 13:30:00,Od 20.7.2016 14:30 do 16:35; v ulici Vejprnická v obci Plzeň; nehoda; 2 havarovaná vozidla; 2 x OA bez zranění. PČR na místo.,137.485879467987,87.1042017272435,'{accindet,personal_cars}'
10301,2016-07-20 17:20:00,'Od 20.7.2016 18:20 do 20:25; v ulici Palackého náměstí v obci Plzeň; nehoda, silný provoz; NA x OA bez zranění. PČR na místo.',137.509032534657,87.0985969437808,'{accindet,personal_cars,trucks}'
10302,2016-07-20 23:30:00,'silnice I/26, ul. Rokycanská, Plzeň 4, Plzeň, omezení, stavební práce, Od 21.07.2016 0:30 Do 21.07.2016 04:15, Pozor!, V noci z 20.7. na 21.7.2016, ze dne 21.7 na 22.7 a z 22.7. na 23.7.2016, bude omezena doprava pod mostem Gambrinus v Plzni, na komunikaci I/26 ul. Rokycanská v době od 0,30 - 4,15 hod. Důvodem omezení je přestavba lešení a montáž odvodnění. Dle rozhodnutí, bude umožněn průjezd MHD.',137.528447290215,87.0987455172021,{accindet}
10303,2016-07-21 04:40:00,Od 21.7.2016 05:40 do 07:45; v ulici Revoluční v obci Stod okres Plzeň-jih; nehoda s únikem oleje; 2 havarovaná vozidla; probíhají odklízecí práce; 2 x OA bez zranění. Na místě HZS a PČR.,137.364140090192,87.2258114522769,'{accindet,personal_cars}'
10304,2016-07-21 14:25:00,'Od 21.7.2016 15:25 do 16:30; v ulici Železniční v obci Plzeň; nehoda; neprůjezdný pruh, 2 havarovaná vozidla; probíhá vyšetřování nehody, nebezpečí; 2x OA bez zranění.',137.520691912436,87.1051392852501,'{accindet,personal_cars}'
10305,2016-07-21 14:40:00,'Od 21.7.2016 15:40 do 16:45; v ulici Plzeňská v obci Chotěšov okres Plzeň-jih; nehoda; kluzká vozovka, rozlitá látka na vozovce; sjízdné se zvýšenou opatrností; havárie motocyklu bez zranění, HZS a PČR jedou na místo.',137.386128356862,87.2011726602819,{accindet}
10306,2016-07-21 15:15:00,'Od 21.7.2016 16:15 do 17:20; v ulicích Pod Všemi svatými, Malická v obci Plzeň , délka 45m; nehoda; 2 havarovaná vozidla; probíhají záchranné a vyprošťovací práce, nebezpečí; 2x OA se zraněním.',137.513858134658,87.0917059843293,'{accindet,injury,personal_cars}'
10307,2016-07-21 15:20:00,'Od 21.7.2016 16:20 do 17:25; v ulicích Borská, Němejcova v obci Plzeň , délka 47m; nehoda, tvoří se kolona vozidel; neprůjezdný pruh, 3 havarovaná vozidla; překážka na vozovce, průjezd se zvýšenou opatrností; 3x OA bez zranění.',137.504969956879,87.1080739994837,'{accindet,personal_cars}'
10308,2016-07-21 22:15:00,'Od 21.7.2016 23:15 do 22.7.2016 02:20; na silnici 230 u obce Přeštice okres Plzeň-jih; nehoda nákladního vozidla; havárie návěsu NA do příkopu mimo vozovku, bez zranění. Na místo PČR.',137.497243734655,87.2942739477232,'{accindet,trucks}'
10309,2016-07-21 23:30:00,'silnice I/26, ul. Rokycanská, Plzeň 4, Plzeň, omezení stavební práce , Od 22.07.2016 00:30 Do 22.07.2016 04:15, V noci z 20.7. na 21.7.2016, ze dne 21.7 na 22.7 a z 22.7. na 23.7.2016, bude omezena doprava pod mostem Gambrinus v Plzni, na komunikaci I/26 ul. Rokycanská v době od 0,30 - 4,15 hod. Důvodem omezení je přestavba lešení a montáž odvodnění. Dle rozhodnutí, bude umožněn průjezd MHD., ',137.528447290215,87.0987455172021,{accindet}
