ID,od,popis,x,y,ts_flags
10330,2016-07-24 13:30:00,'D5 - 103.6-105km na trase Praha - Rozvadov, nehoda, neprůjezdný pravý jízdní pruh, Od 24.07.2016 14:30 Do 24.07.2016 17:30, nehoda; překážka na vozovce, průjezd se zvýšenou opatrností; tvorba kolon vozidel; havárie OA se zraněním. Místo průjezdné pouze levým JP.',137.30582044574,87.1265962799391,'{accindet,injury,personal_cars}'
10331,2016-07-24 18:20:00,'Od 24.7.2016 19:20 do 21:25; na silnici 27 u obce Třemošná okres Plzeň-sever; nehoda; havarované vozidlo; probíhá vyšetřování nehody; Havárie OA mimo komunikaci, se zraněním osob. ZZS a PČR na místě.',137.518885690214,87.0102832774051,'{accindet,injury,personal_cars}'
10332,2016-07-25 03:45:00,Od 25.7.2016 04:45 do 05:45; v ulici Revoluční v obci Třemošná okres Plzeň-sever; křižovatka s ul. Plzeňská.; nehoda; 2 havarovaná vozidla; probíhá vyšetřování nehody; 2 x OA bez zranění. NA místě PČR.,137.523512179103,87.0302291115217,'{accindet,personal_cars,trucks}'
10333,2016-07-25 09:05:00,'Od 25.7.2016 10:05 do 11:10; na silnici 27 u obce Rybnice okres Plzeň-sever; směr Plzeň; nehoda; havarované vozidlo; překážka na vozovce, průjezd se zvýšenou opatrností; havárie OA do příkopu bez zranění.',137.512507734657,86.9146077659619,'{accindet,personal_cars}'
10334,2016-07-25 09:20:00,'Od 25.7.2016 10:20 do 11:25; v ulici Karlovarská v obci Plzeň; nehoda; 2 havarovaná vozidla; překážka na vozovce, průjezd se zvýšenou opatrností; 2x OA bez zranění.',137.494675201322,87.0723226608908,'{accindet,personal_cars}'
10335,2016-07-25 09:25:00,'Od 25.7.2016 10:25 do 11:30; v ulicích Rokycanská, Masarykova v obci Plzeň , délka 61m; nehoda, tvoří se kolona vozidel; neprůjezdný pruh, 2 havarovaná vozidla; probíhá vyšetřování nehody, nebezpečí; 2x OA bez zranění.',137.539029334661,87.0991593195145,'{accindet,personal_cars}'
10336,2016-07-25 10:05:00,'Od 25.7.2016 11:05 do 13:10; v ulici tř. 1. máje v obci Dobřany okres Plzeň-jih; nehoda; havarované vozidlo; probíhají záchranné a vyprošťovací práce, nebezpečí; OA x cyklista se zraněním.',137.450905601316,87.2020206447771,'{accindet,injury,personal_cars,cyclist}'
10337,2016-07-25 14:10:00,'Od 25.7.2016 15:10 do 16:15; na silnici 180 u obce Zbůch okres Plzeň-sever; nehoda; 2 havarovaná vozidla; překážka na vozovce, průjezd se zvýšenou opatrností; 2x OA bez zranění.',137.403231290198,87.1680193245961,'{accindet,personal_cars}'
10338,2016-07-25 14:50:00,Od 25.7.2016 15:50 do 16:55; na silnici 20 u obce Chocenice okres Plzeň-jih; směr Plzeň; nehoda; havarované vozidlo; zvěř na vozovce; OA x zvěř bez zranění.,137.603763201337,87.2927980059612,'{accindet,personal_cars,animal_hit}'
10339,2016-07-26 04:45:00,'Od 26.7.2016 05:45 do 06:50; na silnici 27 u obce Dobřany okres Plzeň-jih; - směr Plzeň; nehoda; srážka OA se zvěří, bez zranění osob. Na místo PČR.',137.484160712431,87.2093564672517,'{accindet,personal_cars,animal_hit}'
