ID,od,popis,x,y,ts_flags
10420,2016-08-03 15:15:00,'Od 3.8.2016 16:15 do 17:20; v ulici Zahradní v obci Plzeň; nehoda nákladního vozidla; - NA x OA, bez zranění, na místo PČR',137.521314134659,87.1145315633959,'{accindet,personal_cars,trucks}'
10421,2016-08-03 16:05:00,'Od 3.8.2016 17:05 do 18:10; v ulici Jablonského v obci Plzeň; nehoda; probíhají záchranné a vyprošťovací práce, nebezpečí; - OA x chodec, se zraněním, na místo PČR, ZZS',137.523321601326,87.110122811963,'{accindet,pedestrian_involvement,injury,personal_cars}'
10422,2016-08-03 23:10:00,'Od 4.8.2016 00:10 do 03:35; na silnici 20 u obce Chocenice okres Plzeň-jih; všechny nehody byly odstraněny, nejsou hlášeny žádné další problémy; havárie NA bez zranění.',137.605913601337,87.3021847843637,'{accindet,trucks}'
10423,2016-08-04 07:55:00,'Od 4.8.2016 08:55 do 11:00; v ulici Klatovská třída v obci Plzeň; nehoda; 2 havarovaná vozidla; překážka na vozovce, průjezd se zvýšenou opatrností; 2 x OA se zraněním. Na místě PČR,  HZS a ZZS.',137.508472890212,87.1078803375239,'{accindet,injury,personal_cars}'
10424,2016-08-04 10:15:00,Od 4.8.2016 11:15 do 13:20; v ulici Klatovská třída v obci Plzeň; nehoda; 2 havarovaná vozidla; probíhá vyšetřování nehody; 2 x OA bez zranění. Na místě PČR.,137.508479290212,87.1069989466632,'{accindet,personal_cars}'
10425,2016-08-04 12:40:00,'Od 4.8.2016 13:40 do 14:40; na silnici 20 v obci Chocenice okres Plzeň-jih , délka 1.6km; nehoda, tvoří se kolona vozidel v úseku 1 km; 2 havarovaná vozidla; probíhá vyšetřování nehody; 2 x OA bez zranění. Na místě PČR.',137.608082490226,87.3105702008261,'{accindet,personal_cars}'
10426,2016-08-04 16:00:00,Od 4.8.2016 17:00 do 19:05; v ulici Folmavská v obci Plzeň; nehoda; 2 havarovaná vozidla; probíhá vyšetřování nehody; 2 x OA bez zranění. Na místě PČR.,137.478403556875,87.1173249412311,'{accindet,personal_cars}'
10427,2016-08-04 16:45:00,'Od 4.8.2016 17:45 do 19:50; na silnici 2031 u obce Plzeň; nehoda; zvěř na vozovce; překážka na vozovce, průjezd se zvýšenou opatrností; střet OA se srnou, bez zranění osob. Na místě PČR.',137.450918401316,87.1055926524649,'{accindet,personal_cars,animal_hit}'
10428,2016-08-04 18:50:00,'Od 4.8.2016 19:50 do 21:55; v ulici Radčická v obci Plzeň; nehoda; DN, 2 OA, bez zranění, na místo PČR',137.507121779101,87.0981071988344,'{accindet,personal_cars}'
10429,2016-08-05 04:15:00,'Od 5.8.2016 05:15 do 07:20; na silnici v obci Kožlany okres Plzeň-sever; nehoda; DN, 1 OA, bez zranění, na místo PČR',137.630777601341,86.8290778887431,'{accindet,personal_cars}'
