ID,od,popis,x,y,ts_flags
10550,2016-08-20 15:25:00,'Od 20.8.2016 16:25 do 17:25; D5 - 105.9km na trase Rozvadov - Praha; směr Praha; nehoda; havárie OA, vozidlo mimo komunikaci',137.287598934626,87.1389958845098,'{accindet,personal_cars}'
10551,2016-08-20 16:45:00,'Od 20.8.2016 17:45 do 19:50; D5 - 105.9km na trase Rozvadov - Praha; nehoda; probíhá vyšetřování nehody, nebezpečí; havárie OA se zraněním',137.287581156848,87.1390090810652,'{accindet,injury,personal_cars}'
10552,2016-08-21 02:25:00,'Od 21.8.2016 03:25 do 05:30; v ulici Pražská v obci Plzeň; nehoda; probíhá vyšetřování nehody, nebezpečí; 2 x OA bez zranění.',137.515371379102,87.1001839066497,'{accindet,personal_cars}'
10553,2016-08-21 10:30:00,'Od 21.8.2016 11:30 do 12:30; na silnici 20 u obce Starý Plzenec okres Plzeň-město; nehoda; havarované vozidlo; překážka na vozovce, průjezd se zvýšenou opatrností; havárie OA bez zranění.',137.552731023552,87.1498709398324,'{accindet,personal_cars}'
10554,2016-08-21 16:00:00,Od 21.8.2016 17:00 do 18:00; v ulici nám. Osvobození v obci Kralovice okres Plzeň-sever; nehoda; 2 havarovaná vozidla; 2x OA bez zranění.,137.590215112446,86.8430840218061,'{accindet,personal_cars}'
10555,2016-08-21 20:05:00,'Od 21.8.2016 21:05 do 22:05; v ulici Koterovská v obci Plzeň; Křižovatka Plzenecká x Koterovská.; nehoda; 3 havarovaná vozidla; probíhá vyšetřování nehody; 3x OA s jedním LZ, únik provozních kapalin nehlášen.',137.524036267992,87.1093041766653,'{accindet,personal_cars}'
10556,2016-08-21 20:20:00,'Od 21.8.2016 21:20 do 22:20; v ulici Plzeňská v obci Chrást okres Plzeň-město; Hned za železničním přejezdem ve směru do Plzně.; nehoda; havarované vozidlo; Havárie OA do příkopu, bez zranění, únik provozních kapalin nehlášen. Na místo hlídka PČR.',137.593383823558,87.0513890882197,'{accindet,personal_cars}'
10557,2016-08-21 20:30:00,'Od 21.8.2016 21:30 do 22:30; na silnici 20 u obce Bezvěrov okres Plzeň-sever; nehoda; Srážka OA se srnou bez zranění osob, únik provozních kapalin nehlášen.',137.28232817907,86.823302492433,'{accindet,personal_cars,animal_hit}'
10558,2016-08-22 04:30:00,Od 22.8.2016 05:30 do 06:30; v ulici Americká v obci Plzeň; V ulici Americká u Willsonova mostu.; nehoda; 2 havarovaná vozidla; 2x OA bez zranění a bez úniku provozních kapalin. Místo je průjezdné.,137.514592712436,87.1042061289627,'{accindet,personal_cars}'
10559,2016-08-22 06:35:00,'Od 22.8.2016 07:35 do 08:40; na silnici 191 u obce Žinkovy okres Plzeň-jih; - směr Nepomuk; nehoda; - srážka OA se zvěří, na místo PČR',137.604637868004,87.3874500152421,'{accindet,personal_cars,animal_hit}'
