ID,od,popis,x,y,ts_flags
10600,2016-08-26 22:15:00,Od 26.8.2016 23:15 do 27.8.2016 00:15; na silnici 20 u obce Chotíkov okres Plzeň-sever; nehoda; havarované vozidlo; zvěř na vozovce; OA x zvěř.,137.462444801317,87.0408354890475,'{accindet,personal_cars,animal_hit}'
10601,2016-08-27 04:40:00,'Od 27.8.2016 05:40 do 06:40; na silnici 17727 u obce Kasejovice okres Plzeň-jih , délka 461m; nehoda; havarované vozidlo; havárie OA bez zranění.',137.77703609025,87.402252681201,'{accindet,personal_cars}'
10602,2016-08-27 04:45:00,Od 27.8.2016 05:45 do 06:45; na silnici v obci Líně okres Plzeň-sever; nehoda; havarované vozidlo; havárie OA bez zranění.,137.429627734646,87.1610098033279,'{accindet,personal_cars}'
10603,2016-08-27 07:25:00,Od 27.8.2016 08:25 do 10:30; v ulici Na Chmelnicích v obci Plzeň; nehoda; 3 havarovaná vozidla; probíhá vyšetřování nehody; 3 x OA se zraněním. ZZS a PČR na místě.,137.493931379099,87.0816986964994,'{accindet,injury,personal_cars}'
10604,2016-08-27 07:25:00,Od 27.8.2016 08:25 do 10:30; na silnici 2313 u obce Hromnice okres Plzeň-sever; nehoda; 3 havarovaná vozidla; probíhá vyšetřování nehody; 3 x OA se zraněním. ZZS a PČR na místě.,137.581841779112,86.9854995785679,'{accindet,injury,personal_cars}'
10605,2016-08-27 09:15:00,Od 27.8.2016 10:15 do 12:20; v ulici K Zelené louce v obci Plzeň; nehoda; 2 havarovaná vozidla; probíhá vyšetřování nehody; 2 x OA bez zranění. Na místě PČR.,137.480241779097,87.1418748557846,'{accindet,personal_cars}'
10606,2016-08-27 09:55:00,Od 27.8.2016 10:55 do 13:00; na silnici 20 v obci Kasejovice okres Plzeň-jih; nehoda; 2 havarovaná vozidla; probíhá vyšetřování nehody; 2 x OA bez zranění. Na místě PČR.,137.769405156915,87.4097996464779,'{accindet,personal_cars}'
10607,2016-08-27 10:25:00,Od 27.8.2016 11:25 do 13:30; na silnici 20153 v obci Ostrov u Bezdružic okres Plzeň-sever; nehoda; 2 havarovaná vozidla; probíhá vyšetřování nehody; 2 x OA bez zranění. Na místě PČR.,137.299396979072,86.9241584297729,'{accindet,personal_cars}'
10608,2016-08-27 10:30:00,Od 27.8.2016 11:30 do 13:35; v ulici Plaská v obci Plzeň; nehoda; 2 havarovaná vozidla; probíhá vyšetřování nehody; 2 x OA bez zranění. Na místě PČR.,137.518308267992,87.0572521535385,'{accindet,personal_cars}'
10609,2016-08-27 13:15:00,Od 27.8.2016 14:15 do 16:20; v ulici Rybova v obci Přeštice okres Plzeň-jih; nehoda; 3 havarovaná vozidla; probíhá vyšetřování nehody; 3 x OA bez zranění. Na místě PČR.,137.480529067986,87.2903636000148,'{accindet,personal_cars}'
