ID,od,popis,x,y,ts_flags
10630,2016-08-29 20:45:00,'Od 29.8.2016 21:45 do 23:40; na silnici u obce Hradiště okres Plzeň-jih; nehoda; OA x motocykl bez zranění, bez úniku PHM, zvýšená opatrnost',137.780254579139,87.4390200273404,'{accindet,personal_cars}'
10631,2016-08-30 01:15:00,'Od 30.8.2016 02:15 do 04:15; v ulici Lobezská v obci Plzeň; nehoda; havárie OA bez zranění, bez úniku PHM, zvýšená opatrnost',137.535629512438,87.1113441396802,'{accindet,personal_cars}'
10632,2016-08-30 03:40:00,'Od 30.8.2016 04:40 do 06:45; na silnici 193 u obce Úněšov okres Plzeň-sever; nehoda; OA x srna, zvýšená opatrnost, ohrožení BESIP',137.330244267965,86.968416520053,'{accindet,personal_cars,animal_hit}'
10633,2016-08-30 04:00:00,'Od 30.8.2016 05:00 do 07:05; v ulici Samaritská v obci Plzeň; nehoda; OA + cyklista, se zraněním na místo RZS a policie',137.514912001324,87.1202875883648,'{accindet,injury,personal_cars,cyclist}'
10634,2016-08-30 06:45:00,'Od 30.8.2016 07:45 do 09:50; v ulici Karlovarská v obci Plzeň; nehoda nákladního vozidla; probíhá vyšetřování nehody, nebezpečí; NA s OA bez zranění',137.507618845768,87.0864994786835,'{accindet,personal_cars,trucks}'
10635,2016-08-30 09:05:00,'Od 30.8.2016 10:05 do 12:10; na silnici 17712 u obce Blovice okres Plzeň-jih; nehoda nákladního vozidla; probíhá vyšetřování nehody, nebezpečí; OA s NA bez zranění osob',137.644106668009,87.253400759191,'{accindet,personal_cars,trucks}'
10636,2016-08-30 10:20:00,'Od 30.8.2016 11:20 do 13:25; na silnici 20312 u obce Hněvnice okres Plzeň-sever; nehoda; probíhá vyšetřování nehody, nebezpečí; OA se zraněním',137.315555556852,87.1261661905507,'{accindet,injury,personal_cars}'
10637,2016-08-30 14:00:00,'Od 30.8.2016 15:00 do 17:05; na silnici 203 u obce Přehýšov okres Plzeň-sever; nehoda; probíhá vyšetřování nehody, nebezpečí; OA bez zranění osob',137.334296179077,87.1355547714135,'{accindet,personal_cars}'
10638,2016-08-31 06:30:00,'Od 31.8.2016 07:30 do 08:35; v ulici Doudlevecká v obci Plzeň; nehoda autobusu; 2 havarovaná vozidla; probíhá vyšetřování nehody; autobus x OA, bez zranění, na místě PČR.',137.514372979102,87.1082929686942,'{accindet,personal_cars}'
10639,2016-08-31 06:40:00,'Od 31.8.2016 07:40 do 09:45; na silnici 230 v obci Horšice okres Plzeň-jih; nehoda; 2 havarovaná vozidla; probíhá vyšetřování nehody; 2 x OA se zraněním. Na místě PČR, ZZS, HZS',137.532756623549,87.3304875625199,'{accindet,injury,personal_cars}'
