ID,od,popis,x,y,ts_flags
10670,2016-09-05 13:45:00,'Od 5.9.2016 14:45 do 16:50; v ulici Skvrňanská v obci Plzeň; nehoda; 2 havarovaná vozidla; 2 x OA se zraněním, zvýšená opatranost, ohrožení BESIP.',137.502639645767,87.0996820705099,'{accindet,injury,personal_cars}'
10671,2016-09-05 15:50:00,'Od 5.9.2016 16:50 do 18:20; D5 - 96km na trase Praha - Rozvadov; všechny nehody byly odstraněny, nejsou hlášeny žádné další problémy; kusy pneu na dálnici, kamion odstavený u krajnice.',137.375338667972,87.1481897943584,{accindet}
10672,2016-09-05 18:15:00,'Od 5.9.2016 19:15 do 21:20; na silnici 182 u obce Zemětice okres Plzeň-jih; nehoda; OA v příkopu se zraněním, zvýšená opatrnost, na místo všechny složky IZS.',137.372800712416,87.2801707900997,'{accindet,injury,personal_cars}'
10673,2016-09-05 20:45:00,'Od 5.9.2016 21:45 do 23:50; na silnici 20 v obci Plzeň; Karlovarská, Rondel.; nehoda; 2 havarovaná vozidla; překážka na vozovce, průjezd se zvýšenou opatrností; DOD x OA, bez zranění a úniku PHM, překáží provozu.',137.511128890213,87.0919415309281,'{accindet,personal_cars}'
10674,2016-09-05 21:20:00,'Od 5.9.2016 22:20 do 6.9.2016 00:25; na silnici 19321 u obce Čerňovice okres Plzeň-sever; nehoda; zvěř na vozovce; překážka na vozovce, průjezd se zvýšenou opatrností; OA x divočák, bez zranění osob.',137.32091022352,87.0215383754345,'{accindet,personal_cars,animal_hit}'
10675,2016-09-05 23:25:00,'Od 6.9.2016 00:25 do 02:30; v ulici Plzeňská v obci Kaznějov okres Plzeň-sever; nehoda nákladního vozidla; neprůjezdný pruh, 2 havarovaná vozidla; probíhají záchranné a vyprošťovací práce; NA x OA  se zraněním dvou osob, Na místě PČR, HZS, ZZS a vrtulník LZS.',137.514474667991,86.9383780045991,'{accindet,injury,personal_cars,trucks}'
10676,2016-09-06 00:10:00,'Od 6.9.2016 01:10 do 03:15; v ulici Sirková v obci Plzeň; nehoda; havarované vozidlo; překážka na vozovce, průjezd se zvýšenou opatrností; havárie OA bez zranění, překáží provozu.',137.518729245769,87.1015342186282,'{accindet,personal_cars}'
10677,2016-09-06 06:40:00,Od 6.9.2016 07:40 do 08:40; v ulici Olšová v obci Plzeň; nehoda; 2 havarovaná vozidla; 2x OA bez zranění.,137.523342934659,87.1200961709028,'{accindet,personal_cars}'
10678,2016-09-06 07:40:00,'Od 6.9.2016 08:40 do 10:40; v ulici Vejprnická v obci Plzeň; nehoda autobusu; 2 havarovaná vozidla; probíhají záchranné a vyprošťovací práce, nebezpečí; OA x BUS se zraněním.',137.48811449021,87.1035403648025,'{accindet,injury,personal_cars}'
10679,2016-09-06 08:20:00,'Od 6.9.2016 09:20 do 10:20; v ulici Masarykova v obci Plzeň; nehoda; 2 havarovaná vozidla; překážka na vozovce, průjezd se zvýšenou opatrností; 2x OA bez zranění.',137.541022579106,87.0924610505933,'{accindet,personal_cars}'
