ID,od,popis,x,y,ts_flags
10730,2016-09-12 16:50:00,'Od 12.9.2016 17:50 do 18:55; v ulici Klatovská třída v obci Plzeň; nehoda; neprůjezdný pruh, 3 havarovaná vozidla; 3 x OA bez zranění, na místo PČR.',137.507817956879,87.1146844933366,'{accindet,personal_cars}'
10731,2016-09-12 17:45:00,'Od 12.9.2016 18:45 do 20:50; na silnici 18019 u obce Plzeň; směr Letkov; nehoda; probíhají záchranné a vyprošťovací práce, nebezpečí; 2 havarovaná vozidla; 2 x OA se zraněním, na místo PČR, ZZS, HZS.',137.553757867997,87.1172996375585,'{accindet,injury,personal_cars}'
10732,2016-09-12 23:00:00,'Od 13.9.2016 00:00 do 01:05; na silnici 605 u obce Bdeněves okres Plzeň-sever; - směr Stříbro; nehoda nákladního vozidla; - srážka NA se zvěří, na místo PČR',137.39529742353,87.0774512790028,'{accindet,animal_hit,trucks}'
10733,2016-09-13 05:10:00,'Od 13.9.2016 06:10 do 07:15; v ulici Otýlie Beníškové v obci Plzeň; nehoda; probíhají záchranné a vyprošťovací práce, nebezpečí; - OA x cyklista, se zraněním, na místo PČR, ZZS',137.512202667991,87.0920482970348,'{accindet,injury,personal_cars,cyclist}'
10734,2016-09-13 06:30:00,Od 13.9.2016 07:30 do 09:35; na silnici v obci Všeruby okres Plzeň-sever; u školy; nehoda; 2 havarovaná vozidla; 2 x OA bez zranění.,137.408172090199,86.9955094913219,'{accindet,personal_cars}'
10735,2016-09-13 07:00:00,Od 13.9.2016 08:00 do 10:05; v ulici Komenského v obci Chlumčany okres Plzeň-jih; nehoda; 2 havarovaná vozidla; probíhá vyšetřování nehody; 2 x OA bez zranění. NA místě PČR.,137.471741867985,87.2287439379768,'{accindet,personal_cars,trucks}'
10736,2016-09-13 07:35:00,Od 13.9.2016 08:35 do 10:40; v ulici Průmyslová v obci Plzeň; nehoda; 2 havarovaná vozidla; probíhá vyšetřování nehody; 2 x OA bez zranění. NA místě PČR.,137.51924124577,87.1243709974407,'{accindet,personal_cars,trucks}'
10737,2016-09-13 13:30:00,'Od 13.9.2016 14:30 do 16:35; v ulici Jungmannova v obci Plzeň; nehoda; 2 havarovaná vozidla; překážka na vozovce, průjezd se zvýšenou opatrností; 2 x OA bez zranění.',137.511579734657,87.1033532890815,'{accindet,personal_cars}'
10738,2016-09-13 13:50:00,'Od 13.9.2016 14:50 do 16:55; v ulici U Trati v obci Plzeň; nehoda; 2 havarovaná vozidla; překážka na vozovce, průjezd se zvýšenou opatrností; 2 x OA se zraněním. Na místě PČR a ZZS.',137.508558223546,87.108177432288,'{accindet,injury,personal_cars}'
10739,2016-09-13 14:50:00,'Od 13.9.2016 15:50 do 17:55; v ulici Borská v obci Plzeň; nehoda; havarované vozidlo; překážka na vozovce, průjezd se zvýšenou opatrností; OA x překážka, bez zranění osob a úniku PHM.',137.507739023546,87.1080420893227,'{accindet,personal_cars}'
