ID,od,popis,x,y,ts_flags
10750,2016-09-14 13:55:00,Od 14.9.2016 14:55 do 17:00; v ulici Hlávkova v obci Přeštice okres Plzeň-jih; nehoda; 2 havarovaná vozidla; 2x OA.,137.474052267985,87.2978671365291,'{accindet,personal_cars}'
10751,2016-09-14 14:50:00,'Od 14.9.2016 15:50 do 17:55; v ulici náměstí Milady Horákové v obci Plzeň; nehoda; 2 havarovaná vozidla; probíhají záchranné a vyprošťovací práce, nebezpečí; 2x OA se zraněním.',137.529165512438,87.1256832983372,'{accindet,injury,personal_cars}'
10752,2016-09-14 14:55:00,'Od 14.9.2016 15:55 do 18:00; na silnici 19 v obci Nezvěstice okres Plzeň-město; nehoda; 3 havarovaná vozidla; probíhají záchranné a vyprošťovací práce, nebezpečí; 3x OA se zraněním.',137.614075023561,87.2175357274104,'{accindet,injury,personal_cars}'
10753,2016-09-14 15:15:00,Od 14.9.2016 16:15 do 18:20; na silnici 20 v obci Chválenice okres Plzeň-město; nehoda; 2 havarovaná vozidla; 2x OA bez zranění.,137.582901334667,87.2149430549616,'{accindet,personal_cars}'
10754,2016-09-15 06:00:00,Od 15.9.2016 07:00 do 09:05; v ulici Karlovarská v obci Plzeň; nehoda; 2 havarovaná vozidla; probíhá vyšetřování nehody; 2 x OA bez zranění. NA místě PČR.,137.505656179101,87.084285734358,'{accindet,personal_cars,trucks}'
10755,2016-09-15 06:30:00,'Od 15.9.2016 07:30 do 08:30; v ulici Rokycanská v obci Plzeň; Křižovatka ul. Na Terasách x Rokycanská.; nehoda; 2 havarovaná vozidla; probíhá vyšetřování nehody, nebezpečí; 2 x OA se zraněním jedné osoby, únik provozních kapalin.',137.544851201329,87.099777815927,'{accindet,injury,personal_cars}'
10756,2016-09-15 07:15:00,Od 15.9.2016 08:15 do 09:15; v ulici Vondruškova v obci Plzeň; Křižovatka ulic Vondruškova x Kaznějovská.; nehoda; 2 havarovaná vozidla; probíhá vyšetřování nehody; 2 x OA bez zranění a bez úniku provozních kapalin. Místo je průjezdné.,137.510180979102,87.0676241146241,'{accindet,personal_cars}'
10757,2016-09-15 08:30:00,'Od 15.9.2016 09:30 do 10:30; v ulici Lidická v obci Plzeň; Křižovatka s ulicí Karlovarská ve směru od Fakultní nemocnice.; nehoda; 3 havarovaná vozidla; probíhá vyšetřování nehody, nebezpečí; 2 x OA x NA bez zranění osob, únik provozních kapalin nehlášen. Jedno vozidlo na tramvajovém pásu.',137.506909156879,87.0855065525046,'{accindet,personal_cars,trucks}'
10758,2016-09-15 08:35:00,Od 15.9.2016 09:35 do 10:35; v ulici Veleslavínova v obci Plzeň; Křižovatka s ulicí Rosseweltova.; nehoda; 2 havarovaná vozidla; probíhá vyšetřování nehody; 2 x OA bez zranění a bez úniku provozních kapalin.,137.513867379102,87.0981611260261,'{accindet,personal_cars}'
10759,2016-09-15 10:10:00,Od 15.9.2016 11:10 do 12:10; v ulici Karlovarská v obci Plzeň; U BČS Shell.; nehoda; 2 havarovaná vozidla; 2 x OA bez zranění a bez úniku provozních kapalin.,137.508773690213,87.0877950984826,'{accindet,personal_cars}'
