ID,od,popis,x,y,ts_flags
10790,2016-09-17 08:25:00,'Od 17.9.2016 09:25 do 11:30; na silnici 27 u obce Plasy okres Plzeň-sever; nehoda; náraz OA do stromu, se zraněním, zvýšená opatrnost, ohrožení BESIP.',137.524002134659,86.879410450303,'{accindet,injury,personal_cars}'
10791,2016-09-17 08:55:00,'Od 17.9.2016 09:55 do 12:00; v ulici Koterovská v obci Plzeň; u BČS Schell; nehoda; 2 havarovaná vozidla; 2 x OA bez zranění, překáží provozu, zvýšená opatrnost.',137.52630044577,87.1117413402417,'{accindet,personal_cars}'
10792,2016-09-17 09:05:00,'Od 17.9.2016 10:05 do 12:10; v ulici U Prazdroje v obci Plzeň; nehoda; 2 havarovaná vozidla; 2 x OA bez zranění, zvýšená opatrnost, ohoržení BESIP.',137.518294045769,87.1012304839477,'{accindet,personal_cars}'
10793,2016-09-17 09:35:00,'Od 17.9.2016 10:35 do 12:40; D5 - 76.9km na trase Rozvadov - Praha; nehoda; havárie sanitky se zraněním, překáží provozu.',137.539575467995,87.1724991328449,'{accindet,injury}'
10794,2016-09-17 09:50:00,'Od 17.9.2016 10:50 do 13:00; na silnici u obce Manětín okres Plzeň-sever; nehoda; Pozor! Olej na vozovce; havárie OA bez zranění, na místo PČR.',137.453127823538,86.7717419319543,'{accindet,personal_cars}'
10795,2016-09-17 09:55:00,'Od 17.9.2016 10:55 do 13:00; v ulici Rokycanská v obci Plzeň; u Pietasu; nehoda; 2 havarovaná vozidla; 2 x OA bez zranění, na místo PČR.',137.53834382355,87.0993133940241,'{accindet,personal_cars}'
10796,2016-09-17 10:00:00,'Od 17.9.2016 11:00 do 14:05; v ulici K Rybníčku v obci Horní Bříza okres Plzeň-sever; nehoda nákladního vozidla; 2 havarovaná vozidla; NA x OA bez zranění, na místo PČR.',137.504285156879,86.9938962546715,'{accindet,personal_cars,trucks}'
10797,2016-09-17 12:20:00,'Od 17.9.2016 13:20 do 15:25; v ulici Guldenerova v obci Plzeň; nehoda; 2 havarovaná vozidla; 2 x OA bez zranění, bez úniku PHM, zvýšená opatrnost, překáží provozu.',137.523629512437,87.1056927888792,'{accindet,personal_cars}'
10798,2016-09-17 12:40:00,'Od 17.9.2016 13:40 do 15:45; na silnici 187 u obce Neurazy okres Plzeň-jih; nehoda; převrácené vozidlo; OA na střeše, bez zranění. Na místo HZS a policie, zvýšená opatrnost, ohrožení BESIP.',137.618081423561,87.4335759808914,'{accindet,personal_cars}'
10799,2016-09-17 13:05:00,'Od 17.9.2016 14:05 do 16:10; na silnici v obci Nepomuk okres Plzeň-jih; nehoda; 2 havarovaná vozidla; 2 x OA bez zranění, bez úniku PHM, zvýšená opatrnost, ohrožení BESIP. Na místo HZS a PČR.',137.657110045789,87.3904261993153,'{accindet,personal_cars}'
