ID,od,popis,x,y,ts_flags
1090,2013-08-20 04:35:00,'Od 20.8.2013 05:35 do 07:10; na silnici 605 u obce Úlice okres Plzeň-sever; ve směru na Plzeň; nehoda odstraněna; provoz obnoven; sražený divočák, OA odstaveno v pravém jízdním pruhu',137.328300090187,87.0828623286187,'{accindet,personal_cars,animal_hit}'
1091,2013-08-20 04:45:00,'Od 20.8.2013 05:45 do 06:05; na silnici v obci Losiná okres Plzeň-město; všechny nehody byly odstraněny, nejsou hlášeny žádné další problémy; kamion v příkopu, bez zranění a úniku PK, částečně zasahuje do pravého jízdního pruhu ve směru na Plzeň',137.563773867998,87.1797247249503,{accindet}
1092,2013-08-20 04:50:00,'Od 20.8.2013 05:50 do 08:55; na silnici 20 u obce Chválenice okres Plzeň-město; před obcí ve směru na Plzeň; nehoda nákladního vozidla; kamion v příkopu, bez zranění a úniku PK, částečně zasahuje do pravého  jízdního  pruhu',137.584514134668,87.2215787717241,{accindet}
1093,2013-08-20 06:45:00,'Od 20.8.2013 07:45 do 10:50; v ulici K Sinoru v obci Plzeň; nehoda nákladního vozidla; dopravní nehoda OA s NA bez zranění , průjezdné s opatrností',137.470035912429,87.169695449917,'{accindet,personal_cars,trucks}'
1094,2013-08-20 09:11:00,'silnice I/20, Chválenice, okr. Plzeň-město, nehoda, Od 20.08.2013 10:11 Do 20.08.2013 11:11',137.584147912445,87.2205960392107,{accindet}
1095,2013-08-20 09:45:00,'Od 20.8.2013 10:45 do 15:15; na silnici 20 u obce Chválenice okres Plzeň-město; - pro nákladní vozidla uzavřeno, pro osobní vozidla objíždka řízena PČR; nehoda odstraněna; provoz obnoven; - provádí se vyprošťování havarovaného kamionu,komunikace uzavřena na cca 90 minut',137.585208890223,87.2234212092615,{accindet}
1096,2013-08-20 11:50:00,'Od 20.8.2013 12:50 do 15:30; na silnici 20 u obce Nezbavětice okres Plzeň-město; nehoda odstraněna; provoz obnoven; DN  3x OA bez zranění, ve směru z Losiné na Chválenice.',137.576609423555,87.1978453994729,'{accindet,personal_cars}'
1097,2013-08-20 16:05:00,'Od 20.8.2013 17:05 do 20:05; v ulici Stará cesta v obci Zruč-Senec okres Plzeň-sever; všechny nehody byly odstraněny, nejsou hlášeny žádné další problémy; dopravní nehoda OA s motocyklem se zraněním, průjezdné s opatrností',137.543473779106,87.0413257598858,'{accindet,injury,personal_cars}'
1098,2013-08-21 05:45:00,'Od 21.8.2013 06:45 do 08:50; v ulici Karlovarská v obci Plzeň; nehoda; dopravní nehoda 2 x OA bez zranění, průjezdné s opatrností',137.511172979102,87.0944070030434,'{accindet,personal_cars}'
1099,2013-08-21 07:45:00,'Od 21.8.2013 08:45 do 09:50; v ulici Sirková v obci Plzeň; před zastávkou tramvají.; nehoda; jízdní pruh uzavřen; probíhá vyšetřování nehody; pád cyklisty u kola, blokovánpravý jízdní pruh',137.519034312436,87.1019689083713,'{accindet,cyclist}'
