ID,od,popis,x,y,ts_flags
10970,2016-10-06 11:15:00,'Od 6.10.2016 12:15 do 14:20; na silnici u obce Obora okres Plzeň-sever; nehoda; převrácené vozidlo; OA na střeše se zraněním, zvýšená opattnost, na místo všechny složky IZS',137.531865601327,86.9585979294659,'{accindet,injury,personal_cars}'
10971,2016-10-06 11:50:00,'Od 6.10.2016 12:50 do 14:55; na silnici 27 u obce Plasy okres Plzeň-sever; uzavřeno, probíhají záchranné a vyprošťovací práce; vážná nehoda; 2xOA se zraněním, zvýšená opatrnost, překáží provozu, na místo všechny složky IZS, komunikace uzavřena',137.522301156881,86.9069187285024,'{accindet,injury}'
10972,2016-10-06 12:20:00,'Od 6.10.2016 13:20 do 15:25; na silnici 27 u obce Plasy okres Plzeň-sever; nehoda; uzavřeno, probíhají záchranné a vyprošťovací práce; 2xOA se zraněním, zvýšená opatrnost, na místo všechny složky IZS',137.520556801325,86.9090934625854,'{accindet,injury}'
10973,2016-10-06 12:30:00,'Od 6.10.2016 13:30 do 15:35; v ulici Hlavní v obci Tlučná okres Plzeň-sever; nehoda; 3xOA se zraněním, zvýšená opatrnost,ohrožení BESIP',137.408585245754,87.1273200542623,'{accindet,injury}'
10974,2016-10-06 14:45:00,'Od 6.10.2016 15:45 do 17:50; v ulici Hlavní v obci Tlučná okres Plzeň-sever; nehoda; 2xOA, zvýšená opatrnost, na místě kyvadlová doprava',137.409117867976,87.1267579750537,{accindet}
10975,2016-10-06 15:10:00,'Od 6.10.2016 16:10 do 18:15; v ulici Radčická v obci Plzeň; nehoda; bus x OA bez zraněné, překáží provozu, zvýšená opatrnost',137.505472712434,87.0974985881794,'{accindet,personal_cars}'
10976,2016-10-06 15:10:00,'Od 6.10.2016 16:10 do 18:15; na silnici 203 u obce Blatnice okres Plzeň-sever; nehoda; OA x DZ bez zranění, bez úniku PHM, průjezdné',137.368436623526,87.1344824713081,'{accindet,personal_cars}'
10977,2016-10-06 20:30:00,'Od 6.10.2016 21:30 do 23:35; v ulicích Rokycanská, Hřbitovní v obci Plzeň , délka 55m; nehoda; 2 havarovaná vozidla; probíhají záchranné a vyprošťovací práce, nebezpečí; 2x OA se zraněním.',137.549496179107,87.100274148613,'{accindet,injury,personal_cars}'
10978,2016-10-06 20:45:00,'Od 6.10.2016 21:45 do 23:50; na silnici 27 u obce Plzeň; nehoda; havarované vozidlo; překážka na vozovce, průjezd se zvýšenou opatrností; havárie OA bez zranění.',137.520233956881,87.0405281034598,'{accindet,personal_cars}'
10979,2016-10-06 23:55:00,'Od 7.10.2016 00:55 do 03:00; v ulici Sukova v obci Plzeň , délka 146m; nehoda; havarované vozidlo; překážka na vozovce, průjezd se zvýšenou opatrností; havárie OA bez zranění.',137.499246934656,87.1192941902835,'{accindet,personal_cars}'
