ID,od,popis,x,y,ts_flags
10980,2016-10-07 00:20:00,'Od 7.10.2016 01:20 do 03:25; v ulicích Kalikova, Přemyslova v obci Plzeň , délka 38m; nehoda; havarované vozidlo; probíhá vyšetřování nehody; havárie OA bez zranění.',137.50459306799,87.0987433161174,'{accindet,personal_cars}'
10981,2016-10-07 04:40:00,'Od 7.10.2016 05:40 do 07:45; na silnici 20 u obce Klášter okres Plzeň-jih; nehoda; havarované vozidlo; probíhají záchranné a vyprošťovací práce, nebezpečí; havárie OA se zraněním.',137.648576712454,87.3830253860905,'{accindet,injury,personal_cars}'
10982,2016-10-07 05:55:00,'Od 7.10.2016 06:55 do 09:00; na silnici 182 u obce Zemětice okres Plzeň-jih; nehoda; havarované vozidlo; probíhají záchranné a vyprošťovací práce, nebezpečí; OA x chodec se zraněním.',137.377152712416,87.283488546775,'{accindet,pedestrian_involvement,injury,personal_cars}'
10983,2016-10-07 09:50:00,'Od 7.10.2016 10:50 do 13:00; na silnici 27 u obce Horní Lukavice okres Plzeň-jih; nehoda; probíhá vyšetřování nehody, nebezpečí; havárie OA bez zranění, automobil v příkopu.',137.475644445763,87.2568090568747,'{accindet,personal_cars}'
10984,2016-10-07 09:55:00,'Od 7.10.2016 10:55 do 14:55; v ulici Masarykova v obci Plzeň; na zastávce MHD; nehoda; probíhají záchranné a vyprošťovací práce, nebezpečí; střet OA s chodcem se zraněním.',137.544179201329,87.0879789264418,'{accindet,pedestrian_involvement,injury,personal_cars}'
10985,2016-10-07 13:25:00,'Od 7.10.2016 14:25 do 16:40; na silnici 605 u obce Kozolupy okres Plzeň-sever; nehoda; probíhá vyšetřování nehody, nebezpečí; havárie OA bez zranění.',137.434010312424,87.0838608082357,'{accindet,personal_cars}'
10986,2016-10-07 13:50:00,'Od 7.10.2016 14:50 do 16:55; v ulici Na Strži v obci Horní Bříza okres Plzeň-sever; nehoda; probíhá vyšetřování nehody, nebezpečí; 2 x OA bez zranění.',137.502339556878,86.9963695701995,'{accindet,personal_cars}'
10987,2016-10-07 13:50:00,'Od 7.10.2016 14:50 do 16:55; v ulici Karlovarská v obci Plzeň; před BČS Shell; nehoda; probíhá vyšetřování nehody, nebezpečí; neprůjezdný levý jízdní pruh; 3 x OA bez zranění.',137.50871466799,87.0877345562018,'{accindet,personal_cars}'
10988,2016-10-07 15:00:00,'Od 7.10.2016 16:00 do 18:45; v ulici Solní v obci Plzeň; nehoda; probíhá vyšetřování nehody, nebezpečí; 2 x OA bez zranění.',137.511745423546,87.0989138999131,'{accindet,personal_cars}'
10989,2016-10-07 15:45:00,'Od 7.10.2016 16:45 do 19:15; v ulici Železniční v obci Nýřany okres Plzeň-sever; nehoda; probíhá vyšetřování nehody, nebezpečí; požár vozidla; havárie OA do sloupu, se zraněním.',137.388222579085,87.1393422930091,'{accindet,injury,personal_cars}'
