ID,od,popis,x,y,ts_flags
110,2013-04-18 20:00:00,'Od 18.4.2013 21:00 do 22:05; v ulici Studentská v obci Plzeň; před světelnou křiž. ve směru z města; nehoda; 2 x OA bez zranění, bez úniku PK, místo průjezdné, vozidla odstavena na zastávce MHD.',137.502138312434,87.0685898444578,'{accindet,personal_cars}'
111,2013-04-18 20:55:00,'Od 18.4.2013 21:55 do 23:00; na silnici 27 u obce Dobřany okres Plzeň-jih; před odbočkou na obec Dolní Lukavice ve směru na Přeštice; nehoda; srážka se zvěří, vozidlo odstaveno na pravé krajnici.',137.484082490209,87.2099572154268,'{accindet,animal_hit}'
112,2013-04-19 05:00:00,Od 19.4.2013 06:00 do 07:05; na silnici 178 u obce Blovice okres Plzeň-jih; před viaduktem ve sěmru od Seče; nehoda; střet se zvěří.,137.618951823561,87.2777412940142,'{accindet,animal_hit}'
113,2013-04-19 05:25:00,'Od 19.4.2013 06:25 do 08:25; na silnici 18618 u obce Nekvasovy okres Plzeň-jih; nehoda; probíhají záchranné a vyprošťovací práce, nebezpečí; havárie OA se zraněním a únikem pohonných hmot, na místo ZZS a HZS.',137.693915734683,87.441078078532,'{accindet,injury,personal_cars}'
114,2013-04-19 06:00:00,Od 19.4.2013 07:00 do 09:05; na silnici 231 u obce Hromnice okres Plzeň-sever; v křižovatce Nynice Žichlice.; nehoda; havarované vozidlo; havárie OA do příkopu.,137.577019023555,87.0054491719011,'{accindet,personal_cars}'
115,2013-04-19 06:55:00,Od 19.4.2013 07:55 do 12:00; v ulici Slovanská v obci Plzeň; nehoda autobusu; jízdní pruh uzavřen; OA x tramvají bez zranění.,137.524684801326,87.1180807454047,'{accindet,personal_cars}'
116,2013-04-19 07:00:00,'Od 19.4.2013 08:00 do 10:05; v ulici náměstí Milady Horákové v obci Plzeň; nehoda; 2 havarovaná vozidla; probíhá vyšetřování nehody; 2x OA bez zranění,  blokují provoz.',137.528504179104,87.1246735005074,'{accindet,personal_cars}'
117,2013-04-19 11:30:00,Od 19.4.2013 12:30 do 15:35; v ulici Tomanova v obci Plzeň; nehoda nákladního vozidla; 2 havarovaná vozidla; NA x OA bez zranení.,137.503551290212,87.112934024448,'{accindet,personal_cars,trucks}'
118,2013-04-19 11:30:00,Od 19.4.2013 12:30 do 14:55; na silnici 27 v obci Plzeň; na kruhovém objezdu.; nehoda; 2 havarovaná vozidla; probíhá vyšetřování nehody; 2 x OA bez zranění.,137.499067023545,87.1195516174739,'{accindet,personal_cars}'
119,2013-04-19 13:55:00,Od 19.4.2013 14:55 do 17:10; v ulici Brněnská v obci Plzeň; nehoda; 2 havarovaná vozidla; probíhá vyšetřování nehody; 2 x OA bez zranění.,137.492880356877,87.0847029512748,'{accindet,personal_cars}'
