ID,od,popis,x,y,ts_flags
11000,2016-10-08 16:55:00,'Od 8.10.2016 17:55 do 19:00; v ulici U Seřadiště v obci Plzeň; nehoda; - 2 x OA, bez zranění, na místo PČR',137.540992712439,87.1351797437733,'{accindet,personal_cars}'
11001,2016-10-08 17:20:00,'Od 8.10.2016 18:20 do 19:25; na silnici 18054 u obce Všeruby okres Plzeň-sever; nehoda; neprůjezdný pruh, 2 havarovaná vozidla; - OA x traktor, bez zranění, na místo PČR',137.342164623523,86.9907192597218,'{accindet,personal_cars}'
11002,2016-10-08 22:50:00,'Od 8.10.2016 23:50 do 9.10.2016 00:55; v ulici Jateční v obci Plzeň; nehoda; havárie OA bez zranění, únik provozních kapalin, na místo PČR a HZS.',137.533178312438,87.0879062759468,'{accindet,personal_cars}'
11003,2016-10-09 08:30:00,Od 9.10.2016 09:30 do 10:30; na silnici 20 v obci Plzeň; Na kruhovém objezdu na výjezdu ve směru ul. Karlovarská.; nehoda; 2 havarovaná vozidla; probíhá vyšetřování nehody; 2x OA bez zranění a bez úniku provozních kapalin. Místo je průjezdné.,137.511917512435,87.091480342921,'{accindet,personal_cars}'
11004,2016-10-09 09:20:00,'Od 9.10.2016 10:20 do 11:20; na silnici 20 u obce Plzeň; sjezd z D-5 ve směru na Losinou.; nehoda; havarované vozidlo; probíhá vyšetřování nehody; Havárie OA do svodidel, bez zranění, únik provozních kapalin. Na místo DI PČR.',137.553128534663,87.16428659693,'{accindet,personal_cars}'
11005,2016-10-09 10:00:00,Od 9.10.2016 11:00 do 12:00; v ulici Francouzská třída v obci Plzeň; U lékárny Devětsil u Galerie Dvořák v Plzni na Francouzské třídě.; nehoda; 2 havarovaná vozidla; probíhá vyšetřování nehody; 2x OA bez zranění a bez úniku provozních kapalin. Místo je průjezdné.,137.529575823549,87.1175669757553,'{accindet,personal_cars}'
11006,2016-10-09 12:40:00,'Od 9.10.2016 13:40 do 14:40; na silnici 605 u obce Vochov okres Plzeň-sever; Před odbočkou na obec Vochov ze silnice II/605.; nehoda; 2 havarovaná vozidla; probíhá vyšetřování nehody; 2x OA bez zranění , únik provozních kapalin nehlášen.',137.442061512425,87.0858378968861,'{accindet,personal_cars}'
11007,2016-10-09 16:25:00,Od 9.10.2016 17:25 do 18:25; v ulici Hřbitovní v obci Plzeň; Před restaurací Havránek.; nehoda; 2 havarovaná vozidla; 2x OA bez zranění a bez úniku provozních kapalin.,137.550177423552,87.0959170484832,'{accindet,personal_cars}'
11008,2016-10-09 17:20:00,'Od 9.10.2016 18:20 do 21:20; na silnici 19321 u obce Pňovany okres Plzeň-sever; Asi 400 m za obcí Pňovany ve směru na Čerňovice.; nehoda; havarované vozidlo; uzavřeno, probíhají záchranné a vyprošťovací práce; Havárie OA bez zranění, únik provozních kapalin nehlášen, vozidlo mimo vozovku na střeše. Na místě hlídky PČR, budou provádět odklon dopravy v obci Pňovany a v obci Čerňovice.',137.32117262352,87.0658291541354,'{accindet,personal_cars}'
11009,2016-10-09 20:20:00,Od 9.10.2016 21:20 do 22:20; v ulici Jateční v obci Plzeň; pod železničním viaduktem.; nehoda; 2 havarovaná vozidla; probíhá vyšetřování nehody; 2 x OA bez zranění a úniku provozních kapalin. Na místě PČR.,137.529462045771,87.0771881437826,'{accindet,personal_cars}'
