ID,od,popis,x,y,ts_flags
11030,2016-10-12 05:50:00,'Od 12.10.2016 06:50 do 07:55; v ulici Obchodní v obci Plzeň , délka 36m; nehoda; neprůjezdný pruh, 3 havarovaná vozidla; překážka na vozovce, průjezd se zvýšenou opatrností; 3x OA bez zranění.',137.472739556874,87.1180708441092,'{accindet,personal_cars}'
11031,2016-10-12 07:25:00,'Od 12.10.2016 08:25 do 10:30; v ulici Plzeňská v obci Líně okres Plzeň-sever; odbočka na Tlučnou.; nehoda; 2 havarovaná vozidla; překážka na vozovce, průjezd se zvýšenou opatrností; 2 x OA bez zranění.',137.426549334646,87.1579636670106,'{accindet,personal_cars}'
11032,2016-10-12 12:20:00,Od 12.10.2016 13:20 do 13.10.2016 13:25; v ulici Klatovská třída v obci Plzeň; křižovatka s ul.  Edvarda Beneše.; nehoda s únikem paliva; očekávejte kluzkou vozovku; probíhají odklízecí práce; nafta na vozovce.,137.508146490212,87.1100710974702,{accindet}
11033,2016-10-12 13:15:00,'Od 12.10.2016 14:15 do 17:20; na silnici 18025 u obce Štěnovice okres Plzeň-jih; nehoda 2 nákladních vozidel; překážka na vozovce, průjezd se zvýšenou opatrností; 2 x NA, bez zranění  a úniku PHM.',137.540071112439,87.1807983151199,{accindet}
11034,2016-10-12 13:25:00,'Od 12.10.2016 14:25 do 16:30; v ulici U Velkého rybníka v obci Plzeň; křižovatka s ul. Malý Bolevec.; nehoda; 2 havarovaná vozidla; překážka na vozovce, průjezd se zvýšenou opatrností; 2 x OA bez zranění.',137.520715379103,87.0693947894934,'{accindet,personal_cars}'
11035,2016-10-12 13:50:00,'Od 12.10.2016 14:50 do 16:55; v ulici sady Pětatřicátníků v obci Plzeň; nehoda; 2 havarovaná vozidla; překážka na vozovce, průjezd se zvýšenou opatrností; 2 x OA bez zranění.',137.510206579102,87.0992990871241,'{accindet,personal_cars}'
11036,2016-10-12 14:20:00,'Od 12.10.2016 15:20 do 17:25; v ulici Rokycanská v obci Plzeň; křižovatka s ul. Dlouhá.; nehoda; havarované vozidlo; překážka na vozovce, průjezd se zvýšenou opatrností; havárie OA, bez zranění osob a  úniku PHM. Na místě PČR.',137.538436267994,87.0993299019809,'{accindet,personal_cars}'
11037,2016-10-12 15:20:00,'Od 12.10.2016 16:20 do 18:25; v ulici Tyršova v obci Plzeň; nehoda nákladního vozidla; 2 havarovaná vozidla; překážka na vozovce, průjezd se zvýšenou opatrností; OA x NA, bez zranění, a úniku PHM.',137.518543645769,87.1011622534556,'{accindet,personal_cars}'
11038,2016-10-12 15:35:00,'Od 12.10.2016 16:35 do 17:35; v ulici Partyzánská v obci Plzeň; křižovatka s ul. Dítětová.; nehoda; 2 havarovaná vozidla; překážka na vozovce, průjezd se zvýšenou opatrností; 2 x OA bez zranění. Na místě PČR.',137.535030045772,87.0977253047135,'{accindet,personal_cars}'
11039,2016-10-12 16:36:00,'D5, mezi km 77.8 a 77.9, ve směru Rozvadov, nehoda, neprůjezdný levý jízdní pruh, Od 12.10.2016 17:36 Do 12.10.2016 19:36',137.531456712438,87.1729816020573,{accindet}
