ID,od,popis,x,y,ts_flags
1120,2013-08-23 09:55:00,'Od 23.8.2013 10:55 do 14:00; v ulici Domažlická v obci Plzeň; nehoda nákladního vozidla; OA x kamion se zraněním, na místo RZS a PČR, částečně překáží provozu',137.487144534654,87.1077317895219,'{accindet,injury,personal_cars}'
1121,2013-08-23 14:25:00,'Od 23.8.2013 15:25 do 17:30; v ulici Hlavní v obci Tlučná okres Plzeň-sever; Hlavní,Tlučná; nehoda; 2xOA bez zranění, bez úniku, částečně překáží provozu.',137.413024712421,87.1247747011508,{accindet}
1122,2013-08-23 16:40:00,'Od 23.8.2013 17:40 do 19:45; na silnici 18323 u obce Merklín okres Plzeň-jih; nehoda; OA x moto bez zranění, bez úniku, PČR jede na místo',137.374715734638,87.3080971383392,'{accindet,personal_cars}'
1123,2013-08-23 22:45:00,'Od 23.8.2013 23:45 do 24.8.2013 02:50; na silnici 26 u obce Stod okres Plzeň-jih; nehoda; probíhají záchranné a vyprošťovací práce, nebezpečí; OA na střeše, bez zranění',137.354213690191,87.2297803152807,'{accindet,personal_cars}'
1124,2013-08-23 22:45:00,'Od 23.8.2013 23:45 do 24.8.2013 01:50; v ulici Domažlická v obci Stod okres Plzeň-jih; Stod u hřbitova; nehoda; OA v příkopu, bez zranění, bez úniku, překáží rovozu',137.362651023526,87.221007800842,'{accindet,personal_cars}'
1125,2013-08-24 03:45:00,'Od 24.8.2013 04:45 do 06:50; v ulici Tyršova v obci Plzeň; Tyršova xPražská Plzeň; nehoda; tramxOA bez zranění, zvýšená opatrnost, ohrožení BERSIP, překáží provozu',137.518491023547,87.1010808169478,{accindet}
1126,2013-08-24 04:45:00,'Od 24.8.2013 05:45 do 07:50; na silnici 18030 u obce Dolní Lukavice okres Plzeň-jih; za obcí Přeštice odbočka Dnešice; nehoda; Pozor! Předmět na vozovce; sražené prase, ohrožneí BESIP',137.475929601319,87.261036756105,'{accindet,animal_hit}'
1127,2013-08-24 04:50:00,'Od 24.8.2013 05:50 do 07:55; na silnici 2051 u obce Líšťany okres Plzeň-sever; nehoda; Pozor! Předmět na vozovce; sražená srna, ohrožení BESIP',137.381002667973,87.007073083365,'{accindet,animal_hit}'
1128,2013-08-24 05:40:00,'Od 24.8.2013 06:40 do 08:45; na silnici 1806 v obci Trnová okres Plzeň-sever; nehoda; havarované vozidlo; překážka na vozovce, průjezd se zvýšenou opatrností; motocyklista v příkopu se zraněním, zvýšená opatrnost.',137.482791112431,86.9850010739343,'{accindet,injury}'
1129,2013-08-24 08:15:00,'Od 24.8.2013 09:15 do 10:05; na silnici 19315 v obci Ostrov u Bezdružic okres Plzeň-sever; nehoda; 2 havarovaná vozidla; bez zranění, na místo jede PČR.',137.27391289018,86.9313978600324,{accindet}
