ID,od,popis,x,y,ts_flags
11360,2016-11-15 08:55:00,Od 15.11.2016 08:55 do 11:00; v ulici Plzeňská v obci Stod okres Plzeň-jih; nehoda; 2 havarovaná vozidla; probíhá vyšetřování nehody; 2 x OA bez zranění. Na místě PČR.,137.365880179082,87.2119735712852,'{accindet,personal_cars}'
11361,2016-11-15 10:35:00,Od 15.11.2016 10:35 do 12:40; v ulici K Jezu v obci Plzeň; nehoda; 2 havarovaná vozidla; probíhá vyšetřování nehody; 2 x DOD bez zranění. Na místě PČR.,137.546971734662,87.120459203437,{accindet}
11362,2016-11-15 13:45:00,Od 15.11.2016 13:45 do 15:50; v ulici Slovanská v obci Plzeň; nehoda; 2 havarovaná vozidla; probíhá vyšetřování nehody; 2 x OA bez zranění. Na místě PČR.,137.526213690215,87.1207397268867,'{accindet,personal_cars}'
11363,2016-11-15 14:15:00,Od 15.11.2016 14:15 do 16:20; v ulici Dýšinská v obci Kyšice okres Plzeň-město; nehoda; 2 havarovaná vozidla; probíhá vyšetřování nehody; 2 x OA se zraněním. ZZS a PČR na místě.,137.591820090224,87.0883113562332,'{accindet,injury,personal_cars}'
11364,2016-11-15 14:40:00,Od 15.11.2016 14:40 do 16:45; v ulici Hornická v obci Zbůch okres Plzeň-sever; nehoda; 2 havarovaná vozidla; probíhá vyšetřování nehody; 2 x OA bez zranění. Na místě PČR.,137.409584356865,87.1708879398574,'{accindet,personal_cars}'
11365,2016-11-15 14:55:00,'Od 15.11.2016 14:55 do 17:00; v ulici Jateční v obci Plzeň; nehoda, silný provoz; 2 havarovaná vozidla; probíhá vyšetřování nehody; 2 x OA bez zranění. Na místě PČR.',137.530660979104,87.0985991448715,'{accindet,personal_cars}'
11366,2016-11-15 15:35:00,'Od 15.11.2016 15:35 do 17:40; na silnici 26 u obce Chotěšov okres Plzeň-jih; nehoda, silný provoz; 2 havarovaná vozidla; probíhá vyšetřování nehody; 2 x OA bez zranění. Na místě PČR.',137.394174579085,87.187194355724,'{accindet,personal_cars}'
11367,2016-11-15 15:50:00,Od 15.11.2016 15:50 do 17:55; v ulici U Velkého rybníka v obci Plzeň; nehoda; 2 havarovaná vozidla; probíhá vyšetřování nehody; 2 x OA  se zraněním. ZZS a PČR na místě.,137.522062934659,87.0705818135057,'{accindet,injury,personal_cars}'
11368,2016-11-15 16:25:00,'Od 15.11.2016 16:25 do 19:30; v ulici Tylova v obci Plzeň; nehoda, očekává se silný provoz; 3 havarovaná vozidla; probíhá vyšetřování nehody; NA x 2 x OA bez zranění. Na místě PČR a MP.',137.507904712435,87.1029428206435,'{accindet,personal_cars,trucks}'
11369,2016-11-15 17:30:00,Od 15.11.2016 17:30 do 19:35; v ulici Bendova v obci Plzeň; nehoda; 2 havarovaná vozidla; probíhá vyšetřování nehody; 2 x OA bez zranění. Na místě PČR.,137.508444445768,87.1068338905774,'{accindet,personal_cars}'
