ID,od,popis,x,y,ts_flags
11440,2016-11-23 08:00:00,'Od 23.11.2016 08:00 do 09:00; v ulici alej Svobody v obci Plzeň; u vjezdu na parkoviště u nemocnice; nehoda; 2 havarovaná vozidla; 2 x OA bez zranění, únik provozních kapalin nehlášen.',137.513112890213,87.081116320473,'{accindet,personal_cars}'
11441,2016-11-23 08:05:00,'Od 23.11.2016 08:05 do 09:05; v ulici Průmyslová v obci Plzeň; nad benzinkou u Škodovky, jak je dopravní škola; nehoda; 2 havarovaná vozidla; OA x Trolejbus bez zranění a bez úniku provozních kapalin, blokován jeden jízdní pruh, pro NA neprůjezdné, osobní jedním pruhem. Na místo hlídka PČR.',137.518796090214,87.1264400841935,'{accindet,personal_cars,trucks}'
11442,2016-11-23 15:25:00,'Od 23.11.2016 15:25 do 16:25; v ulici Sušická v obci Plzeň; u domu čp. 661/30; nehoda; 2 havarovaná vozidla; 2 x OA bez zranění, únik provozních kapalin nehlášen.',137.53410773466,87.1142169004135,'{accindet,personal_cars}'
11443,2016-11-23 16:20:00,'Od 23.11.2016 16:20 do 17:20; v ulici Univerzitní v obci Plzeň; v blízkosti benzinového čerpadla; nehoda; 2 havarovaná vozidla; 2 x OA bez zranění, únik provozních kapalin nehlášen.',137.49237689021,87.1266149793992,'{accindet,personal_cars}'
11444,2016-11-23 16:35:00,'Od 23.11.2016 16:35 do 17:35; v ulici Rokycanská v obci Plzeň; u odbočky do OD TESCO ve směru ven z centra; nehoda; 2 havarovaná vozidla; 2 x OA bez zranění, únik provozních kapalin nehlášen.',137.554049423552,87.1005547781339,'{accindet,personal_cars}'
11445,2016-11-23 17:10:00,'Od 23.11.2016 17:10 do 18:10; na silnici 204 u obce Mrtník okres Plzeň-sever; cca v polovině cesty mezi Lozou a Mrtníkem; nehoda; srážka OA se srnou, bez zranění osob a bez úniku provozních kapalin. Na místo hlídka PČR.',137.458232890205,86.935777254227,'{accindet,personal_cars,animal_hit}'
11446,2016-11-23 17:35:00,'Od 23.11.2016 17:35 do 18:35; v ulici Plzeňská v obci Líně okres Plzeň-sever; na zastávce autobusu; nehoda; havarované vozidlo; probíhá vyšetřování nehody; střet OA s chodcem se zraněním, únik provozních kapalin nehlášen. Na místo PČR a RZS.',137.441996801314,87.1446558078925,'{accindet,pedestrian_involvement,injury,personal_cars}'
11447,2016-11-23 20:40:00,'Od 23.11.2016 20:40 do 21:40; na silnici 183 u obce Soběkury okres Plzeň-jih; U odbočky na Bolkov.; nehoda; havarované vozidlo; probíhá vyšetřování nehody; Havárie OA se zraněním, únik provozních kapalin nehlášen, vozidlo na střeše. Na místo hlídka PČR a ZZS.',137.409252267976,87.304772136249,'{accindet,injury,personal_cars}'
11448,2016-11-24 08:00:00,'Od 24.11.2016 08:00 do 10:05; na silnici 229 u obce Kralovice okres Plzeň-sever; nehoda; OA x dodávka, bez zranění, únik kapalin, překáží provozu, průjezdné jedním pruhem',137.598596268003,86.8387235372539,'{accindet,personal_cars}'
11449,2016-11-24 08:55:00,'Od 24.11.2016 08:55 do 11:00; v ulici Klatovská třída v obci Plzeň; nehoda; OA x NA bez zranění, bez úniku, překáží provozu, na místo lídka policie',137.507808001323,87.1148165188324,'{accindet,personal_cars,trucks}'
