ID,od,popis,x,y,ts_flags
11480,2016-11-28 11:15:00,'Od 28.11.2016 11:15 do 13:20; v ulici Bzenecká v obci Plzeň; nehoda; probíhá vyšetřování nehody, nebezpečí; 2x OA bez zranění',137.494048712433,87.0860866790232,'{accindet,personal_cars}'
11481,2016-11-28 15:20:00,'Od 28.11.2016 15:20 do 17:25; na silnici 203 u obce Tlučná okres Plzeň-sever; nehoda; probíhá vyšetřování nehody, nebezpečí; 2x OA bez zranění',137.427990045757,87.1213678740512,'{accindet,personal_cars}'
11482,2016-11-28 18:50:00,'Od 28.11.2016 18:50 do 20:55; v ulici Masarykova v obci Plzeň; křižovatka s Opavskou; nehoda; probíhá vyšetřování nehody, nebezpečí; 2x OA bez zranění',137.538905601328,87.0955648551157,'{accindet,personal_cars}'
11483,2016-11-28 22:30:00,'Od 28.11.2016 22:30 do 29.11.2016 09:30; na silnici 20 u obce Úněšov okres Plzeň-sever; NN vyjíždí na trasu; Pozor! Nadměrný náklad; Pozor! Očekávejte zdržení; V době od 22.30 hod. dne 28.11.2016 do cca 20.30 hod. dne 29.11.2016 proběhne přeprava nadměrného nákladu (generátoru) z Plzně do Lovosic.Parametry NN:  42m x 3,8m x 4,35m (délka x šířka x výška) a hmotnost 277 tun.Trasa přepravy: Úněšov – Bezvěrov – Toužim – Bochov – Libkovice Lubenec – Černčice – Blšany – Pšov – Žatec – Drahomyšl – Louny – Raná – Libčeves – Lovosice přístav.Nadměrný náklad bude přepravován na jedné soupravě a doprovázen vozidly technického doprovodu a policie.',137.347305245746,86.9465525416714,{accindet}
11484,2016-11-29 06:05:00,'Od 29.11.2016 06:05 do 08:10; v ulici Smetanova v obci Starý Plzenec okres Plzeň-město; nehoda; probíhá vyšetřování nehody, nebezpečí; OA bez zranění, sjelo do příkopu',137.588674845779,87.1578031656578,'{accindet,personal_cars}'
11485,2016-11-29 06:30:00,'Od 29.11.2016 06:30 do 08:35; v ulici Borská v obci Plzeň; křižovatka s Klatovskou; nehoda nákladního vozidla; probíhá vyšetřování nehody, nebezpečí; NA s OA bez zranění',137.50831146799,87.1080651966825,'{accindet,personal_cars,trucks}'
11486,2016-11-29 07:50:00,'Od 29.11.2016 07:50 do 08:50; v ulici U Prazdroje v obci Plzeň; kříž. s ul. Sirkova, u hotelu Angelo ve směru od Štruncových sadů; nehoda; 2 havarovaná vozidla; probíhá vyšetřování nehody; 2 x OA bez zranění, únik provozních kapalin nehlášen.',137.519150223547,87.1013504373432,'{accindet,personal_cars}'
11487,2016-11-29 09:30:00,'Od 29.11.2016 09:30 do 10:30; v ulici Lidická v obci Plzeň; křiž. s ul. Bohuslava Martinů; nehoda; 3 havarovaná vozidla; probíhá vyšetřování nehody; 3 x OA bez zranění, bez úniku provozních kapalin. Místo je průjezdné.',137.512664890213,87.0732750928895,'{accindet,personal_cars}'
11488,2016-11-29 13:25:00,'Od 29.11.2016 13:25 do 14:25; v ulici Karlovarská v obci Plzeň; na úrovni BČS Shell ve směru do centra; nehoda; 2 havarovaná vozidla; probíhá vyšetřování nehody; 2 x OA bez zranění, únik provozních kapalin nehlášen.',137.509099379101,87.0884962831681,'{accindet,personal_cars}'
11489,2016-11-29 15:10:00,'Od 29.11.2016 15:10 do 17:10; na silnici 203 u obce Vejprnice okres Plzeň-sever; ve směru na Plzeň; nehoda; 2 havarovaná vozidla; 2 x OA se zraněním, únik provozních kapalin nehlášen. Na místo RZS, HZS PČR.',137.457772090205,87.112508226041,'{accindet,injury,personal_cars}'
