ID,od,popis,x,y,ts_flags
11610,2016-12-09 16:50:00,'Od 9.12.2016 16:50 do 18:55; v ulici Sukova v obci Plzeň; nehoda; probíhá vyšetřování nehody, nebezpečí; 2 havarovaná vozidla; 2 x OA bez zranění.',137.502170312434,87.1190279608581,'{accindet,personal_cars}'
11611,2016-12-09 17:10:00,'Od 9.12.2016 17:10 do 19:15; v ulici Studentská v obci Plzeň; nehoda; probíhá vyšetřování nehody, nebezpečí; 2 x OA bez zranění.',137.494609067988,87.0704397684237,'{accindet,personal_cars}'
11612,2016-12-09 18:35:00,'Od 9.12.2016 18:35 do 20:40; v ulici U Prazdroje v obci Plzeň; naproti Hornbachu; nehoda; probíhá vyšetřování nehody, nebezpečí; střet OA s chodcem, se zraněním.',137.524445156881,87.0997337950669,'{accindet,pedestrian_involvement,injury,personal_cars}'
11613,2016-12-09 18:35:00,'Od 9.12.2016 18:35 do 20:40; v ulici Klatovská v obci Plzeň; u věznice; nehoda; probíhá vyšetřování nehody, nebezpečí; střet OA s chodcem se zraněním.',137.500434490211,87.1296871017885,'{accindet,pedestrian_involvement,injury,personal_cars}'
11614,2016-12-09 18:45:00,'Od 9.12.2016 18:45 do 20:50; v ulici Klatovská třída v obci Plzeň; u synagogy; nehoda; probíhá vyšetřování nehody, nebezpečí; 2 x OA bez zranění.',137.509331912435,87.1026148838059,'{accindet,personal_cars}'
11615,2016-12-09 20:50:00,'Od 9.12.2016 20:50 do 22:55; na silnici 27 u obce Plzeň; směr Třemošná.; nehoda; zvěř na vozovce; probíhá vyšetřování nehody; srážka OA se třemi divočáky, bez zranění osob.',137.518107023547,87.0511015908952,'{accindet,personal_cars,animal_hit}'
11616,2016-12-09 22:40:00,'Od 9.12.2016 22:40 do 10.12.2016 00:45; D5 - 73.3km na trase Rozvadov - Praha; nájezd na D5.; nehoda; havarované vozidlo; překážka na vozovce, průjezd se zvýšenou opatrností; havárie OA bez zranění.',137.556758756886,87.1426512057368,'{accindet,personal_cars}'
11617,2016-12-10 07:50:00,Od 10.12.2016 07:50 do 09:55; na silnici 183 u obce Přeštice okres Plzeň-jih; nehoda; probíhají záchranné a vyprošťovací práce; Střet OA se zvěří. OA na střeše.,137.463002312428,87.3036681416513,'{accindet,personal_cars,animal_hit}'
11618,2016-12-10 10:50:00,Od 10.12.2016 10:50 do 12:55; v ulici Husova v obci Blovice okres Plzeň-jih; nehoda; Střet 2x OA. PČR na místo.,137.622636090228,87.2853650446911,'{accindet,personal_cars}'
11619,2016-12-10 13:35:00,Od 10.12.2016 13:35 do 15:40; v ulici Folmavská v obci Plzeň; nehoda; Střet 2x OA. PČR na místo.,137.478003201319,87.1174459586304,'{accindet,personal_cars}'
