ID,od,popis,x,y,ts_flags
11630,2016-12-11 10:00:00,'Od 11.12.2016 10:00 do 12:05; na silnici 27 u obce Třemošná okres Plzeň-sever; nehoda; 2 havarovaná vozidla; probíhá vyšetřování nehody; 2 x OA se zraněním. Na místě PČR, ZZS, HZS.',137.515771023547,87.0239806528139,'{accindet,injury,personal_cars}'
11631,2016-12-11 12:40:00,'Od 11.12.2016 12:40 do 13:40; v ulici Mikulášská v obci Plzeň; nehoda; 2 havarovaná vozidla; 2 x OA, bez zranění a úniku provozních kapalin.',137.518964623547,87.1054617045629,'{accindet,personal_cars}'
11632,2016-12-11 12:50:00,'Od 11.12.2016 12:50 do 15:55; na silnici 183 u obce Soběkury okres Plzeň-jih; nehoda; havarované vozidlo; probíhá vyšetřování nehody; havárie OA mimo komunikaci, se zraněním. Na místě ZZS a PČR.',137.406701512421,87.304936582354,'{accindet,injury,personal_cars}'
11633,2016-12-11 13:50:00,'Od 11.12.2016 13:50 do 14:50; v ulici Dlážděná v obci Plzeň; nehoda; havarované vozidlo; probíhá vyšetřování nehody; OA x dopravní značení, bez zranění osob. Na místě PČR.',137.528502045771,87.1567269146774,'{accindet,personal_cars}'
11634,2016-12-11 17:35:00,'Od 11.12.2016 17:35 do 18:40; na silnici 20 u obce Všeruby okres Plzeň-sever; nehoda; zvěř na vozovce; probíhá vyšetřování nehody; srážka OA se zvěří, bez zranění osob. Na místě PČR.',137.412888890199,87.011000914544,'{accindet,personal_cars,animal_hit}'
11635,2016-12-11 18:05:00,Od 11.12.2016 18:05 do 19:10; v ulici Přemyslova v obci Plzeň; křižovatka s ul. Kalikova.; nehoda; 2 havarovaná vozidla; probíhá vyšetřování nehody; 2 x OA bez zranění. Na místě PČR.,137.504652090212,87.0986035470528,'{accindet,personal_cars}'
11636,2016-12-12 05:35:00,'Od 12.12.2016 05:35 do 06:40; na silnici 27 u obce Horní Bříza okres Plzeň-sever; nehoda; srážka OA se zvěří, na místo PČR.',137.520130134659,86.9602023042405,'{accindet,personal_cars,animal_hit}'
11637,2016-12-12 06:45:00,'Od 12.12.2016 06:45 do 07:50; na silnici 18051 u obce Chotíkov okres Plzeň-sever; nehoda; převrácené vozidlo; havárie OA, bez zranění, vozidlo na střeše. Na místo PČR, HZS.',137.466156801318,87.0575913831381,'{accindet,personal_cars}'
11638,2016-12-12 10:40:00,'Od 12.12.2016 10:40 do 11:40; v ulici Tylova v obci Plzeň; křiž. s ul. Americká; nehoda; 2 havarovaná vozidla; probíhá vyšetřování nehody, nebezpečí; 2 x OA bez zranění, únik provozních kapalin nehlášen.',137.509158401324,87.1031816190195,'{accindet,personal_cars}'
11639,2016-12-12 10:50:00,'Od 12.12.2016 10:50 do 11:50; na silnici 231 u obce Plzeň; dopravní značky ''Začátek obce'' Zruč ve směru od Plzně; nehoda nákladního vozidla; 2 havarovaná vozidla; OA x NA bez zranění, únik provozních kapalin nehlášen. Na místo hlídka PČR.',137.536797156883,87.0509055190344,'{accindet,personal_cars,trucks}'
