ID,od,popis,x,y,ts_flags
11660,2016-12-14 12:10:00,'Od 14.12.2016 12:10 do 12:45; na silnici 183 u obce Šťáhlavy okres Plzeň-město; nehoda s únikem paliva; očekávejte kluzkou vozovku; probíhají odklízecí práce; nafta na vozovce, na místě HZS.',137.610738490227,87.163706220088,{accindet}
11661,2016-12-14 13:40:00,'Od 14.12.2016 13:40 do 15:40; na silnici 201 u obce Kralovice okres Plzeň-sever; nehoda odstraněna; provoz v jízdním pruhu obnoven; havárie OA se zraněním. PČR, HZS a ZZS na místě.',137.595086934669,86.8456174285757,'{accindet,injury,personal_cars}'
11662,2016-12-14 13:50:00,'Od 14.12.2016 13:50 do 14:55; na silnici 26 v obci Plzeň; nehoda, silný provoz; 2 havarovaná vozidla; probíhá vyšetřování nehody; NA x DOD bez zranění. Na místě PČR.',137.473047467985,87.1179938339699,'{accindet,trucks}'
11663,2016-12-14 16:55:00,Od 14.12.2016 16:55 do 18:00; v ulici Lobezská v obci Plzeň; ve směru na Slovany.; nehoda; 2 havarovaná vozidla; probíhá vyšetřování nehody; 2 x OA bez zranění. Na místě PČR.,137.523963734659,87.1041412035671,'{accindet,personal_cars}'
11664,2016-12-15 00:35:00,'Od 15.12.2016 00:35 do 02:40; na silnici 20 v obci Losiná okres Plzeň-město; - ve směru na Nepomuk; nehoda; neprůjezdný pruh, havarované vozidlo; - havárie dodávky, bez zranění, na místo PČR',137.572125156888,87.1884831405163,{accindet}
11665,2016-12-15 06:55:00,'Od 15.12.2016 06:55 do 08:00; v ulici U Trati v obci Plzeň; - křižovatka s ul. Klatovská; nehoda; neprůjezdný pruh, 2 havarovaná vozidla; - 2 x OA, bez zranění, na místo PČR',137.508587379101,87.1080431896734,'{accindet,personal_cars}'
11666,2016-12-15 08:05:00,'Od 15.12.2016 08:05 do 10:10; v ulici Kaplířova v obci Plzeň; nehoda autobusu; probíhá vyšetřování nehody, nebezpečí; BUS x OA bez zranění, průjezdné.',137.503982223545,87.1224932400739,'{accindet,personal_cars}'
11667,2016-12-15 09:00:00,'Od 15.12.2016 09:00 do 10:00; D5 - 97-98km na trase Praha - Rozvadov; směr Rozvadov; všechny nehody byly odstraněny, nejsou hlášeny žádné další problémy; 2x OA; neprůjezdný pravý a levý jízdní pruh',137.36827875686,87.1420606969562,'{accindet,personal_cars}'
11668,2016-12-15 09:00:00,'Od 15.12.2016 09:00 do 11:05; D5 - 97-98km na trase Praha - Rozvadov; nehoda; probíhá vyšetřování nehody, nebezpečí; 2x OA průjezdné s opatrností.',137.36827875686,87.1420606969562,'{accindet,personal_cars}'
11669,2016-12-15 12:35:00,'Od 15.12.2016 12:35 do 14:40; v ulici K Sinoru v obci Plzeň; nehoda; probíhá vyšetřování nehody, nebezpečí; 2x OA bez zranění.',137.473058845763,87.1576547564435,'{accindet,personal_cars}'
