ID,od,popis,x,y,ts_flags
11680,2016-12-16 15:15:00,Od 16.12.2016 15:15 do 17:20; na silnici 204 v obci Loza okres Plzeň-sever; nehoda; Pozor! Rozlitá látka na vozovce; 2 x OA bez zranění. PČR a HZS na místo. Nafta na komunikaci.,137.450295467982,86.939074533757,'{accindet,personal_cars}'
11681,2016-12-16 21:20:00,Od 16.12.2016 21:20 do 23:25; v ulici Mikulášská v obci Plzeň; nehoda; Střet 2x OA. PČR na místo.,137.518931912436,87.1049170018597,'{accindet,personal_cars}'
11682,2016-12-16 23:00:00,Od 16.12.2016 23:00 do 17.12.2016 01:05; na silnici 230 u obce Stod okres Plzeň-jih; nehoda; Střet 2x OA. PČR na místo.,137.352947912413,87.2124930231937,'{accindet,personal_cars}'
11683,2016-12-16 23:55:00,Od 16.12.2016 23:55 do 17.12.2016 02:00; na silnici 1773 u obce Milínov okres Plzeň-jih; nehoda; Havárie OA do stromu. PČR na místo.,137.638343112453,87.1947299553289,'{accindet,personal_cars}'
11684,2016-12-17 09:30:00,'Od 17.12.2016 09:30 do 11:35; na silnici 20 u obce Úněšov okres Plzeň-sever; nehoda; OA x prase, zvýšená opatrnot,překáží provozu, ohrožení BESIP, namísto policie',137.340925156856,86.9404642533107,'{accindet,personal_cars,animal_hit}'
11685,2016-12-17 13:30:00,'Od 17.12.2016 13:30 do 15:35; v ulici U Letiště v obci Plzeň; U letiště x Folmavská; nehoda; OA x svodidla, bez zranění, bez úniku PHM, zvýšená opatrnost,ohrožení BESIP',137.490741334654,87.1183403787221,'{accindet,personal_cars}'
11686,2016-12-17 14:55:00,'Od 17.12.2016 14:55 do 17:00; v ulici Rokycanská v obci Plzeň; u OC Tesco; nehoda; 2xOA bez zranění, překáží provozu, zvýšená opatrnost,ohrožení BESIP',137.554140445774,87.1005613811637,{accindet}
11687,2016-12-17 15:55:00,'Od 17.12.2016 15:55 do 18:00; v ulici Turistická v obci Plzeň; nehoda; 2xOA bez zranění, únik PHM, zvýšená opatrnost, ohrožení BESIP',137.504307912434,87.0699916082063,{accindet}
11688,2016-12-17 16:40:00,'Od 17.12.2016 16:40 do 18:45; na silnici 20 u obce Líšťany okres Plzeň-sever; nehoda; OA x srna, zvýšená opatrnost,překáží provozu, na místo myslivec a policie',137.396556801308,87.0005131916659,'{accindet,personal_cars,animal_hit}'
11689,2016-12-18 02:50:00,'Od 18.12.2016 02:50 do 04:55; v ulici U Trati v obci Nýřany okres Plzeň-sever; nehoda; havárie OA bez zranění, bez úniku PHM, zvýšená opatrnost, ohrožení BESIP, na místo policie.',137.383072712417,87.1333045660719,'{accindet,personal_cars}'
