ID,od,popis,x,y,ts_flags
11760,2016-12-27 16:00:00,Od 27.12.2016 16:00 do 17:00; v ulici Těšínská v obci Plzeň; Před BČS na přechodu pro chodce.; nehoda; 2 havarovaná vozidla; probíhá vyšetřování nehody; 2 x OA bez zranění. Na místě PČR.,137.531098312438,87.0965410854004,'{accindet,pedestrian_involvement,personal_cars}'
11761,2016-12-27 16:05:00,Od 27.12.2016 16:05 do 17:05; v ulici Radobyčická v obci Plzeň; nehoda; 2 havarovaná vozidla; 2 x OA bez zranění. Na místě PČR.,137.512782223546,87.109055502705,'{accindet,personal_cars}'
11762,2016-12-27 17:55:00,'Od 27.12.2016 17:55 do 18:55; v ulici Lidická v obci Plzeň; Za křižovatkou s ulicí Karlovarskou směr Bolevec.; nehoda; 2 havarovaná vozidla; probíhá vyšetřování nehody; FOA x BUS  MHD, bez zranění osob a  úniku provozních kapalin. Na místě PČR.',137.508162845768,87.0833026747433,{accindet}
11763,2016-12-27 18:20:00,'Od 27.12.2016 18:20 do 20:25; na silnici 20137 u obce Sedlec okres Plzeň-sever; nehoda; zvěř na vozovce; překážka na vozovce, průjezd se zvýšenou opatrností; OA x srna, bez zranění osob. Na místě PČR.',137.550530845774,86.8146221787678,'{accindet,personal_cars,animal_hit}'
11764,2016-12-27 20:35:00,Od 27.12.2016 20:35 do 21:35; na silnici 20 u obce Líšťany okres Plzeň-sever; U křižovatky s odbočkou na Hunčice a Všeruby.; nehoda; Srážka OA s kancem bez zranění osob a bez úniku provozních kapalin. Na místo hlídka PČR.,137.39561742353,86.9998659787749,'{accindet,personal_cars}'
11765,2016-12-28 08:05:00,'Od 28.12.2016 08:05 do 09:10; na silnici 233 u obce Chrást okres Plzeň-město; nehoda; - srážka OA se zvěří, na místo PČR',137.577502579111,87.0666748853725,'{accindet,personal_cars,animal_hit}'
11766,2016-12-28 10:00:00,'Od 28.12.2016 10:00 do 11:05; v ulici Samaritská v obci Plzeň; - křižovatka s ul. Zborovská; nehoda; - 2 x OA, bez zranění, na místo PČR',137.516932267991,87.120781530255,'{accindet,personal_cars}'
11767,2016-12-28 15:45:00,'Od 28.12.2016 15:45 do 18:50; na silnici 2034 u obce Nýřany okres Plzeň-sever; nehoda; probíhají záchranné a vyprošťovací práce, nebezpečí; - dodávka x vlak, bez zranění, na místo PČR',137.375238401305,87.13296691711,{accindet}
11768,2016-12-28 18:30:00,'Od 28.12.2016 18:30 do 19:35; v ulici alej Svobody v obci Plzeň; nehoda; - 2 x OA, bez zranění, na místo PČR',137.509302756879,87.0786337200035,'{accindet,personal_cars}'
11769,2016-12-28 20:00:00,'Od 28.12.2016 20:00 do 22:05; na silnici 02013 u obce Mohelnice okres Plzeň-jih; Mezi Mohelnicí a silnicí I/20.; nehoda; zvěř na vozovce; probíhá vyšetřování nehody; Střet OA se zvěří, bez zranění osob. Na místě PČR.',137.692777245794,87.3955134604425,'{accindet,personal_cars,animal_hit}'
