ID,od,popis,x,y,ts_flags
11770,2016-12-29 07:45:00,'Od 29.12.2016 07:45 do 09:50; v ulici Koterovská v obci Plzeň; křížovatka se Železniční ul.; nehoda; probíhá vyšetřování nehody, nebezpečí; 2x OA bez zranění',137.520039823547,87.1055783472476,'{accindet,personal_cars}'
11771,2016-12-29 11:30:00,'Od 29.12.2016 11:30 do 13:35; v ulici Nepomucká v obci Plzeň; nehoda; probíhá vyšetřování nehody, nebezpečí; 2x OA bez zranění.',137.547133156885,87.1544688058947,'{accindet,personal_cars}'
11772,2016-12-29 11:40:00,'Od 29.12.2016 11:40 do 13:45; v ulici Mohylová v obci Plzeň; kruhový objezd s ul. Na Dlouhých; nehoda; probíhá vyšetřování nehody, nebezpečí; 2x OA bez zranění.',137.544270223551,87.0941406494889,'{accindet,personal_cars}'
11773,2016-12-29 14:20:00,'Od 29.12.2016 14:20 do 16:25; v ulici Palackého náměstí v obci Plzeň; nehoda; probíhá vyšetřování nehody, nebezpečí; 2x OA bez zranění',137.507399112435,87.0986860878832,'{accindet,personal_cars}'
11774,2016-12-29 15:25:00,'Od 29.12.2016 15:25 do 17:30; v ulici alej Svobody v obci Plzeň; nehoda; probíhá vyšetřování nehody, nebezpečí; 2x OA bez zranění.',137.511045690213,87.0798601720965,'{accindet,personal_cars}'
11775,2016-12-29 18:20:00,'Od 29.12.2016 18:20 do 20:25; na silnici 19 u obce Nezbavětice okres Plzeň-město; nehoda; probíhá vyšetřování nehody, nebezpečí; havárie OA, vozidlo na střeše.',137.577081601333,87.1946882097811,'{accindet,personal_cars}'
11776,2016-12-30 05:20:00,'Od 30.12.2016 05:20 do 07:25; na silnici 180 u obce Chotěšov okres Plzeň-jih; od Dobřan; nehoda; probíhá vyšetřování nehody, nebezpečí; OA bez zranění, vozidlo na střeše',137.400155023531,87.19991274138,'{accindet,personal_cars}'
11777,2016-12-30 07:15:00,'Od 30.12.2016 07:15 do 09:20; na silnici 180 u obce Město Touškov okres Plzeň-sever; nehoda; převrácené vozidlo; OA na střeše, se zraněním, zvýšená opatrnost,ohrožení BESIP, na místo všechny složky IZS',137.422684445756,87.0552828170239,'{accindet,injury,personal_cars}'
11778,2016-12-30 08:15:00,'Od 30.12.2016 08:15 do 09:30; na silnici 2038 u obce Kotovice okres Plzeň-jih; všechny nehody byly odstraněny, nejsou hlášeny žádné další problémy; NA na boku, bez zranění, únik kapalin, zvýšená opatrnost. Na místo policie.',137.35214577908,87.1767225139056,'{accindet,trucks}'
11779,2016-12-30 09:25:00,'Od 30.12.2016 09:25 do 11:30; v ulici Republikánská v obci Spálené Poříčí okres Plzeň-jih; nehoda; 2 havarovaná vozidla; OA x dodávka bez zranění, bez úniku PHM, překáží provozu, zvýšená opatrnost, ohrožení BESIP.',137.675348623569,87.2478730613966,'{accindet,personal_cars}'
