ID,od,popis,x,y,ts_flags
11800,2017-01-02 15:50:00,'Od 2.1.2017 15:50 do 18:55; v ulici Folmavská v obci Plzeň; nehoda nákladního vozidla; NA x OA bez zranění, bez úniku PHM, zvýšená opatrnost, ohrožení BESIP',137.47339591243,87.1175306706467,'{accindet,personal_cars,trucks}'
11801,2017-01-02 16:10:00,'Od 2.1.2017 16:10 do 18:15; na silnici 19 u obce Míšov okres Plzeň-jih; nehoda; 2xOA se zraněním, zvýšená opatrnost, ohrožení BESIP, na místo policie a RZS.',137.754882134691,87.2370596411625,'{accindet,injury}'
11802,2017-01-03 06:25:00,'Od 3.1.2017 06:25 do 08:30; na silnici 2053 u obce Tatiná okres Plzeň-sever; nehoda; 2xOA bez zranění, bez úniku PHM, překáží provozu, na místo policie',137.442225779092,86.9876170684139,{accindet}
11803,2017-01-03 09:55:00,'Od 3.1.2017 09:55 do 10:55; v ulici Klatovská třída v obci Plzeň; křiž. s ul. Dobrovského; nehoda; 2 havarovaná vozidla; probíhá vyšetřování nehody, nebezpečí; 2 x OA bez zranění a bez úniku provozních kapalin. Místo je průjezdné. Na místě hlídka PČR.',137.507888356879,87.1135732658101,'{accindet,personal_cars}'
11804,2017-01-03 14:05:00,'Od 3.1.2017 14:05 do 15:05; v ulici U Svépomoci v obci Plzeň; křiž. s ul. Schwarzova; nehoda; 2 havarovaná vozidla; probíhá vyšetřování nehody, nebezpečí; 2 x OA bez zranění, únik provozních kapalin nehlášen.',137.503990045767,87.1180697439651,'{accindet,personal_cars}'
11805,2017-01-03 14:35:00,Od 3.1.2017 14:35 do 15:35; v ulici Americká v obci Plzeň; na přechodu pro chodce u OC TESCO; nehoda; 2 havarovaná vozidla; 2 x OA bez zranění a bez úniku provozních kapalin. Místo průjezdné.,137.518481779103,87.103853990276,'{accindet,pedestrian_involvement,personal_cars}'
11806,2017-01-03 15:40:00,'Od 3.1.2017 15:40 do 16:40; na silnici 26 v obci Plzeň; na kruhovém objezdu u MAKRA; nehoda; 2 havarovaná vozidla; probíhá vyšetřování nehody, nebezpečí; 2 x OA bez zranění, únik provozních kapalin.',137.473384534652,87.1173216407528,'{accindet,personal_cars}'
11807,2017-01-04 06:35:00,'Od 4.1.2017 06:35 do 07:35; na silnici 230 u obce Dnešice okres Plzeň-jih; Asi 1 km za Černotínem ve směru na Přestavlky.; nehoda; havarované vozidlo; Havárie DOD do příkopu, bez zranění a bez úniku provozních kapalin.',137.417366045755,87.2498364087907,{accindet}
11808,2017-01-04 06:55:00,'Od 4.1.2017 06:55 do 07:55; na silnici 2038 u obce Kotovice okres Plzeň-jih; Za odbočkou na Záluží ve směru na Přehýšov.; nehoda; havarované vozidlo; Havárie OA bez zranění, únik provozních kapalin nehlášen.',137.350281956857,87.1722122868975,'{accindet,personal_cars}'
11809,2017-01-04 09:05:00,'Od 4.1.2017 09:05 do 12:10; na silnici 188 u obce Oselce okres Plzeň-jih; nehoda; havarované vozidlo; probíhá vyšetřování nehody; DOD na boku, bez zranění osob. Na místě PČR.',137.723670756909,87.4516382912761,{accindet}
