ID,od,popis,x,y,ts_flags
11850,2017-01-07 15:15:00,'Od 7.1.2017 15:15 do 17:20; v ulici Vejprnická v obci Plzeň; nehoda; probíhá vyšetřování nehody, nebezpečí; 2x OA, bez zranění, blokován pruh směr Vejprnice.',137.482823823542,87.1051095741575,'{accindet,personal_cars}'
11851,2017-01-07 17:00:00,'Od 7.1.2017 17:00 do 19:05; na silnici 180 v obci Kozolupy okres Plzeň-sever; Kozolupy - křižovatka Odbojáře Josefa Fischera x Čemínská; nehoda; probíhá vyšetřování nehody, nebezpečí; 2x OA, bez zranění.',137.421655467978,87.0811064123193,'{accindet,personal_cars}'
11852,2017-01-07 20:25:00,'Od 7.1.2017 20:25 do 23:30; na silnici 18023 u obce Tymákov okres Plzeň-město; nehoda; probíhají záchranné a vyprošťovací práce, nebezpečí; havárie OA se zraněním. Na místo HZS a ZZS.',137.607806579115,87.1164426060854,'{accindet,injury,personal_cars}'
11853,2017-01-08 05:00:00,'Od 8.1.2017 05:00 do 08:05; na silnici 203 u obce Přehýšov okres Plzeň-sever; nehoda; probíhají záchranné a vyprošťovací práce, nebezpečí; 2 x OA se zraněním. Na místo HZS a ZZS.',137.331180801299,87.1377311994868,'{accindet,injury,personal_cars}'
11854,2017-01-08 05:15:00,'Od 8.1.2017 05:15 do 07:20; na silnici 27 u obce Horní Bříza okres Plzeň-sever; nehoda; probíhá vyšetřování nehody, nebezpečí; střet OA se srnou, bez zranění osob, vozidlo v příkopu.',137.52053404577,86.9700139800374,'{accindet,personal_cars,animal_hit}'
11855,2017-01-08 11:40:00,'Od 8.1.2017 11:40 do 12:40; na silnici u obce Nová Ves okres Plzeň-jih; vpravo cestou k dálnici.; nehoda; 2 havarovaná vozidla; probíhá vyšetřování nehody, nebezpečí; 2 x OA bez zranění. Na místě PČR.',137.44777244576,87.1675203236886,'{accindet,personal_cars}'
11856,2017-01-08 12:25:00,'Od 8.1.2017 12:25 do 13:25; na silnici 193 u obce Pernarec okres Plzeň-sever; nehoda; havarované vozidlo; probíhají odklízecí práce; havárie OA mimo komunikaci, bez zranění osob. Na místě HZS a PČR.',137.32889671241,86.9737360525478,'{accindet,personal_cars}'
11857,2017-01-08 14:55:00,'Od 8.1.2017 14:55 do 15:55; na silnici 1808 u obce Třemošná okres Plzeň-sever; Asi 500 m za obcí Záluží ve směru na Plzeň.; nehoda; 2 havarovaná vozidla; probíhá vyšetřování nehody, nebezpečí; 2 x OA bez zranění. Na místě PČR.',137.504826312434,87.0357804788748,'{accindet,personal_cars}'
11858,2017-01-09 03:55:00,Od 9.1.2017 03:55 do 04:55; D5 - 85.9km na trase Rozvadov - Praha; Na km 86 ve směru Rozvadov - Praha.; nehoda; Srážka OA se zvěří bez zranění a bez úniku kapalin.,137.457873779094,87.1661595882831,'{accindet,personal_cars,animal_hit}'
11859,2017-01-09 05:55:00,Od 9.1.2017 05:55 do 06:55; v ulici Komenského v obci Plzeň; U domu čp. 1051/25; nehoda; 3 havarovaná vozidla; 3x OA bez zranění a bez úniku provozních kapalin. Místo je průjezdné.,137.510329601324,87.0757227101004,'{accindet,personal_cars}'
