ID,od,popis,x,y,ts_flags
1190,2013-09-01 14:50:00,'Od 1.9.2013 15:50 do 17:55; na silnici 27 u obce Hromnice okres Plzeň-sever; u odbočky na Oboru.; nehoda; 2 havarovaná vozidla; překážka na vozovce, průjezd se zvýšenou opatrností; 2 x OA bez zranění, průjezdné s opatrností',137.522134756881,86.9844981530309,'{accindet,personal_cars}'
1191,2013-09-01 16:30:00,'Od 1.9.2013 17:30 do 19:35; v ulici Bezručova v obci Stod okres Plzeň-jih; nehoda; 2 havarovaná vozidla; překážka na vozovce, průjezd se zvýšenou opatrností; OA x moto  bez zranění,',137.368160001304,87.2217808061143,'{accindet,personal_cars}'
1192,2013-09-02 00:40:00,'Od 2.9.2013 01:40 do 03:45; na silnici 27 u obce Plzeň; - před Třemošnou; nehoda; zvěř na vozovce; srážka OA se zvěří bez zranění, průjezdné',137.520225423547,87.0405391208949,'{accindet,personal_cars,animal_hit}'
1193,2013-09-02 05:25:00,'Od 2.9.2013 06:25 do 07:15; na silnici 230 v obci Žinkovy okres Plzeň-jih; - křižovatka Kokořov, Žiinkovy a Nepomuk; nehoda odstraněna; 2x OA bez zranění, průjezdné s opatrností',137.603469512448,87.3723465352838,'{accindet,personal_cars}'
1194,2013-09-02 09:10:00,'Od 2.9.2013 10:10 do 11:15; v ulici Turistická v obci Plzeň; - u prodejny LIDL; nehoda; - 2 x OA, bez zranění, na místo PČR',137.504245334656,87.0701710929712,'{accindet,personal_cars}'
1195,2013-09-02 10:00:00,'Od 2.9.2013 11:00 do 12:05; v ulici Karlovarská v obci Plzeň; - nad kruhovým objezdem u BČS Shell; nehoda nákladního vozidla; neprůjezdný pruh, 2 havarovaná vozidla; - NA x OA, bez zranění, na místo PČR',137.509821156879,87.088977310349,'{accindet,personal_cars,trucks}'
1196,2013-09-02 12:55:00,'Od 2.9.2013 13:55 do 15:00; v ulici Tyršova v obci Spálené Poříčí okres Plzeň-jih; nehoda; - 2 x OA, bez zranění, na místo PČR',137.675192179125,87.2470883607561,'{accindet,personal_cars}'
1197,2013-09-02 13:05:00,'Od 2.9.2013 14:05 do 15:10; v ulici Karlovarská v obci Plzeň; - za kruhovým objezdem u BČS Shell; nehoda nákladního vozidla; neprůjezdný pruh, 2 havarovaná vozidla; - NA x OA, bez zranění, na místo PČR',137.509637690213,87.0887549596508,'{accindet,personal_cars,trucks}'
1198,2013-09-02 15:00:00,'Od 2.9.2013 16:00 do 17:05; na dálnici D5; - sjezd z D5 na Ejpovice, směr Plzeň - Praha; nehoda; - havárie OA do pevné překážky, bez zranění, na místo PČR',137.605088001337,87.1139407436109,'{accindet,personal_cars}'
1199,2013-09-03 03:20:00,'Od 3.9.2013 04:20 do 07:20; D5 - 89.6km na trase Rozvadov - Praha; D5 km 90,7 směr Plzeň.; nehoda, neprůjezdný pravý jízdní pruh; zvěř na vozovce; probíhají odklízecí práce; srážka OA s divokými prasaty, průjezdný pouze levý jízdní pruh, na místě PČR a SÚS k odklizení.',137.426386490201,87.1410050225339,'{accindet,personal_cars,animal_hit}'
