ID,od,popis,x,y,ts_flags
11900,2017-01-13 07:45:00,'Od 13.1.2017 07:45 do 10:50; v ulici Plaská v obci Plzeň; nehoda nákladního vozidla; OA x NA se zraněním, zvýšená opatrnost,ohrožení BESIP, namísto policie a RZS',137.516352712436,87.0622775973325,'{accindet,injury,personal_cars,trucks}'
11901,2017-01-13 07:45:00,'Od 13.1.2017 07:45 do 10:50; na silnici 18015 u obce Dýšina okres Plzeň-město; u truhlářství U Pilouse; nehoda nákladního vozidla; 2xNA bez zranění, bez úniku PHM, překáží provozu, zvýšená opatrnost',137.58986595689,87.0680227418276,{accindet}
11902,2017-01-13 07:55:00,'Od 13.1.2017 07:55 do 10:00; na silnici 18032a v obcích Útušice okres Plzeň-jih a Plzeň , délka 1.8km; nehoda; OA bez zranění, překáží provozu, zvýšená oatrnost, vozovka je pod ledem, na místo policie a posyp',137.51365475688,87.1711319299114,'{accindet,personal_cars}'
11903,2017-01-13 08:30:00,'Od 13.1.2017 08:30 do 10:35; na silnici 18040 u obce Chlumčany okres Plzeň-jih; nehoda; OA x DZ, bez zranění, bez úniku PHM, zvýšená opatrnost,ohrožení BESIP',137.475046401319,87.2295168314295,'{accindet,personal_cars}'
11904,2017-01-13 08:30:00,'Od 13.1.2017 08:30 do 10:35; na silnici 26 u obce Kyšice okres Plzeň-město; nehoda; OA bez zranění, bez úniku, nepřekáží provozu, zvýšená opatrnost, na místo policie',137.582385068001,87.1013240256095,'{accindet,personal_cars}'
11905,2017-01-13 08:40:00,'Od 13.1.2017 08:40 do 10:45; na silnici 205 v obci Loza okres Plzeň-sever; nehoda; 2xOA bez zranění, zvýšená oatrnost,ohrožení BESIP',137.450670223538,86.9380523658146,{accindet}
11906,2017-01-13 08:45:00,'Od 13.1.2017 08:45 do 10:50; v ulici Nýřanská v obci Plzeň; nehoda; 2xOA, bez zranění, bez úniku PHM, zvýšená opatrnost,ohrožení BESIP',137.512684090213,87.0669424772303,{accindet}
11907,2017-01-13 08:50:00,'Od 13.1.2017 08:50 do 11:55; na silnici 27 u obce Kralovice okres Plzeň-sever; nehoda nákladního vozidla; NA v příkoou bez zranění, bez úniku PHM, zvýšená opatrnost,ohrožení BESIP',137.589821868002,86.8256133899269,'{accindet,trucks}'
11908,2017-01-13 09:20:00,'silnice II/180, v katastru obce Kozolupy - v katastru obce Město Touškov, okr. Plzeň-sever, nehoda, neprůjezdná komunikace, Od 13.01.2017 09:20 Do 13.01.2017 11:00, Pozor!, Probíhá vyprošťování havarovaného nákladního vozidla',137.4211896902,87.0762401856433,{accindet}
11909,2017-01-13 09:45:00,'Od 13.1.2017 09:45 do 11:50; na silnici 180 v obcích Kozolupy a Město Touškov okres Plzeň-sever , délka 981m; nehoda; dopravní problém; 2xOA bez zranění, překáží provozu, zvýšená opatarnost,ohrožení BESIP, na místo policie',137.421585067978,87.0802554051414,{accindet}
