ID,od,popis,x,y,ts_flags
11940,2017-01-16 02:50:00,'D5, mezi km 80 a 131, ve směru Rozvadov, sněžení, kluzká vozovka, ztížené jízdní podmínky, Od 16.01.2017 02:50 Do 16.01.2017 09:30, zvýšené nebezpečí nehody',137.510643912435,87.1672422440683,{accindet}
11941,2017-01-16 02:50:00,'D5, mezi km 131 a 80, ve směru Praha, sněžení, kluzká vozovka, ztížené jízdní podmínky, Od 16.01.2017 02:50 Do 16.01.2017 09:30, zvýšené nebezpečí nehody',137.058542934594,87.1095132379482,{accindet}
11942,2017-01-16 04:40:00,'Od 16.1.2017 04:40 do 06:45; na silnici 26 u obce Zbůch okres Plzeň-sever; nehoda; havárie OA do příkopu, bez zranění. PČR na místo.',137.414419201311,87.1672433432001,'{accindet,personal_cars}'
11943,2017-01-16 05:00:00,'D5, mezi km 80 a 131, ve směru Rozvadov, kluzká vozovka, sníh, Od 16.01.2017 05:00 Do 16.01.2017 16:30, zvýšené nebezpečí nehody',137.510643912435,87.1672422440683,{accindet}
11944,2017-01-16 05:45:00,Od 16.1.2017 05:45 do 07:50; na silnici 20 u obce Starý Plzenec okres Plzeň-město; nehoda; havárie OA bez zranění. PČR na místo.,137.551920356885,87.1511738186734,'{accindet,personal_cars}'
11945,2017-01-16 05:55:00,Od 16.1.2017 05:55 do 08:00; na silnici 19 u obce Nezbavětice okres Plzeň-město; nehoda; 2 havarovaná vozidla; 2 x OA bez zranění. PČR na místo.,137.585152712445,87.1978245279195,'{accindet,personal_cars}'
11946,2017-01-16 06:55:00,Od 16.1.2017 06:55 do 10:00; na silnici 180 u obce Nýřany okres Plzeň-sever; nehoda nákladního vozidla; 2 havarovaná vozidla; NA x OA bez zranění. PČR na místo.,137.398471823531,87.1186440160849,'{accindet,personal_cars,trucks}'
11947,2017-01-16 09:00:00,Od 16.1.2017 09:00 do 11:05; v ulici Karlovarská v obci Plzeň; nehoda; 2 havarovaná vozidla; probíhá vyšetřování nehody; tramvaj x OA se zraněním. Na místě PČR a ZZS.,137.511010134657,87.0904974158058,'{accindet,injury,personal_cars}'
11948,2017-01-16 11:25:00,Od 16.1.2017 11:25 do 12:30; na silnici 1875 u obce Nepomuk okres Plzeň-jih; nehoda; 2 havarovaná vozidla; probíhá vyšetřování nehody; 2 x DOD bez zranění. Na místě PČR.,137.659895468011,87.4010237503916,{accindet}
11949,2017-01-16 13:30:00,Od 16.1.2017 13:30 do 14:30; v ulici Májová v obci Plzeň; u čp. 103/8.; nehoda; 2 havarovaná vozidla; probíhá vyšetřování nehody; 2 x OA bez zranění. Na místě PČR.,137.519687823547,87.121982813067,'{accindet,personal_cars}'
