ID,od,popis,x,y,ts_flags
11950,2017-01-16 13:45:00,'Od 16.1.2017 13:45 do 14:50; v ulici Masarykova v obci Plzeň; křižovatka s ul. Rokycanská.; nehoda; 2 havarovaná vozidla; překážka na vozovce, průjezd se zvýšenou opatrností; OA x DOD bez zranění. Na místě PČR.',137.538439112439,87.0991494147094,'{accindet,personal_cars}'
11951,2017-01-16 14:40:00,Od 16.1.2017 14:40 do 15:45; na silnici 26 v obci Plzeň; nehoda s únikem oleje; 2 havarovaná vozidla; probíhají odklízecí práce; 2 x OA bez zranění. Na místě PČR a HZS.,137.473122134652,87.1179619297368,'{accindet,personal_cars}'
11952,2017-01-16 15:20:00,'Od 16.1.2017 15:20 do 16:25; v ulici Husova v obci Přeštice okres Plzeň-jih; nehoda nákladního vozidla; neprůjezdný pruh, 2 havarovaná vozidla; probíhá vyšetřování nehody; NA x OA, bez zranění. Na místě PČR.',137.47450311243,87.2913549210253,'{accindet,personal_cars,trucks}'
11953,2017-01-16 15:40:00,'Od 16.1.2017 15:40 do 16:40; v ulici Sirková v obci Plzeň; nehoda; probíhá vyšetřování nehody; OA x chodec, se zraněním osoby. Na místě ZZS a PČR',137.519037867992,87.1021879026227,'{accindet,pedestrian_involvement,injury,personal_cars}'
11954,2017-01-16 17:05:00,'Od 16.1.2017 17:05 do 18:10; na silnici 605 u obce Úlice okres Plzeň-sever; nehoda; havarované vozidlo; probíhá vyšetřování nehody; havárie OA do stromu, se zraněním osob. Na místě PČR, ZZS a HZS.',137.329019734632,87.0826102288269,'{accindet,injury,personal_cars}'
11955,2017-01-16 18:30:00,'Od 16.1.2017 18:30 do 20:35; na silnici 20 u obce Kasejovice okres Plzeň-jih; nehoda; havarované vozidlo; probíhají odklízecí práce; havárie OA mimo vozovku, bez zranění osob. Na místo jede odtah.',137.71921066802,87.4067873343599,'{accindet,personal_cars}'
11956,2017-01-16 19:00:00,'Od 16.1.2017 19:00 do 20:00; na silnici 19 v obci Žákava okres Plzeň-jih; nehoda; zvěř na vozovce; překážka na vozovce, průjezd se zvýšenou opatrností; srážka OA se zvěří, bez zranění osob. Na místě PČR,',137.622241423562,87.2250242319944,'{accindet,personal_cars,animal_hit}'
11957,2017-01-17 07:50:00,'Od 17.1.2017 07:50 do 10:30; v ulici Terezie Brzkové v obci Plzeň; křižívat,a s ul. Macháčkova; nehoda; probíhá vyšetřování nehody, nebezpečí; tramvaj + dodávka, bez zranění',137.47715271243,87.1050963692221,{accindet}
11958,2017-01-17 09:35:00,'Od 17.1.2017 09:35 do 12:05; v ulici Edvarda Beneše v obci Plzeň; u BČS Shell; nehoda; probíhá vyšetřování nehody, nebezpečí; OA - sanitka - bez zranění',137.511520712435,87.1172622321073,'{accindet,personal_cars}'
11959,2017-01-17 10:05:00,'Od 17.1.2017 10:05 do 12:40; v ulici Dopravní v obci Plzeň; nehoda; probíhá vyšetřování nehody, nebezpečí; 2x OA bez zranění',137.467035734651,87.1179641300293,'{accindet,personal_cars}'
