ID,od,popis,x,y,ts_flags
12000,2017-01-20 12:45:00,'Od 20.1.2017 12:45 do 13:50; v ulici Koterovská v obci Plzeň; nehoda; neprůjezdný pruh, 2 havarovaná vozidla; 2 x OA bez zranění. Na místě PČR.',137.523016534659,87.1083677921382,'{accindet,personal_cars}'
12001,2017-01-20 14:10:00,'Od 20.1.2017 14:10 do 15:15; v ulici Plzeňská v obci Vejprnice okres Plzeň-sever; nehoda; neprůjezdný pruh, 3 havarovaná vozidla; probíhá vyšetřování nehody; 3 x OA bez zranění. Na místě PČR.',137.443239823537,87.1168111643096,'{accindet,personal_cars}'
12002,2017-01-20 14:20:00,'Od 20.1.2017 14:20 do 15:25; na silnici 26 v obci Plzeň; kruhový objezd,; nehoda; 2 havarovaná vozidla; překážka na vozovce, průjezd se zvýšenou opatrností; 2 x OA bez zranění. Na místě PČR.',137.472034845763,87.1171786198276,'{accindet,personal_cars}'
12003,2017-01-20 15:10:00,'Od 20.1.2017 15:10 do 16:15; v ulici Husova v obci Plzeň; křižovatka s ul. Kotkova.; nehoda, silný provoz; neprůjezdný pruh, 2 havarovaná vozidla; probíhá vyšetřování nehody; 2 x OA bez zranění. Na místě PČR.',137.504286579101,87.1014626870655,'{accindet,personal_cars}'
12004,2017-01-20 15:20:00,'Od 20.1.2017 15:20 do 17:25; v ulici Rokycanská v obci Plzeň; nehoda, silný provoz; neprůjezdný pruh, 3 havarovaná vozidla; probíhá vyšetřování nehody; 3 x OA bez zranění. Na místě PČR.',137.554089956885,87.1005591801539,'{accindet,personal_cars}'
12005,2017-01-20 17:10:00,Od 20.1.2017 17:10 do 18:15; v ulici Strnadova v obci Plzeň; nehoda; 2 havarovaná vozidla; probíhá vyšetřování nehody; 2 x OA bez zranění. Na místě PČR.,137.527803023549,87.1212886685111,'{accindet,personal_cars}'
12006,2017-01-20 22:30:00,'Od 20.1.2017 22:30 do 23:30; v ulici Univerzitní v obci Plzeň; nehoda; 2x OA, bez zranění, na místo PČR.',137.496046934655,87.1266754776074,'{accindet,personal_cars}'
12007,2017-01-21 08:00:00,'Od 21.1.2017 08:00 do 11:05; v ulicích Strnadova, Slovanská v obci Plzeň , délka 66m; nehoda; 2 havarovaná vozidla; probíhá vyšetřování nehody, nebezpečí; 2x OA bez zranění.',137.527041423548,87.1217242975278,'{accindet,personal_cars}'
12008,2017-01-21 09:05:00,'Od 21.1.2017 09:05 do 11:45; v ulici U Prazdroje v obci Plzeň; nehoda; 2 havarovaná vozidla; probíhá vyšetřování nehody, nebezpečí; 2x OA bez zranění.',137.52434844577,87.099558811789,'{accindet,personal_cars}'
12009,2017-01-21 10:00:00,'Od 21.1.2017 10:00 do 12:30; v ulici Plzeňská v obci Líně okres Plzeň-sever; nehoda; 2 havarovaná vozidla; překážka na vozovce, průjezd se zvýšenou opatrností; 2x OA bez zranění.',137.429571556868,87.1556891199617,'{accindet,personal_cars}'
