ID,od,popis,x,y,ts_flags
12040,2017-01-24 13:25:00,'Od 24.1.2017 13:25 do 15:30; na silnici 180 u obce Dobřany okres Plzeň-jih; nehoda; převrácené vozidlo; probíhá vyšetřování nehody; OA na střeše, se zraněním osob. ZZS a PČR na místě.',137.476722490208,87.1993536222586,'{accindet,injury,personal_cars}'
12041,2017-01-24 15:00:00,Od 24.1.2017 15:00 do 18:05; v ulici Rokycanská v obci Plzeň; nehoda autobusu; 2 havarovaná vozidla; probíhá vyšetřování nehody; OA x BUS bez zranění. PČR na místě.,137.549080179107,87.1004271193975,'{accindet,personal_cars}'
12042,2017-01-24 17:00:00,'D5 - 100.3km na trase Praha - Rozvadov, nehoda nákladního vozidla, překážka na vozovce, průjezd se zvýšenou opatrností, Od 24.01.2017 17:00 Do 24.01.2017 18:00, nehoda nákladního vozidla; překážka na vozovce, průjezd se zvýšenou opatrností; havárie NA do příkopu, bez zranění osob. Na místě PČR.',137.337494045744,87.1334563424343,'{accindet,trucks}'
12043,2017-01-24 20:07:00,'D5, km 98.5, ve směru  Rozvadov, nehoda, neprůjezdný pravý jízdní pruh, Od 24.01.2017 20:07 Do 25.01.2017 01:37, vyprošťují nehodu TIR z příkopu, uzavřený pravý pruh ',137.354805334636,87.1371879255954,{accindet}
12044,2017-01-24 21:00:00,Od 24.1.2017 21:00 do 23:00; v ulici sady Pětatřicátníků v obci Plzeň; nehoda; Střet 2x OA. PČR na místo.,137.510496712435,87.0981138021669,'{accindet,personal_cars}'
12045,2017-01-24 22:25:00,Od 24.1.2017 22:25 do 25.1.2017 00:30; na silnici 19 u obce Borovno okres Plzeň-jih; nehoda; Havárie OA. PČR na místo.,137.751470934691,87.2374734714279,'{accindet,personal_cars}'
12046,2017-01-25 08:25:00,Od 25.1.2017 08:25 do 09:30; na silnici 20 u obce Chocenice okres Plzeň-jih; směr Nepomuk; nehoda; havarované vozidlo; zvěř na vozovce; OA x zvěř bez zranění.,137.60329813467,87.2893591011474,'{accindet,personal_cars,animal_hit}'
12047,2017-01-25 11:10:00,Od 25.1.2017 11:10 do 12:15; na silnici 180 u obce Štěnovice okres Plzeň-jih; nehoda; havarované vozidlo; havárie OA do svodidel bez zranění.,137.527206401326,87.1769763677066,'{accindet,personal_cars}'
12048,2017-01-25 12:10:00,'Od 25.1.2017 12:10 do 13:15; na silnici 233 v obci Plzeň; nehoda; neprůjezdný pruh, 2 havarovaná vozidla; 2x OA bez zranění.',137.53059413466,87.0968371426915,'{accindet,personal_cars}'
12049,2017-01-25 12:40:00,Od 25.1.2017 12:40 do 13:45; v ulici Veleslavínova v obci Plzeň; nehoda; 2 havarovaná vozidla; 2x OA bez zranění.,137.514315379102,87.0982227570357,'{accindet,personal_cars}'
