ID,od,popis,x,y,ts_flags
12360,2017-02-28 09:30:00,Od 28.2.2017 09:30 do 11:35; v ulici U Prazdroje v obci Plzeň; nehoda; 2 havarovaná vozidla; 2x OA.,137.524954312437,87.0994069390451,'{accindet,personal_cars}'
12361,2017-02-28 12:45:00,'Od 28.2.2017 12:45 do 14:50; v ulici Částkova v obci Plzeň , délka 27m; nehoda; 3 havarovaná vozidla; překážka na vozovce, průjezd se zvýšenou opatrností; 3x OA bez zranění.',137.532147912438,87.1132640983961,'{accindet,personal_cars}'
12362,2017-02-28 13:35:00,'Od 28.2.2017 13:35 do 15:40; na silnici 180 u obce Chotěšov okres Plzeň-jih; nehoda; 2 havarovaná vozidla; překážka na vozovce, průjezd se zvýšenou opatrností; 2x OA bez zranění..',137.416670579089,87.1975345223346,'{accindet,personal_cars}'
12363,2017-02-28 14:05:00,Od 28.2.2017 14:05 do 16:10; v ulici Zborovská v obci Plzeň; nehoda; 2 havarovaná vozidla; 2x OA.,137.517055290214,87.1208024319269,'{accindet,personal_cars}'
12364,2017-02-28 14:45:00,Od 28.2.2017 14:45 do 16:50; na silnici 19 u obce Žákava okres Plzeň-jih; nehoda; 2 havarovaná vozidla; 2x OA.,137.635268979119,87.2293477619412,'{accindet,personal_cars}'
12365,2017-02-28 15:45:00,Od 28.2.2017 15:45 do 17:50; v ulici Edvarda Beneše v obci Plzeň; nehoda; 2 havarovaná vozidla; 2x OA.,137.512440890213,87.120174278111,'{accindet,personal_cars}'
12366,2017-02-28 16:40:00,Od 28.2.2017 16:40 do 18:45; na silnici 17716 v obci Čížkov okres Plzeň-jih; nehoda; havarované vozidlo; havárie OA.,137.725623468021,87.3276746146056,'{accindet,personal_cars}'
12367,2017-02-28 18:15:00,'Od 28.2.2017 18:15 do 21:20; v ulici Slovanská v obci Plzeň; nehoda nákladního vozidla; překážka na vozovce, průjezd se zvýšenou opatrností; NA x tramvaj bez zranění.',137.527492267993,87.1229266591762,'{accindet,trucks}'
12368,2017-02-28 19:25:00,Od 28.2.2017 19:25 do 21:30; v ulici Tyršova v obci Plzeň; nehoda; 2 havarovaná vozidla; probíhá vyšetřování nehody; 2 x OA bez zranění.  PČR na místě.,137.515330134658,87.097538208614,'{accindet,personal_cars}'
12369,2017-03-01 05:40:00,Od 1.3.2017 05:40 do 07:45; na silnici 180 u obce Dobřany okres Plzeň-jih; nehoda; zvěř na vozovce; probíhá vyšetřování nehody; Střet OA se zvěří. PČR na místě.,137.481193956875,87.1975707731187,'{accindet,personal_cars,animal_hit}'
