ID,od,popis,x,y,ts_flags
1240,2013-09-08 02:10:00,'Od 8.9.2013 03:10 do 06:15; D5 - 77.8km na trase Praha - Rozvadov; nehoda nákladního vozidla; odstavený kamion, kusy pneu na dálnici, zvýšená opatrnost, ohrožení BESIP',137.530988801327,87.172923354297,{accindet}
1241,2013-09-08 07:10:00,'Od 8.9.2013 08:10 do 10:15; na silnici 205 u obce Dražeň okres Plzeň-sever; nehoda; havárie OA bez zranění, průjezdné  s opatrností, vozidlo mimo komunikaci v poli',137.446526579093,86.8991711377733,'{accindet,personal_cars}'
1242,2013-09-08 09:40:00,'Od 8.9.2013 10:40 do 13:50; na silnici 18018 v obci Tymákov okres Plzeň-město; nehoda; probíhají záchranné a vyprošťovací práce, nebezpečí; 2 havarovaná vozidla; 2 x OA se zraněním, na místě HZS, RZS a PČR',137.602710045781,87.1287719731771,'{accindet,injury,personal_cars}'
1243,2013-09-08 13:30:00,'Od 8.9.2013 14:30 do 16:35; na silnici 204 u obce Úněšov okres Plzeň-sever; - v serpentýnách směr Húrky; nehoda; dopravní nehoda motocyklisty se zraněním, průjezdné',137.361604979081,86.9462280565458,'{accindet,injury}'
1244,2013-09-09 05:50:00,'Od 9.9.2013 06:50 do 08:55; na silnici 27 v obci Horní Lukavice okres Plzeň-jih; před restaurací směr Klatovy; nehoda; 3 x OA se zraněním, na místo RZS a PČR.',137.475278934652,87.2496278957185,'{accindet,injury,personal_cars}'
1245,2013-09-09 06:40:00,'Od 9.9.2013 07:40 do 09:40; na silnici 1806 na vjezdu do obce Horní Bříza okres Plzeň-sever , délka 2.2km; Mezi Horní Břízou a Zalužím; nehoda; havarované vozidlo; havárie OA bez zranění a bez úniku provozních kapalin.',137.498877867989,87.0233778086407,'{accindet,personal_cars}'
1246,2013-09-09 08:40:00,'Od 9.9.2013 09:40 do 10:40; v ulici Americká v obci Plzeň; v úseku mezi OD Tesco a uzavřeným mostem; nehoda; 2 havarovaná vozidla; 2 x OA bez zranění, únik provozních kapalin nehlášen, místo průjezdné.',137.515581867991,87.1042149324002,'{accindet,personal_cars}'
1247,2013-09-09 11:20:00,Od 9.9.2013 12:20 do 13:20; v ulici Plachého v obci Plzeň; křiž. s ul. Korandova; nehoda; 2 havarovaná vozidla; 2 x OA bez zranění a bez úniku provozních kapalin.,137.504083201323,87.1041357014112,'{accindet,personal_cars}'
1248,2013-09-09 12:20:00,'Od 9.9.2013 13:20 do 14:20; v ulici Pod Všemi svatými v obci Plzeň; křiž. s ul. Lipová; nehoda; havarované vozidlo; srážka OA s chodcem se zraněním, únik provozních kapalin nehlášen. Na místo RZS a PČR.',137.513536001324,87.0906339039678,'{accindet,pedestrian_involvement,injury,personal_cars}'
1249,2013-09-09 12:20:00,'ulice Lipová, Plzeň 1, Plzeň, nehoda, Od 09.09.2013 13:20 Do 09.09.2013 13:50, dopravní  nehoda, Lipová, sražená osoba automobilem',137.515158045769,87.0911270195804,{accindet}
