ID,od,popis,x,y,ts_flags
12400,2017-03-06 21:00:00,'Od 6.3.2017 21:00 do 23:45; na silnici 20 u obce Vlčtejn okres Plzeň-jih; všechny nehody byly odstraněny, nejsou hlášeny žádné další problémy; havárie NA bez zranění.',137.593912890224,87.2475504026666,'{accindet,trucks}'
12401,2017-03-06 22:30:00,'Od 6.3.2017 22:30 do 7.3.2017 09:00; v ulici Edvarda Beneše v obci Plzeň; Pozor! Nadměrný náklad; očekávejte zdržení; V době od 22.30 hod. dne 6.3.2017 do cca 08.00 hod. dne 7.3.2017 proběhne přeprava nadměrného nákladu z Plzně do přístavu Lovosice. Nadměrný náklad pojede na jedné soupravě a doprovázet jej budou vozidla technického doprovodu a policie.Parametry NN: Generátor o rozměrech (DxŠxV) 33,50x3,80x4,40 m o hmotnosti 217 tunPřepravní trasa:Plzeň Brush, ul. Edvarda Beneše - 17. listopadu - Sukova - Folmavská - Domažlická - Vejprnická - Křimická - II/605 - Město Touškov - II/180 - Čeminy - Nová Hospoda - I/20 - Úněšov - Bezvěrov - Toužim - II/198 - Kozlov - Bochov  I/6 - R6 - I/6 - Lubenec - Černčice - Jesenice I/27 - Blšany - Pšov - Radíčeves - Žatec II/225 - Trnovany - I/28 - obchat Loun - Raná  II/257 - Kozly - I/15 - Želkovice - Třebenice - Lovosice výjezdem na D8 - výjezdem vpravo na II/247 - Lukavec - Lovosice přístav.',137.513085867991,87.1215361854338,{accindet}
12402,2017-03-06 22:40:00,'Od 6.3.2017 22:40 do 7.3.2017 09:00; na silnici 20 u obce Bezvěrov okres Plzeň-sever; Pozor! Nadměrný náklad; očekávejte zdržení; V době od 22.30 hod. dne 6.3.2017 do cca 08.00 hod. dne 7.3.2017 proběhne přeprava nadměrného nákladu z Plzně do přístavu Lovosice. Nadměrný náklad pojede na jedné soupravě a doprovázet jej budou vozidla technického doprovodu a policie.Parametry NN: Generátor o rozměrech (DxŠxV) 33,50x3,80x4,40 m o hmotnosti 217 tunZBÝVAJÍCÍ PŘEPRAVNÍ TRASA: Bezvěrov - Toužim - II/198 - Kozlov - Bochov  I/6 - R6 - I/6 - Lubenec - Černčice - Jesenice I/27 - Blšany - Pšov - Radíčeves - Žatec II/225 - Trnovany - I/28 - obchat Loun - Raná  II/257 - Kozly - I/15 - Želkovice - Třebenice - Lovosice výjezdem na D8 - výjezdem vpravo na II/247 - Lukavec - Lovosice přístav.',137.299451023517,86.8511482624233,{accindet}
12403,2017-03-07 00:10:00,'Od 7.3.2017 00:10 do 01:15; na silnici 18050 u obce Plzeň; nehoda; havarované vozidlo; havárie OA do příkopu, bez zranění.',137.484772267987,87.0876530992066,'{accindet,personal_cars}'
12404,2017-03-07 06:40:00,Od 7.3.2017 06:40 do 07:45; na silnici 180 u obce Chotěšov okres Plzeň-jih; směr Chotěšov; nehoda; 2 havarovaná vozidla; 2x OA bez zranění.,137.413262934644,87.1985099894114,'{accindet,personal_cars}'
12405,2017-03-07 06:50:00,Od 7.3.2017 06:50 do 07:55; na silnici 177 u obce Mladý Smolivec okres Plzeň-jih; nehoda; havarované vozidlo; zvěř na vozovce; OA x zvěř.,137.754003201358,87.3174910991757,'{accindet,personal_cars,animal_hit}'
12406,2017-03-07 08:40:00,'Od 7.3.2017 08:40 do 10:45; v ulici Domažlická v obci Stod okres Plzeň-jih; nehoda; probíhá vyšetřování nehody, nebezpečí; havárie OA bez zranění.',137.359633779081,87.224822209858,'{accindet,personal_cars}'
12407,2017-03-07 08:45:00,'Od 7.3.2017 08:45 do 10:50; na silnici 18035 u obce Dnešice okres Plzeň-jih; směr Chlumčany; nehoda; probíhá vyšetřování nehody, nebezpečí; havárie OA se zraněním, vozidlo na střeše.',137.440260267981,87.2466328998598,'{accindet,injury,personal_cars}'
12408,2017-03-07 09:30:00,'Od 7.3.2017 09:30 do 11:35; v ulici Klatovská třída v obci Plzeň; křiž. s ul. Na Belánce; nehoda; probíhá vyšetřování nehody, nebezpečí; 2 x OA bez zranění.',137.508195556879,87.1088134295958,'{accindet,personal_cars}'
12409,2017-03-07 10:55:00,'Od 7.3.2017 10:55 do 13:00; v ulici Radiová v obci Plzeň; nehoda; probíhá vyšetřování nehody, nebezpečí; havárie OA bez zranění.',137.543841423551,87.0927549291817,'{accindet,personal_cars}'
