ID,od,popis,x,y,ts_flags
12410,2017-03-07 20:40:00,'Od 7.3.2017 20:40 do 22:45; na silnici 27 u obce Plasy okres Plzeň-sever; směr Kralovice; nehoda; probíhá vyšetřování nehody, nebezpečí; 2x OA bez zranění.',137.539133867995,86.8765482161734,'{accindet,personal_cars}'
12411,2017-03-07 20:40:00,'Od 7.3.2017 20:40 do 22:45; na silnici 18025 u obce Losiná okres Plzeň-město; směr Štěňovice; nehoda; probíhá vyšetřování nehody, nebezpečí; srážka OA se zvěří',137.551832179107,87.1838607307039,'{accindet,personal_cars,animal_hit}'
12412,2017-03-08 07:50:00,Od 8.3.2017 07:50 do 09:55; na silnici 1774 u obce Střížovice okres Plzeň-jih; nehoda; Střet 2xOA. PČR na místo.,137.577105068,87.2419134381892,{accindet}
12413,2017-03-08 08:40:00,Od 8.3.2017 08:40 do 10:45; v ulici Hlavní v obci Tlučná okres Plzeň-sever; nehoda; 2x OA. PČR na místo.,137.415310934644,87.124131193792,'{accindet,personal_cars}'
12414,2017-03-08 13:35:00,Od 8.3.2017 13:35 do 15:40; v ulici Domažlická v obci Plzeň; nehoda; Střet 4x OA. PČR na místo.,137.482995912431,87.1101173104236,'{accindet,personal_cars}'
12415,2017-03-08 15:45:00,Od 8.3.2017 15:45 do 17:50; v ulici Lobezská v obci Plzeň; nehoda; Střet 3xOA. PČR na místo.,137.524390401326,87.1047167259331,{accindet}
12416,2017-03-08 17:00:00,Od 8.3.2017 17:00 do 19:05; v ulici Koterovská v obci Plzeň; nehoda; Střet 2x OA. PČR na místo.,137.521038223548,87.106507078022,'{accindet,personal_cars}'
12417,2017-03-09 08:00:00,'Od 9.3.2017 08:00 do 10:05; na silnici u obce Stod okres Plzeň-jih; nehoda; havarované vozidlo; překážka na vozovce, průjezd se zvýšenou opatrností; havárie OA do příkopu, bez zranění osob.',137.370807467971,87.2100011455587,'{accindet,personal_cars}'
12418,2017-03-10 18:20:00,'Od 10.3.2017 18:20 do 20:25; v ulici Gerská v obci Plzeň; nehoda; 2 havarovaná vozidla; probíhá vyšetřování nehody, nebezpečí; OA x tramvaj bez zranění.',137.508937956879,87.0614637344356,'{accindet,personal_cars}'
12419,2017-03-11 21:00:00,'Od 11.3.2017 21:00 do 21:45; na silnici 27 u obce Hromnice okres Plzeň-sever; všechny nehody byly odstraněny, nejsou hlášeny žádné další problémy; OA x zvěř.',137.522281956881,86.9852073142486,'{accindet,personal_cars,animal_hit}'
