ID,od,popis,x,y,ts_flags
12460,2017-03-30 14:00:00,Od 30.3.2017 15:00 do 17:05; na silnici 20 u obce Líšťany okres Plzeň-sever; nehoda; Střet 2x OA se zraněním. IZS a PČR na místo.,137.395852801308,87.0000302635407,'{accindet,injury,personal_cars}'
12461,2017-03-30 15:20:00,Od 30.3.2017 16:20 do 18:25; v ulici Revoluční v obci Nýřany okres Plzeň-sever; nehoda; Střet 3x OA. PČR na místo.,137.386298312418,87.1381194059877,'{accindet,personal_cars}'
12462,2017-03-31 14:35:00,'Od 31.3.2017 15:35 do 16:40; na silnici 27 u obce Dobřany okres Plzeň-jih; nehoda; neprůjezdný pruh, 2 havarovaná vozidla; 2 x OA bez zranění, na místo PČR.',137.483758223542,87.2122140792444,'{accindet,personal_cars}'
12463,2017-03-31 19:10:00,'Od 31.3.2017 20:10 do 21:15; na silnici 201 u obce Štichovice okres Plzeň-sever; nehoda; srážka OA se zvěří, na místo PČR.',137.446478934648,86.8487688138098,'{accindet,personal_cars,animal_hit}'
12464,2017-03-31 22:50:00,'Od 31.3.2017 23:50 do 1.4.2017 00:55; na silnici 27 u obce Plasy okres Plzeň-sever; nehoda; - srážka OA se zvěří, na místo PČR',137.519889779103,86.9095164706286,'{accindet,personal_cars,animal_hit}'
12465,2017-04-01 14:40:00,Od 1.4.2017 15:40 do 17:45; na silnici 19 v obci Žákava okres Plzeň-jih; nehoda; 2 havarovaná vozidla; OA x MOTO se zraněním. ZZS a PČR na místě.,137.621552356895,87.2245389384032,'{accindet,injury,personal_cars}'
12466,2017-04-01 20:10:00,'Od 1.4.2017 21:10 do 23:15; na silnici 203 u obce Vejprnice okres Plzeň-sever; nehoda; střet OA se zvěří, bez zranění osob. Na místo PČR.',137.431730490202,87.1201819788155,'{accindet,personal_cars,animal_hit}'
12467,2017-04-01 21:40:00,Od 1.4.2017 22:40 do 2.4.2017 00:45; v ulici Mohylová v obci Plzeň; nehoda; 2 havarovaná vozidla; 2 x OA bez zranění. PČR na místo.,137.546414934662,87.0959874868779,'{accindet,personal_cars}'
12468,2017-04-02 20:10:00,Od 2.4.2017 21:10 do 22:05; na silnici 20 v obci Plzeň; ve směru do centra.; nehoda; 2 havarovaná vozidla; probíhá vyšetřování nehody; 2 x OA bez zranění. Na místě PČR.,137.510989512435,87.0912216796456,'{accindet,personal_cars}'
12469,2017-04-03 06:15:00,'Od 3.4.2017 07:15 do 09:20; v ulici tř. 1. máje v obci Dobřany okres Plzeň-jih; nehoda; probíhá vyšetřování nehody; OA x chodec se zraněním. Na místo PČR, ZZS',137.451546312427,87.2022326387992,'{accindet,pedestrian_involvement,injury,personal_cars}'
