ID,od,popis,x,y,ts_flags
12470,2017-04-03 06:30:00,'Od 3.4.2017 07:30 do 10:35; na silnici 180 u obce Kozolupy okres Plzeň-sever; nehoda nákladního vozidla; neprůjezdná komunikace; NA x OA bez zranění, neprůjezdné, na místo policie, zvýšená opatrnost.',137.414928356866,87.0835448635634,'{accindet,personal_cars,trucks}'
12471,2017-04-03 21:20:00,'Od 3.4.2017 22:20 do 4.4.2017 00:25; v ulicích Lidická, alej Svobody v obci Plzeň , délka 82m; nehoda; 2 havarovaná vozidla; překážka na vozovce, průjezd se zvýšenou opatrností; 2x OA, se zraněním.',137.509658312435,87.079270069401,'{accindet,injury,personal_cars}'
12472,2017-04-04 13:40:00,'Od 4.4.2017 14:40 do 15:40; v ulici Plzeňská v obci Zbůch okres Plzeň-sever; V ulici Plzeňská v blízkosti křižovatky s ul. V Sídlišti.; nehoda; havarované vozidlo; Pozor! Olej na vozovce; Náraz OA do obrubníku, bez zranění, únik oleje z proražené vany.',137.41184640131,87.1691898701119,'{accindet,personal_cars}'
12473,2017-04-04 22:35:00,'Od 4.4.2017 23:35 do 5.4.2017 00:35; na dálnici D5; Na nájezdu na dálnici d-5 od OC Olympia ve směru Rozvadov - Praha.; nehoda; srážka kamionu se srnou bez zranění osob, únik provozních kapalin nehlášen.',137.554557156886,87.146704317018,'{accindet,animal_hit}'
12474,2017-04-06 04:55:00,Od 6.4.2017 05:55 do 08:00; na silnici 230 u obce Chotěšov okres Plzeň-jih; nehoda; Havárie OA. PČR na místo.,137.396723912419,87.2201260780608,'{accindet,personal_cars}'
12475,2017-04-07 22:05:00,'Od 7.4.2017 23:05 do 8.4.2017 01:10; na silnici 203 u obce Vejprnice okres Plzeň-sever; nehoda; havarované vozidlo; havárie OA do příkopu, bez zranění.',137.433737245758,87.1193425954909,'{accindet,personal_cars}'
12476,2017-04-08 13:25:00,'Od 8.4.2017 14:25 do 15:25; v ulici Plzenecká v obci Plzeň; Křižovatka ul. Plzenecká x Lobezská; nehoda; 2 havarovaná vozidla; probíhá vyšetřování nehody, nebezpečí; 2 x OA bez zranění a bez úniku provozních kapalin.',137.526670934659,87.1066017108196,'{accindet,personal_cars}'
12477,2017-04-08 21:15:00,Od 8.4.2017 22:15 do 23:15; na silnici 180 u obce Dolany okres Plzeň-sever; Na Dolanském mostě přes Berounku.; nehoda; 2 havarovaná vozidla; 2x OA bez zranění a bez úniku provozních kapalin.,137.577579379111,87.0430455282565,'{accindet,personal_cars}'
12478,2017-04-09 18:50:00,Od 9.4.2017 19:50 do 22:55; v ulici Habrmannova v obci Plzeň; nehoda autobusu; Střet BUS x OA. PČR na místo.,137.526764801326,87.1112506155725,'{accindet,personal_cars}'
12479,2017-04-09 19:45:00,Od 9.4.2017 20:45 do 22:50; na silnici 230 u obce Týniště okres Plzeň-jih; nehoda; Střet OA se zvěří. PČR na místo.,137.542761245773,87.3524721199235,'{accindet,personal_cars,animal_hit}'
