ID,od,popis,x,y,ts_flags
12570,2017-05-24 17:50:00,'Od 24.5.2017 18:50 do 19:50; v ulici Pod Vinicemi v obci Plzeň , délka 330m; nehoda; 2 havarovaná vozidla; 2 x OA bez zranění, únik provozních kapalin nehlášen.',137.4972913791,87.0893658714742,'{accindet,personal_cars}'
12571,2017-05-25 06:50:00,'Od 25.5.2017 07:50 do 09:55; v ulici Jateční v obci Plzeň; nehoda; 2xOA bez zranění, teče voda z chladiče, překáží provozu, zvýšená opatrnost, na míst policie',137.529964090215,87.0781327821821,{accindet}
12572,2017-05-25 14:00:00,'Od 25.5.2017 15:00 do 17:05; v ulici Motýlí v obci Plzeň; Motýlí x Zahradní; nehoda; 2xOA bez zranění, bez úniku PHM, překáží provozu, zvýšená opatrnost',137.52381084577,87.1185042991071,{accindet}
12573,2017-05-25 16:10:00,'Od 25.5.2017 17:10 do 19:15; na silnici 188 v obci Oselce okres Plzeň-jih; nehoda; 2xOA se zranění, zvýšená opatrnost,překáží provozu, na místo policie',137.722569245798,87.4440294179383,'{accindet,injury}'
12574,2017-05-25 20:20:00,'Od 25.5.2017 21:20 do 23:25; na silnici 27 u obce Třemošná okres Plzeň-sever; nehoda; střet OA se srnou, bez zranění osob, překáží provozu, zvýšená opatrnost, ohrožení BESIP.',137.520075379103,87.0083684287389,'{accindet,personal_cars,animal_hit}'
12575,2017-05-25 22:10:00,'Od 25.5.2017 23:10 do 26.5.2017 01:15; na silnici u obce Líně okres Plzeň-sever; nehoda; střet OA s divočákem, bez zranění osob, zvýšená opatrnost, překáží provozu. Na místo policie.',137.435553423536,87.1614187264862,'{accindet,personal_cars,animal_hit}'
12576,2017-05-26 07:30:00,'Od 26.5.2017 08:30 do 11:40; v ulici Folmavská v obci Plzeň; nehoda nákladního vozidla; 3 havarovaná vozidla; probíhá vyšetřování nehody; NA x 2 x OA, se zraněním osoby. Na místě PČR, ZZS.',137.497188267989,87.1190070584917,'{accindet,injury,personal_cars,trucks}'
12577,2017-05-26 08:25:00,'Od 26.5.2017 09:25 do 11:30; v ulici Částkova v obci Plzeň , délka 354m; nehoda; 2 havarovaná vozidla; probíhá vyšetřování nehody; 2 x OA bez zranění. Na místě PČR.',137.531475912438,87.113967149104,'{accindet,personal_cars}'
12578,2017-05-26 18:20:00,'Od 26.5.2017 19:20 do 21:25; v ulici U Trati v obci Plzeň; nehoda; 2 OA, bez zranění, na místo PČR',137.514437690213,87.107201414765,'{accindet,personal_cars}'
12579,2017-05-26 22:20:00,'Od 26.5.2017 23:20 do 27.5.2017 01:25; v ulici Gerská v obci Plzeň; nehoda; OA, na místo PČR, bez zranění',137.507764623546,87.064526393464,'{accindet,personal_cars}'
