ID,od,popis,x,y,ts_flags
1260,2013-09-10 11:45:00,'Od 10.9.2013 12:45 do 14:20; na silnici 180 u obce Myslinka okres Plzeň-sever; za obcí Myslinka ve směru na Kozolupy; nehoda odstraněna; provoz obnoven; převrácené OA na střeše v příkopu, částečně zasahuje do pravého jízdního pruhu',137.404735290198,87.0920879215149,'{accindet,personal_cars}'
1261,2013-09-10 12:30:00,'Od 10.9.2013 13:30 do 15:35; v ulici Klatovská třída v obci Plzeň; přižovatka ulic Klatovská X Borská; nehoda; střet OA s NA, bez zranění, bez úniku - plechy, částečně omezen průjezd křižovatkou',137.508290845768,87.1081279166088,'{accindet,personal_cars}'
1262,2013-09-10 14:00:00,'Od 10.9.2013 15:00 do 17:05; v ulici Plaská v obci Plzeň; křižovatka s ulicí Studentská va směru do města; nehoda; nehoda, neprůjezdný pravý jízdní pruh; zadní střet vozidel, bez zranění, bez úniku PK,',137.514225779102,87.0691415249227,{accindet}
1263,2013-09-10 14:20:00,'Od 10.9.2013 15:20 do 17:25; v ulici Dvořákova v obci Plzeň; nehoda; havarované vozidlo, neprůjezdný pravý jízdní pruh; střet 2 OA, bez zranění, bez úniku PK',137.507395556879,87.1221038199108,'{accindet,personal_cars}'
1264,2013-09-10 14:40:00,'Od 10.9.2013 15:40 do 17:50; v ulici U Prazdroje v obci Plzeň; před podjezdem železnice ve směru na Prahu; nehoda odstraněna; provoz obnoven; zadní střet 2 OA, bez zranění, bez úniku PK',137.528585245771,87.0987345117777,'{accindet,personal_cars}'
1265,2013-09-10 15:05:00,'Od 10.9.2013 16:05 do 18:10; na silnici v obci Plzeň; křižovatku ulic Nepomucká s K Dráze; nehoda; střet NA se semaforem, provoz neomezen',137.536472890216,87.1376762125022,'{accindet,trucks}'
1266,2013-09-10 15:55:00,'Od 10.9.2013 16:55 do 19:00; na silnici 178 u obce Blovice okres Plzeň-jih; za obcí Blovice ve směru na Seč; nehoda; DN OA v příkopu, bez zranění, místo průjezdné bez omezení',137.61122702356,87.2775559238697,'{accindet,personal_cars}'
1267,2013-09-10 16:05:00,'Od 10.9.2013 17:05 do 17:50; v ulici náměstí Milady Horákové v obci Plzeň; křižovatka s ulicí Mostní; nehoda odstraněna; provoz obnoven; střet 2 OA, bez zranění, bez úniku,',137.528617245771,87.1246262001408,'{accindet,personal_cars}'
1268,2013-09-11 05:20:00,'Od 11.9.2013 06:20 do 08:25; v ulici Klatovská třída v obci Plzeň; před restaurací U Švejka ve směru z města; nehoda; 2 x OA bez zranění, bez úniku, místo průjezdné.',137.505585779101,87.1216186908198,'{accindet,personal_cars}'
1269,2013-09-11 06:35:00,'Od 11.9.2013 07:35 do 09:40; v ulici Sokolovská v obci Plzeň; křižovatka Gerská x Sokolovská; nehoda; 2 havarovaná vozidla; dopravní nehoda 2 x OA bez zranění, průjezdné s opatrností, únik provozních kapalin na místo HZS a PČR',137.502873601323,87.0760089737868,'{accindet,personal_cars}'
