ID,od,popis,x,y,ts_flags
12630,2017-06-09 19:50:00,'Od 9.6.2017 20:50 do 21:50; na silnici 201 u obce Manětín okres Plzeň-sever; nehoda; srážka OA se zvěří, na místo PČR.',137.423844267978,86.842503455469,'{accindet,personal_cars,animal_hit}'
12631,2017-06-10 09:50:00,'Od 10.6.2017 10:50 do 12:55; na silnici 27 u obce Horní Lukavice okres Plzeň-jih; nehoda; 3 havarovaná vozidla; překážka na vozovce, průjezd se zvýšenou opatrností; 3 x OA bez zranění, únik vody z chadiče, blokují provoz. NA místě PČR.',137.476961423541,87.2398169855977,'{accindet,personal_cars,trucks}'
12632,2017-06-10 10:50:00,'Od 10.6.2017 11:50 do 13:55; na silnici 20 u obce Chocenice okres Plzeň-jih; nehoda; 2 havarovaná vozidla; překážka na vozovce, průjezd se zvýšenou opatrností; MOTO x OA se zraněním. Na místě ZZS a PČR.',137.607037868004,87.3071094161215,'{accindet,injury,personal_cars}'
12633,2017-06-10 11:50:00,'Od 10.6.2017 12:50 do 14:55; na silnici 19 u obce Spálené Poříčí okres Plzeň-jih; nehoda; 2 havarovaná vozidla; překážka na vozovce, průjezd se zvýšenou opatrností; 2 x OA bez zranění.',137.688964268015,87.2522188873011,'{accindet,personal_cars}'
12634,2017-06-10 22:25:00,'Od 10.6.2017 23:25 do 11.6.2017 01:30; v ulici Znojemská v obci Plzeň; nehoda; OA bez zranění, překáží provozu, zývšená opatrnost,ohrožení BESIP',137.492023467988,87.0844530618509,'{accindet,personal_cars}'
12635,2017-06-12 05:35:00,Od 12.6.2017 06:35 do 08:40; na silnici 180 u obce Kozolupy okres Plzeň-sever; nehoda; 2 havarovaná vozidla; probíhá vyšetřování nehody; 2 x OA bez zranění.,137.413720890199,87.0853744545033,'{accindet,personal_cars}'
12636,2017-06-12 07:40:00,'Od 12.6.2017 08:40 do 09:45; v ulici U Prazdroje v obci Plzeň; - ve směru na Prahu; nehoda; neprůjezdný pruh, 2 havarovaná vozidla; 2x OA, bez zranění, na místo PČR.',137.530496001327,87.0986937916875,'{accindet,personal_cars}'
12637,2017-06-12 09:05:00,'Od 12.6.2017 10:05 do 12:10; na silnici 204 v obci Loza okres Plzeň-sever; nehoda; probíhají záchranné a vyprošťovací práce, nebezpečí; neprůjezdný pruh, 2 havarovaná vozidla; 2x OA, se zraněním, na místo PČR, HZS, ZZS',137.450874312427,86.9386042947855,'{accindet,injury,personal_cars}'
12638,2017-06-12 13:10:00,'Od 12.6.2017 14:10 do 15:15; na silnici 18022 u obce Šťáhlavy okres Plzeň-město; nehoda; probíhají záchranné a vyprošťovací práce, nebezpečí; - havárie OA do stromu, se zraněním, na místo PČR, ZZS, HZS',137.597290668003,87.1716660664106,'{accindet,injury,personal_cars}'
12639,2017-06-12 14:05:00,'Od 12.6.2017 15:05 do 16:10; v ulici Slovanská v obci Plzeň; nehoda; - 2x OA, bez zranění, na místo PČR',137.528076801326,87.1239584904974,'{accindet,personal_cars}'
