ID,od,popis,x,y,ts_flags
12640,2017-06-12 22:20:00,'Od 12.6.2017 23:20 do 13.6.2017 00:25; na silnici 20 u obce Měcholupy okres Plzeň-jih; nehoda; havarované vozidlo; zvěř na vozovce; OA x zvěř, bez zranění.',137.626390756896,87.3544535405804,'{accindet,personal_cars,animal_hit}'
12641,2017-06-13 13:20:00,'Od 13.6.2017 14:20 do 16:25; na silnici 2051 u obce Líšťany okres Plzeň-sever; nehoda; OA xmoto se zraněním, na místo RZS a policie, zvýšená  opatrnost, překáží provozu',137.383179379084,87.0054921681577,'{accindet,injury,personal_cars}'
12642,2017-06-13 14:45:00,'Od 13.6.2017 15:45 do 17:50; v ulici Dobřanská v obci Plzeň; nehoda; očekávejte silný provoz; 2xOA se zraněním, na místě RZS a policie, zvýšená opatranost',137.479106134653,87.1455585690459,'{accindet,injury}'
12643,2017-06-13 16:50:00,'Od 13.6.2017 17:50 do 19:55; na silnici 27 u obce Dolní Lukavice okres Plzeň-jih; nehoda; OA v příkopu bez zranění, bez úniku PHM, překáží provozu, zvýšená opatrnost',137.476185601319,87.261087227527,'{accindet,personal_cars}'
12644,2017-06-13 19:10:00,'Od 13.6.2017 20:10 do 22:15; na silnici 27 v obci Lužany okres Plzeň-jih; nehoda; 2x OA bez zranění, bez úniku PHM, překáží provozu.',137.468932267985,87.3193609254904,'{accindet,personal_cars}'
12645,2017-06-13 21:25:00,'Od 13.6.2017 22:25 do 14.6.2017 00:30; na dálnici D5; nájezd na D5 - Plzeň Bory; nehoda; OA x srna, zvýšená opatrnost, ohrožení BESIP.',137.505779201323,87.1654638192303,'{accindet,personal_cars,animal_hit}'
12646,2017-06-13 21:30:00,'Od 13.6.2017 22:30 do 14.6.2017 00:35; na silnici 27 u obce Horní Lukavice okres Plzeň-jih; nehoda; OA x srnec, zvýšená opatrnost,překáží provozu, na místo policie',137.476624356875,87.2409365673626,'{accindet,personal_cars}'
12647,2017-06-14 06:00:00,'Od 14.6.2017 07:00 do 09:05; v ulici Za Rybárnou v obci Plzeň; nehoda; 2x OA bez zranění, únik z chladiče, částečně průjezdné, na místo policie.',137.510990223546,87.1407619945302,'{accindet,personal_cars}'
12648,2017-06-14 06:15:00,Od 14.6.2017 07:15 do 10:20; na silnici 2045 u obce Všeruby okres Plzeň-sever; nehoda autobusu; Střet BUS + OA se zraněním. IZS a PČR na místo.,137.409367467976,86.9847804951748,'{accindet,injury,personal_cars}'
12649,2017-06-14 15:40:00,Od 14.6.2017 16:40 do 18:45; na silnici u obce Stod okres Plzeň-jih; nehoda; 2 havarovaná vozidla; probíhá vyšetřování nehody; 2 x OA se zraněním. ZZS a PČR na místě.,137.370298312415,87.2104492308419,'{accindet,injury,personal_cars}'
