ID,od,popis,x,y,ts_flags
1280,2013-09-12 05:30:00,'Od 12.9.2013 06:30 do 08:35; v ulici Mantovská v obci Chotěšov okres Plzeň-jih; nehoda; 3 havarovaná vozidla; dopravní nehoda 3 x OA bez zranění, průjedné s opatrností',137.389641245751,87.204186678825,'{accindet,personal_cars}'
1281,2013-09-12 06:35:00,'Od 12.9.2013 07:35 do 09:40; na silnici 230 u obce Horšice okres Plzeň-jih; nehoda; 2 havarovaná vozidla; probíhá vyšetřování nehody; dodávka x OA se zraněním, PČR a RZS jede na místo,',137.530035201327,87.3242445249205,'{accindet,injury,personal_cars}'
1282,2013-09-12 06:40:00,Od 12.9.2013 07:40 do 08:40; v ulici Samaritská v obci Plzeň; křižovatka s ul. Zborovská.; nehoda; 2 havarovaná vozidla; 2 x OA bez zranění.,137.516677690214,87.1207496276874,'{accindet,personal_cars}'
1283,2013-09-12 06:40:00,'Od 12.9.2013 07:40 do 09:45; na silnici 2312 v obci Hromnice okres Plzeň-sever; nehoda; 2 havarovaná vozidla; probíhá vyšetřování nehody; OA x moto se zraněním, IZS jede na místo',137.563849245776,86.9918694397726,'{accindet,injury,personal_cars}'
1284,2013-09-12 12:10:00,'Od 12.9.2013 13:10 do 15:15; na silnici 2031 u obce Vejprnice okres Plzeň-sever; nehoda; havarované vozidlo; probíhá vyšetřování nehody; havárie OA se zraněním, bez úniku PHM, RZS a PČR jede na místo.',137.447879823537,87.1098125242547,'{accindet,injury,personal_cars}'
1285,2013-09-12 12:10:00,'Od 12.9.2013 13:10 do 15:15; na silnici 193 u obce Úněšov okres Plzeň-sever; nehoda; havarované vozidlo; OA v příkopu, bez úniku PHM.',137.336679112411,86.958770065524,'{accindet,personal_cars}'
1286,2013-09-12 12:20:00,'Od 12.9.2013 13:20 do 15:25; v ulici U Panasoniku v obci Plzeň; nehoda; 2 havarovaná vozidla; 2 x OA se zraněním, bez úniku PHM, PČR jede na místo.',137.484258134654,87.1181599557032,'{accindet,injury,personal_cars}'
1287,2013-09-12 13:45:00,'Od 12.9.2013 14:45 do 16:50; v ulici Pod Vinicemi v obci Plzeň; nehoda; havarované vozidlo; probíhá vyšetřování nehody; OA se zraněním, PČR a RZS jede na místo.',137.490230045765,87.0902640642688,'{accindet,injury,personal_cars}'
1288,2013-09-12 14:00:00,'Od 12.9.2013 15:00 do 16:00; v ulici Sukova v obci Plzeň; na kruháči u Area Bory,; nehoda; 2 havarovaná vozidla; 2 x OA  bez zranění.',137.500564623545,87.1189025465367,'{accindet,personal_cars}'
1289,2013-09-12 14:40:00,'Od 12.9.2013 15:40 do 18:45; na silnici 20 u obce Chválenice okres Plzeň-město; nehoda nákladního vozidla; 2 havarovaná vozidla; NA x OA bez zranění, bez úniku PHM',137.586397868001,87.2266359899656,'{accindet,personal_cars,trucks}'
