ID,od,popis,x,y,ts_flags
1320,2013-09-16 10:25:00,'Od 16.9.2013 11:25 do 12:30; v ulici Úslavská v obci Plzeň; nehoda; 2 havarovaná vozidla; 2 x OA bez zranění, na místo jede PČR.',137.521560179103,87.1048773869008,'{accindet,personal_cars}'
1321,2013-09-16 10:45:00,'Od 16.9.2013 11:45 do 12:50; v ulici Folmavská v obci Plzeň; u prodejny ASKO.; nehoda nákladního vozidla; 2 havarovaná vozidla; NA x OA bez zranění, na místě PČR.',137.487981512432,87.1181720572662,'{accindet,personal_cars,trucks}'
1322,2013-09-16 14:35:00,'Od 16.9.2013 15:35 do 17:40; na silnici 180 u obce Letkov okres Plzeň-město; křižovatka mezi Božkovem a Letkovem.; nehoda; 2 havarovaná vozidla; probíhá vyšetřování nehody; 2 x OA se zraněním, na místě PČR a RZS.',137.567490845776,87.1208530359407,'{accindet,injury,personal_cars}'
1323,2013-09-16 15:00:00,'Od 16.9.2013 16:00 do 17:05; v ulici Prvomájová v obci Plzeň; nehoda; havarované vozidlo; probíhá vyšetřování nehody; odstavené  OA po DN, na místo PČR.',137.461092979095,87.0899668697966,'{accindet,personal_cars}'
1324,2013-09-16 15:50:00,'Od 16.9.2013 16:50 do 17:55; v ulici Plzeňská v obci Třemošná okres Plzeň-sever; nehoda; 2 havarovaná vozidla; probíhá vyšetřování nehody; 2 x OA bez zranění, na místě PČR.',137.524586667992,87.0261671456151,'{accindet,personal_cars}'
1325,2013-09-16 18:30:00,'Od 16.9.2013 19:30 do 21:35; na silnici 1808 u obce Třemošná okres Plzeň-sever; nehoda; - 4 x OA, bez zranění, na místo PČR',137.506759823546,87.0395034720409,'{accindet,personal_cars}'
1326,2013-09-17 04:55:00,'Od 17.9.2013 05:55 do 08:00; v ulici Plzeňská v obci Stod okres Plzeň-jih; nehoda; probíhají záchranné a vyprošťovací práce, nebezpečí; - OA x chodec, se zraněním, na místo PČR, ZZS',137.361666845748,87.2169537322551,'{accindet,pedestrian_involvement,injury,personal_cars}'
1327,2013-09-17 07:55:00,'Od 17.9.2013 08:55 do 11:00; v ulici Borská v obci Plzeň; Borská x Nemejcova, Plzeň; nehoda; 2x OA bez zranění,',137.50528426799,87.1081059096255,'{accindet,personal_cars}'
1328,2013-09-17 09:15:00,'Od 17.9.2013 10:15 do 12:20; v ulici tř. 1. máje v obci Dobřany okres Plzeň-jih; nehoda; 2x OA bez zranění, bez úniku PHM',137.452371912427,87.2023556608514,'{accindet,personal_cars}'
1329,2013-09-17 16:40:00,'Od 17.9.2013 17:40 do 19:45; na silnici v obci Plzeň; nehoda; OA x lampa bez zranění, PČR jede na místo',137.511059201324,87.0978078469019,'{accindet,personal_cars}'
