ID,od,popis,x,y,ts_flags
1330,2013-09-17 17:30:00,'Od 17.9.2013 18:30 do 20:35; na silnici třídy I u obce Třemošná okres Plzeň-sever; nehoda; 2xOA bez zranění, bez úniku PHM, částečně blokují provoz',137.521985423548,87.0357925991321,{accindet}
1331,2013-09-17 17:30:00,'Od 17.9.2013 18:30 do 20:35; v ulici Zborovská v obci Plzeň; nehoda; 2x OA bez zranění, bez úniku PHM',137.516401779102,87.1338863731188,'{accindet,personal_cars}'
1332,2013-09-17 18:25:00,'Od 17.9.2013 19:25 do 21:25; na silnici 1808 u obce Plzeň; nehoda; 2 havarovaná vozidla; 2 x OA se zraněním, RZSa PČR jede na místo.',137.510237156879,87.0583006744226,'{accindet,injury,personal_cars}'
1333,2013-09-18 05:35:00,'Od 18.9.2013 06:35 do 08:40; v ulici Blatenská v obci Plzeň; nehoda; 2 x OA bez zranění, bez úniku PHM. PČR jede na místo.',137.534018845772,87.1149507444185,'{accindet,personal_cars}'
1334,2013-09-18 07:05:00,'Od 18.9.2013 08:05 do 09:05; na silnici v obci Plzeň; Vejprnická u \'' Myší díry \''; nehoda; 2 havarovaná vozidla; OA x Moto se zraněním, bez úniku provozních kapalin, místo je průjezdné. Na místo RZS, HZS a PČR.',137.466892801318,87.1110602660002,'{accindet,injury,personal_cars}'
1335,2013-09-18 07:15:00,'Od 18.9.2013 08:15 do 10:15; v ulici Vejprnická v obci Plzeň; na křižovatce za mostem; nehoda; 2 havarovaná vozidla; 2 x OA bez zranění a bez úniku provozních kapalin, místo je průjezdné.',137.479264712431,87.1063838350575,'{accindet,personal_cars}'
1336,2013-09-18 09:30:00,'Od 18.9.2013 10:30 do 12:30; v ulici Pražská v obci Plzeň; křiž. s ul. náměstí Rrepubliky; nehoda; 2 havarovaná vozidla; neprůjezdná komunikace; OA x TRAM bez zranění, únik provozních kapalin nehlášen. Místo momentálně neprůjezdné.',137.513806223547,87.0991417109708,'{accindet,personal_cars}'
1337,2013-09-18 09:45:00,'Od 18.9.2013 10:45 do 11:45; na silnici 1807 u obce Třemošná okres Plzeň-sever; před obcí ve směru od Horní Břízy, než se vjede na most; nehoda; havarované vozidlo; havárie OA bez zranění, únik provozních kapalin nehlášen.',137.51791715688,87.0085062295863,'{accindet,personal_cars}'
1338,2013-09-18 10:05:00,'Od 18.9.2013 11:05 do 13:05; na silnici 27 u obce Plasy okres Plzeň-sever; nad obcí ve směru na Kralovice; nehoda; 2 havarovaná vozidla; OA x NA bez zranění, únik provozních kapalin (asi olej), poškozena svodidla.',137.524551823548,86.8886127609824,'{accindet,personal_cars,trucks}'
1339,2013-09-18 10:20:00,'Od 18.9.2013 11:20 do 13:20; v ulici Karlovarská v obci Plzeň; u BČS Shell ve směru na Lochotín; nehoda; 2 havarovaná vozidla; 2 x TRAM se zraněním, bez úniku provozních kapalin.',137.508989156879,87.0880328638665,'{accindet,injury}'
