ID,od,popis,x,y,ts_flags
1350,2013-09-19 17:35:00,'Od 19.9.2013 18:35 do 20:40; v ulici U Trati v obci Plzeň; křižovatka s ulicí Klatovská; nehoda; střet 2 OA, bez zranění, únik chladící směsi, omezen průjezd křižovatkou',137.508499912435,87.10805639388,'{accindet,personal_cars}'
1351,2013-09-19 18:35:00,'Od 19.9.2013 19:35 do 21:00; na silnici 20 u obce Všeruby okres Plzeň-sever; za obcí Úněšov ve směru na Plzeň; nehoda; střet OA se zvěří, bez zranění osob, bez úniku, OA označeno na krajnici.',137.359827201303,86.9714845275965,'{accindet,personal_cars,animal_hit}'
1352,2013-09-20 05:35:00,'Od 20.9.2013 06:35 do 08:40; na silnici 2054 u obce Plasy okres Plzeň-sever; za obcí Plasy ve směru na Lomany.; nehoda; havarované vozidlo; zvěř na vozovce; střet se zvěří, OA odstaveno na krajnici',137.505597156879,86.89181021363,'{accindet,personal_cars,animal_hit}'
1353,2013-09-20 07:40:00,'Od 20.9.2013 08:40 do 10:40; na silnici 20 u obce Chválenice okres Plzeň-město; Blokován jízdní pruh ve směru na Plzeň.; nehoda, silný provoz; 2 havarovaná vozidla; jízdní pruh uzavřen; 2 x OA bez zranění a úniku provozních kapalin.',137.590131912446,87.2367336240833,'{accindet,personal_cars}'
1354,2013-09-20 09:00:00,'Od 20.9.2013 10:00 do 12:05; v ulici Karlovarská v obci Plzeň; ve směru na Lochotín.; nehoda nákladního vozidla; neprůjezdný pruh, 2 havarovaná vozidla; probíhá vyšetřování nehody; NA x OA, se zraněním, na místo PČR, ZZS.',137.508858312435,87.0878919659891,'{accindet,injury,personal_cars,trucks}'
1355,2013-09-20 12:20:00,'Od 20.9.2013 13:20 do 14:25; na silnici 20 u obce Vlčtejn okres Plzeň-jih; nehoda; 3 havarovaná vozidla; 3 x OA bez zranění, na místě PČR.',137.591404090224,87.2403745841512,'{accindet,personal_cars}'
1356,2013-09-20 14:10:00,'Od 20.9.2013 15:10 do 17:55; D5 - 102.6-103.6km na trase Praha - Rozvadov; přesné místo DN 103,5 km dálnice D5 směr Rozvadov; nehoda odstraněna; provoz v jízdním pruhu obnoven; NA x OA se zraněním, na místo PČR, ZZS, HZS, průjezdný pouze pravý JP, na místo SÚS k označení místa.',137.315024356852,87.1265401815197,'{accindet,injury,personal_cars,trucks}'
1357,2013-09-20 14:45:00,'Od 20.9.2013 15:45 do 16:45; v ulici U Prazdroje v obci Plzeň; nehoda, silný provoz; 4 havarovaná vozidla; 4 x OA bez zranění',137.523347201326,87.0998009268641,'{accindet,personal_cars}'
1358,2013-09-20 15:50:00,'Od 20.9.2013 16:50 do 17:55; v ulici Rokycanská v obci Plzeň; pod železničním viaduktem.; nehoda; 2 havarovaná vozidla; 2 x OA bez zranění, na místě PČR.',137.530041601327,87.0986629764635,'{accindet,personal_cars}'
1359,2013-09-20 16:25:00,'Od 20.9.2013 17:25 do 19:30; v ulici Klatovská třída v obci Plzeň; ve směru z centra.; nehoda s únikem paliva; neprůjezdný pruh, 3 havarovaná vozidla; probíhají odklízecí práce; 3 x OA bez zranění, na místo jede PČR, únik benzinu, na místo HZS.',137.50758186799,87.1159618263095,'{accindet,personal_cars}'
