ID,od,popis,x,y,ts_flags
1390,2013-09-26 04:20:00,'Od 26.9.2013 05:20 do 07:25; na silnici 20 u obce Nepomuk okres Plzeň-jih; nehoda; DN, 1 OA, bez zranění, střet se zvěří-2 prasata, na místo PČR',137.667709156901,87.3901766396581,'{accindet,personal_cars,animal_hit}'
1391,2013-09-26 05:30:00,'Od 26.9.2013 06:30 do 08:35; v ulici Klatovská v obci Plzeň; nehoda; 2x OA, bez zranění, na místo PČR',137.498240712433,87.1392246243422,'{accindet,personal_cars}'
1392,2013-09-26 11:05:00,'Od 26.9.2013 12:05 do 14:10; na silnici 20 u obce Kasejovice okres Plzeň-jih; - křižovatka na obec Kotouň; nehoda nákladního vozidla; rozsypaný náklad, neprůjezdná zpevněná krajnice; převrácený vlek se dřevem do příkopu, NA stojí na vozovce, bez zranění, na místo jede PČR.',137.717277156908,87.4061187597527,'{accindet,trucks}'
1393,2013-09-26 13:10:00,'Od 26.9.2013 14:10 do 16:15; na silnici 203 v obci Plzeň; nehoda; probíhá vyšetřování nehody; OA x cyklista se zraněním, na místě PČR, ZZS.',137.466520179096,87.1107774911052,'{accindet,injury,personal_cars,cyclist}'
1394,2013-09-26 13:40:00,'Od 26.9.2013 14:40 do 15:45; v ulici Němejcova v obci Plzeň; křižovatka s ul.  Zámečnická.; nehoda; 2 havarovaná vozidla; 2 x OA bez zranění, na místo jede PČR.',137.505266490212,87.1088497406321,'{accindet,personal_cars}'
1395,2013-09-26 13:45:00,'Od 26.9.2013 14:45 do 15:50; v ulici Edvarda Beneše v obci Plzeň; nehoda; neprůjezdný pruh, 3 havarovaná vozidla; 3 x OA bez zranění, na místo jede PČR.',137.50863146799,87.1108380072592,'{accindet,personal_cars}'
1396,2013-09-26 15:10:00,'Od 26.9.2013 16:10 do 17:15; v ulici Domažlická v obci Plzeň; ve směru z centra.; nehoda; neprůjezdný pruh, 2 havarovaná vozidla; 2 x OA, bez zranění, na místo jede PČR.',137.495618845766,87.1029450215551,'{accindet,personal_cars}'
1397,2013-09-26 16:30:00,'Od 26.9.2013 17:30 do 19:30; v ulici Božkovské náměstí v obci Plzeň; U točny trolejbusu.; nehoda; 2 havarovaná vozidla; 2 x OA bez zranění, únik provozních kapalin nehlášen.',137.544966401329,87.115960726122,'{accindet,personal_cars}'
1398,2013-09-26 23:50:00,'Od 27.9.2013 00:50 do 01:50; v ulici Klatovská v obci Plzeň; Asi 100 m za Liticemi ve směru na Plzeň.; nehoda; havarované vozidlo; Havárie  1 x OA bez zranění, únik provozních kapalin nehlášen - srážka s prasetem',137.497972623544,87.1421266759149,'{accindet,personal_cars,animal_hit}'
1399,2013-09-27 06:00:00,'Od 27.9.2013 07:00 do 08:00; v ulici Borská v obci Plzeň; u 8. brány Škodovky; nehoda nákladního vozidla; 2 havarovaná vozidla; NA x OA bez zranění, únik provozních kapalin nehlášen.',137.492952179099,87.1137096949894,'{accindet,personal_cars,trucks}'
