ID,od,popis,x,y,ts_flags
1420,2013-09-30 14:20:00,'Od 30.9.2013 15:20 do 17:30; v ulici Klostermannova v obci Plzeň; nehoda; probíhá vyšetřování nehody, nebezpečí; DN 2x OA bez zranění',137.511008712435,87.1175702762185,'{accindet,personal_cars}'
1421,2013-09-30 14:20:00,Od 30.9.2013 15:20 do 18:25; v ulici Komenského v obci Chlumčany okres Plzeň-jih; mezi Chlumčany a silnicí I/27 u benzinové pumpy; nehoda nákladního vozidla; havárie NA bez zranění na místo PČR,137.478400001319,87.2291128203363,'{accindet,trucks}'
1422,2013-09-30 15:20:00,'Od 30.9.2013 16:20 do 18:25; na silnici v obci Starý Plzenec okres Plzeň-město; na Masarykově náměstí ve Starém Plzenci; nehoda; střet dvou OA bez zranění, na místo PČR',137.581513956889,87.1561849332995,'{accindet,personal_cars}'
1423,2013-09-30 16:45:00,'Od 30.9.2013 17:45 do 20:10; D5 - 90.5km na trase Praha - Rozvadov; nehoda nákladního vozidla; probíhá vyšetřování nehody, nebezpečí; DN NA a OA bez zranění, stojí v odstavném pruhu.',137.428196267979,87.1412271557601,'{accindet,personal_cars,trucks}'
1424,2013-09-30 17:00:00,'Od 30.9.2013 18:00 do 21:05; D5 - 89.1-91km na trase Praha - Rozvadov; nehoda nákladního vozidla; překážka na vozovce, průjezd se zvýšenou opatrností; DN NA x OA',137.441696001314,87.1413811089393,'{accindet,personal_cars,trucks}'
1425,2013-09-30 22:30:00,'Od 30.9.2013 23:30 do 1.10.2013 01:35; na silnici 20 u obce Bezvěrov okres Plzeň-sever; silnmice I/20 mezi Bezvěrovem a Chudčí; nehoda; střet OA se bez zranění,  srnou na místo PČR',137.294457601294,86.8377602676412,'{accindet,personal_cars,animal_hit}'
1426,2013-10-01 06:20:00,'Od 1.10.2013 07:20 do 09:25; v ulici U Prazdroje v obci Plzeň; nehoda; probíhá vyšetřování nehody; překážka na vozovce, průjezd se zvýšenou opatrností; cyklista x chodkyně, se zraněním, zvýšená opatrnost',137.519702756881,87.1009762698975,'{accindet,injury,cyclist}'
1427,2013-10-01 07:40:00,'Od 1.10.2013 08:40 do 11:45; v ulici Chlumčanská v obci Dobřany okres Plzeň-jih; nehoda nákladního vozidla; 2 havarovaná vozidla; překážka na vozovce, průjezd se zvýšenou opatrností; NA x OA bez zranění, překáží provozu.',137.452296534649,87.2038857239688,'{accindet,personal_cars,trucks}'
1428,2013-10-01 08:40:00,'Od 1.10.2013 09:40 do 12:25; na silnici 19 u obce Nezbavětice okres Plzeň-město; Objízdná trasa přes Nezvěstice či Šťahlavy.; nehoda odstraněna; havárie OA se zraněním, na místo všechny složky IZS , na místo letí vrtulník.komunikace cca 60 min uzavřena - na místě dopravu řídí hlídky PČR',137.590253512446,87.1980343415853,'{accindet,injury,personal_cars}'
1429,2013-10-01 12:40:00,'Od 1.10.2013 13:40 do 15:45; v ulici Bolevecká v obci Plzeň; nehoda; 2 havarovaná vozidla; překážka na vozovce, průjezd se zvýšenou opatrností; 2 x OA bez zranění a úniku PMH, překáží provozu.',137.508795734657,87.0877422615868,'{accindet,personal_cars}'
