ID,od,popis,x,y,ts_flags
1470,2013-10-04 17:55:00,'Od 4.10.2013 18:55 do 20:00; v ulici Radobyčická v obci Plzeň; nehoda; - 2x OA, bez zranění, na místo PČR',137.512780801324,87.1090455997357,'{accindet,personal_cars}'
1471,2013-10-04 18:10:00,'Od 4.10.2013 19:10 do 20:15; na silnici 180 v obci Dobřany okres Plzeň-jih; nehoda; probíhají záchranné a vyprošťovací práce, nebezpečí; OA x chodec, se zraněním, na místo PČR, ZZS',137.444839823537,87.2004641655125,'{accindet,pedestrian_involvement,injury,personal_cars}'
1472,2013-10-04 19:30:00,'Od 4.10.2013 20:30 do 21:35; v ulici Klatovská třída v obci Plzeň; nehoda; 2x OA, bez zranění, na místo PČR',137.508187023546,87.1097454050451,'{accindet,personal_cars}'
1473,2013-10-05 08:05:00,'Od 5.10.2013 09:05 do 11:10; v ulici Liliová v obci Plzeň; křižovatka s ul. Zahradní.; nehoda; 2 havarovaná vozidla; 2 x  OA bez zranění, na místo jede PČR.',137.522271290214,87.1161763624423,'{accindet,personal_cars}'
1474,2013-10-05 09:40:00,'Od 5.10.2013 10:40 do 12:45; v ulici Na Chmelnicích v obci Přeštice okres Plzeň-jih; nehoda; 2 havarovaná vozidla; bez zranění, průjezdné.',137.479279645764,87.2831935215381,{accindet}
1475,2013-10-05 17:55:00,'Od 5.10.2013 18:55 do 21:00; v ulici Klatovská v obci Plzeň; Litice; nehoda; OA srážka s pevnou překážkou, bez zranění, průjezdné.',137.498192356878,87.1397623790322,'{accindet,personal_cars}'
1476,2013-10-05 18:40:00,'Od 5.10.2013 19:40 do 21:45; v ulici Sirková v obci Plzeň; nehoda; 2 havarovaná vozidla; - dopravní nehoda 2 x OA  bez zranění, průjezdné s opatrností',137.518800356881,87.1031254959949,'{accindet,personal_cars}'
1477,2013-10-05 19:45:00,'Od 5.10.2013 20:45 do 22:50; na silnici 20 u obce Nezbavětice okres Plzeň-město; silnice I/20 u obce Losiná, odbočka na Radyni; nehoda; havárie OA bez zranění, na místo PČR',137.575996445777,87.192704160095,'{accindet,personal_cars}'
1478,2013-10-06 00:05:00,'Od 6.10.2013 01:05 do 03:10; na silnici 230 u obce Lochousice okres Plzeň-sever; nehoda; dopravní nehoda 1 x OA bez zranění, průjezdné s opatrností',137.323848534631,87.1791082524749,'{accindet,personal_cars}'
1479,2013-10-06 13:20:00,Od 6.10.2013 14:20 do 16:25; v ulici Tř. 1. máje v obci Přeštice okres Plzeň-jih; nehoda; 2 x OA bez zranění.,137.480009245764,87.288517983336,'{accindet,personal_cars}'
