ID,od,popis,x,y,ts_flags
1490,2013-10-07 11:20:00,'Od 7.10.2013 12:20 do 13:25; v ulici Křimická v obci Plzeň; nehoda nákladního vozidla; - 2x NA, bez zranění, na místo PČR',137.479928890209,87.0984153534821,{accindet}
1491,2013-10-07 11:50:00,'Od 7.10.2013 12:50 do 13:55; na silnici 20 u obce Plzeň; nehoda; 2x OA, bez zranění, na místo PČR',137.49255609021,87.0699420570912,'{accindet,personal_cars}'
1492,2013-10-07 13:05:00,'Od 7.10.2013 14:05 do 15:10; v ulici Folmavská v obci Plzeň; - U Panasonicu; nehoda; - 2x OA, bez zranění, na místo PČR',137.484151467987,87.1180466409345,'{accindet,personal_cars}'
1493,2013-10-07 16:35:00,'Od 7.10.2013 17:35 do 18:40; na silnici 180 u obce Letkov okres Plzeň-město; nehoda; - 2 x OA, bez zranění, na místo PČR',137.567482312443,87.1206649207776,'{accindet,personal_cars}'
1494,2013-10-08 00:55:00,'Od 8.10.2013 01:55 do 02:55; D5 - 92.9-93.9km na trase Rozvadov - Praha; nehoda; srážka OA s divokým prasetem, OA stojí v odstavném pruhu, na místo PČR, SÚS k odklizení zvířete.',137.397668979086,87.1467351045324,'{accindet,personal_cars,animal_hit}'
1495,2013-10-08 07:10:00,'Od 8.10.2013 08:10 do 10:15; na silnici 27 u obce Plasy okres Plzeň-sever; za obcí Plasy ve směru na Kaznějov; nehoda; 1 OA v příkopu, místo průjezdné, bez zranění.',137.520992712436,86.9052199663499,'{accindet,personal_cars}'
1496,2013-10-08 22:55:00,'Od 8.10.2013 23:55 do 9.10.2013 02:00; na silnici u obce Chotíkov okres Plzeň-sever; za Plzní se směru na Chotíkov, vozidlo odstaveno na krajnici, místo průjezdné; nehoda; střet OA se zvěří, bez zranění',137.485818312432,87.0623370672064,'{accindet,personal_cars,animal_hit}'
1497,2013-10-09 05:40:00,Od 9.10.2013 06:40 do 08:45; v ulici Klatovská třída v obci Plzeň; křižovatka s ul. Husova.; nehoda; 2 havarovaná vozidla; probíhá vyšetřování nehody; 2 x OA bez zranění.,137.509410845768,87.1022132134581,'{accindet,personal_cars}'
1498,2013-10-09 05:50:00,'Od 9.10.2013 06:50 do 08:55; na silnici 26 u obce Plzeň; za Plzní vesměru na Sulkov ( nájezd na D5 ), místo průjezdné.; nehoda; probíhá vyšetřování nehody; OA x chodec se zraněním, na místě RZS a PČR.',137.461271467984,87.1257118979977,'{accindet,pedestrian_involvement,injury,personal_cars}'
1499,2013-10-09 08:20:00,'Od 9.10.2013 09:20 do 11:15; v ulici Pobřežní v obci Plzeň; nehoda odstraněna; provoz v jízdním pruhu obnoven; OA s NA bez zranění, průjezdné s opatrností',137.507968712435,87.0973081895695,'{accindet,personal_cars,trucks}'
