ID,od,popis,x,y,ts_flags
1560,2013-10-14 11:30:00,'Od 14.10.2013 12:30 do 13:30; v ulici Nerudova v obci Plzeň; v prostoru u KIA Motors; nehoda; 2 havarovaná vozidla; 2 x OA bez zranění, únik provozních kapalin nehlášen.',137.506054401323,87.1054870138463,'{accindet,personal_cars}'
1561,2013-10-14 13:45:00,Od 14.10.2013 14:45 do 15:45; na silnici 27 u obce Chlumčany okres Plzeň-jih; u odbočky na Chlumčany; nehoda; 2 havarovaná vozidla; 2 x OA bez zranění a bez úniku provozních kapalin. Místo průjezdné jedním jízdním pruhem.,137.480164267986,87.2288636054497,'{accindet,personal_cars}'
1562,2013-10-14 16:00:00,'Od 14.10.2013 17:00 do 18:00; v ulici Gerská v obci Plzeň; u BČS PapOil; nehoda; 2 havarovaná vozidla; 2 x OA bez zranění a bez úniku provozních kapalin, místo je průjezdné.',137.508672001324,87.0618139503026,'{accindet,personal_cars}'
1563,2013-10-14 19:15:00,'Od 14.10.2013 20:15 do 21:15; na silnici 18050 u obce Plzeň; Asi 1 km za Malesicema ve směru na Touškov.; nehoda; havarované vozidlo; zvěř na vozovce; Srážka OA se zvěří bez zranění osob a úniku provozních kapalin, místo je průjezdné.',137.439890490203,87.0702569811728,'{accindet,personal_cars,animal_hit}'
1564,2013-10-14 20:05:00,'Od 14.10.2013 21:05 do 22:05; na silnici 605 u obce Bdeněves okres Plzeň-sever; Ve stoupání ke třem sudům.; nehoda; havarované vozidlo; zvěř na vozovce; Srážka OA se zvěří bez zranění osob, srna na místě.',137.395217779086,87.0774534809657,'{accindet,personal_cars,animal_hit}'
1565,2013-10-14 20:25:00,'Od 14.10.2013 21:25 do 22:25; v ulici U Velkého rybníka v obci Plzeň; Před viaduktem v ul. U Velkého rybníka.; nehoda; 2 havarovaná vozidla; dodávka x OA bez zranění a  úniku provozních kapalin, místo je průjezdné. Na místo jede PČR.',137.519632356881,87.0686382956652,'{accindet,personal_cars}'
1566,2013-10-14 20:40:00,'Od 14.10.2013 21:40 do 23:45; D5 - 105.8km na trase Rozvadov - Praha; nehoda; zvěř na vozovce; překážka na vozovce, průjezd se zvýšenou opatrností; na komunikaci divoká prasata a odstavené OA.',137.294182401294,87.132950419549,'{accindet,personal_cars,animal_hit}'
1567,2013-10-15 04:00:00,Od 15.10.2013 05:00 do 05:55; na silnici 205 u obce Nekmíř okres Plzeň-sever; Mezi Kokořovem a Nekmířem.; nehoda; havarované vozidlo; zvěř na vozovce; Srážka OA se srnou bez zranění osob a úniku provozních kpalin.,137.428060445757,86.9858524993837,'{accindet,personal_cars,animal_hit}'
1568,2013-10-15 04:35:00,Od 15.10.2013 05:35 do 06:35; na silnici 18033 u obce Dobřany okres Plzeň-jih; Asi 15 m před křižovatkou.; nehoda; havarované vozidlo; zvěř na vozovce; Srážka OA se srnou bez zranění osob. Na místo jede PČR.,137.481499023542,87.2111114676561,'{accindet,personal_cars,animal_hit}'
1569,2013-10-15 08:00:00,'Od 15.10.2013 09:00 do 11:05; v ulici Mánesova v obci Plzeň; nehoda; 2x OA bez zranění, bez úniku, špatně průjezdné',137.506245690212,87.1126732645862,'{accindet,personal_cars}'
