ID,od,popis,x,y,ts_flags
160,2013-04-25 14:20:00,'Od 25.4.2013 15:20 do 16:25; v ulici Studentská v obci Plzeň; ve směru na Karlovy Vary - před Kooperativou; nehoda; střet 2 OA bez zranění, bez úniku, částečně omezen přůjezd pravým jízdním pruhem',137.494210845766,87.0705807123824,'{accindet,personal_cars}'
161,2013-04-25 15:10:00,'Od 25.4.2013 16:10 do 18:15; v ulici Koterovská v obci Plzeň; Koterovská uliceve směru z města; nehoda; střet 2 OA bez zranění, bez úniku PK, vozidla v pravém jízdním pruhu',137.537875912439,87.1211995621381,'{accindet,personal_cars}'
162,2013-04-25 18:45:00,'Od 25.4.2013 19:45 do 20:50; na silnici 1808 u obce Plzeň; asi 100 m před odbočkou na Ledce ve směru z Plzně; nehoda; havárie OA do příkopu, bez zranění, bez úniku, provoz neomezen.',137.510768356879,87.0542926142104,'{accindet,personal_cars}'
163,2013-04-26 03:10:00,'Od 26.4.2013 04:10 do 06:15; na silnici 183 u obce Merklín okres Plzeň-jih; před obcí Kloušov ve směru od obce Buková; nehoda; střet OA se zvěří, OA odstaveno v pravém jízdním pruhu.',137.366714312415,87.3219233363869,'{accindet,personal_cars,animal_hit}'
164,2013-04-26 04:50:00,'Od 26.4.2013 05:50 do 07:00; na silnici 19 u obce Žákava okres Plzeň-jih; za obcí Vlkov ve směru na Nezvěstice; nehoda odstraněna; provoz obnoven; střet OA se zvěří, srna v příkopu, OA odstaveno na pravé krajnici.',137.642341690231,87.2316619913788,'{accindet,personal_cars,animal_hit}'
165,2013-04-26 07:25:00,Od 26.4.2013 08:25 do 09:25; v ulici Alešova v obci Plzeň; V ulici Alešova v Plzni.; nehoda; 2 havarovaná vozidla; neprůjezdná komunikace; DN 2 x OA bez zranění a bez úniku provozních kapalin.,137.50961706799,87.1157615918079,'{accindet,personal_cars}'
166,2013-04-26 07:30:00,'Od 26.4.2013 08:30 do 09:30; v ulici Karlovarská v obci Plzeň; V ulici Karlovarská u BČS Shell.; nehoda; 2 havarovaná vozidla; DN OA x NA bez zranění, únik provozních kapalin nehlášen.',137.509109334657,87.0881649552888,'{accindet,personal_cars,trucks}'
167,2013-04-26 10:30:00,Od 26.4.2013 11:30 do 12:30; v ulici Sokolovská v obci Plzeň; U domu čp. 80 v ul. Sokolovská; nehoda; 2 havarovaná vozidla; DN dodávka x OA bez zranění. Únik provozních kapalin nehlášen.,137.505234490212,87.074717471992,'{accindet,personal_cars}'
168,2013-04-26 13:20:00,'Od 26.4.2013 14:20 do 15:20; na silnici 26 v obci Plzeň; Na sjezdu z I/26 v ul Rokycanská k nákupní zóně ve směru na Božkov.; nehoda; 2 havarovaná vozidla; DN 2 x OA bez zranění, bez úniku provozních kapalin, komunikace je průjezdná, jedno z vozidel z DN ujelo.',137.562189512442,87.1017939324193,'{accindet,personal_cars}'
169,2013-04-26 14:05:00,'Od 26.4.2013 15:05 do 16:05; na silnici v obci Vlčtejn okres Plzeň-jih; Vlčtejn směr na Blovice.; nehoda; 2 havarovaná vozidla; DN 1 x MOTO x 2xOA se zraněním, únik provozních kapalin nehlášen.',137.596774401336,87.2457922076344,'{accindet,injury}'
