ID,od,popis,x,y,ts_flags
1720,2013-10-29 18:15:00,'Od 29.10.2013 18:15 do 20:20; na silnici 18023 u obce Tymákov okres Plzeň-město; nehoda; OA x srna, zvýšená opatrnost.',137.607940979115,87.1185428038225,'{accindet,personal_cars,animal_hit}'
1721,2013-10-29 18:55:00,'Od 29.10.2013 18:55 do 21:00; v ulici Karlovarská v obci Plzeň; nehoda; OA x motorka bez zranění, bez úniku překáží provozu, zvýšená opatrnost',137.499733334656,87.0718304726066,'{accindet,personal_cars,motocycle}'
1722,2013-10-29 21:10:00,'Od 29.10.2013 21:10 do 30.10.2013 00:15; D5 - 94.1km na trase Praha - Rozvadov; nehoda nákladního vozidla; 2xkamion bez zranění, bez úniku PHM, stojí v odstavném pruhu',137.393721601308,87.1475960481936,{accindet}
1723,2013-10-30 06:55:00,'Od 30.10.2013 06:55 do 09:00; na silnici 26 u obce Stod okres Plzeň-jih; nehoda; OA x srna, zvýšená opatrnost',137.353210312413,87.230765074682,'{accindet,personal_cars,animal_hit}'
1724,2013-10-30 07:30:00,'Od 30.10.2013 07:30 do 08:35; v ulici Ledecká v obci Plzeň; - u fy Kia Motor; nehoda; 2x OA, bez zranění, na místo PČR',137.511245512435,87.0743221979326,'{accindet,personal_cars}'
1725,2013-10-30 08:30:00,'Od 30.10.2013 08:30 do 10:35; na silnici 2319 v obci Kočín okres Plzeň-sever; u obecního úřadu v obci Kočín; nehoda; střet dvou OA se zraněním, na místo PČR',137.582017423556,86.8981912865863,'{accindet,injury,personal_cars}'
1726,2013-10-30 09:55:00,'Od 30.10.2013 09:55 do 11:00; v ulici náměstí Milady Horákové v obci Plzeň; nehoda; 2x OA, bez zranění, na místo PČR',137.52974933466,87.124724100853,'{accindet,personal_cars}'
1727,2013-10-30 13:10:00,'Od 30.10.2013 13:10 do 15:15; v ulici Masarykovo nám. v obci Přeštice okres Plzeň-jih; silnice č. 27 na náměstí v Přešticích; nehoda; střet OA s chodcem (dítě) se zraněním, na místo PČR a RZS',137.478866490208,87.2926422950216,'{accindet,pedestrian_involvement,injury,personal_cars}'
1728,2013-10-30 13:20:00,'Od 30.10.2013 13:20 do 14:25; na silnici 20161 u obce Úterý okres Plzeň-sever; - ve směru na Bezdružice; nehoda autobusu; jízdní pruh uzavřen; - autobus x OA, bez zranění, na místo PČR',137.241385956842,86.8919615741121,'{accindet,personal_cars}'
1729,2013-10-30 14:20:00,'Od 30.10.2013 14:20 do 15:25; v ulici Klatovská třída v obci Plzeň; - ve směru z centra; nehoda; neprůjezdný pruh, 2 havarovaná vozidla; 2x OA, bez zranění, na místo PČR',137.507615290212,87.1154557376582,'{accindet,personal_cars}'
