ID,od,popis,x,y,ts_flags
1780,2013-11-05 05:50:00,'Od 5.11.2013 05:50 do 08:55; v ulici Radčická v obci Plzeň; nehoda nákladního vozidla; - NAx OA bez zranění, bez úniku PHM, překáží provozu',137.504920890212,87.0969516030628,'{accindet,personal_cars}'
1781,2013-11-05 08:30:00,'Od 5.11.2013 08:30 do 09:30; v ulici 5. května v obci Dýšina okres Plzeň-město; Když se vyjíždí na Chrást.; nehoda; 2 havarovaná vozidla; překážka na vozovce, průjezd se zvýšenou opatrností; 2 x transporter bez zranění a úniku provozních kapalin.',137.594323912447,87.0652587184658,{accindet}
1782,2013-11-05 08:40:00,'Od 5.11.2013 08:40 do 10:45; v ulici 5. května v obci Dýšina okres Plzeň-město; ve směru na Chrást,; nehoda odstraněna; 2 x OA bez zranění a úniku PHM.',137.595547734669,87.0606278325568,'{accindet,personal_cars}'
1783,2013-11-05 08:50:00,'Od 5.11.2013 08:50 do 10:55; v ulici Slovanská v obci Plzeň; ve směru do města.; nehoda, neprůjezdný pravý jízdní pruh; 2 havarovaná vozidla; 2 x OA bez zranění a úniku PK.',137.525041779104,87.1187265259396,'{accindet,personal_cars}'
1784,2013-11-05 10:00:00,'Od 5.11.2013 10:00 do 18:30; v ulici Škroupova v obci Plzeň; před Krajským úřadem.; nehoda; 2 havarovaná vozidla; překážka na vozovce, průjezd se zvýšenou opatrností; 2 x OA bez zranění a úniku provozních kapalin.',137.511271823546,87.1061329467149,'{accindet,personal_cars}'
1785,2013-11-05 13:15:00,'Od 5.11.2013 13:15 do 15:20; v ulici Podnikatelská v obci Plzeň; křižovatka s ulicí U Nové Hospody.; nehoda; 2 havarovaná vozidla; překážka na vozovce, průjezd se zvýšenou opatrností; 2 x OA se zraněním.',137.477580801319,87.1225438424855,'{accindet,injury,personal_cars}'
1786,2013-11-05 13:40:00,'Od 5.11.2013 13:40 do 14:45; v ulici Borská v obci Plzeň; ve směru z města.; nehoda; probíhá vyšetřování nehody; překážka na vozovce, průjezd se zvýšenou opatrností; střet OA s cyklistou, se zraněním. Na místo jede PČR.',137.500156445767,87.1101591221089,'{accindet,injury,personal_cars,cyclist}'
1787,2013-11-05 14:20:00,'Od 5.11.2013 14:20 do 15:25; v ulici Sokolská v obci Merklín okres Plzeň-jih; most ve směru na Staňkov.; nehoda; probíhá vyšetřování nehody; OA x chodec se zraněním, na místě RZS a PČR.',137.384414579084,87.3057182425993,'{accindet,pedestrian_involvement,injury,personal_cars}'
1788,2013-11-05 14:40:00,'Od 5.11.2013 14:40 do 16:45; v ulici sady Pětatřicátníků v obci Plzeň; před Synanogou.; nehoda, neprůjezdný pravý jízdní pruh; 2 havarovaná vozidla; 2 x OA bez zranění a úniku provozních kapalin.',137.509883023546,87.100588893779,'{accindet,personal_cars}'
1789,2013-11-05 15:20:00,'Od 5.11.2013 15:20 do 17:15; na silnici 18326 u obce Dolní Lukavice okres Plzeň-jih; z Krasavce směrem na Vodokrty, bez omezení provozu.; nehoda odstraněna; provoz v jízdním pruhu obnoven; OA v příkopu, bez zranění a úniku provozních kapalin.',137.51187555688,87.2694692118473,'{accindet,personal_cars}'
