ID,od,popis,x,y,ts_flags
1790,2013-11-05 15:55:00,'Od 5.11.2013 15:55 do 18:00; na silnici 183 u obce Přeštice okres Plzeň-jih; nehoda; 2 havarovaná vozidla; zvěř na vozovce; 2 x OA bez zranění, sražená srna na vozovce.',137.465808356873,87.3018514892661,'{accindet,personal_cars,animal_hit}'
1791,2013-11-05 16:15:00,'Od 5.11.2013 16:15 do 19:35; v ulici Sukova v obci Plzeň; všechny nehody byly odstraněny, nejsou hlášeny žádné další problémy; NA x OA bez zranění, částečně blokován provoz.',137.504939379101,87.119066465196,'{accindet,personal_cars,trucks}'
1792,2013-11-05 19:30:00,'Od 5.11.2013 19:30 do 21:35; v ulici Branka v obci Blovice okres Plzeň-jih; před křižovatkou s ulicí Americká, částečně omezen provoz; nehoda; střet 2x OA, bez zranění, bez úniku PK',137.627273245785,87.2799920092716,'{accindet,personal_cars}'
1793,2013-11-06 05:00:00,'Od 6.11.2013 05:00 do 07:05; na silnici 231 u obce Kozojedy okres Plzeň-sever; ve směru na Borek, místo DN průjezdné; nehoda; OA po smyku mimo vozovku, bez zranění',137.620391823561,86.9036415490411,'{accindet,personal_cars}'
1794,2013-11-06 05:45:00,'Od 6.11.2013 05:45 do 07:50; na silnici v obci Plzeň; spojovací cesta mezi Vejprnickou a Domažlickou ulicí v Plzni  tzv. \'' Myší díra\'', průjezd částečně blokován; nehoda; střet 2 OA, bez zranění, bez úniku',137.474926223541,87.1103406724679,'{accindet,personal_cars}'
1795,2013-11-06 06:26:00,'silnice I/27 (ulice Plaská), Kaznějov, okr. Plzeň-sever, nehoda, Od 06.11.2013 06:26 Do 06.11.2013 07:56',137.512468623546,86.9343863084497,{accindet}
1796,2013-11-06 06:30:00,'Od 6.11.2013 06:30 do 08:35; v ulici Plaská v obci Kaznějov okres Plzeň-sever; u BČS , místo DN průjezdné s opatrnosí; nehoda; neprůjezdná komunikace; střet OA s NA, zraněná osoba',137.511711290213,86.9319620018475,'{accindet,injury,personal_cars}'
1797,2013-11-06 07:20:00,'Od 6.11.2013 07:20 do 09:25; v ulici Jateční v obci Plzeň; křižovatka ulic Jateční  X  Rokycanská, průjezd částečně omezen; nehoda; střet 2x OA, bez zranění, bez úniku',137.530657423549,87.0986398650338,'{accindet,personal_cars}'
1798,2013-11-06 08:35:00,'Od 6.11.2013 08:35 do 10:35; v ulici Přemyslova v obci Plzeň; nehoda; havárie OA do sloupu veřejného osvětlení, bez zranění.',137.506287645768,87.09859474269,'{accindet,personal_cars}'
1799,2013-11-06 08:40:00,'Od 6.11.2013 08:40 do 10:40; v ulici Rokycanská v obci Plzeň; nehoda, tvoří se kolona vozidel; 2 x OA bez zranění a úniku kapalin.',137.544177779106,87.0998801642865,'{accindet,personal_cars}'
