ID,od,popis,x,y,ts_flags
1820,2013-11-08 15:40:00,'Od 8.11.2013 15:40 do 17:45; v ulici Tylova v obci Plzeň; nehoda; 2x OA bez zranění, bez úniku PHM, zvýšená opatrnost',137.502148267989,87.1020382383068,'{accindet,personal_cars}'
1821,2013-11-08 16:15:00,'Od 8.11.2013 16:15 do 18:20; v ulici Domažlická v obci Plzeň; nehoda; pád cyklisty se zraněním, policie jede na místo',137.48616320132,87.1083017714578,'{accindet,injury,cyclist}'
1822,2013-11-08 19:15:00,'Od 8.11.2013 19:15 do 21:20; na silnici 18032a u obce Plzeň; nehoda; - 2xOA bez zranění, bez úniku PHM, překáží provozu',137.502281245767,87.1545600555684,{accindet}
1823,2013-11-08 23:45:00,'Od 8.11.2013 23:45 do 9.11.2013 01:50; na silnici 27 u obce Horní Lukavice okres Plzeň-jih; nehoda; - OA x divočák, zvýšená opatrnost, překážka na vozovce',137.477290667986,87.2387083570322,'{accindet,personal_cars,animal_hit}'
1824,2013-11-09 06:05:00,'Od 9.11.2013 06:05 do 08:10; v ulici Vejprnická v obci Plzeň; ulice Vejprnická Plzeň; nehoda; střet dodávky s OA bez zranění, na místo PČR',137.479410490208,87.1061615568485,'{accindet,personal_cars}'
1825,2013-11-09 07:55:00,Od 9.11.2013 07:55 do 08:55; v ulici Klatovská třída v obci Plzeň; u domu čp. 1045/62.; nehoda; 2 havarovaná vozidla; jízdní pruh uzavřen; 2 x OA bez zranění a úniku provozních kapalin. Blokován jeden jízdní pruh.,137.507926045768,87.1105255231082,'{accindet,personal_cars}'
1826,2013-11-09 17:40:00,Od 9.11.2013 17:40 do 18:40; na silnici v obci Plzeň; Na mostě Milénia.; nehoda; 2 havarovaná vozidla; 2 x OA bez zranění a  úniku provozních kapalin. Na místě PČR.,137.522506667992,87.100709949118,'{accindet,personal_cars}'
1827,2013-11-09 20:45:00,Od 9.11.2013 20:45 do 22:45; na silnici 180 u obce Zruč-Senec okres Plzeň-sever; Nedaleko muzea letadel.; nehoda; 3 havarovaná vozidla; 3x OA bez zranění a bez úniku provozních kapalin. Provoz částečně blokován.,137.538655290217,87.0313751338483,'{accindet,personal_cars}'
1828,2013-11-10 07:00:00,Od 10.11.2013 07:00 do 08:00; v ulici Palackého náměstí v obci Plzeň; křiž. s ul. Jízdecká; nehoda; 2 havarovaná vozidla; 2 x OA bez zranění a bez úniku provozních kapalin.,137.50868906799,87.0985694301389,'{accindet,personal_cars}'
1829,2013-11-10 07:50:00,'Od 10.11.2013 07:50 do 09:55; na silnici 27 v obci Plzeň; kruhový objezd v Sukově ulici, místo průjezdné; nehoda; havárie OA mimo vozovku, se zraněním.',137.498233601322,87.1196484273782,'{accindet,injury,personal_cars}'
