ID,od,popis,x,y,ts_flags
1990,2013-12-01 07:40:00,'Od 1.12.2013 07:40 do 08:40; na silnici 605 u obce Pňovany okres Plzeň-sever; Za odbočkou na Chotěšovičky ve směru na Stříbro.; nehoda; - OA s prasetem bez zranění osob, únik provozních kapalin nehlášen, místo průjezdné.',137.315715556852,87.0870586795318,'{accindet,personal_cars,animal_hit}'
1991,2013-12-01 11:55:00,Od 1.12.2013 11:55 do 12:55; na silnici 18032a u obce Plzeň; Za Liticemi ve směru na Radobytče.; nehoda; 2 havarovaná vozidla; - 2 x OA bez zranění a bez úniku provozních kapalin.,137.506899201323,87.155554996716,'{accindet,personal_cars}'
1992,2013-12-01 14:40:00,Od 1.12.2013 14:40 do 15:40; v ulici Samaritská v obci Plzeň; Křižovatka ul. Samaritská x E. Beneše.; nehoda; 2 havarovaná vozidla; - 2 x OA bez zranění a bez úniku provozních kapalin.,137.512462223546,87.1201203731486,'{accindet,personal_cars}'
1993,2013-12-02 05:45:00,Od 2.12.2013 05:45 do 06:45; v ulici Komenského v obci Plzeň; Křižovatka ul. Komenského x Lidická; nehoda; havarované vozidlo; DN 1 x Oa bez zranění a bez úniku provozních kapalin.,137.510503112435,87.0758173974897,'{accindet,personal_cars}'
1994,2013-12-02 07:20:00,Od 2.12.2013 07:20 do 08:20; v ulici Železniční v obci Plzeň; křiž. s ul. Koterovská; nehoda; 2 havarovaná vozidla; 2 x OA bez zranění a bez úniku provozních kapalin. Komunikace částečně průjezdná.,137.519976534659,87.1054881142496,'{accindet,personal_cars}'
1995,2013-12-02 09:55:00,'Od 2.12.2013 09:55 do 11:00; na silnici u obce Nýřany okres Plzeň-sever; nehoda; 2 x OA bez zranění, na místo PČR.',137.39720462353,87.1453364538313,'{accindet,personal_cars}'
1996,2013-12-02 10:05:00,'Od 2.12.2013 10:05 do 11:10; na silnici 27 u obce Dobřany okres Plzeň-jih; ve směru na Plzeň; nehoda nákladního vozidla; neprůjezdný pruh, 2 havarovaná vozidla; NA x OA bez zranění, na místo PČR.',137.502983112434,87.173057433952,'{accindet,personal_cars,trucks}'
1997,2013-12-02 10:40:00,'Od 2.12.2013 10:40 do 12:45; na dálnici D5; nájezd na D5 ve směru na Rozvadov; nehoda; probíhají záchranné a vyprošťovací práce; havárie OA do příkopu, se zraněním, na místo PČR, ZZS.',137.443755379092,87.1409555372834,'{accindet,injury,personal_cars}'
1998,2013-12-02 10:45:00,'Od 2.12.2013 10:45 do 11:50; v ulici Domažlická v obci Plzeň; křiž. s ul. Tylova; nehoda; neprůjezdný pruh, 2 havarovaná vozidla; 2 x OA bez zranění, na místo PČR.',137.498621156878,87.1014857972732,'{accindet,personal_cars}'
1999,2013-12-02 11:30:00,'Od 2.12.2013 11:30 do 12:35; v ulici Nýřanská v obci Plzeň; nehoda; 2 x OA bez zranění, na místo PČR.',137.512807112435,87.0659723127091,'{accindet,personal_cars}'
