ID,od,popis,x,y,ts_flags
2010,2013-12-03 09:35:00,'Od 3.12.2013 09:35 do 11:40; na silnici 27 v obci Horní Lukavice okres Plzeň-jih; na konci obce před Autobazarem ve směru na Přeštice; nehoda; nehoda, neprůjezdný pravý jízdní pruh; střet dodávky s NA, bez zranění, bez úniku',137.475014401319,87.2510962494309,{accindet}
2011,2013-12-03 13:35:00,'Od 3.12.2013 13:35 do 15:40; na silnici v obci Plzeň; křižovatka sady Pětatřicátníků x Palackého náměstí; nehoda; překážka na vozovce, průjezd se zvýšenou opatrností; střet 2 OA, bez zranění a úniku PK',137.510232179102,87.0985441175758,'{accindet,personal_cars}'
2012,2013-12-03 14:05:00,'Od 3.12.2013 14:05 do 15:30; v ulici Koterovská v obci Plzeň; křižovatka s ulicí Slovanská Alej, místo průjezdné; nehoda; střet 2 OA, bez zranění, bez úniku',137.537481245772,87.1208992395636,'{accindet,personal_cars}'
2013,2013-12-03 14:15:00,'Od 3.12.2013 14:15 do 16:00; v ulici Tyršova v obci Plzeň; ve směru od pivovaru; nehoda; nehoda, neprůjezdný levý jízdní pruh; střet 2 OA, bez zranění, bez úniku PK',137.516855467991,87.0983867391968,'{accindet,personal_cars}'
2014,2013-12-03 18:45:00,'Od 3.12.2013 18:45 do 20:00; na silnici 27 u obce Plzeň; ve směru na Přeštice; nehoda; rozsypaný náklad, neprůjezdný pravý jízdní pruh; převrácený přívěs za OA, bez zranění.',137.498459734656,87.1273882513372,'{accindet,personal_cars}'
2015,2013-12-04 15:05:00,'Od 4.12.2013 15:05 do 17:10; v ulici Na Dlouhých v obci Plzeň; nehoda; 2xOA bez zranění, bez úniku, PČR jede na místo.',137.541976890217,87.0968008234839,{accindet}
2016,2013-12-04 15:40:00,'Od 4.12.2013 15:40 do 17:45; v ulici Korandova v obci Plzeň; nehoda; 2xOA bez zranění, bez úniku PHM, překáží provozu',137.503924623545,87.1057213992488,{accindet}
2017,2013-12-05 07:15:00,'Od 5.12.2013 07:15 do 09:20; na silnici 177 u obce Mladý Smolivec okres Plzeň-jih; nehoda; - OA v příkopu bez zranění, bez úniku, PČR jede na místo',137.765115023582,87.3619732906324,'{accindet,personal_cars}'
2018,2013-12-05 07:20:00,'Od 5.12.2013 07:20 do 09:25; v ulici Rokycanská v obci Plzeň; nehoda; - 2xOA bez zranění, bez úniku PHM, policie na místo',137.534907023549,87.0988247561911,{accindet}
2019,2013-12-05 07:50:00,'Od 5.12.2013 07:50 do 08:50; v ulici K Fořtovně v obci Plzeň; Před nájezdem na přivaděč k D-5.; nehoda; Srážka OA s prasetem bez zranění osob, únik provozních kapalin nehlášen.',137.563921779109,87.0985199055477,'{accindet,personal_cars,animal_hit}'
