ID,od,popis,x,y,ts_flags
2030,2013-12-06 05:45:00,'Od 6.12.2013 05:45 do 06:45; v ulici Korandova v obci Plzeň; Za autobusovým nádražím.; nehoda; 2 havarovaná vozidla; DN 2 x Oa bez zranění, únik provozních kapalin nehlášen.',137.504064001323,87.1041390027048,'{accindet,personal_cars}'
2031,2013-12-06 06:00:00,'Od 6.12.2013 06:00 do 08:00; v ulici Plzeňská v obci Vejprnice okres Plzeň-sever; Mezi Vejprnicemi a Novou Hospodou u firmy Kreiner.; nehoda; 2 havarovaná vozidla; DN 2 x Oa se dvěma zraněními, únik provozních kapalin. Místo průjezdné.',137.449192534649,87.1159266202977,'{accindet,injury,personal_cars}'
2032,2013-12-06 06:55:00,'Od 6.12.2013 06:55 do 07:55; na silnici 231 u obce Plzeň; Ve stoupání k obci Zruč.; nehoda; havarované vozidlo; havárie OA bez zranění, únik provozních kapalin nehlášen.',137.536530490216,87.0525787158521,'{accindet,personal_cars}'
2033,2013-12-06 07:00:00,'Od 6.12.2013 07:00 do 09:00; v ulici Plzeňská v obci Vejprnice okres Plzeň-sever; na úrovni rybníka ve směru od Plzně; nehoda; havarované vozidlo; havárie OA do plotu zahrady, bez zranění a bez úniku provozních kapalin.',137.451963023538,87.1151212764387,'{accindet,personal_cars}'
2034,2013-12-06 07:50:00,'Od 6.12.2013 07:50 do 09:55; v ulici Palackého v obci Plzeň; nehoda; 2 x OA bez zranění, na místo PČR.',137.509351823546,87.0998493497473,'{accindet,personal_cars}'
2035,2013-12-06 07:55:00,'Od 6.12.2013 07:55 do 09:00; v ulici Třemošenská v obci Zruč-Senec okres Plzeň-sever; křiž. s ul. Plzeňská; nehoda; 2 x OA bez zranění, na místo PČR.',137.54403271244,87.0325134181874,'{accindet,personal_cars}'
2036,2013-12-06 08:25:00,'Od 6.12.2013 08:25 do 09:30; v ulici Rokycanská v obci Plzeň; na světelné křižovatce; nehoda; 2 x OA bez zranění, na místo PČR.',137.554119112441,87.1005547781339,'{accindet,personal_cars}'
2037,2013-12-06 08:25:00,'Od 6.12.2013 08:25 do 09:30; na silnici 180 u obce Čeminy okres Plzeň-sever; nehoda; havárie OA do příkopu, bez zranění, na místo PČR.',137.424477156867,87.0372976933141,'{accindet,personal_cars}'
2038,2013-12-06 08:30:00,'Od 6.12.2013 08:30 do 09:35; v ulici Červenohrádecká v obci Plzeň; nehoda; havárie OA do plotu, bez zranění, na místo PČR.',137.562438401331,87.090187014009,'{accindet,personal_cars}'
2039,2013-12-06 08:40:00,'Od 6.12.2013 08:40 do 10:45; v ulici Strnadova v obci Plzeň; nehoda; 2 x OA bez zranění, na místo PČR.',137.529553779104,87.120262286096,'{accindet,personal_cars}'
