ID,od,popis,x,y,ts_flags
2050,2013-12-06 15:45:00,Od 6.12.2013 15:45 do 17:50; na silnici 26 u obce Stod okres Plzeň-jih; nehoda; 2 x OA bez zranění a úniku kapalin.,137.371844267971,87.210329522151,'{accindet,personal_cars}'
2051,2013-12-06 15:50:00,'Od 6.12.2013 15:50 do 19:55; na silnici 1807 u obce Třemošná okres Plzeň-sever; nehoda; probíhají záchranné a vyprošťovací práce; jízdní pruh uzavřen; 2 x OA se zraněním, na místo HZS, ZZS.',137.513602134658,87.0072781358781,'{accindet,injury,personal_cars}'
2052,2013-12-06 19:15:00,'Od 6.12.2013 19:15 do 20:20; na silnici 27 u obce Horní Lukavice okres Plzeň-jih; nehoda; - srážka OA s chodcem, bez zranění, na místo PČR',137.476246756875,87.2423821103312,'{accindet,pedestrian_involvement,personal_cars}'
2053,2013-12-07 07:35:00,'Od 7.12.2013 07:35 do 09:40; na silnici 11742 u obce Louňová okres Plzeň-jih; nehoda; - havárie OA do příkopu, bez zranění, na místo PČR',137.683748979126,87.2942191214911,'{accindet,personal_cars}'
2054,2013-12-07 10:20:00,'Od 7.12.2013 10:20 do 13:25; na silnici 26 u obce Stod okres Plzeň-jih; všechny nehody byly odstraněny, nejsou hlášeny žádné další problémy; havárie OA bez zranění, vozidlo v příkopu, v délce 100m zvýšená opatrnost',137.343329423523,87.2404217821871,'{accindet,personal_cars}'
2055,2013-12-07 10:50:00,'Od 7.12.2013 10:50 do 12:15; na silnici 188 u obce Oselce okres Plzeň-jih; všechny nehody byly odstraněny, nejsou hlášeny žádné další problémy; v délce 100, zvýšená opatrnost, průjezdné s opatrností',137.727936712465,87.4353225541939,{accindet}
2056,2013-12-07 11:50:00,'Od 7.12.2013 11:50 do 13:05; v ulici Sukova v obci Plzeň; všechny nehody byly odstraněny, nejsou hlášeny žádné další problémy; 2 x OA bez zranění, průjezdné s opatrností',137.499305956878,87.1188948456477,'{accindet,personal_cars}'
2057,2013-12-07 14:00:00,'Od 7.12.2013 14:00 do 16:30; v ulici Karlovarská v obci Plzeň , délka 6m; Pod Záhorskem x Karlovarská; všechny nehody byly odstraněny, nejsou hlášeny žádné další problémy; OA a NA bez zranění, průjezdné s opatrností',137.508917334657,87.0879536088562,'{accindet,personal_cars,trucks}'
2058,2013-12-07 14:50:00,'Od 7.12.2013 14:50 do 16:50; na silnici 1806 u obce Trnová okres Plzeň-sever; všechny nehody byly odstraněny, nejsou hlášeny žádné další problémy; - srážka OA s pevnou překážkou, se zraněním, průjezdné s opatrností',137.468800001318,86.9694535506338,'{accindet,injury,personal_cars}'
2059,2013-12-08 00:25:00,'Od 8.12.2013 00:25 do 02:30; na silnici 201 u obce Blažim okres Plzeň-sever; nehoda; havárie OA bez zranění, průjezdné s opatrností.',137.281221690181,86.9100212042885,'{accindet,personal_cars}'
