ID,od,popis,x,y,ts_flags
210,2013-05-02 16:45:00,'Od 2.5.2013 17:45 do 19:50; v ulici Lábkova v obci Plzeň; nehoda; DN, 2 OA, bez zranění, na místo PČR',137.480624356875,87.1041048893282,'{accindet,personal_cars}'
211,2013-05-02 21:55:00,'Od 2.5.2013 22:55 do 3.5.2013 01:00; D5 - 92.9km na trase Rozvadov - Praha; nehoda; střet OA se zvěří, na místo PČR',137.398321067975,87.1465646734267,'{accindet,personal_cars,animal_hit}'
212,2013-05-03 07:45:00,'Od 3.5.2013 08:45 do 09:50; v ulici Karla Steinera v obci Plzeň; čp. 8.; nehoda; 2 havarovaná vozidla; 2 x dodávka, bez zranění osob, na místě PČR.',137.478859379097,87.1042446439907,{accindet}
213,2013-05-03 09:10:00,'Od 3.5.2013 10:10 do 11:15; v ulici náměstí Republiky v obci Plzeň; čp.30.; nehoda; havarované vozidlo; srážka OA s pevnou překážkou, bez zranění osob, na místě PČR.',137.512242490213,87.1003500838054,'{accindet,personal_cars}'
214,2013-05-03 09:15:00,'Od 3.5.2013 10:15 do 11:20; v ulici Dvořákova v obci Plzeň; před Mulačovou nemocnicí.; nehoda; 2 havarovaná vozidla; 2 x OA, bez zranění, na místě PČR.',137.507896890212,87.1225174412333,'{accindet,personal_cars}'
215,2013-05-03 15:15:00,'Od 3.5.2013 16:15 do 17:20; v ulici Domažlická v obci Plzeň; nehoda; neprůjezdný pruh, 2 havarovaná vozidla; 2 x OA bez zranění, na místě PČR.',137.478353779097,87.1127986935394,'{accindet,personal_cars}'
216,2013-05-04 11:15:00,'Od 4.5.2013 12:15 do 14:05; v ulici Tyršova v obci Plzeň; Na Rychtářce; všechny nehody byly odstraněny, nejsou hlášeny žádné další problémy; 3x OA bez zranění, blokován jeden jízdní pruh',137.515349334658,87.0974050398143,'{accindet,personal_cars}'
217,2013-05-05 09:00:00,'I/20, Plzeň 1 - ulice sady Pětatřicátníků, Plzeň 3, Plzeň, omezení, Od 05.05.2013 10:00 Do 05.05.2013 12:30, částečná uzavírka silnice I/20 Karlovarská  ve směru do centra od 10.00 - 12.30 hod., Objížďka - dle DIO: I/20, Plzeň 1 - I/26 (ulice Tyršova), Plzeň 3, Plzeň, přes: ulice sady 5. května, Vydal: Krajský úřad Plzeňského kraje',137.511264001324,87.0922409157592,{accindet}
218,2013-05-05 09:00:00,'I/20 (ulice sady Pětatřicátníků) - ulice Americká, Plzeň 3, Plzeň, uzavřeno, mimořádná událost, Od 05.05.2013 10:00 Do 05.05.2013 12:30, úplná uzavírka silnice I/27 Klatovská tř. a sady Pětatřicátníků od 10.00 -12.30 hod., Objížďka - dle DIO: I/26 (ulice Palackého náměstí) - I/27 (ulice Klatovská třída), Plzeň 3, Plzeň, přes: III/18050 (ulice Kalikova), ulice Korandova, ulice Bendova, ulice Mánesova, Vydal: Krajský úřad Plzeňského kraje',137.510377245768,87.0986420661228,{accindet}
219,2013-05-05 09:00:00,'ulice Klatovská třída - I/27 (ulice Klatovská třída), Plzeň 3, Plzeň, uzavřeno, mimořádná událost, Od 05.05.2013 10:00 Do 05.05.2013 12:30, úplná uzavírka silnice I/20 Palackého náměstí od 10.00 -12.30 hod, Objížďka - dle DIO: I/26 (ulice Jízdecká) - I/27 (ulice Klatovská třída), Plzeň 3, Plzeň, přes:  (ulice Přemyslova), ulice Kotkova, ulice Korandova, ulice Bendova, Vydal: Krajský úřad Plzeňského kraje',137.504568890212,87.1230047622444,{accindet}
