ID,od,popis,x,y,ts_flags
2120,2013-12-14 01:40:00,'Od 14.12.2013 01:40 do 03:50; na silnici 26 v obci Plzeň; nehoda; DN, 1 OA, bez zranění, na místo PČR',137.472630756874,87.1180774449731,'{accindet,personal_cars}'
2121,2013-12-14 13:00:00,Od 14.12.2013 13:00 do 14:00; na silnici 205 u obce Nekmíř okres Plzeň-sever; ve směru na Tlucnou; nehoda; havarované vozidlo; havárie OA bez zranění a bez úniku provozních kapalin.,137.434303290202,86.971656622033,'{accindet,personal_cars}'
2122,2013-12-14 17:50:00,'Od 14.12.2013 17:50 do 18:50; v ulici Pod Horami v obci Horní Bříza okres Plzeň-sever; ve směru na Záluží; nehoda; havarované vozidlo; Srážka OA se zvěří, bez zranění osob a bez úniku provozních kapalin.',137.496296534655,87.0018847718923,'{accindet,personal_cars,animal_hit}'
2123,2013-12-14 19:30:00,Od 14.12.2013 19:30 do 20:30; v ulici Radyňská v obci Starý Plzenec okres Plzeň-město; U domu čp. 494 v ul Radyňská.; nehoda; 3 havarovaná vozidla; DN 3 x OA bez zranění a bez úniku provozních kapalin.,137.581490490223,87.1580175337949,'{accindet,personal_cars}'
2124,2013-12-14 21:40:00,'Od 14.12.2013 21:40 do 22:40; na silnici 20 u obce Město Touškov okres Plzeň-sever; U obce Nevřeň.; nehoda; havarované vozidlo; Havárie 1 x OA, bez zranění, únik provozních kapalin nehlášen, vozidlo v příkopu.',137.44177635687,87.0285221537686,'{accindet,personal_cars}'
2125,2013-12-14 22:50:00,'Od 14.12.2013 22:50 do 15.12.2013 02:50; na silnici v obci Lužany okres Plzeň-jih; Na konci obce Lužany ve směru na Klatovy.; nehoda; havarované vozidlo; komunikace dočasně uzavřena; Havárie 1 x OA do zahrady domu se smrtelným zraněním1 osoby. Komunikace dočasně uzavřena. Objízdná trasa přes obec Nezdice v obou směrech, jak od obce Borovy, tak i od obce Lužany.',137.46748302354,87.3215967399348,'{accindet,death,personal_cars}'
2126,2013-12-15 03:15:00,'Od 15.12.2013 03:15 do 04:15; na silnici 27 u obce Plzeň; Mezi Litickým mostem a brejlema.; nehoda; havarované vozidlo; Srážka OA s prasetem, bez zranění osob, únik provozních kapalin nehlášen.',137.504314312434,87.1705955899473,'{accindet,personal_cars,animal_hit}'
2127,2013-12-15 05:35:00,'Od 15.12.2013 05:35 do 06:35; v ulici Karlovarská v obci Plzeň; V ul. Karlovarská u Družby.; nehoda; havarované vozidlo; Srážka OA s chodcem se zraněním, únik provozních kapalin nehlášen.',137.494417779099,87.0720716124003,'{accindet,pedestrian_involvement,injury,personal_cars}'
2128,2013-12-15 12:35:00,'Od 15.12.2013 12:35 do 13:40; v ulici Politických vězňů v obci Plzeň; nehoda; 2 x OA, bez zranění, na místo PČR',137.508668445768,87.119707833369,'{accindet,personal_cars}'
2129,2013-12-15 13:35:00,'Od 15.12.2013 13:35 do 15:35; na silnici 20136 u obce Kralovice okres Plzeň-sever; nehoda; probíhají záchranné a vyprošťovací práce, nebezpečí; Nehoda se zraněním, na místo jede ZZS. Více dosud nezjištěno.',137.566531556887,86.8253490079853,'{accindet,injury}'
