ID,od,popis,x,y,ts_flags
2160,2013-12-18 11:45:00,Od 18.12.2013 11:45 do 12:50; v ulici Gerská v obci Plzeň; nehoda; 3 havarovaná vozidla,137.505671823545,87.0691723571955,{accindet}
2161,2013-12-18 14:00:00,'Od 18.12.2013 14:00 do 15:05; v ulici Zelenohorská v obci Nepomuk okres Plzeň-jih; nehoda; 2 x OA bez zranění, na místo PČR.',137.660804979123,87.3819722661528,'{accindet,personal_cars}'
2162,2013-12-18 14:25:00,'Od 18.12.2013 14:25 do 15:30; v ulici Skrétova v obci Plzeň; nehoda; 2 x OA bez zranění, na místo PČR.',137.507037156879,87.1020943624744,'{accindet,personal_cars}'
2163,2013-12-18 16:00:00,'Od 18.12.2013 16:00 do 18:05; v ulici Karlovarská v obci Plzeň; křiž. s ul. Boženy Němcové, ve směru do centra; nehoda; probíhají záchranné a vyprošťovací práce, nebezpečí; střet OA s chodcem se zraněním, na místo PČR, ZZS.',137.50362666799,87.0811702648333,'{accindet,pedestrian_involvement,injury,personal_cars}'
2164,2013-12-18 16:10:00,'Od 18.12.2013 16:10 do 17:15; v ulici U Letiště v obci Plzeň; nehoda; 2 x OA bez zranění, na místo PČR.',137.490739912432,87.1183304774746,'{accindet,personal_cars}'
2165,2013-12-18 17:00:00,'Od 18.12.2013 17:00 do 18:05; v ulici Vejprnická v obci Plzeň; ve směru do centra; nehoda, neprůjezdný levý jízdní pruh; 2 x OA bez zranění, na místo PČR.',137.493233779099,87.1022880454232,'{accindet,personal_cars}'
2166,2013-12-18 17:05:00,'Od 18.12.2013 17:05 do 18:10; na silnici 19 u obce Spálené Poříčí okres Plzeň-jih; nehoda; probíhají záchranné a vyprošťovací práce, nebezpečí; havárie OA do příkopu, se zraněním, na místo PČR, ZZS, HZS.',137.695615290239,87.2562263916218,'{accindet,injury,personal_cars}'
2167,2013-12-18 17:08:00,'silnice I/19, v katastru obce Spálené Poříčí, část obce Hořehledy, okr. Plzeň-jih, nehoda, Od 18.12.2013 17:08 Do 18.12.2013 18:08',137.692191290238,87.2539933313693,{accindet}
2168,2013-12-18 17:35:00,'Od 18.12.2013 17:35 do 18:40; v ulici U Trati v obci Plzeň; nehoda; dodávka x OA bez zranění, na místo PČR.',137.515714134658,87.1067370574362,'{accindet,personal_cars}'
2169,2013-12-18 17:45:00,'Od 18.12.2013 17:45 do 19:45; v ulici Nepomucká v obci Plzeň; směr centrum; nehoda, silný provoz; 2 x OA bez zranění a úniku kapalin.',137.53254613466,87.131221446906,'{accindet,personal_cars}'
