ID,od,popis,x,y,ts_flags
2180,2013-12-19 11:10:00,'Od 19.12.2013 11:10 do 13:15; v ulici Zborovská v obci Plzeň; u hotelu Hazuka; nehoda; srážka OA s pevnou překážkou se zraněním, průjezdné s opatrností na místě PČR a ZZS',137.516974934658,87.1207342264411,'{accindet,injury,personal_cars}'
2181,2013-12-19 12:05:00,'Od 19.12.2013 12:05 do 14:10; v ulici Slovanská v obci Plzeň; u křižovatky s Jetelovou; nehoda; 2 havarovaná vozidla; 2 x OA bez zranění, průjezdné s opatrností',137.523768890215,87.1165086167006,'{accindet,personal_cars}'
2182,2013-12-19 17:10:00,'Od 19.12.2013 17:10 do 21:15; D5 - 69km na trase Praha - Rozvadov; nehoda odstraněna; běžný provoz obnoven; kamion x OA, se zraněním, na místo PČR, kamion napříč pruhu ve směru na Rozvadov, na místě HZS a ZZS, poškozená svodidla zasahují do pruhu ve směru na PRAHU!!!!!!!',137.591128890224,87.1207045240249,'{accindet,injury,personal_cars}'
2183,2013-12-19 18:08:00,'D5, km 68, ve směru Rozvadov, nehoda, Od 19.12.2013 18:08 Do 19.12.2013 19:30',137.600036268003,87.1176417862045,{accindet}
2184,2013-12-19 19:20:00,'Od 19.12.2013 19:20 do 21:25; v ulici U Trati v obci Plzeň; nehoda; 2 havarovaná vozidla; 2 x OA bez zranění, průjezdné s opatrností.',137.513843912435,87.1074324915516,'{accindet,personal_cars}'
2185,2013-12-19 19:35:00,'Od 19.12.2013 19:35 do 22:20; na silnici 26 u obce Kyšice okres Plzeň-město; na přivaděči k dálnici; nehoda; havárie OA bez zranění, průjezdné s opatrností.',137.596306490225,87.1028668891388,'{accindet,personal_cars}'
2186,2013-12-19 19:40:00,'Od 19.12.2013 19:40 do 21:30; na silnici 2054 u obce Plasy okres Plzeň-sever; všechny nehody byly odstraněny, nejsou hlášeny žádné další problémy; havárie OA bez zranění, průjezdné s opatrností.',137.500669156878,86.8941998912974,'{accindet,personal_cars}'
2187,2013-12-19 20:43:00,'D5, mezi km 68.5 a 69, ve směru Rozvadov, nehoda nákladního vozidla, Od 19.12.2013 20:43 Do 19.12.2013 21:43',137.595751112447,87.1199982617059,{accindet}
2188,2013-12-20 04:45:00,'Od 20.12.2013 04:45 do 07:40; v ulici Klatovská třída v obci Plzeň; nehoda odstraněna; provoz obnoven; Srážka OA s pevnou překážkou, se zraněním, průjezdné s opatrností.',137.508040534657,87.1108886207172,'{accindet,injury,personal_cars}'
2189,2013-12-20 07:05:00,'Od 20.12.2013 07:05 do 09:10; na silnici 27 u obce Dobřany okres Plzeň-jih; nehoda; 2 havarovaná vozidla; 2 x OA bez zranění, průjezdné s opatrností.',137.483711290209,87.2125611116533,'{accindet,personal_cars}'
