ID,od,popis,x,y,ts_flags
2270,2013-12-31 04:35:00,'D5, mezi km 80 a 131, místy mlha, ztížené jízdní podmínky, Od 31.12.2013 04:35 Do 31.12.2013 07:30, zvýšené nebezpečí nehody',137.510653156879,87.1672411449365,{accindet}
2271,2013-12-31 11:05:00,'Od 31.12.2013 11:05 do 13:10; na silnici 20513a u obce Manětín okres Plzeň-sever; před obcí Stvolny ve směru od Vysočan; nehoda; nehoda, neprůjezdný pravý jízdní pruh; střet dodávky se zvěří.',137.430865067979,86.7877934215845,'{accindet,animal_hit}'
2272,2013-12-31 14:30:00,'Od 31.12.2013 14:30 do 16:35; v ulici Schwarzova v obci Plzeň; křiž. s ul. Sukova; nehoda; nehoda, neprůjezdný pravý jízdní pruh; 2 x OA bez zranění, bez úniku PK.',137.503809423545,87.1189179483113,'{accindet,personal_cars}'
2273,2013-12-31 18:30:00,'Od 31.12.2013 18:30 do 19:05; na silnici 19 u obce Žákava okres Plzeň-jih; za obcí Nezvěstice ve směru na obec Vlkov,; jízdní pruhy opět průjezdné; nehoda odstraněna; střet OA se zvěří, OA odstaveno na pravé krajnici.',137.628957868007,87.2267413893396,'{accindet,personal_cars,animal_hit}'
2274,2014-01-01 02:35:00,'ulice Americká, Plzeň 3, Plzeň, nehoda, Od 01.01.2014 02:35 Do 01.01.2014 04:05',137.513176179102,87.1042116311113,{accindet}
2275,2014-01-01 03:00:00,'Od 1.1.2014 03:00 do 05:05; na silnici 201 u obce Manětín okres Plzeň-sever; z Nečtin ve směru na Manětín,; nehoda; převrácené vozidlo; probíhá vyšetřování nehody; převrácené vozidlo, zraněné osoby',137.388678401307,86.8266299760303,'{accindet,injury}'
2276,2014-01-01 03:15:00,'ulice Koterovská - ulice Rubešova, Plzeň 2-Slovany, Plzeň, nehoda, Od 01.01.2014 03:15 Do 01.01.2014 04:45',137.522139734659,87.1075205205406,{accindet}
2277,2014-01-01 03:20:00,'Od 1.1.2014 03:20 do 05:20; v ulici Rubešova v obci Plzeň; křižovatka ulic Koterovská a Rubešova, místo s opatrností průjezdné.; nehoda; probíhá vyšetřování nehody; překážka na vozovce, průjezd se zvýšenou opatrností; střet OA s chodcem, se zraněním. Na místo jede PČR.',137.522021690214,87.1073983802793,'{accindet,pedestrian_involvement,injury,personal_cars}'
2278,2014-01-01 16:15:00,Od 1.1.2014 16:15 do 17:15; v ulici Plzeňská v obci Plasy okres Plzeň-sever; V zatáčce v Plasích ve směru na Kralovice; nehoda; 2 havarovaná vozidla; 2x OA bez zranění a bez úniku provozních kapalin.,137.527985779104,86.8893872825145,'{accindet,personal_cars}'
2279,2014-01-01 18:55:00,'Od 1.1.2014 18:55 do 19:55; v ulici Stehlíkova v obci Plzeň; nehoda; 2 havarovaná vozidla; 2 x OA bez zranění, únik provozních kapalin nehlášen. Na místo hlídka PČR.',137.508223290212,87.1121616434356,'{accindet,personal_cars}'
