ID,od,popis,x,y,ts_flags
2310,2014-01-06 15:50:00,'Od 6.1.2014 15:50 do 17:50; na silnici 26 u obce Střelice okres Plzeň-jih; Za odbočkou na Střelice ve směru na Holýšov.; nehoda; 2 havarovaná vozidla; OA x NA bez zranění, únik provozních kapalin nehlášen.',137.3392064013,87.2446079725416,'{accindet,personal_cars,trucks}'
2311,2014-01-06 16:55:00,Od 6.1.2014 16:55 do 18:55; v ulici Gerská v obci Plzeň; Asi 10 m za zastávkou Severka v ul. Gerská ve směru z města ven.; nehoda; havarované vozidlo; TRAM x Chodec se zraněním.,137.508575290212,87.0626300104323,'{accindet,pedestrian_involvement,injury}'
2312,2014-01-06 21:30:00,'Od 6.1.2014 21:30 do 22:30; v ulici Letkovská v obci Plzeň; nehoda; zvěř na vozovce; havarované vozidlo; Srážka OA se srnou bez zranění osob, únik provozních kapalin nehlášen.',137.549681067996,87.1167264511519,'{accindet,personal_cars,animal_hit}'
2313,2014-01-06 22:25:00,Od 6.1.2014 22:25 do 23:25; na silnici 19 u obce Spálené Poříčí okres Plzeň-jih; Na výjezdu ze Spáleného Poříčí ve směru na Hořehledy.; nehoda; 2 havarovaná vozidla; probíhá vyšetřování nehody; 2 x OA bez zranění a úniku provozních kapalin. Na místě PČR.,137.679610312459,87.2482352270406,'{accindet,personal_cars}'
2314,2014-01-07 01:15:00,'Od 7.1.2014 01:15 do 02:15; D5 - 100.3km na trase Praha - Rozvadov; Kolem km 100 ve směru Praha - Rozvadov; nehoda; havarované vozidlo; zvěř na vozovce; SrážkaOA s prasetem bez zranění osob, únik provozních kapalin nehlášen.',137.336515556855,87.1330681020392,'{accindet,animal_hit}'
2315,2014-01-07 06:45:00,Od 7.1.2014 06:45 do 07:45; v ulici Tyršova v obci Plzeň; Za světelnou křižovatkou ve směru k OC Plaza.; nehoda; 2 havarovaná vozidla; DN OA x NA bez zranění a bez úniku provozních kapalin. Místo je průjezdné.,137.509156979101,87.0968470479256,'{accindet,personal_cars,trucks}'
2316,2014-01-07 11:05:00,'Od 7.1.2014 11:05 do 12:10; v ulici Tyršova v obci Plzeň; - Tyršova x sady 5. května; nehoda; - 2 x OA, bez zranění, na místo PČR',137.515827912436,87.097662572565,'{accindet,personal_cars}'
2317,2014-01-07 11:55:00,'Od 7.1.2014 11:55 do 13:00; v ulici Karlovarská v obci Plzeň; - ve směru do centra; nehoda; neprůjezdný pruh, 3 havarovaná vozidla; - 3 x OA, bez zranění, na místo PČR',137.506594134657,87.0856639688626,'{accindet,personal_cars}'
2318,2014-01-07 13:35:00,'Od 7.1.2014 13:35 do 14:40; v ulici sady Pětatřicátníků v obci Plzeň; - ve směru z centra; nehoda; - 2 x OA, bez zranění, na místo PČR',137.510854401324,87.0972487586504,'{accindet,personal_cars}'
2319,2014-01-07 14:20:00,'Od 7.1.2014 14:20 do 16:25; na silnici 18027 u obce Dolní Lukavice okres Plzeň-jih; - ve směru na Lišice; nehoda; probíhají záchranné a vyprošťovací práce, nebezpečí; - havárie OA se zraněním, na místo PČR, ZZS, HZS',137.49198649021,87.2539318797448,'{accindet,injury,personal_cars}'
