ID,od,popis,x,y,ts_flags
2330,2014-01-09 11:30:00,Od 9.1.2014 11:30 do 13:05; v ulici sady Pětatřicátníků v obci Plzeň; ve směru na Lochotín na úrovni zastávek MHD.; jízdní pruhy opět průjezdné; nehoda odstraněna; 2 x OA bez zranění.,137.510427734657,87.0993056903092,'{accindet,personal_cars}'
2331,2014-01-09 12:00:00,'Od 9.1.2014 12:00 do 13:00; na silnici 605 v obci Úlice okres Plzeň-sever; nehoda; havarované vozidlo; probíhají odklízecí práce; havárie OA mimo komunikaci, bez zranění osob. Na místě PČR.',137.34913209019,87.0835459644191,'{accindet,personal_cars}'
2332,2014-01-09 17:05:00,'Od 9.1.2014 17:05 do 19:10; na silnici 18022 u obce Šťáhlavy okres Plzeň-město; mezi Šťáhlavy a Starý Plzenec.; nehoda; havarované vozidlo, neprůjezdný pravý jízdní pruh; probíhají záchranné a vyprošťovací práce, nebezpečí; náraz OA do stomu, se zraněním a únikem provozních kapalin.',137.595764623558,87.170527448009,'{accindet,injury,personal_cars}'
2333,2014-01-09 17:15:00,'Od 9.1.2014 17:15 do 19:20; na silnici 180 u obce Nýřany okres Plzeň-sever; za obcí Nýřany ve směru k D5, místo průjezdné.; nehoda; 2 havarovaná vozidla; 2 x OA.',137.403490845753,87.1345605574785,'{accindet,personal_cars}'
2334,2014-01-09 20:30:00,'Od 9.1.2014 20:30 do 21:35; na silnici 27 u obce Horní Lukavice okres Plzeň-jih; před obcí ve směru od Plzně, místo průjezdné; nehoda; střet 2 x OA, bez zranění, bez úniku,',137.476770134652,87.2404558086522,'{accindet,personal_cars}'
2335,2014-01-10 06:05:00,'D5, mezi km 151 a 28.5, ve směru Praha, nárazový vítr, Od 10.01.2014 06:05 Do 10.01.2014 09:05, zvýšené nebezpečí nehody.',136.905155556795,87.2148738713825,{accindet}
2336,2014-01-10 06:07:00,'D5, mezi km 28.5 a 151, ve směru Rozvadov, nárazový vítr, Od 10.01.2014 06:07 Do 10.01.2014 09:07, zvýšené nebezpečí nehody.',137.925654756937,86.9315259240607,{accindet}
2337,2014-01-10 07:40:00,'Od 10.1.2014 07:40 do 08:40; v ulici Zábělská v obci Plzeň; U konečné trolejbusu v ul. Zábělská.; nehoda; 2 havarovaná vozidla; 2x OA bez zranění a bez úniku provozních kapalin, překáží provozu.',137.545976890218,87.0869254845857,'{accindet,personal_cars}'
2338,2014-01-10 08:40:00,'Od 10.1.2014 08:40 do 09:40; na silnici v obci Plzeň; Křižovatka ul. Komenského x Lidická; nehoda; 2 havarovaná vozidla; 2x OA se zraněním ( krev z nosu), únik provozních kapalin nehlášen. Najetí zezadu.',137.51108835688,87.0761179737868,'{accindet,injury,personal_cars}'
2339,2014-01-10 09:45:00,'Od 10.1.2014 09:45 do 10:45; v ulici Lochotínská v obci Plzeň; U zastávky autobusu Bolevecká náves.; nehoda; 2 havarovaná vozidla; 2x OA bez zranění, únik provozních kapalin nehlášen, provoz jedním pruhem.',137.51003306799,87.0935396981575,'{accindet,personal_cars}'
