ID,od,popis,x,y,ts_flags
2500,2014-01-30 13:00:00,Od 30.1.2014 13:00 do 15:00; v ulici Čechova v obci Plzeň; nehoda; 2 havarovaná vozidla; 2 x OA ze zraněním.,137.509139201324,87.1136623849103,'{accindet,injury,personal_cars}'
2501,2014-01-30 14:05:00,'Od 30.1.2014 14:05 do 16:10; v ulici Brožíkova v obci Plzeň; nehoda; havarované vozidlo; havárie OA bez zranění, na místě PČR.',137.501966223545,87.1153171125385,'{accindet,personal_cars}'
2502,2014-01-30 15:15:00,'Od 30.1.2014 15:15 do 17:20; v ulici sady Pětatřicátníků v obci Plzeň; pře křižovatkou s ulicí Husova, proti divadlu.; nehoda, neprůjezdný pravý jízdní pruh; 2 havarovaná vozidla; OA x NA, bez zranění a úniku provozních kapalin.',137.509453512435,87.1020360373579,'{accindet,personal_cars}'
2503,2014-01-30 15:55:00,Od 30.1.2014 15:55 do 17:45; v ulici sady Pětatřicátníků v obci Plzeň; od rondelu ve směru do města.; jízdní pruhy opět průjezdné; nehoda odstraněna; 2 x OA bez zranění a úniku provozních kapalin.,137.510850134657,87.0964288253291,'{accindet,personal_cars}'
2504,2014-01-30 15:55:00,'Od 30.1.2014 15:55 do 17:40; na silnici 2103 u obce Úterý okres Plzeň-sever; za obcí Vidžín va směru na Branišov.; nehoda odstraněna; provoz v jízdním pruhu obnoven; havárie OA do příkopu, bez zranění osob a úniku provozních kapalin.',137.23611164573,86.8551694213974,'{accindet,personal_cars}'
2505,2014-01-30 16:05:00,'Od 30.1.2014 16:05 do 17:30; v ulici Klatovská třída v obci Plzeň; křižovatka s ulicí Alešova ve směru do města.; jízdní pruhy opět průjezdné; nehoda odstraněna; 2 x OA se zraněním, bez úniku provozních kapalin.',137.507755379101,87.1157252854717,'{accindet,injury,personal_cars}'
2506,2014-01-30 16:30:00,Od 30.1.2014 16:30 do 18:30; v ulici Plzeňská v obci Třemošná okres Plzeň-sever; na křižovatce před BČS.; jízdní pruhy opět průjezdné; nehoda odstraněna; 2 x OA bez zranění a úniku provozních kapalin.,137.52393884577,87.0282896330231,'{accindet,personal_cars}'
2507,2014-01-30 18:10:00,'Od 30.1.2014 18:10 do 20:15; na silnici 206 u obce Manětín okres Plzeň-sever; mezi obcemi Rabštejn nad Střelou a Stvolny.; nehoda; zvěř na vozovce; probíhá vyšetřování nehody; střet OA se zvěří bez zranění osob, na místo jede PČR.',137.440660623536,86.7752077279774,'{accindet,personal_cars,animal_hit}'
2508,2014-01-30 20:00:00,'Od 30.1.2014 20:00 do 22:05; v ulici Terezie Brzkové v obci Plzeň; před hernou, místo částečně neprůjezdné; nehoda; střet 2 OA, bez zranění, bez úniku',137.475410490208,87.1040113525387,'{accindet,personal_cars}'
2509,2014-01-31 07:05:00,'Od 31.1.2014 07:05 do 09:10; v ulici Plaská v obci Plzeň; na výjezdu ve směru na Třemošnou; nehoda; neprůjezdný pravý jízdní pruh; 2 x OA bez zranění, bez úniku.',137.517402312436,87.0612963348445,'{accindet,personal_cars}'
