ID,od,popis,x,y,ts_flags
2550,2014-02-06 09:30:00,Od 6.2.2014 09:30 do 11:35; D5 - 78.3km na trase Praha - Rozvadov; most za tunelem Valík ve směru na Rozvadov; nehoda odstraněna; provoz obnoven; havárie OA,137.526628267993,87.1718968644807,'{accindet,personal_cars}'
2551,2014-02-06 14:05:00,'Od 6.2.2014 14:05 do 16:10; v ulici Tovární v obci Horní Bříza okres Plzeň-sever; v Tovární ulici v Hrní Bříze; nehoda; střet dvou OA bez zranění, na místo PČR',137.515692090213,86.986140348694,'{accindet,personal_cars}'
2552,2014-02-06 15:05:00,'Od 6.2.2014 15:05 do 18:10; v ulici Letkovská v obci Kyšice okres Plzeň-město; Letkovská ulice v Kyšicích; nehoda nákladního vozidla; střet OA s NA bez zranění, na místo PČR',137.589444979113,87.0943046441901,'{accindet,personal_cars,trucks}'
2553,2014-02-06 18:15:00,'Od 6.2.2014 18:15 do 20:20; v ulici Karlovarská v obci Plzeň; ve směru z města , nad BČS Shell; nehoda; havarované vozidlo, neprůjezdné dva jízdní pruhy; střet 2 OA',137.508832712435,87.0878567414616,'{accindet,personal_cars}'
2554,2014-02-07 07:40:00,'Od 7.2.2014 07:40 do 09:45; na silnici 20 u obce Krsy okres Plzeň-sever; nehoda; OA x srna, překážka na vozovce, zvýšená opatrnost',137.30053475685,86.8898458027904,'{accindet,personal_cars,animal_hit}'
2555,2014-02-07 07:45:00,'Od 7.2.2014 07:45 do 11:00; na silnici 27 u obce Třemošná okres Plzeň-sever; nehoda; nehoda, doprava odkloněna po objízdné trase; OA x NA se zraněním, zvýšená opatrnost, vysypaný náklad na vozovce, policie řídí dopravu',137.520978490214,87.0060753703678,'{accindet,injury,personal_cars,trucks}'
2556,2014-02-07 13:20:00,'Od 7.2.2014 13:20 do 15:25; na silnici 27 v obci Plzeň; kruhový objezd; nehoda; 2xOA bez zranění, překáží provozu, vzýšená opatrnost',137.4980657791,87.1185439039568,{accindet}
2557,2014-02-07 15:15:00,'Od 7.2.2014 15:15 do 17:20; v ulici Chválenická v obci Plzeň; nehoda; 2xOA bez zranění, bez úniku PHM, zvýšená opatrnost',137.530822401327,87.126411484923,{accindet}
2558,2014-02-07 16:55:00,'Od 7.2.2014 16:55 do 19:00; na silnici 204 u obce Zahrádka okres Plzeň-sever; nehoda; 2xOA se zraněním, bez úniku PHM, zvýšená opatrnost',137.402230756864,86.9481318951346,'{accindet,injury}'
2559,2014-02-07 19:10:00,'Od 7.2.2014 19:10 do 21:15; v ulici Americká v obci Blovice okres Plzeň-jih; nehoda; OAx strom, bez zranění, bez úniku PHM, částečně blokují dopravu.',137.628081068007,87.2806084167231,{accindet}
