ID,od,popis,x,y,ts_flags
260,2013-05-10 07:15:00,'Od 10.5.2013 08:15 do 10:20; D5 - 91km na trase Praha - Rozvadov; D5, 91 km směr Rozvadov; nehoda; převrácená doávka, bez zranění, bez úniku, PČR jede na místo',137.422701512423,87.1406520267444,{accindet}
261,2013-05-10 07:25:00,'Od 10.5.2013 08:25 do 10:30; v ulici Na Roudné v obci Plzeň; nehoda; 2x OA bez zranění, bez úniku, PČR jede na místo',137.52934613466,87.0771452052763,'{accindet,personal_cars}'
262,2013-05-10 07:30:00,'Od 10.5.2013 08:30 do 10:35; na silnici 26 u obce Stod okres Plzeň-jih; Stod směr Holýšov; nehoda; Pozor! Překážka na vozovce; OA zasahuje do vozovky, ohrožení BESIP, PČR jede na místo',137.355696356858,87.2283508998059,'{accindet,personal_cars}'
263,2013-05-10 09:15:00,'Od 10.5.2013 10:15 do 13:20; v ulici sady Pětatřicátníků v obci Plzeň; Sady Pětatřicátníků, Plzeňza kruhovým objezdem směr centrum - u hlavní pošty; nehoda; nehoda, tvoří se kolona vozidel; 3x OA se zraněním, bez úniku PHM, PČR a RZS jede na místo. Místo špatně průjezdné',137.511059201324,87.0951047990292,'{accindet,injury,personal_cars}'
264,2013-05-10 12:40:00,'Od 10.5.2013 13:40 do 15:45; na silnici 27 v obci Plzeň; Sukova,Plzeň - kruhový objezd; nehoda; 2x OA bez zranění, tvoří překážku, PČR jede na místo',137.498579912433,87.1183150755306,'{accindet,personal_cars}'
265,2013-05-10 12:40:00,'Od 10.5.2013 13:40 do 15:45; v ulici Klatovská třída v obci Plzeň; Klatovská,Plzeň; nehoda; 2x OA, bez zranění, bez úniku, překáží provozu, PČR jede na místo.',137.504507023545,87.1229244590882,'{accindet,personal_cars}'
266,2013-05-10 13:25:00,'Od 10.5.2013 14:25 do 16:30; v ulici sady Pětatřicátníků v obci Plzeň; Karlovarská,Plzeň, tram č. 4 a č.1; nehoda; odstavené vozdilo, tvoří překážku provozu',137.510855112435,87.0963980087976,{accindet}
267,2013-05-10 14:15:00,'Od 10.5.2013 15:15 do 17:20; na silnici 27 u obce Dolní Lukavice okres Plzeň-jih; Dolní Lukavice - Přeštice; nehoda; 2x OA bez zranění, bez úniku PHM, zvýšená opatrnost',137.476182045764,87.2609983539041,'{accindet,personal_cars}'
268,2013-05-10 14:20:00,'Od 10.5.2013 15:20 do 17:25; na silnici 26 v obci Plzeň; kruhový objezd Domažlická,Plzeň Makro, Plzeň; nehoda; 2x OA bez zranění, bez úniku, překáží provozu, PČR jede na místo',137.47333191243,87.117700094276,'{accindet,personal_cars}'
269,2013-05-10 16:30:00,'Od 10.5.2013 17:30 do 20:35; v ulici Rokycanská v obci Plzeň; u divadla Alfa; nehoda nákladního vozidla; kamion x OA bez zranění, bez úniku, překáží provozu, PČR jede na místo',137.534623290216,87.0987983432078,'{accindet,personal_cars}'
