ID,od,popis,x,y,ts_flags
270,2013-05-10 17:45:00,'Od 10.5.2013 18:45 do 20:50; v ulici Plzeňská v obci Líně okres Plzeň-sever; Líně; nehoda; 2xOA bez zranění, bez úniku, překáží provozu',137.42993777909,87.1554120781327,{accindet}
271,2013-05-10 18:20:00,'Od 10.5.2013 19:20 do 21:25; na silnici 182 u obce Zemětice okres Plzeň-jih; Zemětice; nehoda; OA x srna, zvýšená opatrnost, na místo vyslán hospodář',137.375523556861,87.2817644357538,'{accindet,personal_cars,animal_hit}'
272,2013-05-10 22:00:00,'Od 10.5.2013 23:00 do 11.5.2013 01:05; na silnici 26 u obce Líně okres Plzeň-sever; Sulkov, sil. č.26 před nájezdem na D5; nehoda; 2xOA bez zranění, bez úniku, tvoří překážku provozu',137.442847290203,87.1439553602867,{accindet}
273,2013-05-11 09:15:00,Od 11.5.2013 10:15 do 11:15; v ulici Havlíčkova v obci Starý Plzenec okres Plzeň-město; nehoda; 2 havarovaná vozidla; 2 x OA bez zranění a úniku provozních kapalin.,137.577973334667,87.1500611511293,'{accindet,personal_cars}'
274,2013-05-11 10:10:00,'Od 11.5.2013 11:10 do 13:10; v ulici Velenická v obci Plzeň; křižovatka s ul. Sušická.; nehoda; probíhají záchranné a vyprošťovací práce, nebezpečí; havárie OA se zraněním, na místě PČR a HZS.',137.536779379105,87.11552284969,'{accindet,injury,personal_cars}'
275,2013-05-11 11:10:00,'Od 11.5.2013 12:10 do 13:10; v ulici Dobřanská v obci Plzeň; směr Lhota; nehoda; havarované vozidlo; OA v příkopu, bez zranění osob a úniku provozních kapalin.',137.483332979098,87.1417417975072,'{accindet,personal_cars}'
276,2013-05-11 14:00:00,Od 11.5.2013 15:00 do 17:00; na silnici 18021 u obce Starý Plzenec okres Plzeň-město; nehoda; 3 havarovaná vozidla; 3 x OA bez zranění a úniku provozních kapalin.,137.566681601332,87.1556572382371,'{accindet,personal_cars}'
277,2013-05-11 14:00:00,Od 11.5.2013 15:00 do 15:50; na silnici 27 u obce Plasy okres Plzeň-sever; směr Kralovice.; nehoda odstraněna; OA v příkopu bez zranění osob a úniku provozních kapalin.,137.522313956881,86.9069375051544,'{accindet,personal_cars}'
278,2013-05-11 17:25:00,'Od 11.5.2013 18:25 do 20:25; v ulici Samaritská v obci Plzeň; nehoda, silný provoz; 2 havarovaná vozidla; 2x OA bez zranění a úniku provozních kapalin.',137.512578134658,87.1200928705957,'{accindet,personal_cars}'
279,2013-05-12 04:15:00,'Od 12.5.2013 05:15 do 09:20; na silnici 19 u obce Nezvěstice okres Plzeň-město; nehoda nákladního vozidla; probíhají záchranné a vyprošťovací práce; jízdní pruh uzavřen; Dodávka x OA, se zraněním, na místo HZS a ZZS',137.607050668004,87.2113135416012,'{accindet,injury,personal_cars}'
