ID,od,popis,x,y,ts_flags
2700,2014-02-28 09:45:00,'Od 28.2.2014 09:45 do 10:45; v ulici Boettingerova v obci Plzeň; V ul. Boettingerova bez bližšího určení.; nehoda; 2 havarovaná vozidla; DN OA x NA bez zranění,  únik provozních kapalin nehlášen. Na místo hlídka PČR.',137.504238223545,87.1206935231258,'{accindet,personal_cars,trucks}'
2701,2014-02-28 16:55:00,Od 28.2.2014 16:55 do 17:55; na silnici 2318 u obce Obora okres Plzeň-sever; Asi 1 km před hřbitovem ve stoupání.; nehoda; 2 havarovaná vozidla; DN 2 x OA bez zranění a bez úniku provozních kapalin. Místo je průjezdné. Na místo hlídka PČR,137.531467379105,86.9434433631392,'{accindet,personal_cars}'
2702,2014-02-28 17:55:00,Od 28.2.2014 17:55 do 18:55; v ulici Thámova v obci Plzeň; Křižovatka Thámova x Hřímalého; nehoda; 2 havarovaná vozidla; DN 2 x OA bez zranění a bez úniku provozních kapalin. Místo je průjezdné.,137.506998045768,87.1099368596167,'{accindet,personal_cars}'
2703,2014-03-01 17:40:00,Od 1.3.2014 17:40 do 18:45; v ulici Dobřanská v obci Chotěšov okres Plzeň-jih; nehoda odstraněna; provoz v jízdním pruhu obnoven; 3 x OA bez zranění.,137.393041779085,87.2005729118313,'{accindet,personal_cars}'
2704,2014-03-01 18:25:00,'Od 1.3.2014 18:25 do 18:55; na silnici u obce Všeruby okres Plzeň-sever; u obce Radimovice.; všechny nehody byly odstraněny, nejsou hlášeny žádné další problémy; srážka OA se srnou, bez zranění osob.',137.391093334641,86.985015411522,'{accindet,personal_cars,animal_hit}'
2705,2014-03-02 10:05:00,'Od 2.3.2014 10:05 do 12:10; v ulici Železniční v obci Plzeň; křiž. s ul. Koterovská; nehoda nákladního vozidla; překážka na vozovce, průjezd se zvýšenou opatrností; OA x NA bez zranění.',137.519976534659,87.1054881142496,'{accindet,personal_cars,trucks}'
2706,2014-03-02 18:25:00,Od 2.3.2014 18:25 do 19:00; na silnici 203 u obce Heřmanova Huť okres Plzeň-sever; za obcí ve směru na Nýřany; nehoda odstraněna; střet OA se zvěří.,137.326633245743,87.1403221220284,'{accindet,personal_cars,animal_hit}'
2707,2014-03-02 20:20:00,'Od 2.3.2014 20:20 do 22:25; v ulici Borská v obci Plzeň; křižovatka s ulicí Hřímalého.; nehoda; 2 havarovaná vozidla; překážka na vozovce, průjezd se zvýšenou opatrností; 2 x OA bez zranění a úniku provozních kapalin.',137.50730666799,87.1080178816017,'{accindet,personal_cars}'
2708,2014-03-03 06:35:00,'D5, mezi km 131 a 80, místy mlha, ztížené jízdní podmínky, Od 03.03.2014 06:35 Do 03.03.2014 09:35, zvýšené nebezpečí nehody',137.058542934594,87.1095132379482,{accindet}
2709,2014-03-03 06:36:00,'D5, mezi km 80 a 131, místy mlha, ztížené jízdní podmínky, Od 03.03.2014 06:36 Do 03.03.2014 09:36, zvýšené nebezpečí nehody',137.510653156879,87.1672411449365,{accindet}
