ID,od,popis,x,y,ts_flags
2870,2014-03-24 13:45:00,'Od 24.3.2014 13:45 do 15:50; v ulici Velenická v obci Plzeň; - křižovatka s Pivovarskou; nehoda; 2 havarovaná vozidla; 2 x OA bez zranění, průjezdné s opatrností.',137.538429156883,87.1161422567557,'{accindet,personal_cars}'
2871,2014-03-24 15:00:00,'Od 24.3.2014 15:00 do 17:05; na silnici 27 u obce Třemošná okres Plzeň-sever; - křižovatka na Záluží; nehoda; 2 x OA bez zranění, průjezdné s opatrností.',137.515697779102,87.0237613373494,'{accindet,personal_cars}'
2872,2014-03-24 16:10:00,'Od 24.3.2014 16:10 do 17:10; v ulici Koperníkova v obci Plzeň; - křižovatka s Husovou ul.; nehoda odstraněna; provoz obnoven; 2 x OA bez zranění, průjezdné s opatrností',137.505972623545,87.1017862290623,'{accindet,personal_cars}'
2873,2014-03-24 16:15:00,'Od 24.3.2014 16:15 do 18:20; v ulici Revoluční v obci Plzeň; nehoda; 2 x OA bez zranění, průjezdné',137.535118934661,87.1031365005142,'{accindet,personal_cars}'
2874,2014-03-24 16:20:00,'Od 24.3.2014 16:20 do 18:25; v ulici Slovanská v obci Plzeň; mad křižovatkou s Částkovou ul. směr z centra; nehoda; 3 havarovaná vozidla; 3 x OA bez zranění, průjezdné s opatrností',137.52520604577,87.1190224602362,'{accindet,personal_cars}'
2875,2014-03-24 16:53:00,'silnice I/20 (ulice Slovanská), Plzeň 2-Slovany, Plzeň, nehoda, Od 24.03.2014 16:53 Do 24.03.2014 17:23',137.525433601326,87.1194075024048,{accindet}
2876,2014-03-24 18:10:00,'D5, mezi km 83.7 a 83.6, ve směru Praha, nehoda, levý jízdní pruh uzavřen, Od 24.03.2014 18:10 Do 24.03.2014 21:00, Pozor!, Dopravní nehoda 2 osobních vozidel',137.47582151243,87.1770565896528,{accindet}
2877,2014-03-24 18:25:00,'Od 24.3.2014 18:25 do 21:15; D5 - 84km na trase Praha - Rozvadov; všechny nehody byly odstraněny, nejsou hlášeny žádné další problémy; havárie OA bez zranění, vozidlo na střeše, průjezdné s opatrností',137.47260871243,87.1769686751849,'{accindet,personal_cars}'
2878,2014-03-25 05:25:00,'Od 25.3.2014 05:25 do 08:30; na silnici 230 u obce Skašov okres Plzeň-jih; nehoda nákladního vozidla; 1 x NA bez zranění, vozodlo v příkopu, průjezdné s opatrností',137.548182045774,87.3587819614076,'{accindet,trucks}'
2879,2014-03-25 08:15:00,'Od 25.3.2014 08:15 do 11:20; v ulici Železniční v obci Plzeň; Železniční x Mikulášská, Plzeň; nehoda nákladního vozidla; kamion x OA bez zranění, bez úniku PHM, překáží provozu',137.519306667992,87.1056795840881,'{accindet,personal_cars}'
