ID,od,popis,x,y,ts_flags
2890,2014-03-27 16:35:00,'Od 27.3.2014 16:35 do 17:40; v ulici Masarykova v obci Plzeň; před potravinami Kučera; nehoda; 2 x OA bez zranění, na místo PČR.',137.544080356884,87.0879833294989,'{accindet,personal_cars}'
2891,2014-03-27 16:40:00,'Od 27.3.2014 16:40 do 17:45; v ulici Klatovská třída v obci Plzeň; křiž. s ul. Dobrovského; nehoda nákladního vozidla; neprůjezdný pruh, 2 havarovaná vozidla; NA x OA se zraněním, na místo PČR, ZZS.',137.507889779101,87.1135127527561,'{accindet,injury,personal_cars,trucks}'
2892,2014-03-27 19:25:00,'Od 27.3.2014 19:25 do 20:30; na silnici 20 u obce Všeruby okres Plzeň-sever; nehoda; zvěř na vozovce; havarované vozidlo; srážka OA se srnou, na místě PČR.',137.362508801303,86.9759554931117,'{accindet,personal_cars,animal_hit}'
2893,2014-03-28 07:40:00,Od 28.3.2014 07:40 do 09:40; na silnici 231 u obce Plzeň; Na úrovni lesní školky mezi Bílou horou a Sencem.; nehoda; 4 havarovaná vozidla; 4x OA bez zranění s únikem provozních kapalin. Údajně nebrání provozu.,137.535906134661,87.0569107189713,'{accindet,personal_cars}'
2894,2014-03-28 11:10:00,'Od 28.3.2014 11:10 do 12:10; v ulici Domažlická v obci Plzeň; U domu čp. 35; nehoda; 2 havarovaná vozidla; 2 x OA bez zranění, bez úniku provozních kapalin. Vozidla údajně nepřekáží provozu.',137.493456356877,87.1040157542736,'{accindet,personal_cars}'
2895,2014-03-28 13:50:00,'Od 28.3.2014 13:50 do 15:50; v ulici Rooseveltova v obci Plzeň; Na vjezdu na nám. Republiky.; nehoda; havarované vozidlo; BUS x chodec se zraněním, únik provozních kapalin nehlášen. Rozsah zranění neznámý.',137.513676801324,87.0992110445781,'{accindet,pedestrian_involvement,injury}'
2896,2014-03-28 14:55:00,'Od 28.3.2014 14:55 do 15:55; na silnici 27 u obce Přeštice okres Plzeň-jih; Na výjezdu z obce ve směru na Lužany u OMV.; nehoda; 2 havarovaná vozidla; 2 x OA bez zranění, únik provozních kapalin nehlášen. Překáží provozu.',137.475428267986,87.2991324254226,'{accindet,personal_cars}'
2897,2014-03-28 15:05:00,'Od 28.3.2014 15:05 do 17:05; v ulici Hlavní v obci Tlučná okres Plzeň-sever; Na úrovni benzínky u odbočky na Vochov.; nehoda; 3 havarovaná vozidla; 3 x OA bez zranění, únik provozních kapalin, místo s optarností průjezdné.',137.426045867979,87.1219674121764,'{accindet,personal_cars}'
2898,2014-03-28 16:11:00,'místní komunikace - ulice Kreuzmannova, Plzeň 3, Plzeň, nehoda, Od 28.03.2014 16:11 Do 28.03.2014 16:41',137.478014579097,87.1105684347725,{accindet}
2899,2014-03-28 16:15:00,'Od 28.3.2014 16:15 do 17:15; v ulici Domažlická v obci Plzeň; U zastávky trolejbusu č. 12 nad BČS ONO; nehoda; havarované vozidlo; Srážka trolejbusu s chodem se zraněním, bez úniku provozních kapalin.',137.481353956875,87.1110690683075,'{accindet,injury}'
