ID,od,popis,x,y,ts_flags
2920,2014-04-01 11:20:00,'Od 1.4.2014 12:20 do 14:25; na silnici 605 u obce Pňovany okres Plzeň-sever; za obcí Sulislav ve směru na Plzeň; nehoda; neprůjezdný pravý jízdní pruh; 2 x OA bez zranění, bez úniku.',137.312589512407,87.0883487819742,'{accindet,personal_cars}'
2921,2014-04-01 11:35:00,'Od 1.4.2014 12:35 do 14:40; na silnici 180 v obci Útušice okres Plzeň-jih; u obce Robčice ve směru na Štěnovice; nehoda; havárie OA do příkopu, bez zranění, místo průjezdné bez omezení.',137.508373334657,87.1881766037277,'{accindet,personal_cars}'
2922,2014-04-01 13:05:00,'Od 1.4.2014 14:05 do 16:10; na silnici 19 u obce Žákava okres Plzeň-jih; za obcí Nezvěstice ve směru na Spálené Poříčí, před firmou Okál; nehoda; nehoda, neprůjezdný pravý jízdní pruh; 2 x OA se zraněním.',137.632112356896,87.2280050677413,'{accindet,injury,personal_cars}'
2923,2014-04-01 17:30:00,'Od 1.4.2014 18:30 do 20:35; v ulici Anglické nábřeží v obci Plzeň; křiž. s ul. Kopeckého sady; nehoda; neprůjezdný pravý jízdní pruh; 2 x OA bez zranění, bez úniku.',137.514756979102,87.1030495647501,'{accindet,personal_cars}'
2924,2014-04-01 17:40:00,Od 1.4.2014 18:40 do 20:45; v ulici Litická v obci Plzeň; křižovatka s ulici k Doudlevcům.; nehoda; 2 havarovaná vozidla; 2 x OA bez zranění a úniku provozních kapalin.,137.523456001326,87.1551350348672,'{accindet,personal_cars}'
2925,2014-04-01 19:25:00,'Od 1.4.2014 20:25 do 22:30; v ulici Tylova v obci Plzeň; kžizovatka  s ul. Skvrňanská.; nehoda, neprůjezdný pravý jízdní pruh; 2 havarovaná vozidla; 2 x OA bez zranění a úniku provozních kapalin.',137.498808890211,87.1014065622339,'{accindet,personal_cars}'
2926,2014-04-02 04:30:00,'Od 2.4.2014 05:30 do 07:35; na silnici 183 v obci Soběkury okres Plzeň-jih; v obci Horušany, směr Soběkury.; nehoda; 2 havarovaná vozidla; překážka na vozovce, průjezd se zvýšenou opatrností; 2 x OA se zraněním. Na místě PČR.',137.432515556869,87.3019260422971,'{accindet,injury,personal_cars}'
2927,2014-04-02 05:00:00,'silnice I/26 (ulice Plzeňská), Zbůch, okr. Plzeň-sever, nehoda, Od 02.04.2014 06:00 Do 02.04.2014 07:30, DN 1 OA  mimo vozovku',137.408199823532,87.1723914284169,'{accindet,personal_cars}'
2928,2014-04-02 05:05:00,'Od 2.4.2014 06:05 do 08:10; na silnici 180 u obce Úherce okres Plzeň-sever; mezi obcemi Zbůch a Nýřany.; nehoda, neprůjezdný pravý jízdní pruh; havarované vozidlo; havárie OA bez zranění. Na místo jede PČR.',137.401808356864,87.1612186623213,'{accindet,personal_cars}'
2929,2014-04-02 05:20:00,'Od 2.4.2014 06:20 do 08:25; na silnici 02015 v obci Hradiště okres Plzeň-jih; nehoda; 2 havarovaná vozidla; 2 x OA, bez zranění a úniku provozních kapalin, nepřekáží provozu.',137.781764268028,87.4389762846939,'{accindet,personal_cars}'
