ID,od,popis,x,y,ts_flags
2940,2014-04-03 16:15:00,'Od 3.4.2014 17:15 do 20:20; v ulici sady Pětatřicátníků v obci Plzeň; všechny nehody byly odstraněny, nejsou hlášeny žádné další problémy; 3x OA bez zranění, průjezdné s opatrností',137.510700801324,87.0972223448874,'{accindet,personal_cars}'
2941,2014-04-03 16:50:00,'Od 3.4.2014 17:50 do 19:55; v ulici U Zvonu v obci Plzeň; nehoda; 2 havarovaná vozidla; 2 x OA bez zranění, průjezdné',137.515754667991,87.1006065018454,'{accindet,personal_cars}'
2942,2014-04-03 17:20:00,'Od 3.4.2014 18:20 do 20:20; v ulici Slovanská v obci Plzeň; u domu č. 23; všechny nehody byly odstraněny, nejsou hlášeny žádné další problémy; 2 x OA bez zranění, průjezdné s opatrností',137.519888356881,87.1098543361787,'{accindet,personal_cars}'
2943,2014-04-03 19:30:00,'Od 3.4.2014 20:30 do 22:35; na silnici 210 u obce Krsy okres Plzeň-sever; nehoda; srážka OA se zvěří, bez zranění, průjezdné',137.271325867957,86.9077537308638,'{accindet,personal_cars,animal_hit}'
2944,2014-04-04 07:30:00,Od 4.4.2014 08:30 do 10:35; v ulici Tyršova v obci Přeštice okres Plzeň-jih; nehoda; 2 havarovaná vozidla; probíhá vyšetřování nehody; 2 x OA bez zranění,137.476476445764,87.2882405321886,'{accindet,personal_cars}'
2945,2014-04-04 07:50:00,'Od 4.4.2014 08:50 do 10:55; v ulici Kaplířova v obci Plzeň; před Úřadem práce.; nehoda; 2 havarovaná vozidla; 2 x OA bez zranění, na místě PČR.',137.502663112434,87.1225449425374,'{accindet,personal_cars}'
2946,2014-04-04 08:40:00,'Od 4.4.2014 09:40 do 11:45; v ulici Jasanová v obci Plzeň; nehoda; 2 havarovaná vozidla; OA x Dodávka bez zranění, na místě PČR.',137.526528712437,87.123283072249,'{accindet,personal_cars}'
2947,2014-04-04 09:55:00,Od 4.4.2014 10:55 do 13:00; v ulici Domažlická v obci Plzeň; nehoda; 2 havarovaná vozidla; probíhá vyšetřování nehody; 2 x OA bez zranění,137.498262045767,87.1016805829116,'{accindet,personal_cars}'
2948,2014-04-04 10:25:00,Od 4.4.2014 11:25 do 14:30; v ulici sady Pětatřicátníků v obci Plzeň; 3 havarovaná vozidla; probíhá vyšetřování nehody; jízdní pruh uzavřen; 3 x OA bez zranění.,137.510441245768,87.0983427171896,'{accindet,personal_cars}'
2949,2014-04-04 14:05:00,Od 4.4.2014 15:05 do 18:10; v ulici Plzeňská v obci Kaznějov okres Plzeň-sever; 2 havarovaná vozidla; probíhá vyšetřování nehody; jízdní pruh uzavřen; DOD x OA bez zranění. Na místě PČR.,137.517224534658,86.9394156199911,'{accindet,personal_cars}'
