ID,od,popis,x,y,ts_flags
3010,2014-04-14 07:30:00,'Od 14.4.2014 08:30 do 10:35; v ulici Lidická v obci Plzeň; ve směru ke Karlovarské; nehoda; nehoda, neprůjezdný střední jízdní pruh; střet OA s dodávkou bez zranění, na místo PČR',137.507277512435,87.08503980477,'{accindet,personal_cars}'
3011,2014-04-14 08:30:00,'Od 14.4.2014 09:30 do 10:35; na silnici 18010 u obce Česká Bříza okres Plzeň-sever; - ve směru na Hromnice; nehoda; neprůjezdný pruh, 2 havarovaná vozidla; - OA x dodávka, bez zranění, na místo PČR',137.542116267995,87.0054304299322,'{accindet,personal_cars}'
3012,2014-04-14 10:25:00,'Od 14.4.2014 11:25 do 12:30; v ulici Jateční v obci Plzeň; nehoda; 2 x OA, bez zranění, na místo PČR',137.53183573466,87.0899228408452,'{accindet,personal_cars}'
3013,2014-04-14 10:40:00,'Od 14.4.2014 11:40 do 14:00; D5 - 105-105.8km na trase Rozvadov - Praha; všechny nehody byly odstraněny, nejsou hlášeny žádné další problémy; havárie OA mimo vozovku, bez zranění, na místo PČR, místo DN je označeno šipkou SSÚD, nadále průjezdné oba pruhy, bez kolon',137.288861156849,87.1380677185994,'{accindet,personal_cars}'
3014,2014-04-14 10:40:00,'Od 14.4.2014 11:40 do 12:45; v ulici Chotěšovská v obci Dobřany okres Plzeň-jih; ve směru na Chotěšov; nehoda; 2x OA, bez zranění, na místo PČR',137.430146845757,87.1994458937936,'{accindet,personal_cars}'
3015,2014-04-14 10:45:00,'Od 14.4.2014 11:45 do 12:50; v ulici U Seřadiště v obci Plzeň; - před budovou HZS; nehoda; probíhají záchranné a vyprošťovací práce, nebezpečí; - OA x cyklista, se zraněním, na místo PČR, ZZS',137.54099342355,87.1352501303933,'{accindet,injury,personal_cars,cyclist}'
3016,2014-04-14 10:45:00,'Od 14.4.2014 11:45 do 12:50; v ulici Karlovarská v obci Plzeň; nehoda; neprůjezdný pruh, 3 havarovaná vozidla; 3x OA, bez zranění, na místo PČR',137.506675201323,87.0857421264623,'{accindet,personal_cars}'
3017,2014-04-14 14:00:00,'Od 14.4.2014 15:00 do 17:05; na silnici 18054 u obce Město Touškov okres Plzeň-sever; nehoda; - havárie dodávky do příkopu, vozidlo částečně zasahuje do silnice, na místo PČR',137.4176760902,87.0548113990665,{accindet}
3018,2014-04-14 14:55:00,'Od 14.4.2014 15:55 do 17:00; v ulici Komenského v obci Plzeň; nehoda; probíhají záchranné a vyprošťovací práce, nebezpečí; - OA x chodec, se zraněním, na místo PČR, ZZS',137.509227379101,87.0715452876086,'{accindet,pedestrian_involvement,injury,personal_cars}'
3019,2014-04-14 16:45:00,'Od 14.4.2014 17:45 do 18:50; v ulici Jasmínová v obci Plzeň; - Jasmínová x Chválenická; nehoda; - 2 x OA, bez zranění, na místo PČR',137.532480712438,87.1290711515637,'{accindet,personal_cars}'
