ID,od,popis,x,y,ts_flags
3060,2014-04-18 14:15:00,'Od 18.4.2014 15:15 do 16:50; na silnici 232 u obce Kozojedy okres Plzeň-sever; mezi obcemi Kozojedy - Liblín, místo průjezdné; nehoda odstraněna; provoz obnoven; dodávka na boku mimo vozovku',137.634961068008,86.9089366284622,{accindet}
3061,2014-04-18 14:30:00,'Od 18.4.2014 15:30 do 16:50; v ulici Klatovská třída v obci Plzeň; Křižovatka Klatovská x U trati v plzni; nehoda odstraněna; provoz obnoven; Střet NA s OA bez zranění, na místo PČR.',137.508450845768,87.1080640963323,'{accindet,personal_cars,trucks}'
3062,2014-04-18 14:55:00,'Od 18.4.2014 15:55 do 18:00; na silnici 27 u obce Plasy okres Plzeň-sever; silnice č. 27 z obce Plasy na Kralovice; nehoda; havárie OA bez zranění, na místo PČR',137.524551823548,86.8886127609824,'{accindet,personal_cars}'
3063,2014-04-18 15:00:00,'Od 18.4.2014 16:00 do 16:35; v ulici U Prazdroje v obci Plzeň; křižovatka ulic U prazdroje X Železniční ve směru do města; nehoda odstraněna; provoz obnoven; střet OA s NA, bez zranění, bez úniku',137.522299023548,87.1002609424815,'{accindet,personal_cars}'
3064,2014-04-18 20:20:00,'Od 18.4.2014 21:20 do 22:15; na silnici 20 u obce Krsy okres Plzeň-sever; všechny nehody byly odstraněny, nejsou hlášeny žádné další problémy; střet se zvěří',137.300389690184,86.8996107945645,'{accindet,animal_hit}'
3065,2014-04-19 00:20:00,'Od 19.4.2014 01:20 do 03:25; na silnici v obci Šťáhlavy okres Plzeň-město; nehoda; nehoda, neprůjezdný pravý jízdní pruh; střet OA s pevnou překážkou',137.618116979117,87.1958779451192,'{accindet,personal_cars}'
3066,2014-04-19 08:30:00,'Od 19.4.2014 09:30 do 10:35; v ulici Jateční v obci Plzeň; nehoda; neprůjezdný pruh, 2 havarovaná vozidla; - 2 x OA, bez zranění, na místo PČR',137.533277156883,87.0874406499719,'{accindet,personal_cars}'
3067,2014-04-19 09:30:00,'Od 19.4.2014 10:30 do 11:35; v ulici Na Dlouhých v obci Plzeň; - na kruhovém objezdu; nehoda; neprůjezdný pruh, 2 havarovaná vozidla; - 2 x OA, bez zranění, na místo PČR',137.544280179106,87.0940096734933,'{accindet,personal_cars}'
3068,2014-04-19 12:15:00,'Od 19.4.2014 13:15 do 17:20; na silnici 233 u obce Chrást okres Plzeň-město; nehoda; probíhají záchranné a vyprošťovací práce; jízdní pruh uzavřen; DN OA, náraz do stromu,zranění, na místo ZZS a HZS',137.573543112444,87.0698969104797,'{accindet,injury,personal_cars}'
3069,2014-04-19 13:40:00,'Od 19.4.2014 14:40 do 16:45; na silnici 27 u obce Plasy okres Plzeň-sever; nehoda; probíhají záchranné a vyprošťovací práce, nebezpečí; - srážka motocyklu se zvěří, na místo PČR, ZZS',137.544598045773,86.872110896455,'{accindet,animal_hit}'
