ID,od,popis,x,y,ts_flags
3080,2014-04-22 14:15:00,'Od 22.4.2014 15:15 do 17:20; v ulici 28. října v obci Plzeň; na výjezdu z Plzně; nehoda; pád motorkáře, průjezd částečně omezen',137.53319253466,87.0740579462322,{accindet}
3081,2014-04-22 14:25:00,Od 22.4.2014 15:25 do 17:30; na silnici 18210 u obce Vlčí okres Plzeň-jih; za obcí Zelené ve směru na Vlčí; nehoda; střet se zvěří,137.499284623545,87.3419306937776,'{accindet,animal_hit}'
3082,2014-04-22 14:30:00,'Od 22.4.2014 15:30 do 17:35; v ulici Krandova v obci Stod okres Plzeň-jih; před prodejnou Drogerie; nehoda; nehoda, neprůjezdný pravý jízdní pruh; střet 2 OA, bez zranění, bez úniku',137.359682845747,87.2176521256813,'{accindet,personal_cars}'
3083,2014-04-22 14:40:00,'Od 22.4.2014 15:40 do 17:45; v ulici Masarykova v obci Plzeň; Masarykova ulice v Plzni; nehoda; Střet dou OA bez zranění, na místo PČR.',137.542867201328,87.0901991219143,'{accindet,personal_cars}'
3084,2014-04-22 15:20:00,'Od 22.4.2014 16:20 do 18:40; na silnici 27 u obce Třemošná okres Plzeň-sever; křižovatka na Záluží; všechny nehody byly odstraněny, nejsou hlášeny žádné další problémy; střet 3 OA, bez zranění, bez úniku PK',137.515618134658,87.023502345564,'{accindet,personal_cars}'
3085,2014-04-22 19:40:00,'Od 22.4.2014 20:40 do 22:45; na silnici 2312 u obce Hromnice okres Plzeň-sever; železniční podjezd na silnici ve směru na Kaznějov; nehoda; střet OA s pevnou překážkou, bez zranění, místo průjezdné.',137.531544179105,86.9705777131176,'{accindet,personal_cars}'
3086,2014-04-23 06:10:00,'Od 23.4.2014 07:10 do 09:15; na silnici 20 u obce Město Touškov okres Plzeň-sever; za obcí Chotíkov ve směru na Karlovy Vary, u betonárky; nehoda; neprůjezdný pruh, havarované vozidlo; komunikace dočasně uzavřena; střet NA s OA, zraněná osoba',137.441107912425,87.0282036772302,'{accindet,injury,personal_cars,trucks}'
3087,2014-04-23 07:00:00,'Od 23.4.2014 08:00 do 10:05; na silnici 117 u obce Blovice okres Plzeň-jih; - ve směru na Štítov; nehoda nákladního vozidla; - havárie NA, je mimo vozovku v poli, na místo PČR',137.639963734675,87.273801217572,{accindet}
3088,2014-04-23 07:00:00,'Od 23.4.2014 08:00 do 09:05; v ulici Mikulášské náměstí v obci Plzeň; nehoda; - 2 x OA, bez zranění, na místo PČR',137.520594490214,87.1075953450671,'{accindet,personal_cars}'
3089,2014-04-23 09:00:00,'D5, mezi km 66.9 a 67.5, ve směru Rozvadov, uzavřeno, práce na silnici, Od 23.04.2014 10:00 Do 23.04.2014 17:00, oprava svodidel po nehodě v místě dopravního omezení, objízdná trasa vede přes výjezdovou větev exitu 67 Ejpovice a následně nájezdovou větví téhož exitu zpět na dálnici D5. , Doporučuje se objetí místa události',137.609157690227,87.1110074521257,{accindet}
