ID,od,popis,x,y,ts_flags
3090,2014-04-23 09:05:00,'Od 23.4.2014 10:05 do 12:10; v ulici Prokopova v obci Plzeň; - Prokopova x Purkyňova; nehoda; neprůjezdný pruh, 2 havarovaná vozidla; - 2 x OA, bez zranění, na místo PČR',137.514279823547,87.1062253793993,'{accindet,personal_cars}'
3091,2014-04-23 12:15:00,'Od 23.4.2014 13:15 do 14:20; v ulici Koterovská v obci Plzeň; nehoda; - 2 x OA, bez zranění, na místo PČR',137.523374934659,87.1086934929668,'{accindet,personal_cars}'
3092,2014-04-23 15:45:00,'Od 23.4.2014 16:45 do 17:50; v ulici Železniční v obci Plzeň; nehoda nákladního vozidla; neprůjezdný pruh, 2 havarovaná vozidla; - NA x OA, bez zranění, na místo PČR',137.519757512436,87.1055618412227,'{accindet,personal_cars,trucks}'
3093,2014-04-24 06:55:00,'Od 24.4.2014 07:55 do 09:55; na silnici 18032a u obce Plzeň; nehoda nákladního vozidla; 2 havarovaná vozidla; Dodávka x OA, bez zranění a bez úniku provozních kapalin.',137.505678934657,87.1554615499933,'{accindet,personal_cars}'
3094,2014-04-24 07:10:00,'Od 24.4.2014 08:10 do 10:15; v ulici alej Svobody v obci Plzeň; nehoda; 2 havarovaná vozidla; 2 x OA bez zranění, na místo jede PČR.',137.513030401324,87.0813596201151,'{accindet,personal_cars}'
3095,2014-04-24 09:20:00,'Od 24.4.2014 10:20 do 12:25; v ulici Karlovarská v obci Plzeň; nehoda; 2 havarovaná vozidla; 2 x OA bez zranění, na místě PČR.',137.509660445768,87.0887714708731,'{accindet,personal_cars}'
3096,2014-04-24 10:55:00,Od 24.4.2014 11:55 do 13:55; v ulici Říjnová v obci Plzeň; nehoda; 2 havarovaná vozidla; 2 x OA bez zranění a úniku provozních kapalin.,137.512575290213,87.1364796816986,'{accindet,personal_cars}'
3097,2014-04-24 10:55:00,Od 24.4.2014 11:55 do 14:00; na silnici 1871a u obce Neurazy okres Plzeň-jih; nehoda; 2 havarovaná vozidla; 2 x OA bez zranění a úniku  provozních kapalin.,137.629389512452,87.411202343579,'{accindet,personal_cars}'
3098,2014-04-24 12:10:00,Od 24.4.2014 13:10 do 14:10; v ulici Tovární v obci Horní Bříza okres Plzeň-sever; nehoda; 2 havarovaná vozidla; 2 x OA bez zranění a úniku provozních kapalin.,137.518249956881,86.9858613223742,'{accindet,personal_cars}'
3099,2014-04-24 15:00:00,Od 24.4.2014 16:00 do 17:00; v ulici K Malé Homolce v obci Plzeň; nehoda; 2 havarovaná vozidla,137.517863823547,87.1413052320707,{accindet}
