ID,od,popis,x,y,ts_flags
3100,2014-04-24 15:50:00,'Od 24.4.2014 16:50 do 17:50; na silnici v obci Plzeň; Ul. Lidická, před křižovatkou k Boleveckému rybníku.; nehoda; 2 havarovaná vozidla; probíhá vyšetřování nehody; 2 x OA bez zranění, na místo jede PČR.',137.515010845769,87.0680601817987,'{accindet,personal_cars}'
3101,2014-04-24 16:15:00,Od 24.4.2014 17:15 do 19:20; v ulici Otýlie Beníškové v obci Plzeň; nehoda; 2 havarovaná vozidla; 2 x OA bez zranění a úniku provozních kapalin.,137.513479112435,87.0938159605072,'{accindet,personal_cars}'
3102,2014-04-24 16:30:00,Od 24.4.2014 17:30 do 19:35; v ulici Sokolovská v obci Nýřany okres Plzeň-sever; nehoda; 2 havarovaná vozidla; 2 x OA bez zranění a úniku provozních kapalin.,137.394707912419,87.1361673475551,'{accindet,personal_cars}'
3103,2014-04-25 08:55:00,'Od 25.4.2014 09:55 do 10:55; v ulici Sokolovská v obci Plzeň; u domu čp. 1047/66; nehoda; 2 havarovaná vozidla; 2 x OA bez zranění, únik provozních kapalin nehlášen.',137.505576534657,87.073353268634,'{accindet,personal_cars}'
3104,2014-04-25 09:20:00,'Od 25.4.2014 10:20 do 12:20; na silnici 20 u obce Všeruby okres Plzeň-sever; na odbočce na obec Popovice; nehoda; 2 havarovaná vozidla; 2 x OA se zraněním, únik provozních kapalin nehlášen. Na místo RZS a hlídka PČR.',137.365676801304,86.9812455960304,'{accindet,injury,personal_cars}'
3105,2014-04-25 10:50:00,Od 25.4.2014 11:50 do 12:50; na silnici 180 u obce Dýšina okres Plzeň-město; před obcí ve směru od obce Kyšice; nehoda; havarované vozidlo; 2 x OA bez zranění a bez úniku provozních kapalin. Místo průjezdné.,137.594080712447,87.0722940326139,'{accindet,personal_cars}'
3106,2014-04-25 13:20:00,'Od 25.4.2014 14:20 do 16:20; v ulici Otýlie Beníškové v obci Plzeň; před Saským mostem ve směru do města; nehoda; 3 havarovaná vozidla; 3 x OA bez zranění, únik provozních kapalin nehlášen.',137.513365334658,87.093592529315,'{accindet,personal_cars}'
3107,2014-04-25 15:00:00,Od 25.4.2014 16:00 do 17:00; na silnici 19 v obci Spálené Poříčí okres Plzeň-jih; na konci Hořehled ve směru na Rožmitál; nehoda; 2 havarovaná vozidla; 2 x OA bez zranění a bez úniku provozních kapalin.,137.704925156907,87.2506430174957,'{accindet,personal_cars}'
3108,2014-04-25 16:25:00,'Od 25.4.2014 17:25 do 18:25; na silnici 19 u obce Spálené Poříčí okres Plzeň-jih; Přibližně jeden km za obcí ve směru na Hořehledy; nehoda; havarované vozidlo; Havárie motocyklisty se zraněním, únik provozních kapalin nehlášen. Na místě ZZS, na místo jede hlídka PČR.',137.686979556904,87.2511774576528,'{accindet,injury}'
3109,2014-04-25 21:45:00,'Od 25.4.2014 22:45 do 26.4.2014 00:50; na silnici 1806 u obce Bučí okres Plzeň-sever; mezi obcemi Bučí a Loza.; nehoda; zvěř na vozovce; havarované vozidlo; střet OA se zvěří bez zranění osob, na místě PČR.',137.455611023538,86.9420239192125,'{accindet,personal_cars,animal_hit}'
