ID,od,popis,x,y,ts_flags
3130,2014-04-28 11:20:00,'Od 28.4.2014 12:20 do 13:55; na silnici 180 u obce Příšov okres Plzeň-sever; za obcí Příšov ke komunikaci 1/20.; jízdní pruhy opět průjezdné; nehoda odstraněna; NA x BUS mimo komunikaci, probíhá vyprošťování havarovaných vozidel.',137.462285512428,87.0349375633159,'{accindet,trucks}'
3131,2014-04-29 00:05:00,'Od 29.4.2014 01:05 do 03:10; D5 - 91.1km na trase Praha - Rozvadov; odstavný pruh na 91 km D5; nehoda, neprůjezdná zpevněná krajnice; střet OA se zvěří, bez úniku',137.421645512423,87.1407257051859,'{accindet,personal_cars,animal_hit}'
3132,2014-04-29 06:23:00,'silnice II/205, v katastru obce Hvozd, okr. Plzeň-sever, nehoda, Od 29.04.2014 07:23 Do 29.04.2014 08:23',137.431335823535,86.8789319485165,{accindet}
3133,2014-04-29 06:35:00,'Od 29.4.2014 07:35 do 09:40; v ulici sady Pětatřicátníků v obci Plzeň; nehoda; 2 x OA bez zranění, bez úniku, překáží provozu.',137.509523912435,87.1022352228705,'{accindet,personal_cars}'
3134,2014-04-29 11:35:00,'Od 29.4.2014 12:35 do 14:40; v ulici Jateční v obci Plzeň; nehoda; 2 x OA bez zranění, bez úniku PHM.',137.530397156882,87.0962571329987,'{accindet,personal_cars}'
3135,2014-04-29 14:00:00,'Od 29.4.2014 15:00 do 17:05; na silnici v obci Plzeň; nehoda; 2 x OA bez zranění, bez úniku PHM.',137.513696001324,87.1044130093582,'{accindet,personal_cars}'
3136,2014-04-29 14:30:00,'Od 29.4.2014 15:30 do 17:35; na silnici v obci Plzeň; nehoda; 2 x OA bez zranění, překáží provozu.',137.472951467985,87.1165779277588,'{accindet,personal_cars}'
3137,2014-04-29 15:35:00,'Od 29.4.2014 16:35 do 18:40; v ulici Sušická v obci Plzeň; nehoda; havárie OA bez zranění, bez úniku, překáží provozu.',137.536886045772,87.115105873569,'{accindet,personal_cars}'
3138,2014-04-29 15:55:00,'Od 29.4.2014 16:55 do 19:00; na silnici 204 v obci Horní Bělá okres Plzeň-sever; nehoda; 2 x OA bez zranění, únik chladící kapaliny, průzjezdné.',137.431215645757,86.9442755856142,'{accindet,personal_cars}'
3139,2014-04-30 05:10:00,'Od 30.4.2014 06:10 do 08:15; na silnici 231 u obce Hromnice okres Plzeň-sever; nehoda; zvěř na vozovce; překážka na vozovce, průjezd se zvýšenou opatrností; OA x zvěř, bez zranění osob, ohrožení BESIP',137.580948623556,87.0041239882194,'{accindet,personal_cars,animal_hit}'
