ID,od,popis,x,y,ts_flags
3140,2014-04-30 07:00:00,'Od 30.4.2014 08:00 do 09:05; na silnici 180 u obce Čeminy okres Plzeň-sever; nehoda; - srážka OA se zvěří, na místo PČR',137.424285867979,87.0307613537993,'{accindet,personal_cars,animal_hit}'
3141,2014-04-30 08:05:00,'Od 30.4.2014 09:05 do 10:10; v ulici Náves v obci Úherce okres Plzeň-sever; nehoda nákladního vozidla; - NA x pevná překážka, bez zranění, na místo PČR',137.397195379086,87.1504701580981,'{accindet,trucks}'
3142,2014-04-30 11:40:00,'Od 30.4.2014 12:40 do 14:40; v ulici Mostní v obci Plzeň; nehoda, silný provoz; 2x OA bez zranění a úniku kapalin',137.520199823547,87.1239155895923,'{accindet,personal_cars}'
3143,2014-04-30 13:10:00,'Od 30.4.2014 14:10 do 15:15; v ulici Tyršova v obci Plzeň; - odbočovací pruh do ul. Sady 5. května; nehoda; neprůjezdný pruh, 2 havarovaná vozidla; - 2 x OA, bez zranění, na místo PČR',137.516190579102,87.097617449395,'{accindet,personal_cars}'
3144,2014-04-30 15:05:00,'Od 30.4.2014 16:05 do 17:10; v ulici Rožmitálská v obci Nepomuk okres Plzeň-jih; nehoda; - 2 x OA, bez zranění, na místo PČR',137.676381868014,87.3711081588833,'{accindet,personal_cars}'
3145,2014-04-30 15:10:00,'Od 30.4.2014 16:10 do 17:15; v ulici sady Pětatřicátníků v obci Plzeň; nehoda; - 2 x OA, bez zranění, na místo PČR',137.510120534657,87.0985309110164,'{accindet,personal_cars}'
3146,2014-04-30 15:45:00,'Od 30.4.2014 16:45 do 17:50; v ulici Plzeňská v obci Třemošná okres Plzeň-sever; - ve směru na Kaznějov; nehoda; - 2 x OA, bez zranění, na místo PČR',137.523359290215,87.0194376629061,'{accindet,personal_cars}'
3147,2014-04-30 15:50:00,'Od 30.4.2014 16:50 do 18:55; na silnici 180 v obci Třemošná okres Plzeň-sever; - odklon dopravy přes Třemošnou v obou směrech; nehoda; probíhají záchranné a vyprošťovací práce, nebezpečí; komunikace dočasně uzavřena; - 2 x OA, se zraněním, únik provozních kapalin, na místo PČR, ZZS, HZS',137.515498667991,87.0238307689759,'{accindet,injury,personal_cars}'
3148,2014-04-30 16:10:00,'Od 30.4.2014 17:10 do 18:15; v ulici Skvrňanská v obci Plzeň; - ve směru do centra; nehoda, silný provoz; neprůjezdný pruh, 3 havarovaná vozidla; - 3 x OA, bez zranění, na místo PČR',137.5014065791,87.1002400327667,'{accindet,personal_cars}'
3149,2014-04-30 18:45:00,'Od 30.4.2014 19:45 do 20:50; na silnici 18034 u obce Dobřany okres Plzeň-jih; nehoda; havárie OA se zraněním, na místo PČR a ZZS.',137.462935467984,87.1904739388106,'{accindet,injury,personal_cars}'
