ID,od,popis,x,y,ts_flags
3220,2014-05-09 07:15:00,'Od 9.5.2014 08:15 do 09:25; na silnici 191 v obci Žinkovy okres Plzeň-jih; nehoda odstraněna; provoz obnoven; střet 2 OA, bez zranění, bez úniku',137.593376001335,87.3936244004728,'{accindet,personal_cars}'
3221,2014-05-09 08:40:00,'Od 9.5.2014 09:40 do 11:45; v ulici Dvořákova v obci Plzeň; nehoda; střet 2 OA, bez zranění, nez úniku, netvoří překážku v provozu',137.507725512435,87.1223733341681,'{accindet,personal_cars}'
3222,2014-05-09 09:35:00,'Od 9.5.2014 10:35 do 12:40; v ulici Univerzitní v obci Plzeň; před prodejnou A3; nehoda; překážka, která může bránit provozu v celé šířce vozovky nebo její části; střet 3 OA, bez zranění,',137.492905245766,87.1266149793992,'{accindet,personal_cars}'
3223,2014-05-09 10:25:00,'Od 9.5.2014 11:25 do 13:30; v ulici Lobezská v obci Plzeň; u zadního výjezdu od bazénu; nehoda; nehoda, neprůjezdný pravý jízdní pruh; střet 2 OA, bez zranění, bez úniku',137.53037653466,87.1099907748607,'{accindet,personal_cars}'
3224,2014-05-09 14:05:00,'Od 9.5.2014 15:05 do 17:10; v ulici Slovanská v obci Plzeň; křižovatka ulic SLovanská X Plzenecká; nehoda, neprůjezdný pravý jízdní pruh; střet 2 OA, bez zranění, bez úniku',137.521232356881,87.1121418386473,'{accindet,personal_cars}'
3225,2014-05-09 15:20:00,Od 9.5.2014 16:20 do 18:25; na silnici 180 u obce Třemošná okres Plzeň-sever; silnic č. 180  mezi Třemošnou a Zručí; nehoda; havárie OA bez zranění na místo PČR,137.536768712439,87.0300682256471,'{accindet,personal_cars}'
3226,2014-05-10 01:00:00,'Od 10.5.2014 02:00 do 04:05; v ulici Folmavská v obci Plzeň; křižovatka ulic Folmavská X U letiště; nehoda; střet OA s pevnou přelážkou - semaforem, místa přůjezdné',137.490727823543,87.1182523675695,'{accindet,personal_cars}'
3227,2014-05-10 09:55:00,'Od 10.5.2014 10:55 do 13:00; v ulici Poděbradova v obci Přeštice okres Plzeň-jih; nehoda; 2 havarovaná vozidla; 2 x OA bez zranění, na místě PČR.',137.477346845764,87.2908899674394,'{accindet,personal_cars}'
3228,2014-05-10 14:40:00,'Od 10.5.2014 15:40 do 18:10; na silnici 20 u obce Nevřeň okres Plzeň-sever; jízdní pruhy opět průjezdné; nehoda odstraněna; 2 x OA se zraněním, na místě PČR, HZS, RZS.',137.429910756868,87.0227077288754,'{accindet,injury,personal_cars}'
3229,2014-05-10 15:35:00,'Od 10.5.2014 16:35 do 18:40; na silnici v obci Nečtiny okres Plzeň-sever; nehoda; probíhá vyšetřování nehody; havárie cyklisty se zraněním, na místo jede PČR, RZS.',137.360442312414,86.8509094378127,'{accindet,injury,cyclist}'
