ID,od,popis,x,y,ts_flags
330,2013-05-18 06:40:00,'Od 18.5.2013 07:40 do 09:00; v ulici Mikulášská v obci Plzeň; křižovatka s ulicí U Trati, provoz místem DN částečně omezen; nehoda; střet 2 OA, bez zranění, bez úniku',137.518975290214,87.1056003552727,'{accindet,personal_cars}'
331,2013-05-18 08:30:00,'Od 18.5.2013 09:30 do 11:00; na silnici 180 v obci Třemošná okres Plzeň-sever; z Třemošné na Záluží, vozovka průjezdná; nehoda; nezvládnutí vozidla, OA v příkopu, bez zranění,, únik PK nezjištěn',137.513774223547,87.0241944569715,'{accindet,personal_cars}'
332,2013-05-18 12:45:00,'Od 18.5.2013 13:45 do 16:00; na silnici 18036 u obce Dobřany okres Plzeň-jih; za železničním přejezdem v Chlumčanech ve směru na Dobřany, místo průjezdné; nehoda nákladního vozidla; kamion s návěsem sjetý do  příkopu',137.457801956872,87.2177762103514,{accindet}
333,2013-05-18 16:00:00,'Od 18.5.2013 17:00 do 18:05; v ulici Hálkova v obci Plzeň; u křižovatky ulic Němejcova X Hálkova ulice, místo střetu průjezdné; nehoda; nacouvání do OA',137.505644801323,87.107129890795,'{accindet,personal_cars}'
334,2013-05-18 16:15:00,'Od 18.5.2013 17:15 do 19:00; na silnici v obci Plzeň; u BČS u NC Olympie, provoz neomezen; nehoda; střet  2 OA, bez zranění a úniku PK',137.547394845773,87.1536288618186,'{accindet,personal_cars}'
335,2013-05-18 17:20:00,'Od 18.5.2013 18:20 do 20:00; v ulici Heydukova v obci Starý Plzenec okres Plzeň-město; křižovatka s ulicí Kpt. Jaroše, místo průjezdné; nehoda; střet 2 OA, bez zranění a bez úniku PK',137.579749690222,87.1612296548772,'{accindet,personal_cars}'
336,2013-05-18 20:50:00,'Od 18.5.2013 21:50 do 23:00; na dálnici D5; vozidlo i se srnou odstaveno mimo těleso D5 na sjezdu 100 směr Nýřany, Blatnice, bez omezení provozu; nehoda; střet OA se zvěří',137.342446934634,87.1353469118444,'{accindet,personal_cars,animal_hit}'
337,2013-05-18 22:30:00,'Od 18.5.2013 23:30 do 19.5.2013 01:35; na silnici 27 u obce Dobřany okres Plzeň-jih; za obcí Horní Lukavice směrem na Šlovice u  odbočky na Dobřany, místo průjezdné; nehoda; strážka se zvěří, bez zranění, bez úniku PK',137.483681423542,87.2127554927461,'{accindet,animal_hit}'
338,2013-05-19 15:55:00,'Od 19.5.2013 16:55 do 18:00; v ulici Sirková v obci Plzeň; křižovatka s ul. Americká.; neprůjezdný pruh, 2 havarovaná vozidla; probíhá vyšetřování nehody; 2 x OA, bez zranění, na místo PČR',137.518825245769,87.1035513692363,'{accindet,personal_cars}'
339,2013-05-19 16:35:00,'Od 19.5.2013 17:35 do 19:40; na silnici 183 u obce Štěnovický Borek okres Plzeň-město; ve směru na Nebílovy.; nehoda; probíhají záchranné a vyprošťovací práce; havárie OA do příkopu, se zraněním osob, na místě PČR, ZZS.',137.566569956887,87.2076530294117,'{accindet,injury,personal_cars}'
