ID,od,popis,x,y,ts_flags
3300,2014-05-19 08:15:00,'Od 19.5.2014 09:15 do 11:20; v ulici Klatovská třída v obci Plzeň; křižovatka s ulicí E. Beneše.; nehoda; 2 havarovaná vozidla; překážka na vozovce, průjezd se zvýšenou opatrností; 2 x OA bez zranění,',137.508007823546,87.1100127810671,'{accindet,personal_cars}'
3301,2014-05-19 11:05:00,Od 19.5.2014 12:05 do 13:05; v ulici Rokycanská v obci Plzeň; nehoda nákladního vozidla; Pozor! Silný provoz; neprůjezdný pravý jízdní pruh; Poškozený kamion v pravém jízdním pruhu. Označeno kužely.,137.531768179105,87.09879173996,{accindet}
3302,2014-05-19 12:15:00,'Od 19.5.2014 13:15 do 16:40; na silnici 180 u obce Město Touškov okres Plzeň-sever; odkláněno v Kozolupech a v Čemínech.; jízdní pruhy opět průjezdné; nehoda odstraněna; vyprošťování vozidla po ranní DN, provoz veden po objízdných trasách,',137.423061334645,87.0607456745896,{accindet}
3303,2014-05-19 16:10:00,'Od 19.5.2014 17:10 do 19:15; na silnici 26 u obce Chotěšov okres Plzeň-jih; ve směru od Stoda.; nehoda, neprůjezdný pravý jízdní pruh; 2 havarovaná vozidla; OA x  traktor,  bez zranění a úniku PHM.',137.379938134639,87.2076969614369,'{accindet,personal_cars}'
3304,2014-05-19 16:15:00,Od 19.5.2014 17:15 do 20:00; na silnici 1882 u obce Kasejovice okres Plzeň-jih; Za obcí Kasejovice ve směru na Polánku.; nehoda odstraněna; provoz obnoven; Střet OA s vlakem bez zranění osob.,137.765610668026,87.413879620646,'{accindet,personal_cars}'
3305,2014-05-19 20:35:00,'Od 19.5.2014 21:35 do 22:40; na silnici v obci Plzeň; kruhový objezd u Makra; nehoda; sražený cyklista, zranění nezjištěno',137.473541690208,87.1173073386775,'{accindet,injury,cyclist}'
3306,2014-05-20 04:55:00,'Od 20.5.2014 05:55 do 08:00; v ulici Hlavní v obci Tlučná okres Plzeň-sever; v obci ve směru na Nýřany; nehoda s únikem oleje; střet OA s ostrůvkem,',137.414534401311,87.1244017978313,'{accindet,personal_cars}'
3307,2014-05-20 06:10:00,'Od 20.5.2014 07:10 do 09:15; v ulici U Seřadiště v obci Plzeň; ve směru do města; nehoda; 2 x OA bez zranění, bez úniku.',137.540605867995,87.1296376060508,'{accindet,personal_cars}'
3308,2014-05-20 07:20:00,'Od 20.5.2014 08:20 do 10:25; v ulici Bolevecká v obci Plzeň; nehoda; 2 x OA bez zranění, bez úniku PHM, brání provozu.',137.508899556879,87.0863838951005,'{accindet,personal_cars}'
3309,2014-05-20 13:00:00,'Od 20.5.2014 14:00 do 16:05; na silnici v obci Plzeň; nehoda; havárie OA do sloupku, bez zranění.',137.47361351243,87.1068283886991,'{accindet,personal_cars}'
