ID,od,popis,x,y,ts_flags
3350,2014-05-26 05:40:00,'Od 26.5.2014 06:40 do 07:45; na silnici 201 u obce Manětín okres Plzeň-sever; nehoda; - srážka OA se srnou, na místo PČR',137.433931379091,86.8478510612339,'{accindet,personal_cars,animal_hit}'
3351,2014-05-26 09:25:00,'Od 26.5.2014 10:25 do 14:30; v ulici Plaská v obci Plzeň; nehoda; probíhají záchranné a vyprošťovací práce; jízdní pruh uzavřen; DN OA x sražená cyklistka se zraněním, na místě ZZS.',137.514218667991,87.069162446824,'{accindet,injury,personal_cars,cyclist}'
3352,2014-05-26 11:05:00,'Od 26.5.2014 12:05 do 14:10; na silnici 204 u obce Zahrádka okres Plzeň-sever; mezi Zahrádkou a Hůrkami; nehoda; havárie OA bez zranění, na místo PČR',137.382475379084,86.949560005337,'{accindet,personal_cars}'
3353,2014-05-27 05:45:00,'Od 27.5.2014 06:45 do 08:50; v ulici Domažlická v obci Plzeň; nehoda; probíhá vyšetřování nehody, nebezpečí; 2x OA bez zranění',137.478143290208,87.1129208214476,'{accindet,personal_cars}'
3354,2014-05-27 06:35:00,'Od 27.5.2014 07:35 do 08:40; v ulici Koterovská v obci Plzeň; nehoda; neprůjezdný pruh, 2 havarovaná vozidla; - 2 x OA, bez zranění, na místo PČR',137.520236801325,87.1057588127859,'{accindet,personal_cars}'
3355,2014-05-27 12:35:00,'Od 27.5.2014 13:35 do 14:40; v ulici Karlovarská v obci Plzeň; - ve směru na Lochotín; nehoda nákladního vozidla; neprůjezdný pruh, 2 havarovaná vozidla; - NA x OA, bez zranění, na místo PČR',137.509396623546,87.0884808726147,'{accindet,personal_cars,trucks}'
3356,2014-05-27 14:45:00,'Od 27.5.2014 15:45 do 16:50; v ulici Masarykovo nám. v obci Přeštice okres Plzeň-jih; nehoda; - 2 x OA, bez zranění, na místo PČR',137.478931201319,87.2924131140118,'{accindet,personal_cars}'
3357,2014-05-27 18:05:00,'Od 27.5.2014 19:05 do 20:10; na silnici 180 u obce Kozolupy okres Plzeň-sever; nehoda; - havárie OA do železničního viaduktu, se zraněním, na místo PČR, ZZS',137.413692445755,87.0842769276334,'{accindet,injury,personal_cars}'
3358,2014-05-27 18:50:00,'Od 27.5.2014 19:50 do 20:55; na silnici 233 u obce Plzeň; - ve směru z Plzně; nehoda; - havárie OA mimo vozovku, bez zranění, na místo PČR',137.562784001331,87.0781514986248,'{accindet,personal_cars}'
3359,2014-05-27 19:25:00,'Od 27.5.2014 20:25 do 21:30; v ulici Farského v obci Plzeň; nehoda; - 2 x OA, bez zranění, na místo PČR.',137.522452623548,87.1125566374005,'{accindet,personal_cars}'
