ID,od,popis,x,y,ts_flags
3550,2014-06-16 18:55:00,'Od 16.6.2014 19:55 do 22:00; na silnici 20 v obci Nepomuk okres Plzeň-jih; křižovatka s ul. U Pyramidy.; nehoda; 2 havarovaná vozidla; překážka na vozovce, průjezd se zvýšenou opatrností; 2 x OA,  bez zranění a úniku PHM, překáží provozu.',137.660403912456,87.3909592460947,'{accindet,personal_cars}'
3551,2014-06-17 09:55:00,'Od 17.6.2014 10:55 do 12:55; na silnici 2042 u obce Dražeň okres Plzeň-sever; Pod bažantnicí ve směru na Líté; nehoda; havarované vozidlo; Havárie 1 x OA bez zranění, únik provozních kapalin nehlášen. Vozidlo mimo vozovku v poli.',137.439978667981,86.8995345729186,'{accindet,personal_cars}'
3552,2014-06-17 10:55:00,'Od 17.6.2014 11:55 do 12:55; v ulici Masarykova v obci Plzeň; Před domem čp. 921/91; nehoda; havarované vozidlo; DN Oa x dopravní značka bez zranění, únik provozních kapalin nehlášen.',137.538757690217,87.0962384229037,'{accindet,personal_cars}'
3553,2014-06-17 14:25:00,'Od 17.6.2014 15:25 do 16:00; na silnici 19340 v obci Hradec okres Plzeň-jih; U odbočky na Střelice.; nehoda odstraněna; DN 2 x Oa bez zranění, únik provozních kapalin nehlášen, místo s opatrností průjezdné.',137.331976534632,87.2219707616654,'{accindet,personal_cars}'
3554,2014-06-17 14:35:00,Od 17.6.2014 15:35 do 16:35; v ulici Hodonínská v obci Plzeň; Uvedeno pouze v ul. Hodonínská v Plzni.; nehoda; havarované vozidlo; BUS najel na kanál a víko poškodilo vozidlo.,137.495565512433,87.082330605831,{accindet}
3555,2014-06-17 15:25:00,'Od 17.6.2014 16:25 do 17:25; v ulici Denisovo nábřeží v obci Plzeň , délka 170m; v jednosměrce u bývalého kulturního domu.; nehoda; 2 havarovaná vozidla; DN 2 x OA bez zranění a bez úniku provozních kapalin.',137.515361423547,87.104209430252,'{accindet,personal_cars}'
3556,2014-06-17 18:25:00,Od 17.6.2014 19:25 do 20:25; v ulici Třemošenská v obci Horní Bříza okres Plzeň-sever; nehoda; havarované vozidlo; Havárie cyklisty - pád s kola se zraněním. Na místo RZS a hlídka PČR.,137.502928356878,86.9993279150583,'{accindet,injury,cyclist}'
3557,2014-06-17 21:07:00,'silnice II/182, Líšina, okr. Plzeň-jih, nehoda, Od 17.06.2014 22:07 Do 17.06.2014 23:07',137.360725334636,87.2555723944382,{accindet}
3558,2014-06-17 21:10:00,'Od 17.6.2014 22:10 do 18.6.2014 00:10; na silnici v obci Líšina okres Plzeň-jih; U místní restaurace.; nehoda; 2 havarovaná vozidla; probíhá vyšetřování nehody, nebezpečí; 2 x OA se zraněním jedné osoby, 4 osoby mimo vozidla. Únik provozních kapalin nehlášen',137.361525334636,87.2579140185606,'{accindet,injury,personal_cars}'
3559,2014-06-17 21:20:00,'Od 17.6.2014 22:20 do 23:20; na silnici 27 u obce Vysoká Libyně okres Plzeň-sever; Hned za DZ '' Konec obce '' ve směru na Most.; nehoda; havarované vozidlo; srážka OA se srnou bez zranění osob, únik provozních kapalin nehlášen.',137.565357512443,86.7930646221718,'{accindet,personal_cars,animal_hit}'
