ID,od,popis,x,y,ts_flags
360,2013-05-21 05:55:00,'Od 21.5.2013 06:55 do 09:00; v ulici Klatovská třída v obci Plzeň; konečná tram č. 4 Klatovská, Plzeň; nehoda; NA x cyklista bez zranění, bez úniku PHM, PČR jede na místo.',137.502658845767,87.125607399164,'{accindet,cyclist,trucks}'
361,2013-05-21 07:15:00,'Od 21.5.2013 08:15 do 09:15; v ulici Kralovická v obci Kožlany okres Plzeň-sever; Hned za značkou konec obce Kožlany ve směru na Kralovice.; nehoda; 2 havarovaná vozidla; DN 1NA x 1OA bez zranění, bez úniku provozních kapalin, místo je průjezdné.',137.619187201339,86.8299030521867,{accindet}
362,2013-05-21 07:50:00,'Od 21.5.2013 08:50 do 09:50; na silnici u obce Plasy okres Plzeň-sever , délka 1.3km; Mezi Plasy a Horním Hradištěm, ale ne silnicí přes Žebnice.; nehoda; havarované vozidlo; překážka, která může bránit provozu v celé šířce vozovky nebo její části; Havárie 1 x OA, bez zranění, bez úniku provozních kapalin, vozidlo si pravděpodobně utrhlo tlumič po vjetí do neoznačeného výmolu.',137.511187201324,86.8703646019491,'{accindet,personal_cars}'
363,2013-05-21 08:40:00,'Od 21.5.2013 09:40 do 12:05; v ulici Rožmitálská v obci Nepomuk okres Plzeň-jih; Železniční přejezd č. P 1183; dopravní omezení odstraněna (provoz obnoven v plném rozsahu); Železniční přejezd č. P 1183 v obci Nepomuk - Dvorec je uzavřen si do 12:00 hod. po vkolejení vlaku. Vagóny i lokomotiva jsou již odstraněny, ale signalizace přejezdu stále nefunguje. Objízdná trasa je vyznačena DZ.',137.676751645791,87.370724924313,{accindet}
364,2013-05-21 12:20:00,'Od 21.5.2013 13:20 do 14:20; v ulici Na Stráži v obci Plzeň; Na začátku obce ve směru od Malesic.; nehoda; havarované vozidlo; překážka, která může bránit provozu v celé šířce vozovky nebo její části; Zapdlý NA v příkopu bez zranění, únik provozních kapalin nehlášen, stržené elektrické vedení vysokého napětí.',137.449550223538,87.0624130563932,'{accindet,trucks}'
365,2013-05-21 12:30:00,'Od 21.5.2013 13:30 do 14:30; v ulici Borská v obci Plzeň; Mezi 5. a 7. bránou Škodovky u autocentra Šmucler.; nehoda; 2 havarovaná vozidla; DN 2 x OA se zraněním, únik provozních kapalin nehlášen.',137.500277334656,87.1101008058019,'{accindet,injury,personal_cars}'
366,2013-05-21 14:20:00,'Od 21.5.2013 15:20 do 16:20; v ulici Rokycanská v obci Plzeň; Ve směru na Prahu před centrálním hřbitovem.; nehoda; 2 havarovaná těžká nákladní vozidla; DN 2 x kamion bez zranění, únik provozních kapalin nehlášen, průjezdné jedním pruhem.',137.549675379107,87.1004678381655,{accindet}
367,2013-05-21 17:20:00,'Od 21.5.2013 18:20 do 19:20; na silnici 18023 u obce Tymákov okres Plzeň-město; U sjezdu Ejpovice z D5 na Ejpovice ve směru od Plzně.; nehoda; havarované vozidlo; Havárie 1 x MOTO bez zranění, bez úniku provozních kapalin.',137.605489779115,87.1137603057254,{accindet}
368,2013-05-21 22:40:00,'Od 21.5.2013 23:40 do 22.5.2013 00:40; na silnici u obce Kasejovice okres Plzeň-jih; za obcí ve směru na Nepomuk; nehoda; havarované těžké nákladní vozidlo; střet kamionu s divokým prasetem, bez zranění osob, únik provozních kapalin nehlášen.',137.752006401357,87.4094221593213,'{accindet,animal_hit}'
369,2013-05-22 06:10:00,'Od 22.5.2013 07:10 do 08:10; na silnici 177 v obci Mladý Smolivec okres Plzeň-jih; Zastávka BUS před ZD Mladý Smolivec.; nehoda; 2 havarovaná vozidla; DN AUT x dodávka - boční střet, bez zranění, bez úniku provozních kapalin.',137.767409779137,87.368761625367,{accindet}
