ID,od,popis,x,y,ts_flags
3600,2014-06-21 20:54:00,'silnice I/27, v katastru obce Borovy, okr. Plzeň-jih, nehoda, Od 21.06.2014 21:54 Do 21.06.2014 22:54',137.457782756872,87.3536079681481,{accindet}
3601,2014-06-21 21:00:00,'Od 21.6.2014 22:00 do 23:00; na silnici 27 u obce Borovy okres Plzeň-jih; Asi 1 km před obcí Borovy ve směru od Červeného Poříčí.; nehoda; 2 havarovaná vozidla; Srážka MOTO x OA se zraněním motorkáře, únik provozních kapalin. Na místo RZS, HZS a hlídka PČR.',137.457740801317,87.3537240708528,'{accindet,injury,personal_cars}'
3602,2014-06-22 04:10:00,'Od 22.6.2014 05:10 do 06:10; na silnici u obce Plzeň; Na zkratce do Litic kolem zahrádek.; nehoda; havarované vozidlo; Havárie OA do pole bez zranění, bez úniku provozních kapalin. Místo průjezdné.',137.504477156879,87.1404947724172,'{accindet,personal_cars}'
3603,2014-06-22 14:05:00,'Od 22.6.2014 15:05 do 16:45; v ulici Domažlická v obci Plzeň; kruhový objezd u Makra.; nehoda odstraněna; provoz v jízdním pruhu obnoven; 2 x OA se zraněním, průjezdné s opatrností, na místě RZS a PČR.',137.473068801319,87.1161697613433,'{accindet,injury,personal_cars}'
3604,2014-06-22 14:45:00,'Od 22.6.2014 15:45 do 17:50; v ulici Tř. 1. máje v obci Přeštice okres Plzeň-jih; u restaurace Spolkový dům.; nehoda; havarované vozidlo; překážka na vozovce, průjezd se zvýšenou opatrností; havárie OA bez zranění, na místo jede PČR.',137.477936356875,87.2860022274416,'{accindet,personal_cars}'
3605,2014-06-22 14:50:00,'Od 22.6.2014 15:50 do 17:55; na silnici 27 u obce Borovy okres Plzeň-jih; nehoda; havarované vozidlo; překážka na vozovce, průjezd se zvýšenou opatrností; náraz OA do stromu,  na místo jede RZS a PČR.',137.458289779094,87.3480697959108,'{accindet,personal_cars}'
3606,2014-06-22 15:40:00,'Od 22.6.2014 16:40 do 18:45; na silnici 204 v obci Dolní Bělá okres Plzeň-sever; nehoda; 2 havarovaná vozidla; překážka na vozovce, průjezd se zvýšenou opatrností; 2 x OA bez zranění.',137.438417067981,86.9372840711667,'{accindet,personal_cars}'
3607,2014-06-22 17:05:00,'Od 22.6.2014 18:05 do 20:10; v ulici Dolanská v obci Chrást okres Plzeň-město; u hřiště.; nehoda; 2 havarovaná vozidla; překážka na vozovce, průjezd se zvýšenou opatrností; 2 x OA se zraněním.',137.590835912446,87.0475171072053,'{accindet,injury,personal_cars}'
3608,2014-06-22 17:30:00,'Od 22.6.2014 18:30 do 20:35; na silnici 11742 v obci Čížkov okres Plzeň-jih; v obci Přešín.; nehoda; 2 havarovaná vozidla; překážka na vozovce, průjezd se zvýšenou opatrností; 2 x OA bez zranění, průjezdné s opatrností',137.705109334684,87.307545726296,'{accindet,personal_cars}'
3609,2014-06-23 06:40:00,'Od 23.6.2014 07:40 do 09:45; v ulici Škroupova v obci Plzeň; křiž. s ul. Jagelonská; nehoda; 2 x OA bez zranění, na místo PČR.',137.511326579102,87.1057037928693,'{accindet,personal_cars}'
