ID,od,popis,x,y,ts_flags
3620,2014-06-23 16:30:00,'Od 23.6.2014 17:30 do 18:35; na silnici 27 v obci Plzeň; nehoda nákladního vozidla; neprůjezdný pruh, 2 havarovaná vozidla; NA x OA bez zranění, na místo PČR.',137.498715734656,87.1197353361201,'{accindet,personal_cars,trucks}'
3621,2014-06-23 16:40:00,'Od 23.6.2014 17:40 do 18:45; v ulici Koterovská v obci Plzeň; nehoda; neprůjezdný pruh, 2 havarovaná vozidla; 2 x OA bez zranění, na místo PČR.',137.536964267994,87.1204471023923,'{accindet,personal_cars}'
3622,2014-06-23 21:30:00,'Od 23.6.2014 22:30 do 23:35; na silnici 27 u obce Plasy okres Plzeň-sever; nehoda; zvěř na vozovce; havarované vozidlo; srážka OA se srnou, na místě PČR.',137.539519290217,86.8763791295741,'{accindet,personal_cars,animal_hit}'
3623,2014-06-24 09:05:00,'Od 24.6.2014 10:05 do 12:10; na silnici 27 u obce Chlumčany okres Plzeň-jih; odbočka na Chlumčany, místo průjezdné bez omezení; nehoda; střet 2 OA, bez zranění, bez úniku',137.480295112431,87.2282839293268,'{accindet,personal_cars}'
3624,2014-06-24 10:25:00,'Od 24.6.2014 11:25 do 13:30; v ulici náměstí Republiky v obci Plzeň; před bankou Unicredit; nehoda; překážka, která brání provozu na celé vozovce nebo její části; střet 2 OA, bez zranění, bez úniku',137.51346915688,87.1000133269121,'{accindet,personal_cars}'
3625,2014-06-24 12:35:00,'Od 24.6.2014 13:35 do 15:40; v ulici Mikulášské náměstí v obci Plzeň; nehoda; překážka, která brání provozu na celé vozovce nebo její části; střet 2 OA, bez zranění,',137.519811556881,87.1096760851172,'{accindet,personal_cars}'
3626,2014-06-24 12:55:00,'Od 24.6.2014 13:55 do 16:00; na silnici 203 v obci Plzeň; křižovatka  ''u myší díry''; nehoda; překážka, která brání provozu na celé vozovce nebo její části; střet 2 OA, bez zranění, únik provozních kapalin',137.466783290207,87.1107367801993,'{accindet,personal_cars}'
3627,2014-06-24 15:50:00,'Od 24.6.2014 16:50 do 18:55; v ulici Nepomucká v obci Plzeň; ve směru z Plzně; nehoda; překážka, která brání provozu na celé vozovce nebo její části; zadní střet 2 OA, bez úniku PK',137.539375645772,87.1421068822358,'{accindet,personal_cars}'
3628,2014-06-24 17:05:00,'Od 24.6.2014 18:05 do 20:10; na silnici 18019 u obce Letkov okres Plzeň-město; křižovatka  Letkov - Božkov - Starý Plzenec - Kyšice,; nehoda; nehoda motocyklisty, zranění',137.567468090221,87.1208365346371,'{accindet,injury}'
3629,2014-06-24 21:25:00,'Od 24.6.2014 22:25 do 23:45; v ulici Tylova v obci Plzeň; před podnikem Škoda; všechny nehody byly odstraněny, nejsou hlášeny žádné další problémy; 2 x OA bez zranění, bez úniku, místo průjezdné.',137.500288712434,87.1017521141823,'{accindet,personal_cars}'
