ID,od,popis,x,y,ts_flags
3710,2014-07-04 05:40:00,'Od 4.7.2014 06:40 do 08:45; v ulici Lidická v obci Plzeň; nehoda nákladního vozidla; probíhá vyšetřování nehody, nebezpečí; cyklista narazil do NA, DN se zraněním,',137.508602312435,87.0809324688766,'{accindet,injury,cyclist}'
3711,2014-07-04 08:10:00,'Od 4.7.2014 09:10 do 11:15; v ulici 5. května v obci Zbůch okres Plzeň-sever; nehoda; probíhá vyšetřování nehody; cyklista x chodec se zraněním, RZS a PČR jede na místo.',137.404330667976,87.1753081635102,'{accindet,pedestrian_involvement,injury,cyclist}'
3712,2014-07-04 10:55:00,'Od 4.7.2014 11:55 do 14:00; na silnici 180 u obce Zbůch okres Plzeň-sever; nehoda; 2 havarovaná vozidla; 2 x OA, bez zranění a úniku provozních kapalin, průjezdné.',137.403243379087,87.1678368710602,'{accindet,personal_cars}'
3713,2014-07-04 22:35:00,'Od 4.7.2014 23:35 do 5.7.2014 01:40; na silnici 26 u obce Střelice okres Plzeň-jih; nehoda; komunikace dočasně uzavřena; 2xOA se zraněním, zvýšená opatrnost, ohrožení BESIP, na místo složky IZS, odklon dopravy - na místě hlídky PČR řídí dopravu.',137.344740979079,87.2390530222359,'{accindet,injury}'
3714,2014-07-04 22:45:00,'Od 4.7.2014 23:45 do 5.7.2014 01:50; na silnici 191 v obci Žinkovy okres Plzeň-jih; nehoda; 1xOA v příkopu, zvýšená opatrnost',137.600637156892,87.3898931472342,{accindet}
3715,2014-07-05 05:05:00,'Od 5.7.2014 06:05 do 08:10; v ulici Karlovarská v obci Plzeň; Karlovarská x Lidická; nehoda; 2xOA bez zranění, bez úniku PHM, zvýšená opatrnost.',137.50602026799,87.0847106570975,{accindet}
3716,2014-07-05 09:05:00,'Od 5.7.2014 10:05 do 13:10; na silnici 27 u obce Plasy okres Plzeň-sever; serpentiny za obcí směr Kralovice; vážná nehoda; 2 havarovaná vozidla; kyvadlový provoz jedním jízdním pruhem; OA x NA se smrteným zraněním, na místě HZS, PČR a RZS.',137.523204267992,86.8863255916865,'{accindet,injury,personal_cars,trucks}'
3717,2014-07-05 10:30:00,'Od 5.7.2014 11:30 do 13:35; v ulici Jateční v obci Plzeň; nehoda; 2 havarovaná vozidla; OA x MOTO sez zraněním, průjezdné s opatrností.',137.530396445771,87.0815214522945,'{accindet,injury,personal_cars}'
3718,2014-07-05 12:00:00,'Od 5.7.2014 13:00 do 15:05; na silnici 201 v obci Všehrdy okres Plzeň-sever; nehoda; 2 havarovaná vozidla; 2 x OA bez zranění, průjezdné s opatrností.',137.660807112456,86.8602216979461,'{accindet,personal_cars}'
3719,2014-07-05 16:40:00,'Od 5.7.2014 17:40 do 19:45; na silnici 17711 u obce Spálené Poříčí okres Plzeň-jih; u obce Struhaře; nehoda; havárie OA bez zranění, vozidlo zasahuje do komunikace, průjezdné.',137.672845512458,87.2713681412972,'{accindet,personal_cars}'
