ID,od,popis,x,y,ts_flags
3780,2014-07-14 06:25:00,'Od 14.7.2014 07:25 do 09:00; v ulici Přemyslova v obci Plzeň; křižovatka ulic Přemyslova X Kotkova; všechny nehody byly odstraněny, nejsou hlášeny žádné další problémy; střet 2 OA, bez zranění, únik PK',137.504585245767,87.0988247561911,'{accindet,personal_cars}'
3781,2014-07-14 10:15:00,'Od 14.7.2014 11:15 do 13:25; na silnici 205 u obce Nevřeň okres Plzeň-sever; před křižovatkou s 1/20 u odbočky na Nevřeň; všechny nehody byly odstraněny, nejsou hlášeny žádné další problémy; DN traktoru',137.427856356868,87.018562525295,{accindet}
3782,2014-07-14 12:05:00,'Od 14.7.2014 13:05 do 14:40; v ulici Nepomucká v obci Plzeň; za konečnou tramvaje ve směru z města; všechny nehody byly odstraněny, nejsou hlášeny žádné další problémy; střet 2 x OA, bez zranění',137.529601423549,87.1265170821534,'{accindet,personal_cars}'
3783,2014-07-14 15:05:00,'Od 14.7.2014 16:05 do 18:10; v ulici Sladkovského v obci Plzeň; nehoda; překážka, která brání provozu na celé vozovce nebo její části; sražený chodec, zraněná osoba, na místě ZZS',137.52249884577,87.109037897425,'{accindet,pedestrian_involvement,injury}'
3784,2014-07-14 15:25:00,'Od 14.7.2014 16:25 do 18:30; v ulici Železniční v obci Plzeň; křižovatka ulic Koterovská X Železniční; nehoda; překážka, která brání provozu na celé vozovce nebo její části; střet 2 OA, bez zranění',137.519948090214,87.1055024194912,'{accindet,personal_cars}'
3785,2014-07-14 15:35:00,'Od 14.7.2014 16:35 do 18:40; na silnici 180 u obce Myslinka okres Plzeň-sever; ve směru na Nýřany; nehoda; překážka, která brání provozu na celé vozovce nebo její části; OA v příkopu - náraz do stromu',137.396962845753,87.1086274726891,'{accindet,personal_cars}'
3786,2014-07-14 21:25:00,'Od 14.7.2014 22:25 do 23:35; na silnici 20 u obce Chotíkov okres Plzeň-sever; za obcí ve směru na K. Vary; všechny nehody byly odstraněny, nejsou hlášeny žádné další problémy; střet OA se zvěří',137.45769813465,87.0380160688294,'{accindet,personal_cars,animal_hit}'
3787,2014-07-15 09:35:00,'Od 15.7.2014 10:35 do 14:10; na silnici 201 u obce Kralovice okres Plzeň-sever; nehoda odstraněna; utržená krajnice, NA v příkopu',137.59343644578,86.8465794501772,'{accindet,trucks}'
3788,2014-07-15 10:10:00,'Od 15.7.2014 11:10 do 17:55; na silnici 27 u obce Přeštice okres Plzeň-jih; Silnice č.27 na výjezdu z obce Přeštice na obec Lužany. Objízdná trasa vedená přes Skočice.; silnice uzavřena, nehoda; 3x OA se zraněním. Za benzínkou OMV.',137.474823823541,87.3006509518958,'{accindet,injury,personal_cars}'
3789,2014-07-15 11:30:00,'Od 15.7.2014 12:30 do 14:35; v ulici Gerská v obci Plzeň; Gerská ulice v PLzni, proti BČS Pap Oil; nehoda; střet dvou OA bez zranění, na místo PČR',137.508587379101,87.0625782499041,'{accindet,personal_cars}'
