ID,od,popis,x,y,ts_flags
380,2013-05-23 09:50:00,'Od 23.5.2013 10:50 do 11:50; D5 - 106km na trase Praha - Rozvadov; nehoda; havárie OA do příkopu, bez zranění, na místo PČR.',137.286785423515,87.1394137738484,'{accindet,personal_cars}'
381,2013-05-23 11:20:00,'Od 23.5.2013 12:20 do 13:25; na silnici 1806 u obce Trnová okres Plzeň-sever; nehoda; zvěř na vozovce; srážka OA se srnou, na místo PČR.',137.467507201318,86.9675339249393,'{accindet,personal_cars,animal_hit}'
382,2013-05-23 14:25:00,'Od 23.5.2013 15:25 do 16:30; v ulici U Prazdroje v obci Plzeň; ve směru na Prahu; nehoda; neprůjezdný pruh, 2 havarovaná vozidla; 2 x OA bez zranění, na místo PČR.',137.525995379104,87.0993585157606,'{accindet,personal_cars}'
383,2013-05-23 14:40:00,'Od 23.5.2013 15:40 do 16:45; v ulici U Prazdroje v obci Plzeň; ve směru do centra; nehoda; neprůjezdný pruh, 3 havarovaná vozidla; 3 x OA bez zranění, na místo PČR.',137.525972623548,87.0991417109708,'{accindet,personal_cars}'
384,2013-05-23 16:45:00,'Od 23.5.2013 17:45 do 19:50; v ulici Koperníkova v obci Plzeň; na křiž. s ul. Tylova; nehoda; střet OA s cyklistou s lehkým zraněním, na místo PČR a ZZS.',137.505880890212,87.1026302902796,'{accindet,injury,personal_cars,cyclist}'
385,2013-05-23 16:55:00,'Od 23.5.2013 17:55 do 19:00; v ulici Škroupova v obci Plzeň; čp. 2; nehoda; 2 x OA bez zranění, na místo PČR.',137.51149795688,87.1041973255239,'{accindet,personal_cars}'
386,2013-05-23 17:50:00,'Od 23.5.2013 18:50 do 19:55; v ulici Smrková v obci Plzeň; - Smrková 19; nehoda; - 2 x OA, bez zranění, na místo PČR',137.541624179106,87.0946623490049,'{accindet,personal_cars}'
387,2013-05-24 07:50:00,Od 24.5.2013 08:50 do 10:55; v ulici Pallova v obci Plzeň; čp.19.; nehoda; 3 havarovaná vozidla; 3 x OA bez zranění a  úniku provozních kaplin.,137.516480001325,87.0993343041019,'{accindet,personal_cars}'
388,2013-05-24 08:00:00,'Od 24.5.2013 09:00 do 12:05; na silnici 2313 v obci Hromnice okres Plzeň-sever; nehoda nákladního vozidla; 2 havarovaná vozidla; NA x valník bez zranění a úniku PHM, PČR jede na místo.',137.586399290223,86.9794157386776,'{accindet,trucks}'
389,2013-05-24 08:10:00,'Od 24.5.2013 09:10 do 11:15; v ulici Blatenská v obci Nepomuk okres Plzeň-jih; nad bývalou mlékárnou, Dvorec u Nepomuka.; nehoda; 2 havarovaná vozidla; 2 x OA bez zranění a úniku provozních kapalin, PČR jede na místo.',137.675887645791,87.3744662714328,'{accindet,personal_cars}'
