ID,od,popis,x,y,ts_flags
400,2013-05-24 23:55:00,'ulice náměstí Republiky, Plzeň 3, okr. Plzeň, nehoda, Od 25.05.2013 00:55 Do 25.05.2013 02:00, Pozor!, Dopravní nehoda 2 osobních vozidel - úklid po dopravní nehodě',137.513447823546,87.1003368776927,{accindet}
401,2013-05-25 07:05:00,'Od 25.5.2013 08:05 do 09:05; v ulici Mikulášské náměstí v obci Plzeň; Na Mikulášském náměstí v Plzni.; nehoda; 2 havarovaná vozidla; DN TRAm x OA bez zranění, únik provozních kapalin nehlášen.',137.520615112436,87.1076030475859,'{accindet,personal_cars}'
402,2013-05-25 15:25:00,'Od 25.5.2013 16:25 do 17:25; v ulici Revoluční v obci Nýřany okres Plzeň-sever , délka 34m; Uvedeno pouze v obci Nýřany bez bližšího určení.; nehoda; havarované vozidlo; Srážka OA s cyklistou - dítětem se zraněním.',137.389159823529,87.1378466719703,'{accindet,injury,personal_cars,cyclist}'
403,2013-05-25 16:25:00,Od 25.5.2013 17:25 do 18:25; D5 - 91km na trase Praha - Rozvadov; Na km 91 ve směru Rozvadov - Praha.; nehoda; havarované vozidlo; Havárie 1 x OA do středových svodidel.,137.422711467978,87.1406509270653,'{accindet,personal_cars}'
404,2013-05-25 18:35:00,'Od 25.5.2013 19:35 do 20:35; v ulici 17. listopadu v obci Plzeň; Křižovatka s ul. Edvarda Beneše.; nehoda; 2 havarovaná vozidla; překážka na vozovce, průjezd se zvýšenou opatrností; 2 x OA bez zranění a úniku provozních kapalin.',137.512386134657,87.1201423751806,'{accindet,personal_cars}'
405,2013-05-26 05:05:00,'Od 26.5.2013 06:05 do 07:05; na silnici 180 u obce Myslinka okres Plzeň-sever; Přibližně 500 m za kruhovým objezdem.; nehoda; havarované vozidlo; zvěř na vozovce; Střet OA se zvěří bez zranění osob, a úniku provozních kapalin.',137.396923734641,87.1068812067075,'{accindet,personal_cars,animal_hit}'
406,2013-05-26 08:10:00,'Od 26.5.2013 09:10 do 11:15; na silnici v obci Plzeň; ul. K Valše, za viaduktem ve směru na Litice; nehoda; 2 x OA, bez zranění, bez úniku, částečně blokován pravý jízdní pruh.',137.484862579098,87.1428788302834,'{accindet,personal_cars}'
407,2013-05-26 11:35:00,'Od 26.5.2013 12:35 do 14:40; na silnici 183 v obci Šťáhlavy okres Plzeň-město; křižovatka v obci - směr na Nezvěstice, průjezdné s opatrností; nehoda; 2 x OA bez zranění, bez úniku.',137.601100090225,87.1835332902684,'{accindet,personal_cars}'
408,2013-05-26 12:15:00,'Od 26.5.2013 13:15 do 16:20; na silnici 20 u obce Losiná okres Plzeň-město; před obcí ve směru od Plzně; nehoda; probíhají záchranné a vyprošťovací práce, nebezpečí; 2 x OA se zraněním, 1 vozidlo mimo vozovku, únik provozních kapalin.',137.559441067997,87.1741751176567,'{accindet,injury,personal_cars}'
409,2013-05-26 13:00:00,'Od 26.5.2013 14:00 do 15:30; na silnici 27 u obce Hromnice okres Plzeň-sever; před viaduktem od Kaznějova ve směru na Třemošnou; nehoda; havárie OA do příkopu, bez zranění, únik PK, bez omezení provozu.',137.520105956881,86.9769725219728,'{accindet,personal_cars}'
