ID,od,popis,x,y,ts_flags
4250,2014-09-12 11:20:00,'Od 12.9.2014 12:20 do 13:25; v ulici Korandova v obci Plzeň; nehoda; - 3 x OA, bez zranění, na místo PČR',137.504224712434,87.1026324912041,'{accindet,personal_cars}'
4251,2014-09-12 11:50:00,'Od 12.9.2014 12:50 do 13:55; v ulici Klatovská třída v obci Plzeň; nehoda; neprůjezdný pruh, 2 havarovaná vozidla; - OA x dodávka, bez zranění, na místo PČR',137.504987023545,87.1223403324954,'{accindet,personal_cars}'
4252,2014-09-12 12:00:00,'Od 12.9.2014 13:00 do 14:05; v ulici Masarykova v obci Plzeň; nehoda; - OA x dodávka, bez zranění, na místo PČR',137.539979379106,87.0937510224739,'{accindet,personal_cars}'
4253,2014-09-12 12:40:00,'Od 12.9.2014 13:40 do 15:45; v ulici Rokycanská v obci Plzeň; nehoda; neprůjezdný pruh, 2 havarovaná vozidla; - OA x dodávka, bez zranění, na místo PČR',137.53832462355,87.0993166956159,'{accindet,personal_cars}'
4254,2014-09-12 12:45:00,'Od 12.9.2014 13:45 do 15:50; v ulici Palackého náměstí v obci Plzeň; nehoda nákladního vozidla; Pozor! Silný provoz; neprůjezdný pruh, 3 havarovaná vozidla; - 2 x NA x OA, bez zranění, na místo PČR',137.508275912435,87.0985419164828,'{accindet,personal_cars,trucks}'
4255,2014-09-12 12:55:00,'Od 12.9.2014 13:55 do 16:00; v ulici Plzeňská v obci Plasy okres Plzeň-sever; Plzeňská ulice v Plasích, silnice I/27; nehoda; střet dvou OA bez zranění, na místo PČR',137.516347023547,86.8968943645005,'{accindet,personal_cars}'
4256,2014-09-12 12:55:00,'Od 12.9.2014 13:55 do 16:00; na silnici 27 u obce Plasy okres Plzeň-sever; - ve směru na Kralovice; nehoda; kluzká vozovka, rozlitá látka na vozovce; - 2 x OA, bez zranění, na místo PČR, únik nafty na vozovku, na místo HZS',137.528811379104,86.8765482161734,'{accindet,personal_cars}'
4257,2014-09-12 14:05:00,'Od 12.9.2014 15:05 do 17:10; v ulici Masarykova v obci Plzeň; - před OD Centrum; nehoda, silný provoz; neprůjezdný pruh, 3 havarovaná vozidla; - 3 x OA, bez zranění, na místo PČR',137.540029156884,87.0936827824215,'{accindet,personal_cars}'
4258,2014-09-12 14:55:00,'Od 12.9.2014 15:55 do 17:00; na silnici 230 u obce Příchovice okres Plzeň-jih; nehoda; - havárie OA do příkopu, bez zranění, na místo PČR',137.504328534656,87.2989569972059,'{accindet,personal_cars}'
4259,2014-09-12 15:00:00,'Od 12.9.2014 16:00 do 18:05; na silnici 1808 u obce Plzeň; nehoda nákladního vozidla; neprůjezdný pruh, 2 havarovaná vozidla; - NA x OA, bez zranění, na místo PČR',137.511209245768,87.0564789663257,'{accindet,personal_cars,trucks}'
