ID,od,popis,x,y,ts_flags
4280,2014-09-15 15:25:00,Od 15.9.2014 16:25 do 17:25; v ulici U Panasoniku v obci Plzeň; křiž. s ul. Podnikatelská; nehoda; 3 havarovaná vozidla; 3 x OA bez zranění a bez úniku provozních kapalin.,137.48394880132,87.1228199547998,'{accindet,personal_cars}'
4281,2014-09-15 15:30:00,Od 15.9.2014 16:30 do 18:30; v ulici Gerská v obci Plzeň; Křiž. s ul. Studentská; nehoda; 3 havarovaná vozidla; BUS x 2 OA bez zranění a bez úniku provozních kapalin.,137.505633423545,87.0687880536645,'{accindet,personal_cars}'
4282,2014-09-15 17:00:00,'Od 15.9.2014 18:00 do 19:00; v ulici Slovanská alej v obci Plzeň; u vjezdu do Depa; nehoda; 2 havarovaná vozidla; 2 x OA se zraněním, únik provozních kapalin nehlášen.',137.531822223549,87.1234590778272,'{accindet,injury,personal_cars}'
4283,2014-09-15 20:35:00,Od 15.9.2014 21:35 do 22:35; v ulici Husova v obci Plzeň; Naproti národní bance.; nehoda; 2 havarovaná vozidla; DN 2 x OA bez úniku provozních kapalin a bez zranění.,137.506584179101,87.1018027362545,'{accindet,personal_cars}'
4284,2014-09-16 00:10:00,'Od 16.9.2014 01:10 do 02:10; D5 - 78km na trase Rozvadov - Praha; Před tunelem Valík.; nehoda; havarované vozidlo; OA srazilo kance, bez zranění osob a bez úniku provozních kapalin.',137.529129956882,87.1727563037645,'{accindet,personal_cars}'
4285,2014-09-16 05:30:00,Od 16.9.2014 06:30 do 07:30; v ulici Domažlická v obci Plzeň; Před firmou Rádl na ul. Domažlická.; nehoda; 2 havarovaná vozidla; DN NA x OA bez zranění a bez úniku provozních kapalin.,137.471419023541,87.1171929219374,'{accindet,personal_cars,trucks}'
4286,2014-09-16 05:45:00,Od 16.9.2014 06:45 do 07:45; v ulici Folmavská v obci Plzeň; Uvedeno na světelné křižovatce bez přesnějšího upřesnění.; nehoda; 2 havarovaná vozidla; DN 2 x OA bez zranění a bez úniku provozních kapalin. Místo je průjezdné.,137.484227556876,87.1178948207705,'{accindet,personal_cars}'
4287,2014-09-16 08:45:00,'Od 16.9.2014 09:45 do 11:50; v ulici Teslova v obci Plzeň; - křižovatka s Morseovou ul.; nehoda; 2 havarovaná vozidla; 2 x OA bez zranění, průjezdné s opatrností',137.481690312431,87.1252268016831,'{accindet,personal_cars}'
4288,2014-09-16 09:40:00,'Od 16.9.2014 10:40 do 12:45; v ulici Chebská v obci Plzeň; nehoda; 2 havarovaná vozidla; 2 x OA bez zranění, průjezdné s opatrností',137.466084267984,87.0915342768078,'{accindet,personal_cars}'
4289,2014-09-16 17:35:00,'Od 16.9.2014 18:35 do 20:40; na silnici 20 u obce Starý Plzenec okres Plzeň-město; - nájezd na dálnici na Prahu; nehoda; DN OA bez zranění, průjezdné s opatrností',137.553522490219,87.1495004106794,'{accindet,personal_cars}'
