ID,od,popis,x,y,ts_flags
4360,2014-09-23 17:20:00,'Od 23.9.2014 18:20 do 21:25; v ulici sady Pětatřicátníků v obci Plzeň; Směr Americká.; nehoda nákladního vozidla; 2 havarovaná vozidla; překážka na vozovce, průjezd se zvýšenou opatrností; OA x kamion, bez zrnění, s únikem  provozních kapalin.',137.510058667991,87.0999021746607,'{accindet,personal_cars}'
4361,2014-09-24 06:55:00,'Od 24.9.2014 07:55 do 10:25; v ulici Radčická v obci Plzeň; u Kalikovského mostu; všechny nehody byly odstraněny, nejsou hlášeny žádné další problémy; střet 2 OA, bez zranění, bez úniku',137.504352001323,87.0968877694245,'{accindet,personal_cars}'
4362,2014-09-24 09:35:00,'Od 24.9.2014 10:35 do 11:45; v ulici U Prazdroje v obci Plzeň; před  prodejnou Hornbach; všechny nehody byly odstraněny, nejsou hlášeny žádné další problémy; zadní střet 2 OA, bez zranění, bez úniku,',137.525658312437,87.0994399548958,'{accindet,personal_cars}'
4363,2014-09-24 12:00:00,'Od 24.9.2014 13:00 do 14:20; na silnici 2031 u obce Vejprnice okres Plzeň-sever; ve směru na Křimice; všechny nehody byly odstraněny, nejsou hlášeny žádné další problémy; střet OA s NA, bez zranění',137.44823324576,87.1093184808844,'{accindet,personal_cars}'
4364,2014-09-24 13:50:00,'Od 24.9.2014 14:50 do 17:55; na silnici 229 u obce Kožlany okres Plzeň-sever; za obcí Kožlany ve směru na Čistou; všechny nehody byly odstraněny, nejsou hlášeny žádné další problémy; střet OA s NA, zraněná osoba,',137.642397156898,86.8247516548265,'{accindet,injury,personal_cars}'
4365,2014-09-24 15:35:00,'Od 24.9.2014 16:35 do 17:55; v ulici Koterovská v obci Plzeň; křižovatka s ulicí Sladkovského; všechny nehody byly odstraněny, nejsou hlášeny žádné další problémy; střet OA + trolejbus, bez zarnění, bez úniku',137.523076979103,87.1084393144499,'{accindet,personal_cars}'
4366,2014-09-24 19:15:00,Od 24.9.2014 20:15 do 22:20; v ulici K Prokopávce v obci Plzeň; před železničním přejezdem.; nehoda; zvěř na vozovce; probíhá vyšetřování nehody; střet OA se zvěří.,137.51980444577,87.0639052858863,'{accindet,personal_cars,animal_hit}'
4367,2014-09-25 07:50:00,'Od 25.9.2014 08:50 do 10:55; na silnici 27 u obce Kaznějov okres Plzeň-sever; u odbočky na Býkov, směrem od Plzně; nehoda; 2 havarovaná vozidla; OA x dodávka bez zranění.',137.519646579103,86.9567430178137,'{accindet,personal_cars}'
4368,2014-09-25 07:55:00,'Od 25.9.2014 08:55 do 10:45; na silnici 20 u obce Plzeň; za OC Olympie směr Nepomuk; všechny nehody byly odstraněny, nejsou hlášeny žádné další problémy; NA x OA bez zranění, průjezdné s opatrností.',137.550541512441,87.1589607433804,'{accindet,personal_cars,trucks}'
4369,2014-09-25 11:15:00,'Od 25.9.2014 12:15 do 14:10; v ulici Plzenecká v obci Plzeň; čp. 4; všechny nehody byly odstraněny, nejsou hlášeny žádné další problémy; OA x NA bez zranění, průjezdné s opatrností.',137.521514667992,87.1118986792594,'{accindet,personal_cars,trucks}'
