ID,od,popis,x,y,ts_flags
4370,2014-09-25 12:20:00,'Od 25.9.2014 13:20 do 15:25; v ulici K Zastávce v obci Třemošná okres Plzeň-sever; nehoda; havárie OA bez zranění, průjezdné s opatrností, vozidlo v příkopu.',137.529252979104,87.0350179989703,'{accindet,personal_cars}'
4371,2014-09-25 13:10:00,'Od 25.9.2014 14:10 do 15:15; v ulici Americká v obci Třemošná okres Plzeň-sever; všechny nehody byly odstraněny, nejsou hlášeny žádné další problémy; 2 x OA bez zranění, průjezdné.',137.521633423548,87.0113294149581,'{accindet,personal_cars}'
4372,2014-09-25 13:50:00,'Od 25.9.2014 14:50 do 16:55; v ulici Folmavská v obci Plzeň; nehoda; 2 havarovaná vozidla; dodávka x OA bez zranění, průjezdné.',137.480419556875,87.1176560881902,'{accindet,personal_cars}'
4373,2014-09-25 13:50:00,'Od 25.9.2014 14:50 do 16:55; v ulici Barákova v obci Plzeň; křiž. s ul. U Světovaru; nehoda; 2 x OA bez zranění, na místo PČR.',137.536105956883,87.1167451540684,'{accindet,personal_cars}'
4374,2014-09-25 13:50:00,'Od 25.9.2014 14:50 do 16:55; na silnici 20 v obci Chválenice okres Plzeň-město; nehoda; 2 havarovaná vozidla; OA x dodávka bez zranění, průjezdné s opatrnosdtí.',137.582632534667,87.2136845587175,'{accindet,personal_cars}'
4375,2014-09-25 14:30:00,'Od 25.9.2014 15:30 do 17:35; na silnici u obce Plzeň; mezi obcemi Plzeň-výsluní a Litice; nehoda; havárie OA se zraněním, na místo PČR a RZS.',137.507632356879,87.1451935079077,'{accindet,injury,personal_cars}'
4376,2014-09-25 15:25:00,'Od 25.9.2014 16:25 do 18:30; v ulici Sokolovská v obci Plzeň; nehoda; střet OA s chodcem se zraněním, průjezdné s opatrností.',137.505993956879,87.0714263683175,'{accindet,pedestrian_involvement,injury,personal_cars}'
4377,2014-09-25 16:10:00,'Od 25.9.2014 17:10 do 19:10; na silnici 19 v obci Nezvěstice okres Plzeň-město; pod železničním viaduktem; všechny nehody byly odstraněny, nejsou hlášeny žádné další problémy; havárie OA bez zranění, průjezdné s opatrností.',137.610931201338,87.2178190359672,'{accindet,personal_cars}'
4378,2014-09-25 16:10:00,'Od 25.9.2014 17:10 do 19:10; v ulici Rokycanská v obci Plzeň; směr Praha; všechny nehody byly odstraněny, nejsou hlášeny žádné další problémy; 2 OA x NA bez zranění, průjezdné s opatrností.',137.55539200133,87.1005921952919,'{accindet,personal_cars,trucks}'
4379,2014-09-25 17:00:00,'Od 25.9.2014 18:00 do 20:05; v ulici Třída 1. máje v obci Horní Bříza okres Plzeň-sever; křiž. s ul. U Husa; nehoda; střet OA s cyklistou bez zranění, na místo PČR a ZZS.',137.501993245767,86.994084817319,'{accindet,personal_cars,cyclist}'
