ID,od,popis,x,y,ts_flags
440,2013-05-30 15:45:00,'Od 30.5.2013 16:45 do 18:50; v ulici Klatovská třída v obci Plzeň; křiž. s ul. Borská ve směru do města; nehoda; 2 x OA bez zranění, blokován průjezd, tramvaje stojí.',137.508495645768,87.1077670009376,'{accindet,personal_cars}'
441,2013-05-30 16:15:00,'Od 30.5.2013 17:15 do 18:30; v ulici Mánesova v obci Plzeň; ve směru ke Klatovské třídě; nehoda; 2 x OA bez zranění, bez úniku PK, částečně blokován pravý jízdní pruh.',137.506351645768,87.1151487815523,'{accindet,personal_cars}'
442,2013-05-30 18:35:00,'Od 30.5.2013 19:35 do 20:35; v ulici Tylova v obci Plzeň; křižovatka ulic Tylova x Korandova, průjezd částečně omezen; nehoda; střet 2 OA - bez zranění, bez úniku PK,',137.50424746799,87.1023892885031,'{accindet,personal_cars}'
443,2013-05-30 19:50:00,'Od 30.5.2013 20:50 do 22:55; na silnici 26 u obce Plzeň; asi 100 m  za Plzní ve směru na Rokycany, nepřekáží provozu, stojí  v odstavném pruhu; nehoda; střet NA s OA, bez zranění, bez úniku PK',137.567485867998,87.1009828728751,'{accindet,personal_cars,trucks}'
444,2013-05-30 20:40:00,'D5, mezi km 150 a 20, ve směru Praha, Pozor! Možné nebezpečí akvaplaningu, hustý déšť, Od 30.05.2013 21:40 Do 30.05.2013 22:40, Zvýšené nebezpečí nehody.',136.912716801241,87.2088106262194,{accindet}
445,2013-05-30 22:50:00,'Od 30.5.2013 23:50 do 31.5.2013 13:30; na silnici 20 u obce Úněšov okres Plzeň-sever; Aktuální stav: V 01.55 hod. NN v Uněšově.; nadměrný náklad; Přeprava NN (1 souprava) po trase Plzeň - Lovosice proběhne ve dnech 30. - 31.5.2013 v době od 23.50 do cca 13.00 hod. Rozměry:31 x 3 x 5,45 m, hmotnost 163 tun. Trasa přepravy:  Plzeň Doudlevce, Kozolupy, Město Touškov, Nová Hospoda, Uněšov, Bezvěrov, Toužim, Bochov - hodina přestávka, Bošov, Libkovice, Lubenec,Vroutek, Kryry, Strojetice,  Blšany, Pšov, Žatec, Drahomyšl, Louny, Raná,  Libčeves, Lovosice přístav - konec přepravy.',137.348177779079,86.9479233039644,{accindet}
446,2013-05-31 08:15:00,'Od 31.5.2013 09:15 do 11:20; v ulici Jateční v obci Plzeň; nehoda; probíhá vyšetřování nehody, nebezpečí; DN 2x OA bez zranění, tvoří se kolony, provoz částečně blokován.',137.531265423549,87.0834413830202,'{accindet,personal_cars}'
447,2013-05-31 10:30:00,'Od 31.5.2013 11:30 do 13:35; v ulici Žlutická v obci Plzeň; Žlutická,Plzeň; nehoda; 2xOA bez zraění, bez úniku PHM, překáží provozu',137.500624356878,87.0651243678649,{accindet}
448,2013-05-31 12:00:00,'Od 31.5.2013 13:00 do 15:05; v ulici Husova v obci Plzeň; Husova x Kardinála Berana,Plzeň; nehoda; sražená chodkyně, se zraněním, RZS a PČR jede na místo',137.507977956879,87.1019810136046,'{accindet,injury}'
449,2013-05-31 12:05:00,'Od 31.5.2013 13:05 do 15:10; D5 - 93.7km na trase Rozvadov - Praha; 95 km D5 směr Plzeň; nehoda; 1x OA bez zranění, bez úniku PHM, PČR jede na místo',137.385310579084,87.1497862790952,'{accindet,personal_cars}'
