ID,od,popis,x,y,ts_flags
4410,2014-09-30 10:00:00,'Od 30.9.2014 11:00 do 14:05; v ulici Karlovarská v obci Plzeň; směr Lochotín; nehoda nákladního vozidla; NA s OA bez zranění, průjezdné s opatrností . omezeny dva jízdní pruhy',137.508004979101,87.0869408955882,'{accindet,personal_cars,trucks}'
4411,2014-09-30 10:45:00,'Od 30.9.2014 11:45 do 13:50; na silnici 20 u obce Úněšov okres Plzeň-sever; směr Karlovy Vary; nehoda; 2 havarovaná vozidla; 2 x OA bez zranění, průjezdné s opatrností, jedno vozidlo na střeše',137.318995912408,86.9233877263543,'{accindet,personal_cars}'
4412,2014-09-30 10:50:00,'Od 30.9.2014 11:50 do 14:55; v ulici Na Palcátech v obci Kralovice okres Plzeň-sever; nehoda nákladního vozidla; NA s OA bez zranění, průjezdné s opatrností',137.58617315689,86.8412704221369,'{accindet,personal_cars,trucks}'
4413,2014-09-30 13:10:00,'Od 30.9.2014 14:10 do 16:15; na silnici 201 v obci Kralovice okres Plzeň-sever; - v obci Trojany u Kralovic; nehoda; havárie MOTO se zraněním, průjezdné s opatrností',137.530944001327,86.8409043771444,'{accindet,injury}'
4414,2014-09-30 14:10:00,'Od 30.9.2014 15:10 do 18:15; na silnici 20 u obce Chotíkov okres Plzeň-sever; nehoda; probíhají záchranné a vyprošťovací práce, nebezpečí; kyvadlový provoz jedním jízdním pruhem; havárie OA, vozidlo je na střeše v příkopu, 3 zraněné osoby.',137.48758329021,87.0644206735358,'{accindet,injury,personal_cars}'
4415,2014-09-30 14:40:00,'Od 30.9.2014 15:40 do 17:45; v ulici Kaznějovská v obci Plzeň; nehoda; 2x OA bez zranění, průjezdné',137.51131875688,87.0653776515024,'{accindet,personal_cars}'
4416,2014-09-30 14:55:00,'Od 30.9.2014 15:55 do 18:00; na silnici 27 u obce Přeštice okres Plzeň-jih; směr Klatovy, u čeprací stanice OMV; nehoda; 2 havarovaná vozidla; 2 x OA bez zranění, průjezdné s opatrností',137.475896890208,87.2979636240839,'{accindet,personal_cars}'
4417,2014-09-30 15:10:00,'Od 30.9.2014 16:10 do 18:15; na silnici 26 u obce Chotěšov okres Plzeň-jih; směr Stod; nehoda; 2 havarovaná vozidla; tvorba kolon vozidel s průměrnou rychlostí do 20 km/h, nebezpečí dopravního kolapsu; 2x OA bez zranění, průjezdné s opatrností',137.380497067972,87.2075102500804,'{accindet,personal_cars}'
4418,2014-09-30 18:20:00,Od 30.9.2014 19:20 do 20:20; v ulici Mánesova v obci Plzeň; Křižovatka ul Thámova x Mánesova.; nehoda; 2 havarovaná vozidla; 2 x OA bez zranění a bez úniku provozních kapalin. Místo je částečně průjezdné.,137.505511112434,87.1098026214258,'{accindet,personal_cars}'
4419,2014-10-01 05:40:00,'Od 1.10.2014 06:40 do 07:40; v ulici Karlovarská v obci Plzeň; v místech zastávky B. Němcové ve směru do města.; nehoda; 3 havarovaná vozidla; DN 3 x OA bez zranění, únik provozních kapalin nehlášen.',137.502372267989,87.0772464960564,'{accindet,personal_cars}'
