ID,od,popis,x,y,ts_flags
4430,2014-10-02 07:05:00,'Od 2.10.2014 08:05 do 10:10; v ulici Borská v obci Plzeň; u 5, brány Škodovky; nehoda; cyklista x OA se zraněním, na místo PČR a RZS',137.498281956878,87.1111559910144,'{accindet,injury,personal_cars,cyclist}'
4431,2014-10-02 07:05:00,'Od 2.10.2014 08:05 do 10:10; v ulici Vejprnická v obci Plzeň; u tzv. Myší díry''; nehoda; 2xOA se zraněním, na misto RZS a policie, zvýšená opatrnost',137.489322667988,87.103215732986,'{accindet,injury}'
4432,2014-10-02 08:25:00,'Od 2.10.2014 09:25 do 11:30; v ulici Čechova v obci Plzeň; před poliklinikou; nehoda; 2xOA bez zranění, bez úniku PHM, překáží provozu, zvýšená opatrnost',137.510147556879,87.1159706278088,{accindet}
4433,2014-10-02 11:10:00,'Od 2.10.2014 12:10 do 14:15; v ulici Chválenická v obci Plzeň; u 25. ZŠ; nehoda; 2 x OA bez zranění, bez úniku PHM',137.530717156882,87.1262475888081,'{accindet,personal_cars}'
4434,2014-10-02 12:10:00,'Od 2.10.2014 13:10 do 15:15; v ulici Brožíkova v obci Plzeň; nehoda; 2xOA bez zranění, bez úniku PHM, hlídka jede na místo',137.502296890212,87.1159167186027,{accindet}
4435,2014-10-02 14:55:00,'Od 2.10.2014 15:55 do 18:00; v ulici Plzeňská v obci Chotěšov okres Plzeň-jih; nehoda; OA na střeše, na místo složky IZS',137.38473813464,87.2020470067738,'{accindet,personal_cars}'
4436,2014-10-02 17:25:00,'Od 2.10.2014 18:25 do 20:30; na silnici 182 u obce Otěšice okres Plzeň-jih; nehoda, silný provoz; moto v příkopu se zraněním, na místo PČR a RZS',137.403318045753,87.3159993562084,'{accindet,injury}'
4437,2014-10-02 23:05:00,'Od 3.10.2014 00:05 do 02:50; v ulici Otýlie Beníškové v obci Plzeň; nehoda odstraněna; havárie OA bez zranění, překáží provozu.',137.51327715688,87.0934065193826,'{accindet,personal_cars}'
4438,2014-10-03 06:20:00,'Od 3.10.2014 07:20 do 09:25; na silnici 232 u obce Kozojedy okres Plzeň-sever; nehoda; zvěř na vozovce; překážka na vozovce, průjezd se zvýšenou opatrností; OA x srna, zvýšená opatrnost',137.629719468007,86.8899761765092,'{accindet,personal_cars,animal_hit}'
4439,2014-10-03 07:20:00,Od 3.10.2014 08:20 do 09:20; v ulici Přemyslova v obci Plzeň; přímo naproti vchodu do OC Plaza; nehoda; 2 havarovaná vozidla; 2 x OA bez zranění a bez úniku provozních kapalin.,137.507539912435,87.0984945929611,'{accindet,personal_cars}'
