ID,od,popis,x,y,ts_flags
4480,2014-10-07 21:10:00,'Od 7.10.2014 22:10 do 8.10.2014 00:15; v ulici Kaplířova v obci Plzeň; nehoda; převrácené vozidlo; bez zranění, zvýšená opatrnost, ohrožení BESIP',137.501680356878,87.12257464393,{accindet}
4481,2014-10-08 08:55:00,'Od 8.10.2014 09:55 do 12:00; na silnici 27 u obce Třemošná okres Plzeň-sever; most za odbočkou na Třemošnou; všechny nehody byly odstraněny, nejsou hlášeny žádné další problémy; havárie OA do svodidel, bez zranění.',137.515396979102,87.0197264331227,'{accindet,personal_cars}'
4482,2014-10-08 09:20:00,'Od 8.10.2014 10:20 do 12:25; v ulici Plzeňská v obci Plasy okres Plzeň-sever; před klášterem; nehoda; překážka, která brání provozu na celé vozovce nebo její části; 3 x OA bez zranění, bez úniku.',137.522069334659,86.8939944031196,'{accindet,personal_cars}'
4483,2014-10-08 11:15:00,'Od 8.10.2014 12:15 do 18:10; v ulici Lobezská v obci Plzeň; nehoda; 2 x OA bez zranění, na místo PČR.',137.533220979105,87.1125709407483,'{accindet,personal_cars}'
4484,2014-10-08 12:35:00,'Od 8.10.2014 13:35 do 15:40; v ulici Prešovská v obci Plzeň; nehoda; 2 x OA bez zranění, bez úniku, místo průjezdné.',137.510807467991,87.1006285119201,'{accindet,personal_cars}'
4485,2014-10-08 15:15:00,'Od 8.10.2014 16:15 do 18:20; v ulici Klatovská třída v obci Plzeň; nehoda; 2 x OA bez zranění, na místo PČR.',137.50828586799,87.1081587263701,'{accindet,personal_cars}'
4486,2014-10-08 15:30:00,'Od 8.10.2014 16:30 do 18:35; v ulici Goethova v obci Plzeň; nehoda; 2 x OA bez zranění, na místo PČR.',137.513609245769,87.1032443446831,'{accindet,personal_cars}'
4487,2014-10-08 19:35:00,'Od 8.10.2014 20:35 do 22:40; na silnici 27 u obce Hromnice okres Plzeň-sever; Za Třemošnou ve směru na Horní Břízu.; nehoda; zvěř na vozovce; překážka na vozovce, průjezd se zvýšenou opatrností; střetOA se zvěří, bez zranění osob.',137.523249779103,86.991539716677,'{accindet,animal_hit}'
4488,2014-10-08 19:50:00,'Od 8.10.2014 20:50 do 22:55; v ulici Palackého náměstí v obci Plzeň; nehoda nákladního vozidla; 2 havarovaná vozidla; překážka na vozovce, průjezd se zvýšenou opatrností; OA x NA, bez zranění a úniku provozních kapalin.',137.507460979101,87.0986959927743,'{accindet,personal_cars}'
4489,2014-10-09 00:00:00,'Od 9.10.2014 01:00 do 03:05; D5 - 96km na trase Rozvadov - Praha; před sjezdem Nýřany.; nehoda; zvěř na vozovce; překážka na vozovce, průjezd se zvýšenou opatrností; střet OA se zvěří.',137.367809423526,87.1417340999107,'{accindet,personal_cars,animal_hit}'
