ID,od,popis,x,y,ts_flags
4490,2014-10-09 05:25:00,'Od 9.10.2014 06:25 do 08:30; na silnici 20 u obce Bezvěrov okres Plzeň-sever; ve směru na Plzeň.; nehoda; zvěř na vozovce; překážka na vozovce, průjezd se zvýšenou opatrností; střet OA s divočákem',137.291366401293,86.8321539356403,'{accindet,personal_cars,animal_hit}'
4491,2014-10-09 05:55:00,'Od 9.10.2014 06:55 do 09:00; na silnici 26 u obce Kyšice okres Plzeň-město; na přivaděči ve směru z Plzně.; nehoda; převrácené vozidlo; překážka na vozovce, průjezd se zvýšenou opatrností; převrácené OA, bez zranění osob.',137.595972979114,87.1027062221208,'{accindet,personal_cars}'
4492,2014-10-09 05:55:00,'Od 9.10.2014 06:55 do 09:00; na silnici 27 u obce Dobřany okres Plzeň-jih; za křižovatkou na Dobřany.; nehoda; zvěř na vozovce; překážka na vozovce, průjezd se zvýšenou opatrností; střet OA se zvěří, bez zranění osob.',137.484330667987,87.2080517112178,'{accindet,personal_cars,animal_hit}'
4493,2014-10-09 06:35:00,'Od 9.10.2014 07:35 do 10:05; D5 - 99.5km na trase Praha - Rozvadov; D5, 99,5 km, směr do SRN; nehoda odstraněna; provoz obnoven; Havárie OA bez zranění, únik provozních kapalin nehlášen.',137.349830401301,87.1371505340717,'{accindet,personal_cars,animal_hit}'
4494,2014-10-09 10:35:00,'Od 9.10.2014 11:35 do 12:35; v ulici sady Pětatřicátníků v obci Plzeň; Za kruhovým objezdem ve směru do centra na mostě.; nehoda; 2 havarovaná vozidla; DN 2 x OA bez zranění, únik provozních kapalin nehlášen.',137.511003734657,87.0954635990924,'{accindet,personal_cars}'
4495,2014-10-09 12:50:00,'Od 9.10.2014 13:50 do 14:50; v ulici Alešova v obci Plzeň; Křižovatka ul. Alešova x Edwarda Beneše.; nehoda; 2 havarovaná vozidla; DN OA x kolo se zraněním, únik provozních kapalin nehlášen.',137.510963201324,87.1157560908494,'{accindet,injury,personal_cars}'
4496,2014-10-09 12:55:00,'Od 9.10.2014 13:55 do 14:55; v ulici Staniční v obci Plzeň; Křižovatka s ul. V Malé Doubravce; nehoda; 2 havarovaná vozidla; DN 2 x OA se zraněním, únik provozních kapalin nehlášen.',137.536290134661,87.0958928352636,'{accindet,injury,personal_cars}'
4497,2014-10-09 14:00:00,Od 9.10.2014 15:00 do 16:00; na silnici v obci Chocenice okres Plzeň-jih; V obci Chocenická Lhota u hospody.; nehoda; 2 havarovaná vozidla; DN Oa x NA bez zranění a bez úniku provozních kapalin.,137.60466133467,87.2983364152752,'{accindet,personal_cars,trucks}'
4498,2014-10-09 14:30:00,Od 9.10.2014 15:30 do 16:30; v ulici Klatovská třída v obci Plzeň; Křižovatka ul Klatovská třída x U Trati.; nehoda; 2 havarovaná vozidla; DN 2 x OA bez zranění a bez úniku proovzních kapalin. Místo s optarností průjezdné.,137.508417423546,87.1082390517358,'{accindet,personal_cars}'
4499,2014-10-09 14:35:00,'Od 9.10.2014 15:35 do 16:35; na silnici 2046 u obce Kunějovice okres Plzeň-sever; Mezi obcemi Všeruby a Kunějovice.; nehoda; 2 havarovaná vozidla; DN NA x OA bez zranění, únik provozních kapalin, místo je s optrností průjezdné.',137.409528890199,86.9851168774175,'{accindet,personal_cars,trucks}'
