ID,od,popis,x,y,ts_flags
4500,2014-10-09 15:50:00,Od 9.10.2014 16:50 do 17:50; v ulici Samaritská v obci Plzeň; Na křižovatce s ul . E. Beneše na seamforech.; nehoda; 2 havarovaná vozidla; DN 2 x Oa bez zranění a bez úniku provozních kapalin.,137.512491379102,87.1201159727411,'{accindet,personal_cars}'
4501,2014-10-09 17:00:00,Od 9.10.2014 18:00 do 20:00; v ulici Jateční v obci Plzeň; U vjezdu k BČS Luk Oil.; nehoda; 2 havarovaná vozidla; DN 2 x OA bez zranění a bez úniku provozních kapalin.,137.533344001327,87.0868902594204,'{accindet,personal_cars}'
4502,2014-10-09 19:20:00,'Od 9.10.2014 20:20 do 21:20; na silnici 19 u obce Nezbavětice okres Plzeň-město; asi v polovině mezi Losinou a Nezvěsticemi; nehoda; havarované vozidlo; havárie OA do vodního příkopu, bez zranění a bez úniku provozních kapalin. Na místo vyslána hlídka PČR.',137.594686579113,87.1994338106254,'{accindet,personal_cars}'
4503,2014-10-10 04:30:00,'Od 10.10.2014 05:30 do 06:30; na silnici 19315 u obce Křelovice okres Plzeň-sever; ve směru od Úněšova; nehoda; havarované vozidlo; Havárie OA do můstku, bez zranění, únik provozních kapalin nehlášen.',137.30783644574,86.960015828498,'{accindet,personal_cars}'
4504,2014-10-10 04:40:00,Od 10.10.2014 05:40 do 06:40; v ulici Kotkova v obci Plzeň; Křiž. s ul . Husova; nehoda; 2 havarovaná vozidla; 2 x OA bez zranění a bez úniku provozních kapalin.,137.50433706799,87.1014648880381,'{accindet,personal_cars}'
4505,2014-10-10 10:50:00,'Od 10.10.2014 11:50 do 14:55; na silnici 27 u obce Chlumčany okres Plzeň-jih; u odbočky na Vysokou; nehoda nákladního vozidla; 2 havarovaná vozidla; OA s kamionem, bez zranění, průjezdné s opatrností.',137.480293690209,87.2282740484293,'{accindet,personal_cars}'
4506,2014-10-10 12:05:00,'Od 10.10.2014 13:05 do 15:10; v ulici U Prazdroje v obci Plzeň; nehoda, silný provoz; 2 havarovaná vozidla; 2 x OA bez zranění, průjezdné,',137.526129067993,87.0993177961464,'{accindet,personal_cars}'
4507,2014-10-10 13:10:00,'Od 10.10.2014 14:10 do 15:00; v ulici Slovanská v obci Plzeň; křižovatka s Jedlovou; nehoda odstraněna; provoz obnoven; - 2 x OA bez zranění, průjezdné s opatrností',137.521833956881,87.1131507732373,'{accindet,personal_cars}'
4508,2014-10-10 14:00:00,'Od 10.10.2014 15:00 do 17:05; na silnici 27 u obce Plzeň; sjezd Na Výsluní, přivaděč na Klatovy; nehoda; 2 havarovaná vozidla; 2 x OA bez zranění, průjezd  s opatrností',137.503032179101,87.1420145116367,'{accindet,personal_cars}'
4509,2014-10-10 14:30:00,'Od 10.10.2014 15:30 do 17:35; na silnici 27 u obce Výrov okres Plzeň-sever; v obci Hadačka; nehoda; 2 havarovaná vozidla; 2 x OA bez zranění, průjezdné s opatrností.',137.570530845777,86.8568145041527,'{accindet,personal_cars}'
