ID,od,popis,x,y,ts_flags
4510,2014-10-10 14:45:00,'Od 10.10.2014 15:45 do 18:50; na silnici 203 u obce Heřmanova Huť okres Plzeň-sever; nehoda nákladního vozidla; 2 havarovaná vozidla; NA s OA bez zranění, průjezdné s opatrností.',137.325890845743,87.1407476987308,'{accindet,personal_cars,trucks}'
4511,2014-10-10 15:05:00,'Od 10.10.2014 16:05 do 18:10; na silnici v obci Čeminy okres Plzeň-sever; nehoda; 3 havarovaná vozidla; 3 x OA bez zranění, průjezdné s opatrností',137.424458667979,87.0415505117524,'{accindet,personal_cars}'
4512,2014-10-10 18:20:00,'Od 10.10.2014 19:20 do 21:25; v ulici Klatovská třída v obci Plzeň; křižovatka Edvarda Beneše, Thámova x Klatovská; nehoda; DN dvou OA bez zranění. Místo průjezdné s opatrností.',137.508011379101,87.1099720695781,'{accindet,personal_cars}'
4513,2014-10-11 04:50:00,'Od 11.10.2014 05:50 do 07:55; na silnici 191 u obce Vrčeň okres Plzeň-jih; silnice č. 191 mezi Vrčení a Čečkovicemi; nehoda; střet OA se zvěří bez zranění, na místo PČR',137.698996623572,87.3556353480802,'{accindet,personal_cars,animal_hit}'
4514,2014-10-11 04:55:00,'Od 11.10.2014 05:55 do 08:00; na silnici 20 u obce Klášter okres Plzeň-jih; silnice č. 20 1 km od  Nepomuka směrem na Plzeň; nehoda; havárie dodávky, bez zranění, na místo PČR',137.649351823565,87.3812968134697,{accindet}
4515,2014-10-11 09:00:00,'Od 11.10.2014 10:00 do 12:05; v ulici Nepomucká v obci Plzeň; nehoda; 2xOA bez zranění, bez úniku PHM, vozovka průjezdná',137.530155379104,87.12741355023,{accindet}
4516,2014-10-11 11:30:00,'Od 11.10.2014 12:30 do 13:30; v ulici sady Pětatřicátníků v obci Plzeň; nehoda nákladního vozidla; Pozor! Silný provoz; NA x OA, bez zranění a úniku kapalin',137.510418490213,87.0984560737846,'{accindet,personal_cars,trucks}'
4517,2014-10-11 13:05:00,'Od 11.10.2014 14:05 do 16:10; v ulici Klatovská třída v obci Plzeň; nehoda; 2xOA bez zranění, bez úniku PHM',137.503018667989,87.1250222019163,{accindet}
4518,2014-10-11 23:25:00,'Od 12.10.2014 00:25 do 02:30; na silnici 27 u obce Dolní Lukavice okres Plzeň-jih; nehoda; OA v poli, na místo HZS a PČR.',137.47708871243,87.2719956179024,'{accindet,personal_cars}'
4519,2014-10-12 04:10:00,'Od 12.10.2014 05:10 do 07:15; na silnici 20 u obce Chotíkov okres Plzeň-sever; nehoda; OA x srna bez zranění, bez úniku PHM',137.458458312428,87.0384810245116,'{accindet,personal_cars,animal_hit}'
