ID,od,popis,x,y,ts_flags
4520,2014-10-12 08:00:00,'Od 12.10.2014 09:00 do 10:05; na silnici 183 v obci Nebílovy okres Plzeň-jih; nehoda; havarované vozidlo; probíhá vyšetřování nehody; traktor s vlekem x zeď, se zraněním, na místě PČR, ZZS.',137.55127040133,87.2275241927726,'{accindet,injury}'
4521,2014-10-12 11:35:00,'Od 12.10.2014 12:35 do 13:40; v ulici Lidická v obci Plzeň; nehoda; 2 havarovaná vozidla; probíhá vyšetřování nehody; OA x motocykl, se zraněním, na místě PČR, ZZS, HZS.',137.512481423546,87.0731220442696,'{accindet,injury,personal_cars}'
4522,2014-10-12 12:40:00,'Od 12.10.2014 13:40 do 15:45; na silnici 180 u obce Štěnovice okres Plzeň-jih; na kruhovém objezdu, směrem na Dobřany.; nehoda; 2 havarovaná vozidla; překážka na vozovce, průjezd se zvýšenou opatrností; 2 x OA bez zranění, na místě PČR.',137.525427201326,87.1796445070092,'{accindet,personal_cars}'
4523,2014-10-12 13:55:00,'Od 12.10.2014 14:55 do 17:00; v ulici Kaznějovská v obci Plzeň; Před domem č. 38.; nehoda; 2 havarovaná vozidla; 2 x OA bez zranění, na místě PČR.',137.511196445768,87.065626529036,'{accindet,personal_cars}'
4524,2014-10-12 15:10:00,'Od 12.10.2014 16:10 do 17:15; v ulici Slovanská v obci Plzeň; Křižovatka s ul.  Sladkovského.; nehoda; neprůjezdný pruh, 2 havarovaná vozidla; 2 x OA bez zranění, na místě PČR.',137.520522667992,87.1109491367453,'{accindet,personal_cars}'
4525,2014-10-12 16:10:00,'Od 12.10.2014 17:10 do 18:15; v ulici K Plzenci v obci Plzeň; nehoda; havarované vozidlo; probíhá vyšetřování nehody; havárie Motocyklu, se zraněním, na místě PČR, ZZS.',137.546337423551,87.153689329438,'{accindet,injury}'
4526,2014-10-12 18:15:00,'Od 12.10.2014 19:15 do 21:20; na silnici 27 u obce Kaznějov okres Plzeň-sever; Na výjezdu směrem na Plzeň.; nehoda; Pozor! Zvířata na vozovce; probíhá vyšetřování nehody; OA x Pes, bez zranění osob, na místě PČR.',137.518570667992,86.94546429464,'{accindet,personal_cars,animal_hit}'
4527,2014-10-12 18:30:00,'Od 12.10.2014 19:30 do 21:35; v ulici Univerzitní v obci Plzeň; Univerzitní ulice z Plzni u BČS Benzina; nehoda; střet OA a moto bez zranění, na místo PČR',137.496236801322,87.1266765775742,'{accindet,personal_cars}'
4528,2014-10-13 07:50:00,'Od 13.10.2014 08:50 do 11:55; v ulici Plaská v obci Plzeň; křiž. s ul. Studentská x Lidická; nehoda nákladního vozidla; NA x OA bez zranění, průjezdné s opatrností.',137.514218667991,87.069162446824,'{accindet,personal_cars,trucks}'
4529,2014-10-13 10:25:00,'Od 13.10.2014 11:25 do 14:30; v ulicích Lidická, Karlovarská v obci Plzeň , délka 37m; nehoda nákladního vozidla; NA x dodávka bez zranění, průjezdné.',137.506931912434,87.0853931684067,'{accindet,trucks}'
