ID,od,popis,x,y,ts_flags
4550,2014-10-15 07:50:00,'D5, km 106, ve směru Rozvadov, silnice uzavřena, nehoda, Od 15.10.2014 08:50 Do 15.10.2014 11:50',137.286811734626,87.1393895803442,{accindet}
4551,2014-10-15 12:20:00,'Od 15.10.2014 13:20 do 14:30; v ulici náměstí Milady Horákové v obci Plzeň; všechny nehody byly odstraněny, nejsou hlášeny žádné další problémy; střet 2 OA, bez zranění, bez úniku',137.529027556882,87.1247043007235,'{accindet,personal_cars}'
4552,2014-10-15 12:30:00,Od 15.10.2014 13:30 do 15:35; na silnici 27 u obce Kralovice okres Plzeň-sever; ve směru na Vysoká Libyně; nehoda; sjetí OA do příkopu,137.580844090223,86.8105094325638,'{accindet,personal_cars}'
4553,2014-10-15 12:40:00,'Od 15.10.2014 13:40 do 15:50; v ulici Domažlická v obci Plzeň; ve směru do města; všechny nehody byly odstraněny, nejsou hlášeny žádné další problémy; střet NA s dodávkou, bez zranění, bez úniku,',137.497581512433,87.1020646496872,'{accindet,trucks}'
4554,2014-10-15 14:50:00,'Od 15.10.2014 15:50 do 17:55; na silnici 27 v obci Plzeň; výjezd z Plzně ve směru na Třemošnou; nehoda; střet 2 OA, bez zranění, bez úniku',137.517779912436,87.0552090205626,'{accindet,personal_cars}'
4555,2014-10-16 03:45:00,'Od 16.10.2014 04:45 do 06:05; na silnici 26 u obce Zbůch okres Plzeň-sever; silnice č. 26 mezi Líněmi a Zbůchem; všechny nehody byly odstraněny, nejsou hlášeny žádné další problémy; střet OA se zvěří bez zranění, na místo PČR',137.4195448902,87.1633434813604,'{accindet,personal_cars,animal_hit}'
4556,2014-10-16 04:20:00,'Od 16.10.2014 05:20 do 06:35; na silnici 117 u obce Blovice okres Plzeň-jih; silnice č. 117 mezi Blovicemi a Štítovem; všechny nehody byly odstraněny, nejsou hlášeny žádné další problémy; Střet OA se zvěří bez zranění, na místo PČR',137.640676268009,87.2726472204351,'{accindet,personal_cars,animal_hit}'
4557,2014-10-16 04:25:00,'Od 16.10.2014 05:25 do 07:30; na silnici 117 u obce Blovice okres Plzeň-jih; za obcí ve směru na Štítov; nehoda; překážka, která brání provozu na celé vozovce nebo její části; střet s divočákem',137.63905777912,87.2752634234461,'{accindet,animal_hit}'
4558,2014-10-16 04:45:00,'Od 16.10.2014 05:45 do 07:30; na silnici 203 u obce Blatnice okres Plzeň-sever; u hřbitova; všechny nehody byly odstraněny, nejsou hlášeny žádné další problémy; střet 2 OA, bez zranění, objížďka po místní komunikaci',137.358057956858,87.1350521677882,'{accindet,personal_cars}'
4559,2014-10-16 06:05:00,'Od 16.10.2014 07:05 do 09:10; na silnici 232 u obce Kozojedy okres Plzeň-sever; u odbočky na Bohy; nehoda; překážka, která brání provozu na celé vozovce nebo její části; střet se zvěří, bez zranění, bez úniku',137.631138134674,86.8818272053768,'{accindet,animal_hit}'
