ID,od,popis,x,y,ts_flags
4590,2014-10-20 06:45:00,Od 20.10.2014 07:45 do 08:45; v ulici Husova v obci Plzeň; V ul. Husova naproti autobusovému nádraží.; nehoda; 2 havarovaná vozidla; DN 2 x Oa bez zranění a bez úniku provozních kapalin.,137.501152001323,87.1010599075541,'{accindet,personal_cars}'
4591,2014-10-20 06:50:00,'Od 20.10.2014 07:50 do 08:50; v ulici Rokycanská v obci Plzeň; V ul. Rokycanská u divadla Alfa ve směru do centra.; nehoda; 2 havarovaná vozidla; DN 2 x OA se zraněním, únik provozních kapalin nehlášen.',137.534219379105,87.098768628586,'{accindet,injury,personal_cars}'
4592,2014-10-20 08:10:00,Od 20.10.2014 09:10 do 11:10; v ulici Vejprnická v obci Plzeň; V ul. Vejprnická u bývalého učiliště.; nehoda; 2 havarovaná vozidla; DN 2 x OA bez zranění a bez úniku provozních kapalin. Místo je průjezdné.,137.480023467986,87.1059282737727,'{accindet,personal_cars}'
4593,2014-10-20 08:45:00,Od 20.10.2014 09:45 do 10:45; v ulici Otýlie Beníškové v obci Plzeň; U směnárny mezi dvěma světelnými křižovatkami.; nehoda; 2 havarovaná vozidla; DN Oa x NA se zraněním ruky bez úniku provozních kapalin.,137.513112179102,87.0930411015332,'{accindet,injury,personal_cars,trucks}'
4594,2014-10-20 08:55:00,'Od 20.10.2014 09:55 do 10:55; na silnici 27 u obce Plzeň; Ve směru na Plzeň v místě připojovacího pruhu od Třemošné.; nehoda; 2 havarovaná vozidla; DN 2 x OA bez zranění, únik provozních kapalin nehlášen.',137.520468623547,87.0389096175104,'{accindet,personal_cars}'
4595,2014-10-20 09:00:00,'Od 20.10.2014 10:00 do 11:00; v ulici Plachého v obci Plzeň; U domu čp. 878/21 v ul. Plachého; nehoda; havarované vozidlo; Havárie 1 x OA bez zranění, únik provozních kapalin nehlášen.',137.506726401323,87.1044537250862,'{accindet,personal_cars}'
4596,2014-10-20 09:05:00,'Od 20.10.2014 10:05 do 11:05; v ulici Havlíčkova v obci Chotěšov okres Plzeň-jih; V Cjhotěšově přímo na návsi.; nehoda; 3 havarovaná vozidla; DN 3 x OA bez zranění, únik chaldící kapaliny, místo jedním pruhem průjezdné.',137.388800712418,87.2018976219539,'{accindet,personal_cars}'
4597,2014-10-20 10:15:00,'Od 20.10.2014 11:15 do 12:15; na silnici 18018 u obce Tymákov okres Plzeň-město , délka 587m; Mezi obcemi Letkov a Tymákov bez bližšího určení.; nehoda; 2 havarovaná vozidla; DN 2 x OA bez zranění a bez úniku provozních kapalin.  Místo je zcela průjezdné.',137.594139023558,87.1252829014822,'{accindet,personal_cars}'
4598,2014-10-20 10:35:00,Od 20.10.2014 11:35 do 12:35; na silnici 18211 u obce Nezdice okres Plzeň-jih; Před křižovatkou na Zálesí ve směru na Kbel.; nehoda; 2 havarovaná vozidla; DN OA x NA bez zranění a bez úniku provozních kapalin.,137.495306667988,87.3383722339375,'{accindet,personal_cars,trucks}'
4599,2014-10-20 12:50:00,'Od 20.10.2014 13:50 do 17:00; D5 - 91.9km na trase Rozvadov - Praha; Na km 92 ve směru Rozvadov - Praha; nehoda; 3 havarovaná vozidla; DN 2 x OA, bez zranění, únik provozních kapalin nehlášen. Vozidla v odstavném pruhu.',137.415616001311,87.1421948540865,'{accindet,personal_cars}'
