ID,od,popis,x,y,ts_flags
4620,2014-10-22 05:55:00,'Od 22.10.2014 06:55 do 08:00; na silnici 20 u obce Úněšov okres Plzeň-sever; nehoda; - srážka OA se zvěří, na místo PČR',137.315557690186,86.9200861628551,'{accindet,personal_cars,animal_hit}'
4621,2014-10-22 10:45:00,'Od 22.10.2014 11:45 do 13:50; v ulici Rokycanská v obci Plzeň; nehoda; požár vozidla; hořící OA bez zranění, zvýšená opatrnost.',137.538274134661,87.0993144945547,'{accindet,personal_cars}'
4622,2014-10-22 12:45:00,'Od 22.10.2014 13:45 do 15:50; na silnici 182 u obce Líšina okres Plzeň-jih; nehoda; OA x traktor bez zranění, bez úniku PHM, překáží provozu.',137.360574579081,87.254398251916,'{accindet,personal_cars}'
4623,2014-10-22 13:15:00,'Od 22.10.2014 14:15 do 16:20; na silnici 02011 u obce Prádlo okres Plzeň-jih; nehoda; OA x dodávka se zraněním, na místo RZS a PČR.',137.605816890226,87.3595069815095,'{accindet,injury,personal_cars}'
4624,2014-10-22 14:50:00,'Od 22.10.2014 15:50 do 17:55; na silnici 27 v obci Borovy okres Plzeň-jih; nehoda; 2 x OA bez zranění, blokují provoz.',137.457737956872,87.3459523014534,'{accindet,personal_cars}'
4625,2014-10-22 16:55:00,'Od 22.10.2014 17:55 do 20:00; na silnici u obce Horní Bříza okres Plzeň-sever; nehoda; střet OA se srnou, únik PHM, překáží provozu.',137.519787379103,86.9775119144365,'{accindet,personal_cars,animal_hit}'
4626,2014-10-22 17:08:00,'silnice III/1804 (ulice Tovární), Horní Bříza, část obce U Šamotky, okr. Plzeň-sever, nehoda, Od 22.10.2014 18:08 Do 22.10.2014 19:08',137.513759290213,86.9863245273222,{accindet}
4627,2014-10-22 18:10:00,'D5, km 75.5, ve směru Rozvadov, porouchané vozidlo, zdržení, Od 22.10.2014 19:10 Do 22.10.2014 22:15, nehoda nákladního vozidla; odstavený kamion, prasklá pneu, čeká na servis.',137.550084979107,87.16373809701,{accindet}
4628,2014-10-22 18:20:00,'Od 22.10.2014 19:20 do 21:25; v ulici Masarykova v obci Plzeň; nehoda; 2 x OA bez zranění, bez úniku PHM.',137.541538134662,87.091842469401,'{accindet,personal_cars}'
4629,2014-10-22 18:55:00,'D5 - 75km na trase Praha - Rozvadov, porouchané vozidlo, zdržení, Od 22.10.2014 19:55 Do 22.10.2014 23:00, nehoda nákladního vozidla; neprůjezdná zpevněná krajnice; překážka na vozovce, průjezd se zvýšenou opatrností; odstavený NA, zvýšená opatrost, ohrožení BESIP',137.550717867996,87.1547744367188,{accindet}
