ID,od,popis,x,y,ts_flags
4750,2014-11-06 13:50:00,'Od 6.11.2014 13:50 do 14:50; na silnici 203 u obce Tlučná okres Plzeň-sever; v esíčku mezi Vejprnicemi a Tlučnou; nehoda; havarované vozidlo; Havárie OA bez zranění, únik provozních kapalin nehlášen, vozidlo v příkopu mimo vozovku. Na místo vyslána hlídka PČR.',137.423407645756,87.1223337321584,'{accindet,personal_cars}'
4751,2014-11-06 13:55:00,'Od 6.11.2014 13:55 do 14:55; v ulici Riegrova v obci Plzeň; Křiž. s nám. Republiky; nehoda; havarované vozidlo; havárie OA do dopravní značky, bez zranění a bez úniku provozních kapalin.',137.512285867991,87.0999131798445,'{accindet,personal_cars}'
4752,2014-11-06 16:27:00,'křižovatka ulic Husova -  Skrétova, Plzeň 3, Plzeň, nehoda, Od 06.11.2014 16:27 Do 06.11.2014 17:57, DOPRAVNÍ NEHODA,  2 x osobní, boční náraz, všichni venku',137.506695823546,87.1018159420045,{accindet}
4753,2014-11-06 16:30:00,'Od 6.11.2014 16:30 do 18:30; v ulici Husova v obci Plzeň; Křiž. s ul. Skrétova; nehoda; 3 havarovaná vozidla; 3 x OA se zraněním, únik provozních kapalin nehlášen.',137.50706346799,87.10186986545,'{accindet,injury,personal_cars}'
4754,2014-11-06 17:40:00,Od 6.11.2014 17:40 do 18:40; v ulici Univerzitní v obci Plzeň; u BČS; nehoda; 2 havarovaná vozidla; 2 x OA bez zranění a bez úniku provozních kapalin. Místo je průjezdné.,137.495311645766,87.1266281790141,'{accindet,personal_cars}'
4755,2014-11-06 19:25:00,Od 6.11.2014 19:25 do 20:25; v ulici Karlovarská v obci Plzeň; nad BČS Shell; nehoda; 2 havarovaná vozidla; 2 x OA bez zranění a bez úniku provozních kapalin. Místo je průjezdné.,137.508003556879,87.0869309885156,'{accindet,personal_cars}'
4756,2014-11-06 21:20:00,'Od 6.11.2014 21:20 do 22:20; v ulici Borská v obci Plzeň; Křižovatka s ul. Hřímalého.; nehoda; 2 havarovaná vozidla; probíhá vyšetřování nehody; 2 x OA, bez zranění a úniku provozních kapalin. Na místě PČR.',137.507275379101,87.1080123798454,'{accindet,personal_cars}'
4757,2014-11-06 22:35:00,'Od 6.11.2014 22:35 do 23:35; v ulici Křimická v obci Plzeň; Křižovatka s ul. Vejprnická.; nehoda; havarované vozidlo; překážka na vozovce, průjezd se zvýšenou opatrností; Srážka OA s pevnou překážkou, bez zranění a úniku provozních kapalin.',137.493609245766,87.10186986545,'{accindet,personal_cars}'
4758,2014-11-07 05:50:00,'Od 7.11.2014 05:50 do 06:50; na silnici 180 u obce Město Touškov okres Plzeň-sever; Za horizontem ve směru na Čeminy.; nehoda; havarované vozidlo; překážka na vozovce, průjezd se zvýšenou opatrností; Srážka OA se zvěří, bez zranění osob a únik provozních kapalin. Na místě PČR.',137.422477512423,87.0534103379343,'{accindet,personal_cars,animal_hit}'
4759,2014-11-07 06:30:00,'Od 7.11.2014 06:30 do 07:30; v ulici Klatovská třída v obci Plzeň; U domu čp. 416/22.; nehoda; 3 havarovaná vozidla; překážka na vozovce, průjezd se zvýšenou opatrností; 3 x OA, bez zranění a  úniku provozních kapalin. Částečně blokují provoz.',137.508829156879,87.105224016794,'{accindet,personal_cars}'
