ID,od,popis,x,y,ts_flags
4770,2014-11-08 09:35:00,'Od 8.11.2014 09:35 do 10:50; v ulici Karlovarská v obci Plzeň; pod rondelem ve směru do Plzně; všechny nehody byly odstraněny, nejsou hlášeny žádné další problémy; střet 2 OA, bez zranění, bez úniku kapalin',137.511409779102,87.0918886981366,'{accindet,personal_cars}'
4771,2014-11-08 12:00:00,'Od 8.11.2014 12:00 do 12:30; D5 - 69km na trase Praha - Rozvadov; všechny nehody byly odstraněny, nejsou hlášeny žádné další problémy; havárie OA, bez zranění, bez úniku kapalin',137.593397334669,87.1205329097411,'{accindet,personal_cars}'
4772,2014-11-08 12:15:00,'Od 8.11.2014 12:15 do 14:20; v ulici Radčická v obci Plzeň; nehoda; překážka, která brání provozu na celé vozovce nebo její části; střet 2 OA, bez  zranění a úniku PK',137.498806045767,87.0934901688999,'{accindet,personal_cars}'
4773,2014-11-08 12:50:00,'Od 8.11.2014 12:50 do 14:50; na silnici 20 u obce Líšťany okres Plzeň-sever; odbočka na Všeruby; všechny nehody byly odstraněny, nejsou hlášeny žádné další problémy; zadní střet 2 OA, bez zranění, bez úniku',137.393891556863,86.9986586356029,'{accindet,personal_cars}'
4774,2014-11-08 13:30:00,'Od 8.11.2014 13:30 do 14:50; na silnici 180 u obce Chotěšov okres Plzeň-jih; mezi obcemi Chotěšov - Vodní Újezd; všechny nehody byly odstraněny, nejsou hlášeny žádné další problémy; střet 2 OA',137.417294934644,87.1975784626759,'{accindet,personal_cars}'
4775,2014-11-08 17:15:00,Od 8.11.2014 17:15 do 19:15; na silnici 230 u obce Žinkovy okres Plzeň-jih; u obce Březí; nehoda; střet OA se zvěří,137.570455467999,87.3686148951723,'{accindet,personal_cars,animal_hit}'
4776,2014-11-08 19:20:00,'Od 8.11.2014 19:20 do 21:25; v ulici Americká v obci Plzeň; křižovatka s ulicí Škroupova; nehoda; překážka, která brání provozu na celé vozovce nebo její části; střet 2 OA, bez zranění',137.511468801324,87.1040707759298,'{accindet,personal_cars}'
4777,2014-11-08 19:25:00,Od 8.11.2014 19:25 do 21:30; na silnici 20 u obce Bezvěrov okres Plzeň-sever; ve směru na Plzeň; nehoda; střet se zvěří,137.298767645739,86.8601697404316,'{accindet,animal_hit}'
4778,2014-11-08 20:25:00,'Od 8.11.2014 20:25 do 22:30; na silnici 201 u obce Manětín okres Plzeň-sever; za obcí Manětín ve směru na Kralovice; nehoda; překážka, která brání provozu na celé vozovce nebo její části; střet se zvěří',137.417966934644,86.8376032231805,'{accindet,animal_hit}'
4779,2014-11-08 23:05:00,'Od 8.11.2014 23:05 do 9.11.2014 01:10; na silnici 26 u obce Stod okres Plzeň-jih; před obcí ve směru od Plzně; nehoda; překážka, která brání provozu na celé vozovce nebo její části; střet s divočákem',137.36987235686,87.2105952970466,'{accindet,animal_hit}'
