ID,od,popis,x,y,ts_flags
4810,2014-11-13 19:53:00,'silnice I/27 (ulice Plaská), Plzeň 1, Plzeň, nehoda, Od 13.11.2014 19:53 Do 13.11.2014 21:00, DN OA',137.51464675688,87.0680954193946,'{accindet,personal_cars}'
4811,2014-11-13 21:20:00,Od 13.11.2014 21:20 do 22:20; v ulici Klatovská třída v obci Plzeň; křiž. s ul. U Borského parku; nehoda; 2 havarovaná vozidla; 2 x OA bez zranění a bez úniku provozních kapalin. Vozidla překáží provozu.,137.504504890212,87.1229145586906,'{accindet,personal_cars}'
4812,2014-11-14 06:20:00,'Od 14.11.2014 06:20 do 07:20; na silnici 27 u obce Horní Bříza okres Plzeň-sever; u odbočky na obec Obora, mezi Třemošnou a Kaznějovem; nehoda; havarované vozidlo; Srážka OA s prasetem, bez zranění osob, únik provozních kapalin nehlášen. Na místo hlídka PČR.',137.522061512437,86.9842786750968,'{accindet,personal_cars,animal_hit}'
4813,2014-11-14 09:05:00,'Od 14.11.2014 09:05 do 11:10; v ulici U Prazdroje v obci Plzeň; nehoda; 2xOA bez zranění, bez úniku PHM, překáží provozu.',137.524829156881,87.0994355527835,{accindet}
4814,2014-11-14 11:50:00,'Od 14.11.2014 11:50 do 14:55; v ulici Mánesova v obci Plzeň; nehoda; jízdní pruh uzavřen; 2x OA, bez zranění, blokují 1 jízdní pruh.',137.505681779101,87.1104672072015,'{accindet,personal_cars}'
4815,2014-11-14 13:55:00,'Od 14.11.2014 13:55 do 16:00; v ulici Na Jordáně v obci Přeštice okres Plzeň-jih; nehoda; OA x sloup bez zranění, na místo hlídka policie.',137.483007290209,87.2896551890176,'{accindet,personal_cars}'
4816,2014-11-14 14:30:00,'Od 14.11.2014 14:30 do 16:35; v ulici Tomanova v obci Plzeň; nehoda; dodávka x OA bez zranění, bez úniku PHM, na místo PČR',137.504143645767,87.1130231446151,'{accindet,personal_cars}'
4817,2014-11-14 14:40:00,'Od 14.11.2014 14:40 do 16:45; v ulici Vejprnická v obci Plzeň; nehoda; 3xOA bez zranění, překáží provozu',137.481129245764,87.1057191984517,{accindet}
4818,2014-11-14 14:55:00,'Od 14.11.2014 14:55 do 17:00; v ulici Plzeňská v obci Líně okres Plzeň-sever; nehoda; 2xOA bez zranění, bez úniku PHM, překáží provozu.',137.429875912424,87.1554615499933,{accindet}
4819,2014-11-14 16:25:00,'Od 14.11.2014 16:25 do 18:30; v ulici Jateční v obci Plzeň; nehoda; 3xOA bez zranění, únik kapaliny, překáží provozu, zvýšená opatrnost',137.530653867993,87.0967689065841,{accindet}
