ID,od,popis,x,y,ts_flags
4840,2014-11-17 14:25:00,'Od 17.11.2014 14:25 do 16:30; na silnici u obce Úněšov okres Plzeň-sever; nehoda; havárie OA do příkopu, bez zranění, bez úniku PHM.',137.330912001299,86.9371814102667,'{accindet,personal_cars}'
4841,2014-11-17 16:15:00,'Od 17.11.2014 16:15 do 18:20; na silnici 182 u obce Merklín okres Plzeň-jih; nehoda; převrácené vozidlo, zdržení; havárie OA se zraněním, překáží provozu, zvýšená opatrnost, na místo složky IZS.',137.380641423528,87.2958079629302,'{accindet,injury,personal_cars}'
4842,2014-11-17 16:45:00,'Od 17.11.2014 16:45 do 18:50; v ulici sady Pětatřicátníků v obci Plzeň; nehoda; 2 x OA bez zranění, překáží provozu, na místo PČR.',137.510735645768,87.097847467107,'{accindet,personal_cars}'
4843,2014-11-17 17:10:00,'Od 17.11.2014 17:10 do 19:15; na silnici 19 u obce Borovno okres Plzeň-jih; nehoda; havárie OA do příkopu, bez zranění, bez úniku PHM, zvýšená opatrnost.',137.72896355691,87.2390069206494,'{accindet,personal_cars}'
4844,2014-11-17 17:40:00,'Od 17.11.2014 17:40 do 19:45; v ulici K Cihelnám v obci Plzeň; nehoda; DN bez zranění, bez úniku, překáží provozu, na místo PČR.',137.546020267995,87.1671235377027,{accindet}
4845,2014-11-17 18:05:00,'Od 17.11.2014 18:05 do 20:10; na silnici 180 u obce Starý Plzenec okres Plzeň-město; nehoda; OA v příkopu, bez zranění, bez úniku PHM, zvýšená opatrnost.',137.572457245777,87.1410863981795,'{accindet,personal_cars}'
4846,2014-11-18 07:00:00,'Od 18.11.2014 07:00 do 09:05; v ulici Tř. 1. máje v obci Přeštice okres Plzeň-jih; nehoda; OA x chodec, se zraněním, zvýšená opatrnost',137.478559290208,87.2867644240372,'{accindet,pedestrian_involvement,injury,personal_cars}'
4847,2014-11-18 07:25:00,'Od 18.11.2014 07:25 do 08:30; v ulici Zámecká v obci Spálené Poříčí okres Plzeň-jih; nehoda; neprůjezdný pruh, 2 havarovaná vozidla; - 2 x OA, bez zranění, na místo PČR',137.675699201347,87.2451369853412,'{accindet,personal_cars}'
4848,2014-11-18 09:20:00,'Od 18.11.2014 09:20 do 10:25; v ulici Studentská v obci Plzeň; nehoda; neprůjezdný pruh, 2 havarovaná vozidla; 2x OA, bez zranění, na místo PČR',137.503528534656,87.0686680270662,'{accindet,personal_cars}'
4849,2014-11-18 13:00:00,'Od 18.11.2014 13:00 do 16:05; v ulici Plzeňská v obci Plasy okres Plzeň-sever; nehoda; probíhají záchranné a vyprošťovací práce, nebezpečí; neprůjezdná komunikace; NA x OA, se zraněním, na místo PČR, ZZS, HZS',137.516332801325,86.8969374484502,'{accindet,injury,personal_cars,trucks}'
