ID,od,popis,x,y,ts_flags
4960,2014-11-28 10:05:00,Od 28.11.2014 10:05 do 11:05; na silnici u obce Plasy okres Plzeň-sever; Za obcí Lomnička ve směru na Lozu.; nehoda; 2 havarovaná vozidla; 2 x OA bez zranění a bez úniku provozních kaaplin - poškozená zrcátka.,137.46138453465,86.9183513797416,'{accindet,personal_cars}'
4961,2014-11-28 10:35:00,'Od 28.11.2014 10:35 do 11:35; na silnici 20 u obce Starý Plzenec okres Plzeň-město; Na brejlích u OC Olympia ve směru od obce Starý Plzenec.; nehoda; 2 havarovaná vozidla; 2 x OA bez zranění, únik provozních kapalin nehlášen.',137.554244267997,87.1473420547633,'{accindet,personal_cars}'
4962,2014-11-28 12:55:00,Od 28.11.2014 12:55 do 13:55; na silnici v obci Dobřany okres Plzeň-jih; U zadní brány psychiatrické léčebny v Dobřanech.; nehoda; 2 havarovaná vozidla; OA x dodávka bez zranění a bez úniku provozních kapalin.,137.451491556871,87.202071171926,'{accindet,personal_cars}'
4963,2014-11-28 14:40:00,Od 28.11.2014 14:40 do 15:40; na silnici v obci Plzeň; Před BČS OMV v ul. U Prazdroje.; nehoda; 2 havarovaná vozidla; NA x OA bez zranění a bez úniku provozních kapalin. vozidla brání provozu.,137.522158934659,87.1005217629727,'{accindet,personal_cars,trucks}'
4964,2014-11-28 15:30:00,'Od 28.11.2014 15:30 do 17:30; v ulici Karlovarská v obci Plzeň; Křižovatka ulic Karlovarská x Bolevecká - v místě tříproudová komunikace v každém směru jízdy. Blokován levý a pravý  jízdní pruh ve směru na Lochotín, prostřední pruh průjezdný.; 2 nehody; 4 havarovaná vozidla; 2 + OA a OA + NA bez zranění, omezen levý a pravý jízdní pruh, prostřední pruh průjezdný, místo průjezdné s opatrností. Pravý jízdní pruh bude průjezdný cca do 1 hodiny, levý jízdní pruh bude průjezdný do 15 minut.',137.50872746799,87.0877521685088,'{accindet,personal_cars,trucks}'
4965,2014-11-28 16:05:00,'Od 28.11.2014 16:05 do 18:05; v ulici Ke Sv. Jiří v obci Plzeň; u domu čp. 1189/30.; nehoda; 2 havarovaná vozidla; OA a dodávka, bez zranění, bez úniku provozních kapalin, netvoří překážku silničního provozu.',137.541577956884,87.0850298973446,'{accindet,personal_cars}'
4966,2014-11-28 18:30:00,'Od 28.11.2014 18:30 do 20:30; na silnici 27 u obce Plzeň; Mezi Plzní a Třemošnou v lesním úseku.; nehoda; 4 havarovaná vozidla; 4 x OA, zranění ani únik provozních kapalin nejsou hlášeny.',137.518695112436,87.0481868753736,'{accindet,injury,personal_cars}'
4967,2014-11-28 21:00:00,'Od 28.11.2014 21:00 do 22:00; v ulici Domažlická v obci Plzeň; u BČS u ul. Zátiší; nehoda; havarované vozidlo; Srážka OA se psem, bez zranění osob, únik provozních kapalin nehlášen.',137.481556623542,87.110957939071,'{accindet,personal_cars}'
4968,2014-11-29 17:05:00,'Od 29.11.2014 17:05 do 19:10; na silnici 201 u obce Manětín okres Plzeň-sever; nehoda; DN, 1 OA se zraněním, na místě RZS, PČR, vozidlo je v příkopu.',137.438571379092,86.8478919734328,'{accindet,injury,personal_cars}'
4969,2014-11-29 21:55:00,'Od 29.11.2014 21:55 do 30.11.2014 00:00; na silnici 20 u obce Měcholupy okres Plzeň-jih; nehoda; havárie OA, bez zranění, na místo PČR',137.626849423562,87.3550625197121,'{accindet,personal_cars}'
