ID,od,popis,x,y,ts_flags
4970,2014-11-30 06:45:00,'Od 30.11.2014 06:45 do 09:00; na silnici 1773 u obce Milínov okres Plzeň-jih; nehoda; havárie OA do stromu, se zraněním, na místo ZZS, PČR',137.641075912453,87.1952891228137,'{accindet,injury,personal_cars}'
4971,2014-11-30 17:25:00,Od 30.11.2014 17:25 do 20:30; v ulici Gerská v obci Plzeň; nehoda; jízdní pruh uzavřen; DN  3 x OA bez zranění,137.504086756879,87.0722180574966,'{accindet,personal_cars}'
4972,2014-11-30 23:05:00,'Od 30.11.2014 23:05 do 1.12.2014 01:10; v ulici Skvrňanská v obci Plzeň; nehoda; probíhá vyšetřování nehody, nebezpečí; DN  OA x tramvaj, bez zranění',137.501295645767,87.1002972593352,'{accindet,personal_cars}'
4973,2014-12-01 06:20:00,'Od 1.12.2014 06:20 do 08:25; na silnici 20 u obce Bezvěrov okres Plzeň-sever; nehoda, tvoří se kolona vozidel; DN  3 x OA bez zranění, námraza',137.297944890183,86.844048300846,'{accindet,personal_cars}'
4974,2014-12-01 06:30:00,'Od 1.12.2014 06:30 do 09:35; na silnici 20 u obce Krsy okres Plzeň-sever; nehoda; probíhá vyšetřování nehody; jízdní pruh uzavřen; DN 1 x OA na střeše, bez zranění',137.299526401295,86.871046547825,'{accindet,personal_cars}'
4975,2014-12-01 06:40:00,'Od 1.12.2014 06:40 do 08:45; na silnici 20 u obce Kasejovice okres Plzeň-jih; nehoda; probíhá vyšetřování nehody, nebezpečí; DN  2 x OA bez zranění',137.722993779131,87.4081649437971,'{accindet,personal_cars}'
4976,2014-12-01 08:00:00,'silnice I/27, část obce Šlovice, v katastru obce Dobřany, okr. Plzeň-jih, práce na silnici během dne, Od 01.12.2014 08:00 Do 05.12.2014 16:00, tlakové čištění kanalizace a revize. Tyto práce budou probíhat vždy přes den cca do 16 hod. ',137.503116090212,87.1728178487583,{accindet}
4977,2014-12-01 10:40:00,'Od 1.12.2014 10:40 do 11:45; v ulici Klatovská třída v obci Plzeň; - ve směru do centra; nehoda, silný provoz; neprůjezdný pruh, 2 havarovaná vozidla; OA x dodávka, bez zranění, na místo PČR.',137.507748979101,87.115876011615,'{accindet,personal_cars}'
4978,2014-12-01 13:45:00,'Od 1.12.2014 13:45 do 15:50; v ulici Masarykova v obci Plzeň; Křižovatka s ulicí Mohylová; nehoda s únikem oleje; 2 havarovaná vozidla; překážka na vozovce, průjezd se zvýšenou opatrností; 2x OA se zraněním, na místo PČR, RZS a HZS.',137.541486934662,87.0919008056559,'{accindet,injury,personal_cars}'
4979,2014-12-01 13:50:00,'Od 1.12.2014 13:50 do 15:55; v ulici Rokycanská v obci Plzeň; křižovatka s ulicí Jateční; nehoda; 2 havarovaná vozidla; probíhá vyšetřování nehody; 2x OA bez zranění, na místě PČR',137.530586312438,87.0987003949475,'{accindet,personal_cars}'
