ID,od,popis,x,y,ts_flags
500,2013-06-06 14:15:00,'Od 6.6.2013 15:15 do 16:20; v ulici Slovanská v obci Plzeň; křiž. s ul. Hradišťská; nehoda; OA x tramvaj bez zranění, bez úniku, částečně blokován pravý jízdní pruh z města.',137.522380801326,87.1141288824641,'{accindet,personal_cars}'
501,2013-06-06 18:25:00,Od 6.6.2013 19:25 do 21:25; v ulici Bzenecká v obci Plzeň; nehoda; 2x OA bez zranění a úniku kapalin,137.494294045766,87.0846776321354,'{accindet,personal_cars}'
502,2013-06-06 18:50:00,'Od 6.6.2013 19:50 do 20:55; v ulici Bzenecká v obci Plzeň; částečně blokován průjezd ulicí; nehoda; střet 2 OA? bez zranění a úniku PK,',137.494372979099,87.0851961216828,'{accindet,personal_cars}'
503,2013-06-06 19:45:00,'Od 6.6.2013 20:45 do 21:50; na silnici 19321 u obce Pňovany okres Plzeň-sever; ve směru na Pernarec, vozidlo odstaveno na krajnici; nehoda; Pozor! Zvířata na vozovce; střet se zvěří, bez zranění a úniku PK',137.313964090185,87.0473893215338,'{accindet,animal_hit}'
504,2013-06-07 08:05:00,'Od 7.6.2013 09:05 do 11:10; na silnici 20 u obce Chotíkov okres Plzeň-sever; nehoda; 2 havarovaná vozidla; dopravní nehoda 2x OA bez zranění, průjezdné s opatrností',137.488772267988,87.0657421575837,'{accindet,personal_cars}'
505,2013-06-07 11:25:00,'Od 7.6.2013 12:25 do 13:50; v ulici Plzeňská v obci Zruč-Senec okres Plzeň-sever; všechny nehody byly odstraněny, nejsou hlášeny žádné další problémy; 3x OA bez zranění, průjezdné s opatrností',137.536815645772,87.0504318593188,'{accindet,personal_cars}'
506,2013-06-07 15:05:00,'Od 7.6.2013 16:05 do 17:35; v ulici Sladkovského v obci Plzeň; všechny nehody byly odstraněny, nejsou hlášeny žádné další problémy; 2x OA bez zranění, průjezdné s opatrností',137.522611201326,87.1089201619656,'{accindet,personal_cars}'
507,2013-06-07 16:20:00,'Od 7.6.2013 17:20 do 19:55; v ulici Přemyslova v obci Plzeň; nehoda odstraněna; OA x motocykl se zraněním, průjezdné s opatrností',137.506995912435,87.0986574737431,'{accindet,injury,personal_cars}'
508,2013-06-07 20:55:00,'Od 7.6.2013 21:55 do 23:10; D5 - 88km na trase Rozvadov - Praha; všechny nehody byly odstraněny, nejsou hlášeny žádné další problémy; srážka OA se zveří, bez zranění osob, srnka leží uprostřed jízdních pruhů.',137.447395556871,87.1448075520033,'{accindet,personal_cars}'
509,2013-06-08 16:35:00,'Od 8.6.2013 17:35 do 18:35; v ulici Kralovická v obci Plzeň; U domu čp. 1437/23 v ul. Kralovická v Plzni.; nehoda; 3 havarovaná vozidla; DN 3 x Oa bez zranění, únik provozních kapalin nehlášen.',137.505865956879,87.066368749832,'{accindet,personal_cars}'
