ID,od,popis,x,y,ts_flags
5040,2014-12-08 08:10:00,'Od 8.12.2014 08:10 do 10:15; na silnici 27 u obce Kaznějov okres Plzeň-sever; nehoda; 2x OA bez zranění, bez púniku PHM, překáží provozu,',137.517902223547,86.9479255112827,'{accindet,personal_cars}'
5041,2014-12-08 08:15:00,'Od 8.12.2014 08:15 do 10:20; na silnici 20 u obce Chotíkov okres Plzeň-sever; nehoda; 2x OA bez zranění, bez úniku PHM, překáží provozu, na místo PČR',137.481137067986,87.0580242281644,'{accindet,personal_cars}'
5042,2014-12-08 08:40:00,'Od 8.12.2014 08:40 do 10:40; v ulici sady 5. května v obci Plzeň; nehoda; 2x OA bez zranění, bez úniku PHM, překáží provozu',137.513536712435,87.097230048903,'{accindet,personal_cars}'
5043,2014-12-08 09:20:00,'Od 8.12.2014 09:20 do 12:25; v ulici Tlučenská v obci Vejprnice okres Plzeň-sever; u BČS Zátiší; nehoda nákladního vozidla; NA x OA bez zranění, bez úniku PHM, překáží provozu',137.440467201314,87.1191082698742,'{accindet,personal_cars,trucks}'
5044,2014-12-08 09:30:00,'Od 8.12.2014 09:30 do 11:30; v ulici Veleslavínova v obci Plzeň; nehoda; DOD + OA bez zranění, překáží provozu, na místo hlídka policie',137.512474312435,87.0979927409408,'{accindet,personal_cars}'
5045,2014-12-08 10:40:00,'Od 8.12.2014 10:40 do 13:45; v ulici náměstí Republiky v obci Plzeň; nehoda nákladního vozidla; havárie NA do dopravního značení, bez zranění, bez úniku, překáží provozu',137.512427379102,87.0994608649239,'{accindet,trucks}'
5046,2014-12-08 15:05:00,'Od 8.12.2014 15:05 do 17:10; na silnici 20 u obce Krsy okres Plzeň-sever; 5 km za obcí Bezvěrov směr Plzeň, u obce Trhomné; nehoda; neprůjezdná komunikace; uzavřeno, probíhají záchranné a vyprošťovací práce; OA v příkopu, se zraněním, na místo IZS, zvýšená opatrnost, komunikace uzavřena, objízdná trasa, na místě hlídky policie řídí dopravu, na místě přistává vrtulník',137.301004090184,86.8743555744089,'{accindet,injury,personal_cars}'
5047,2014-12-08 15:45:00,'Od 8.12.2014 15:45 do 17:50; v ulici Rokycanská v obci Plzeň; u autosalonu INWELT; nehoda; OA x NA bez zranění, bez úniku PHM, překáží provozu, zvýšená opatrnost',137.542060090217,87.0994707696713,'{accindet,personal_cars,trucks}'
5048,2014-12-08 16:15:00,'Od 8.12.2014 16:15 do 18:20; v ulici Klatovská třída v obci Plzeň; nehoda; 2x OA bez zranění, bez úniku PHM, překáží provozu',137.508438756879,87.1081158127691,'{accindet,personal_cars}'
5049,2014-12-08 17:20:00,'Od 8.12.2014 17:20 do 19:25; v ulici Lidická v obci Plzeň; nehoda; 2x OA bez zranění, bez úniku, překáží provozu, na místo hlídka PČR, zvýšená opatrnost',137.509748623546,87.0790763029138,'{accindet,personal_cars}'
