ID,od,popis,x,y,ts_flags
510,2013-06-08 16:50:00,'Od 8.6.2013 17:50 do 18:50; na silnici 2046 u obce Kunějovice okres Plzeň-sever; Křižovatka Kunějovice x Všeruby; nehoda; 2 havarovaná vozidla; DN 2 x OA bez zranění, únik provozních kapalin nehlášen.',137.407359290198,86.9892349063135,'{accindet,personal_cars}'
511,2013-06-09 10:20:00,'Od 9.6.2013 11:20 do 13:25; v ulici Tylova v obci Plzeň; KoperníkovaxTylova,Plzeň; nehoda; 3xOA bez zranění, zvýšená opatrnost, PČR jede na místo',137.505831112434,87.1026280893551,{accindet}
512,2013-06-09 14:00:00,'Od 9.6.2013 15:00 do 17:05; v ulici Kotkova v obci Plzeň; Husovo nám. Plzeň; nehoda; 2xOA se zraněním, zvýšená opatrnost, PČR a RZS jedou na místo.',137.504344179101,87.1014439787948,'{accindet,injury}'
513,2013-06-09 15:20:00,'Od 9.6.2013 16:20 do 19:25; na silnici 605 u obce Bdeněves okres Plzeň-sever; Bdeněves; nehoda nákladního vozidla; cisterna na boku, bez zranění, bez úniku PHM',137.406724267976,87.0760265899635,{accindet}
514,2013-06-09 16:45:00,'Od 9.6.2013 17:45 do 19:50; v ulici tř. 1. máje v obci Dobřany okres Plzeň-jih; tř.1.máje,Dobřany; nehoda; OA x chodec, se zraněním, RZS a PČR jede na místo',137.454880712427,87.2018207325457,'{accindet,pedestrian_involvement,injury,personal_cars}'
515,2013-06-09 16:45:00,'Od 9.6.2013 17:45 do 19:50; v ulici Gerská v obci Plzeň; Gerská,PLzeň; nehoda; OA x sloup se zraněním, bez úniku RZS a PČR jede na místo',137.508185601324,87.0649338537279,'{accindet,injury,personal_cars}'
516,2013-06-09 18:40:00,'Od 9.6.2013 19:40 do 21:45; na silnici 180 u obce Kozolupy okres Plzeň-sever; Kozolupy směr Myslinka - u viaduktu; nehoda; 2xOA bez zranění, PČR jede na místo, průjezdné pro OA',137.413716623533,87.0845631454417,'{accindet,personal_cars}'
517,2013-06-10 04:20:00,'Od 10.6.2013 05:20 do 08:25; v ulici Přemyslova v obci Plzeň; Přemyslova, Plzeň naproti BČS Schell; nehoda nákladního vozidla; 2xkamion bez zranění, tvoří překžku provozu, zvýšená opatrnost',137.504736001323,87.0987620253345,{accindet}
518,2013-06-10 06:05:00,'Od 10.6.2013 07:05 do 09:10; na silnici 20 u obce Všeruby okres Plzeň-sever; u odbočky na Radimovice; nehoda; dodávka x OA se zraněním, zvýšená opatrnost, složky IZS jedou na místo.',137.384729601306,86.9927527347381,'{accindet,injury,personal_cars}'
519,2013-06-10 06:40:00,'Od 10.6.2013 07:40 do 08:45; v ulici Plaská v obci Plzeň; křiž. s ul. Okounová; nehoda; 2 x OA bez zranění, na místo PČR.',137.516268801325,87.0643634084872,'{accindet,personal_cars}'
