ID,od,popis,x,y,ts_flags
5260,2014-12-31 23:05:00,'Od 31.12.2014 23:05 do 1.1.2015 01:05; na silnici 1804 u obce Hromnice okres Plzeň-sever; nehoda; probíhají záchranné a vyprošťovací práce, nebezpečí; havárie OA, se zraněním, na místo ZZS',137.529648356882,86.969882698875,'{accindet,injury,personal_cars}'
5261,2015-01-01 03:00:00,Od 1.1.2015 03:00 do 05:00; na silnici 605 u obce Vochov okres Plzeň-sever; nehoda; 2x OA bez zranění a úniku kapalin,137.44260195687,87.0859754977689,'{accindet,personal_cars}'
5262,2015-01-01 13:05:00,'Od 1.1.2015 13:05 do 15:10; v ulici sady Pětatřicátníků v obci Plzeň; nehoda; 2 x OA bez zranění, překáží provozu.',137.510471823546,87.0991384093682,'{accindet,personal_cars}'
5263,2015-01-02 05:20:00,'Od 2.1.2015 05:20 do 07:25; na silnici 20 v obci Kasejovice okres Plzeň-jih; Na příjezdu do Kasejovic ve směru od Plzně.; nehoda; zvěř na vozovce; probíhá vyšetřování nehody; střet OA se zvěří, bez zranění osob, na místě PČR.',137.764772268026,87.4103937730534,'{accindet,personal_cars,animal_hit}'
5264,2015-01-02 07:35:00,'Od 2.1.2015 07:35 do 08:35; na silnici 27 u obce Plzeň; na mostě přes České Údolí; nehoda; havarované vozidlo; Havárie OA do zábradlí mostu, bez zranění a bez úniku provozních kapalin.',137.501306312434,87.1326061692806,'{accindet,personal_cars}'
5265,2015-01-02 09:05:00,'Od 2.1.2015 09:05 do 10:05; v ulici Husova v obci Plzeň; křiž. s ul. Klatovská třída; nehoda; 2 havarovaná vozidla; OA x NA bez zranění, bez úniku provozních kapalin.',137.509370312435,87.1022088115745,'{accindet,personal_cars,trucks}'
5266,2015-01-02 10:30:00,'Od 2.1.2015 10:30 do 11:30; v ulici Klatovská třída v obci Plzeň; Na klatovské třídě u domu čp. 1460/83.; nehoda; 2 havarovaná vozidla; 2 x OA bez zranění, únik provozních kapalin nehlášen, průjezdné jedním pruhem.',137.507807290212,87.1149463435849,'{accindet,personal_cars}'
5267,2015-01-02 10:40:00,'Od 2.1.2015 10:40 do 11:40; na silnici 18034 v obci Dobřany okres Plzeň-jih; před Šlovicemi ve směru od Dobřan; nehoda; 2 havarovaná vozidla; 2 x OA bez zranění, únik prvozních kapalin nehlášen.',137.488576712432,87.1773653880748,'{accindet,personal_cars}'
5268,2015-01-02 11:30:00,'Od 2.1.2015 11:30 do 13:30; na silnici 18036 u obce Horní Lukavice okres Plzeň-jih; Křižovatka se silnicí I/27 směrem na Chlumčany; nehoda; 2 havarovaná vozidla; 2 x OA bez zranění, bez úniku provozních kapalin. Vozidla blokují provoz. Na místo hlídka PČR.',137.476002845764,87.2424797955767,'{accindet,personal_cars}'
5269,2015-01-02 20:00:00,'D5, mezi km 131 a 80, silný vítr, ztížené jízdní podmínky, Od 02.01.2015 20:00 Do 03.01.2015 05:30, zvýšené nebezpečí nehody',137.058542934594,87.1095132379482,{accindet}
