ID,od,popis,x,y,ts_flags
5280,2015-01-04 14:55:00,'Od 4.1.2015 14:55 do 18:00; v ulici Koperníkova v obci Plzeň; nehoda autobusu; DN, OA x trolejbus, na místo PČR, bez zranění',137.505868801323,87.1026820119802,'{accindet,personal_cars}'
5281,2015-01-04 16:15:00,'Od 4.1.2015 16:15 do 18:20; v ulici Plachého v obci Plzeň; nehoda; DN, 2 OA, bez zranění, viník z míst ujel, na místo PČR',137.507325156879,87.1045219513718,'{accindet,personal_cars}'
5282,2015-01-04 18:05:00,'Od 4.1.2015 18:05 do 20:10; v ulici Jateční v obci Plzeň; nehoda; DN, 2 OA, bez zranění, na místo PČR',137.530112001327,87.0792414448505,'{accindet,personal_cars}'
5283,2015-01-04 18:15:00,'Od 4.1.2015 18:15 do 20:20; na silnici 605 u obce Pňovany okres Plzeň-sever; nehoda; DN, OA, bez zranění, na místo PČR',137.312754490185,87.0882530160554,'{accindet,personal_cars}'
5284,2015-01-04 18:50:00,Od 4.1.2015 18:50 do 19:50; na silnici 180 u obce Dobřany okres Plzeň-jih; nehoda; DN OA bez zranění,137.432971379091,87.2006498030344,'{accindet,personal_cars}'
5285,2015-01-04 19:05:00,'Od 4.1.2015 19:05 do 21:10; na silnici 180 u obce Dobřany okres Plzeň-jih; nehoda; DN,  OA, bez zranění, na místo PČR',137.430777601313,87.1997292982264,'{accindet,personal_cars}'
5286,2015-01-04 19:05:00,'Od 4.1.2015 19:05 do 21:10; na silnici 0266 u obce Chotěšov okres Plzeň-jih; nehoda; DN, OA, bez zranění, na místo PČR',137.385022579084,87.1929480505711,'{accindet,personal_cars}'
5287,2015-01-04 19:40:00,'Od 4.1.2015 19:40 do 21:45; na silnici 27 u obce Třemošná okres Plzeň-sever; nehoda; 7x OA, bez zranění, vozidla v příkopu, na místo PČR',137.521478401325,87.0035628148199,'{accindet,personal_cars}'
5288,2015-01-04 20:30:00,'Od 4.1.2015 20:30 do 22:35; na silnici 11747 u obce Klášter okres Plzeň-jih; nehoda; střet OA se zvěří, na místo PČR',137.647084090232,87.3693934366149,'{accindet,personal_cars,animal_hit}'
5289,2015-01-05 00:20:00,'Od 5.1.2015 00:20 do 02:25; na silnici 205 u obce Dražeň okres Plzeň-sever; nehoda; havárie OA, bez zranění, na místo PČR',137.448704712426,86.9062825274381,'{accindet,personal_cars}'
