ID,od,popis,x,y,ts_flags
5300,2015-01-06 01:40:00,Od 6.1.2015 01:40 do 02:40; na silnici 27 u obce Třemošná okres Plzeň-sever; nehoda; DN OA x lesní zvěř,137.520760890214,87.0068195227152,'{accindet,personal_cars,animal_hit}'
5301,2015-01-06 05:15:00,'Od 6.1.2015 05:15 do 07:20; v ulici Americká v obci Plzeň; Americká ulice v Plzni před Malým Tescem; nehoda; střet dvou OA bez zranění, na místo PČR',137.518221512436,87.1039838416871,'{accindet,personal_cars}'
5302,2015-01-06 05:30:00,'Od 6.1.2015 05:30 do 08:35; na silnici 605 u obce Úlice okres Plzeň-sever; silnice č. 605, 200 m před obcí ve směru od Plzně; nehoda nákladního vozidla; navárie NA se zraněním, na místo PČR, ZZS a HZS',137.357370312414,87.0821764822937,'{accindet,injury,trucks}'
5303,2015-01-06 06:20:00,'Od 6.1.2015 06:20 do 07:25; na silnici 27 u obce Dolní Lukavice okres Plzeň-jih; nehoda; - havárie OA mimo vozovku do pole, na mísot PČR',137.475995023541,87.2588510784125,'{accindet,personal_cars}'
5304,2015-01-06 07:15:00,'Od 6.1.2015 07:15 do 08:20; na silnici 27 u obce Třemošná okres Plzeň-sever; nehoda; - srážka OA se zvěří, na místo PČR',137.52067484577,87.007043317612,'{accindet,personal_cars,animal_hit}'
5305,2015-01-06 10:40:00,'Od 6.1.2015 10:40 do 12:45; v ulici alej Svobody v obci Plzeň; nehoda; 2 x OA bez zranění, bez úniku PHM, překáží provozu, na místo hlídka PČR.',137.509765690213,87.0790531830019,'{accindet,personal_cars}'
5306,2015-01-06 10:55:00,'Od 6.1.2015 10:55 do 14:00; v ulici Palackého náměstí v obci Plzeň; před OD Plaza; nehoda autobusu; BUS x NA bez zranění, bez úniku PHM, překáží provozu, na místo hlídka policie.',137.50893226799,87.098592541599,'{accindet,trucks}'
5307,2015-01-06 10:55:00,'Od 6.1.2015 10:55 do 13:00; v ulici Na Roudné v obci Plzeň; u hotelu Roudná; nehoda; sanitka x OA bez zranění, bez úniku PHM, na místo hlídka policie.',137.523992890215,87.0813629228176,'{accindet,personal_cars}'
5308,2015-01-06 14:15:00,'Od 6.1.2015 14:15 do 17:20; v ulici Plzeňská v obci Zruč-Senec okres Plzeň-sever; nehoda nákladního vozidla; NA x OA bez zranění, bez úniku PHM, překáží provozu, na místo hlídka policie.',137.540991290217,87.0413621168695,'{accindet,personal_cars,trucks}'
5309,2015-01-06 15:35:00,'Od 6.1.2015 15:35 do 17:40; na silnici 193 u obce Úněšov okres Plzeň-sever; nehoda; traktor x OA bez zranění, bez úniku PHM.',137.340086045745,86.9557487762418,'{accindet,personal_cars}'
