ID,od,popis,x,y,ts_flags
5400,2015-01-23 16:20:00,'Od 23.1.2015 16:20 do 18:25; na silnici 26 u obce Plzeň; u obce Sulkov; nehoda; 2 havarovaná vozidla; 2 x OA se zraněním, porůjezdné s opatrností',137.455335823538,87.1322542178306,'{accindet,injury,personal_cars}'
5401,2015-01-23 16:20:00,'Od 23.1.2015 16:20 do 19:40; v ulici U Velkého rybníka v obci Plzeň; nehoda; probíhají záchranné a vyprošťovací práce, nebezpečí; 2 x OA se zranění, průjezdné s opatrností',137.520216890214,87.0688100768643,'{accindet,injury,personal_cars}'
5402,2015-01-23 20:15:00,'Od 23.1.2015 20:15 do 22:20; v ulici Tylova v obci Plzeň; nehoda; 2 havarovaná vozidla; 2 x OA bez zranění, průjezdné s opatrností.',137.505769245768,87.102617084731,'{accindet,personal_cars}'
5403,2015-01-24 14:10:00,'Od 24.1.2015 14:10 do 15:10; v ulici Masarykovo náměstí v obci Blovice okres Plzeň-jih; na náměstí; nehoda; 2 havarovaná vozidla; překážka na vozovce, průjezd se zvýšenou opatrností; 2x OA, bez zranění, bez úniku provozních kapalin.',137.629119290229,87.2823676615758,'{accindet,personal_cars}'
5404,2015-01-24 14:55:00,'Od 24.1.2015 14:55 do 15:55; na silnici 27 u obce Plasy okres Plzeň-sever; mezi obcemi Hadačka a Plasy; nehoda; havarované vozidlo; zvěř na vozovce; havárie OA se zvěří, bez zranění, bez úniku provozních kapalin.',137.534041601327,86.876939434089,'{accindet,personal_cars,animal_hit}'
5405,2015-01-25 05:15:00,'Od 25.1.2015 05:15 do 11:15; na silnici 20 u obce Kasejovice okres Plzeň-jih; Asi 100 m před obcí Kasejovice v pravotočivé zatáčce ve směru jízdy od Nepomuku.; nehoda; havarované těžké nákladní vozidlo; Havárie kamionu do příkopu mimo vozovku  (v protisměru jízdy),  bez zranění, únik provozních kapalin nehlášen, komunikace průjezdná. Na místo vyslána hlídka PČR, info HZS.',137.759657956914,87.4087207920688,{accindet}
5406,2015-01-25 08:55:00,'Od 25.1.2015 08:55 do 11:00; na silnici 27 v obci Plzeň; kruh. objezd; nehoda; havarovené OA bez zranění, zvýšená pozornost, ohrožení BESIP',137.499191467989,87.118661618198,'{accindet,personal_cars}'
5407,2015-01-25 10:50:00,'Od 25.1.2015 10:50 do 12:55; v ulici Masarykova v obci Plzeň; nehoda; 2xOA se zraněním, zvýšená opatrnost, překáží provozu, ohrožení BESIP, na místo PČR a RZS',137.540541867995,87.0930444035129,'{accindet,injury}'
5408,2015-01-25 15:50:00,'Od 25.1.2015 15:50 do 17:55; na silnici 18032 u obce Útušice okres Plzeň-jih; nehoda; OA x lesní zvěř, ohrožení BERSIP, zvýšená opatrnost',137.51924124577,87.1651032907863,'{accindet,personal_cars,animal_hit}'
5409,2015-01-25 16:50:00,'Od 25.1.2015 16:50 do 18:55; v ulici Plaská v obci Plzeň; u prodejny Ford Hornáth; nehoda; OA bez zranění, bez úniku PHM, zvýšená opatrnost, ohrožení BESIP',137.51625955688,87.0625220841678,'{accindet,personal_cars}'
