ID,od,popis,x,y,ts_flags
5440,2015-01-27 16:05:00,'Od 27.1.2015 16:05 do 28.1.2015 23:55; na silnici 20 u obce Bezvěrov okres Plzeň-sever; Aktuální stav: 11:05 hod. NN - Bezvěrov.; Pozor! Nadměrný náklad; očekávejte zdržení; Přeprava Transformátoru.Parametry NN  d 44,00 m; š 3,50 m; v 5,33 m; hmotnost 247,5 t. Zbývající trasa přepravy: I/20 Toužim, II/198  Kojšovice, Bochov, vpravo  I/6  Herstošice, Budkov,  Skřipová,  Libkovice, Lubenec , Krušovice,  Řevničov, I/16  Mšec , Hvězda, Tuřany, I/7 protisměrem na III. tř. 00724, Slaný, I/16 Blahotice, Vítov, Luníkov, Ješín, exit 18, Nová Ves, nájezd na D8, exit 45, II/247 L o v o s i c e  (přístav)',137.282674490181,86.8235901155906,{accindet}
5441,2015-01-27 17:30:00,'Od 27.1.2015 17:30 do 19:35; v ulici Husova v obci Plzeň; nehoda; 2 x OA bez zranění, bez úniku PHM, překáží provozu, na místo policie.',137.5016305791,87.1010566060701,'{accindet,personal_cars}'
5442,2015-01-28 05:55:00,'Od 28.1.2015 05:55 do 08:00; na silnici 1806 u obce Třemošná okres Plzeň-sever; směr Záluží.; nehoda; havarované vozidlo; překážka na vozovce, průjezd se zvýšenou opatrností; OA v příkopu, bez zranění a  úniku PHM.',137.495830756877,87.0116623227089,'{accindet,personal_cars}'
5443,2015-01-28 07:20:00,'Od 28.1.2015 07:20 do 08:20; v ulici Jateční v obci Plzeň; Po odbočení z Rokycanské před viaduktem.; nehoda; neprůjezdný pruh, 2 havarovaná vozidla; překážka na vozovce, průjezd se zvýšenou opatrností; DN 2 x OA bez zranění a bez úniku provozních kapalin.  Místo průjezdné jedním pruhem.',137.530784001327,87.0970990804871,'{accindet,personal_cars}'
5444,2015-01-28 08:55:00,Od 28.1.2015 08:55 do 09:55; v ulici U Světovaru v obci Plzeň; V ulici U Světovaru u křižovatky s ul. Barákova v Plzni.; nehoda; 2 havarovaná vozidla; 2 x OA bez zranění a bez úniku provozních kapalin. vozidla překáží v jednom jízdním pruhu.,137.536034134661,87.1168661727816,'{accindet,personal_cars}'
5445,2015-01-28 10:25:00,Od 28.1.2015 10:25 do 11:25; v ulici Plzeňská v obci Chotěšov okres Plzeň-jih; V ulici Plzeňská v obci Chotěšov.; nehoda; 3 havarovaná vozidla; kyvadlový provoz jedním jízdním pruhem; 3 x OA (zezadu) bez zranění a bez úniku provozních kapalin. Blokován jeden jízdní pruh - doprava řízena PČR kyvadlově.,137.385656890195,87.2016054416142,'{accindet,personal_cars}'
5446,2015-01-28 10:55:00,Od 28.1.2015 10:55 do 12:55; v ulici Karla Bureše v obci Plzeň; Křižovatka ul. Kotíkovská x Karla Bureše.; nehoda; 2 havarovaná vozidla; 2 x OA bez zranění s únikem PHM.,137.499037156878,87.0755322337967,'{accindet,personal_cars}'
5447,2015-01-28 11:00:00,'Od 28.1.2015 11:00 do 12:00; na silnici 180 u obce Kyšice okres Plzeň-město; Těsně před obcí Kyšice ve směru od Plzně.; nehoda; havarované vozidlo; Srážka OA s divočákem bez zranění osob, únik provozních kapalin nehlášen.',137.585998223557,87.0992671717179,'{accindet,personal_cars,animal_hit}'
5448,2015-01-28 15:25:00,Od 28.1.2015 15:25 do 16:25; v ulici sady 5. května v obci Plzeň; V ulici sady 5. května u VZP a bývalého hotelu.; nehoda; havarované vozidlo; OA nacouvalo do dopravní značky. Bez zranění a bez úniku provozních kapalin.,137.511794490213,87.0969956262172,'{accindet,personal_cars}'
5449,2015-01-28 16:20:00,Od 28.1.2015 16:20 do 17:20; v ulici Nepomucká v obci Plzeň; Křižovatka ul. Nepomucká x Milady Horákové.; nehoda; 2 havarovaná vozidla; NA x OA bez zranění a bez úniku provozních kapalin. Místo průjezdné.,137.529111467993,87.1257217978766,'{accindet,personal_cars,trucks}'
