ID,od,popis,x,y,ts_flags
5520,2015-02-04 16:00:00,Od 4.2.2015 16:00 do 17:00; v ulici Republikánská v obci Plzeň; nehoda; srážka OA se stromem,137.538161067994,87.1008133961901,'{accindet,personal_cars}'
5521,2015-02-04 19:00:00,Od 4.2.2015 19:00 do 20:00; v ulici Skvrňanská v obci Plzeň; nehoda; 3 x OA,137.500413867989,87.1004711396859,'{accindet,personal_cars}'
5522,2015-02-04 19:35:00,'Od 4.2.2015 19:35 do 20:35; v ulici Edvarda Beneše v obci Plzeň; nehoda; 2 havarovaná vozidla; překážka na vozovce, průjezd se zvýšenou opatrností; 2x OA, bez zranění osob.',137.512423112435,87.1201269737591,'{accindet,personal_cars}'
5523,2015-02-05 06:45:00,'Od 5.2.2015 06:45 do 07:45; v ulici Sukova v obci Plzeň; nehoda; 2 havarovaná vozidla; probíhá vyšetřování nehody; 2x OA, bez zranění osob.',137.505779201323,87.1190774664302,'{accindet,personal_cars}'
5524,2015-02-05 10:15:00,'Od 5.2.2015 10:15 do 12:20; v ulici Univerzitní v obci Plzeň; nehoda 2 nákladních vozidel; probíhá vyšetřování nehody; 2 x DOD, bez zranění a úniku PHM, nepřekáží provozu.',137.489735112432,87.1266292789819,{accindet}
5525,2015-02-05 12:20:00,'Od 5.2.2015 12:20 do 14:25; na silnici v obci Řenče okres Plzeň-jih; nehoda; havarované vozidlo; OA x plot, bez zranění osob a úniku PHM.',137.537758579105,87.2842781973996,'{accindet,personal_cars}'
5526,2015-02-05 13:40:00,'Od 5.2.2015 13:40 do 14:40; na silnici 180 u obce Třemošná okres Plzeň-sever; nehoda; 2 havarovaná vozidla; probíhá vyšetřování nehody; OA x NA bez zranění, na místě PČR.',137.537849601328,87.0311371158527,'{accindet,personal_cars,trucks}'
5527,2015-02-05 14:35:00,'Od 5.2.2015 14:35 do 16:40; v ulici Rokycanská v obci Plzeň; stanice bus. č. 16 Gambrinus.; nehoda autobusu; probíhá vyšetřování nehody; pád cestující v busu, na místo jede RZS a PČR.',137.55144960133,87.1005184614554,{accindet}
5528,2015-02-05 15:35:00,'Od 5.2.2015 15:35 do 17:40; v ulici Kotkova v obci Plzeň; Křižovatka s ul. Husova.; nehoda autobusu; 2 havarovaná vozidla; překážka na vozovce, průjezd se zvýšenou opatrností; BUS x OA bez zranění, na místě PČR.',137.504347734656,87.1014032607713,'{accindet,personal_cars}'
5529,2015-02-05 15:55:00,'Od 5.2.2015 15:55 do 19:00; D5 - 100km na trase Praha - Rozvadov; sjezd u BČS Ono.; nehoda nákladního vozidla; porouchané vozidlo, zdržení; neprůjezdná zpevněná krajnice; odstavený kamion pro poruchu, čeká na opravu, zvýšená opatrnost, ohrožení BESIP',137.344999112412,87.1363004197198,{accindet}
