ID,od,popis,x,y,ts_flags
5770,2015-03-12 19:40:00,'Od 12.3.2015 19:40 do 21:40; D5 - 70km na trase Praha - Rozvadov; V km 70 ve směru Praha - Rozvadov.; havarované vozidlo; nehoda, neprůjezdný levý jízdní pruh; Havárie OA s vlekem bez zranění, únik provozních kapalin nehlášen.',137.581378134667,87.1231961692808,'{accindet,personal_cars}'
5771,2015-03-12 22:15:00,Od 12.3.2015 22:15 do 23:15; v ulici Markova tř. v obci Kralovice okres Plzeň-sever; V ulici Markova u domu čp. 7.; nehoda; havarované vozidlo; Havárie 1 x OA bez zranění a bez úniku provozních kapalin.,137.588978490224,86.8434611100712,'{accindet,personal_cars}'
5772,2015-03-13 05:50:00,Od 13.3.2015 05:50 do 06:50; na silnici 20 u obce Nezbavětice okres Plzeň-město; Za křižovatkou silnic č. 19 x č 20 ve směru na Písek.; nehoda; 2 havarovaná vozidla; DN 2 x Oa bez zranění a bez úniku provozních kapalin.,137.576627201333,87.1977630117148,'{accindet,personal_cars}'
5773,2015-03-13 08:45:00,'Od 13.3.2015 08:45 do 10:50; v ulici Pod Vinicemi v obci Plzeň; nehoda; 2 x OA bez zranění, bez úniku PHM, zvýšená opatrnost.',137.496487112433,87.0895882196275,'{accindet,personal_cars}'
5774,2015-03-13 14:35:00,'Od 13.3.2015 14:35 do 16:40; v ulici Skladová v obci Plzeň; nehoda; 2 x OA bez zranění, bez úniku PHM, překáží provozu, zvýšená opatrnost, ohrožení BESIP.',137.536812090216,87.125452300518,'{accindet,personal_cars}'
5775,2015-03-13 19:15:00,'Od 13.3.2015 19:15 do 21:20; na silnici 27 u obce Plzeň; nehoda; zvěř na vozovce; překážka na vozovce, průjezd se zvýšenou opatrností; OA x srna, bez zranění osob.',137.503542756878,87.1518972600394,'{accindet,personal_cars,animal_hit}'
5776,2015-03-14 10:00:00,'Od 14.3.2015 10:00 do 10:45; v ulici Železniční v obci Plzeň; všechny nehody byly odstraněny, nejsou hlášeny žádné další problémy; 2 x OA bez zranění, průjezdné s opatrností',137.52094364577,87.1050204407803,'{accindet,personal_cars}'
5777,2015-03-14 19:20:00,'Od 14.3.2015 19:20 do 21:05; v ulici Dobřanská v obci Plzeň; všechny nehody byly odstraněny, nejsou hlášeny žádné další problémy; havárie OA bez zranění, průjezdné.',137.48901689021,87.1296497050131,'{accindet,personal_cars}'
5778,2015-03-14 19:55:00,'Od 14.3.2015 19:55 do 22:00; v ulici Mikulášská v obci Plzeň; nehoda; havárie OA bez zranění, průjezdné s opatrností, náraz do železničního viaduktu.',137.519022223547,87.1061736611313,'{accindet,personal_cars}'
5779,2015-03-14 20:45:00,'Od 14.3.2015 20:45 do 21:50; v ulici Přemyslova v obci Plzeň; křiž. s ul. Kotkovo; všechny nehody byly odstraněny, nejsou hlášeny žádné další problémy; havárie OA bez zranění, vozidlo vjelo na zvýšený tramvajový pás.',137.504474312434,87.0986816857088,'{accindet,personal_cars}'
