ID,od,popis,x,y,ts_flags
5820,2015-03-20 07:30:00,'Od 20.3.2015 07:30 do 09:35; v ulici Slovanská v obci Plzeň; křižovatka Liliová x Slovanská v Plzni; nehoda; střet OA s tramvají bez zranění, na místo PČR',137.523177956881,87.1155085471329,'{accindet,personal_cars}'
5821,2015-03-20 13:10:00,'Od 20.3.2015 13:10 do 15:15; v ulici Plaská v obci Plzeň; silnice č. 1/27 na výjezdu z Plzně směrem na Třemošnou; nehoda; nehoda, neprůjezdný levý jízdní pruh; střet tří OA bez zranění, na místo PČR',137.517690312436,87.0604912676325,'{accindet,personal_cars}'
5822,2015-03-20 13:50:00,'Od 20.3.2015 13:50 do 16:55; v ulici Edvarda Beneše v obci Plzeň; uloicie E. Beneše v Plzni; nehoda autobusu; střet trolejbusu s veřejným osvětlením, bez zranění, na místo PČR',137.51289955688,87.1216252912452,{accindet}
5823,2015-03-20 14:20:00,'Od 20.3.2015 14:20 do 17:25; na silnici v obci Kasejovice okres Plzeň-jih; Náměstí v Kasejovicích; nehoda nákladního vozidla; střet NA s OA bez zranění, na místo PČR',137.769444268027,87.411892737177,'{accindet,personal_cars,trucks}'
5824,2015-03-20 16:10:00,'Od 20.3.2015 16:10 do 18:15; v ulici Chebská v obci Plzeň; v Chebské ulici v Plzni; nehoda; střet dvou OA bez zranění, na místo PČR',137.462169601317,87.0898909198327,'{accindet,personal_cars}'
5825,2015-03-20 16:35:00,'Od 20.3.2015 16:35 do 18:40; na silnici 201 u obce Chříč okres Plzeň-sever; mezi obcemi Chříč a Zvíkovec; nehoda; pád cyklisty z kola se zraněním, na místo PČR a ZZS a vrtulník ZZS',137.725639823576,86.8557288436864,'{accindet,injury,cyclist}'
5826,2015-03-20 18:45:00,'Od 20.3.2015 18:45 do 21:50; na silnici 27 v obci Plzeň; silnice č. 27, sjezd z kruhového objezdu v Sukově ulici směrem na Klatovy; všechny nehody byly odstraněny, nejsou hlášeny žádné další problémy; střet dvou OA se zraněním osoby, na místo PČR a ZZS',137.498870045767,87.1198310455836,'{accindet,injury,personal_cars}'
5827,2015-03-20 19:00:00,'Od 20.3.2015 19:00 do 21:05; na silnici 205 u obce Všeruby okres Plzeň-sever; silnice č. 205 mezi Nekmířem a Kokořovem; nehoda; Střet OA se zvěří, bez zranění, na místo PČR',137.429160534646,86.9990555733613,'{accindet,personal_cars,animal_hit}'
5828,2015-03-21 07:55:00,'Od 21.3.2015 07:55 do 10:00; na silnici 20 u obce Plzeň; nehoda; OA na střeše,bez zranění, bez úniku PHM, překáží provozu, na místo hlídka',137.55760000133,87.1712154577819,'{accindet,personal_cars}'
5829,2015-03-21 08:25:00,'Od 21.3.2015 08:25 do 11:30; na silnici 1806 v obci Bučí okres Plzeň-sever; nehoda autobusu; probíhají záchranné a vyprošťovací práce; Bus x OA se zraněním, překáží provozu, na místo všechny složky HZS, zvýšená opatrnost',137.458953245761,86.9461496941954,'{accindet,injury,personal_cars}'
