ID,od,popis,x,y,ts_flags
5830,2015-03-21 09:20:00,'Od 21.3.2015 09:20 do 11:25; na silnici 20 v obci Nepomuk okres Plzeň-jih; nehoda; 2xOA bez uranění, bez úniku PHM, překáží provozu, na místo hlídka',137.659315912456,87.3907830238241,{accindet}
5831,2015-03-22 13:20:00,'Od 22.3.2015 13:20 do 14:20; v ulici Karlovarská v obci Plzeň; Křižovatka ulic Karlovarská a Gerská.; nehoda; 2 havarovaná vozidla; 2 x OA, bez zranění a bez úniku provozních kapalin.',137.493655467988,87.0711962367145,'{accindet,personal_cars}'
5832,2015-03-22 14:50:00,'Od 22.3.2015 14:50 do 15:50; na silnici v obci Merklín okres Plzeň-jih; motokrosová trať u kostela.; nehoda; probíhá vyšetřování nehody; MOTO x chodec se zraněním, na místě ZZS a PČR.',137.385079467973,87.3059046115198,'{accindet,pedestrian_involvement,injury}'
5833,2015-03-22 15:50:00,'Od 22.3.2015 15:50 do 17:50; v ulici Revoluční v obci Plzeň; Křižovatka s ul. Rokycanská.; nehoda; 3 havarovaná vozidla; překážka na vozovce, průjezd se zvýšenou opatrností; 3 x OA, bez zranění a úniku provozních kapalin. na místě PČR.',137.53491982355,87.0990426628043,'{accindet,personal_cars}'
5834,2015-03-22 18:10:00,'Od 22.3.2015 18:10 do 19:10; v ulici Nýřanská v obci Plzeň; nehoda; 2 havarovaná vozidla; 2 x OA, bez zranění a úniku provozních kapalin.',137.512620090213,87.066911643669,'{accindet,personal_cars}'
5835,2015-03-22 19:25:00,Od 22.3.2015 19:25 do 20:25; na silnici 193 u obce Úněšov okres Plzeň-sever; Mezi obcemi Plachtín a Úněšov.; nehoda; havarované vozidlo; srážka OA se srnou bez zranění osob a bez úniku provozních kapalin. Srna na místě.,137.356908090191,86.9136668517346,'{accindet,personal_cars,animal_hit}'
5836,2015-03-22 20:45:00,Od 22.3.2015 20:45 do 21:45; na silnici v obci Žákava okres Plzeň-jih; Na půli cesty mezi Vlkovem a Nezvěsticemi.; nehoda; havarované vozidlo; Srážka OA se srnou bez zranění osob a bez úniku provozních kapalin.,137.634055823563,87.2286220744954,'{accindet,personal_cars,animal_hit}'
5837,2015-03-22 23:10:00,'Od 22.3.2015 23:10 do 23.3.2015 00:10; v ulici Husova v obci Plzeň; U zastávky autobusu '' Divadlo J.K.Tyla ''; nehoda; havarované vozidlo; Srážka BUS MHD se sloupem veřejného osvětlení bez zranění a úniku provozních kapalin.',137.507724090212,87.1019490998017,{accindet}
5838,2015-03-23 07:35:00,'Od 23.3.2015 07:35 do 08:40; v ulici Staniční v obci Plzeň; křiž. s ul. Skalní; nehoda; 2 x OA bez zranění, na místo PČR.',137.540709690217,87.0893955913305,'{accindet,personal_cars}'
5839,2015-03-23 10:10:00,'Od 23.3.2015 10:10 do 11:15; v ulici 17. listopadu v obci Plzeň; nehoda nákladního vozidla; NA x OA bez zranění, na místo PČR.',137.510429867991,87.1191500745197,'{accindet,personal_cars,trucks}'
