ID,od,popis,x,y,ts_flags
5860,2015-03-26 19:25:00,'Od 26.3.2015 19:25 do 21:30; v ulici Slovanská alej v obci Plzeň; nehoda; OA x tram bez zranění, překáží provozu, zvýšená opatrnost, ohrožení BESIP',137.533206045771,87.1233083730865,'{accindet,personal_cars}'
5861,2015-03-26 20:10:00,'Od 26.3.2015 20:10 do 21:10; v ulici Pecháčkova v obci Plzeň; nehoda; 2 havarovaná vozidla; probíhá vyšetřování nehody; 2x OA, bez zranění osob, PČR jede na místo.',137.475683556875,87.1062011708545,'{accindet,personal_cars}'
5862,2015-03-27 07:25:00,'Od 27.3.2015 07:25 do 08:30; na silnici 11755 u obce Řenče okres Plzeň-jih; nehoda; - srážka OA se zvěří, na místo PČR',137.555725512441,87.306431922421,'{accindet,personal_cars,animal_hit}'
5863,2015-03-27 09:50:00,'Od 27.3.2015 09:50 do 10:55; v ulici Skladová v obci Plzeň; u depa České pošty; nehoda; OA x dodávka, bez zranění, na místo PČR',137.538331734661,87.1301028641743,'{accindet,personal_cars}'
5864,2015-03-27 15:45:00,'Od 27.3.2015 15:45 do 19:50; na silnici 183 u obce Merklín okres Plzeň-jih; nehoda nákladního vozidla; probíhá vyšetřování nehody, nebezpečí; komunikace dočasně uzavřena; NA, převrácená cisterna s dusíkatým  hnojivem',137.366597690193,87.3220712904998,{accindet}
5865,2015-03-27 16:25:00,'Od 27.3.2015 16:25 do 17:30; v ulici Domažlická v obci Plzeň; nehoda, silný provoz; neprůjezdný pruh, 3 havarovaná vozidla; 3 x OA, bez zranění, na místo PČR',137.48371200132,87.1097079943016,'{accindet,personal_cars}'
5866,2015-03-27 20:15:00,'Od 27.3.2015 20:15 do 21:20; na silnici 20 u obce Nevřeň okres Plzeň-sever; nehoda; - srážka OA se zvěří, na místo PČR',137.434352356869,87.0249515812971,'{accindet,personal_cars,animal_hit}'
5867,2015-03-27 20:35:00,'Od 27.3.2015 20:35 do 21:40; na silnici 20 u obce Všeruby okres Plzeň-sever; nehoda; - srážka OA se zvěří, na místo PČR',137.410375112421,87.0098037449014,'{accindet,personal_cars,animal_hit}'
5868,2015-03-28 12:55:00,'Od 28.3.2015 12:55 do 13:55; v ulici Třída 1. máje v obci Horní Bříza okres Plzeň-sever; v Třemošné u kapličky.; nehoda; 2 havarovaná vozidla; 2 x OA, bez zranění a úniku provozních kapalin. Na místě PČR.',137.497718045767,86.997084086715,'{accindet,personal_cars}'
5869,2015-03-28 13:55:00,'Od 28.3.2015 13:55 do 14:55; v ulici Studentská v obci Plzeň; Křižovatka s ul. Gerská, ve směru do centra.; nehoda; neprůjezdný pruh, 2 havarovaná vozidla; překážka na vozovce, průjezd se zvýšenou opatrností; 2 x OA, bez zranění a úniku provozních kapalin.',137.505449245768,87.0689565309114,'{accindet,personal_cars}'
