ID,od,popis,x,y,ts_flags
5980,2015-04-09 15:20:00,'Od 9.4.2015 16:20 do 17:25; v ulici sady Pětatřicátníků v obci Plzeň; - ve směru z centra; nehoda; neprůjezdný pruh, 2 havarovaná vozidla; - 2 x OA, bez zranění, na místo PČR',137.510781156879,87.0976196505262,'{accindet,personal_cars}'
5981,2015-04-09 15:35:00,'Od 9.4.2015 16:35 do 17:40; na silnici 27 v obci Horní Lukavice okres Plzeň-jih; - před autoservisem; nehoda, silný provoz; neprůjezdný pruh, 2 havarovaná vozidla; 2 x OA, bez zranění, na místo PČR',137.475847823541,87.2455178274164,'{accindet,personal_cars}'
5982,2015-04-09 21:10:00,'Od 9.4.2015 22:10 do 23:10; v ulici Karlovarská v obci Plzeň; na sjezdu z Rondelu směrem do centra.; nehoda; 2 havarovaná vozidla; překážka na vozovce, průjezd se zvýšenou opatrností; DOD x OA bez zranění.',137.494673779099,87.0723127511044,'{accindet,personal_cars}'
5983,2015-04-10 08:40:00,'Od 10.4.2015 09:40 do 11:10; v ulici Přemyslova v obci Plzeň; všechny nehody byly odstraněny, nejsou hlášeny žádné další problémy; 3x OA, bez zranění osob.',137.503874134656,87.0991329066968,'{accindet,personal_cars}'
5984,2015-04-10 08:50:00,'Od 10.4.2015 09:50 do 11:55; na silnici 20 u obce Losiná okres Plzeň-město; na vjezdu do Losiné ve směru od Plzně; nehoda, tvoří se kolona vozidel; 4 havarovaná vozidla; neprůjezdný jeden jízdní pruh; 4x OA, bez zranění, PČR jede na místo.',137.559859912442,87.1748411009621,'{accindet,personal_cars}'
5985,2015-04-10 09:40:00,'Od 10.4.2015 10:40 do 12:45; v ulici Klatovská třída v obci Plzeň; křižovatka s ulicí Kaplířovou; nehoda; havarované vozidlo; překážka na vozovce, průjezd se zvýšenou opatrností; havárie OA, bez zranění.',137.504808534656,87.122548242693,'{accindet,personal_cars}'
5986,2015-04-10 10:20:00,'Od 10.4.2015 11:20 do 13:25; v ulici sady Pětatřicátníků v obci Plzeň; nehoda; havarované vozidlo; překážka na vozovce, průjezd se zvýšenou opatrností; havárie OA, bez zranění.',137.510198756879,87.0993100924321,'{accindet,personal_cars}'
5987,2015-04-10 11:25:00,'Od 10.4.2015 12:25 do 14:15; v ulici Karlovarská v obci Plzeň; všechny nehody byly odstraněny, nejsou hlášeny žádné další problémy; OA x NA, bez zranění, PČR jede na místo.',137.503212801323,87.0746249847307,'{accindet,personal_cars}'
5988,2015-04-10 11:30:00,'Od 10.4.2015 12:30 do 14:15; v ulici Na Roudné v obci Plzeň; kruhový objezd '' U Součků''; všechny nehody byly odstraněny, nejsou hlášeny žádné další problémy; střet OA s cyklistou, se zraněním, ZZS a PČR jedou na místo.',137.530182401327,87.076468093493,'{accindet,injury,personal_cars,cyclist}'
5989,2015-04-10 13:10:00,'Od 10.4.2015 14:10 do 16:15; v ulici Klatovská třída v obci Plzeň; konečná tramvaje linky č. 4; nehoda; 2 havarovaná vozidla; probíhá vyšetřování nehody; 2x OA, bez zranění osob.',137.504523379101,87.1229013581578,'{accindet,personal_cars}'
