ID,od,popis,x,y,ts_flags
600,2013-06-19 17:35:00,'Od 19.6.2013 18:35 do 20:40; v ulici Skvrňanská v obci Plzeň; před OD Plaza tram zastávka směr CAN; nehoda; Cyklista x chodkyně, se zraněním, RZS a PČR jede na místo.',137.502172445767,87.099693075739,'{accindet,injury,cyclist}'
601,2013-06-19 19:45:00,'Od 19.6.2013 20:45 do 22:50; v ulici Revoluční v obci Nýřany okres Plzeň-sever; Revoluční, Nýřany; nehoda; OA x chodec se zraněním, RZS a PČR jede na místo.',137.37985564575,87.1376157267537,'{accindet,pedestrian_involvement,injury,personal_cars}'
602,2013-06-19 23:40:00,'Od 20.6.2013 00:40 do 02:45; D5 - 90.3km na trase Rozvadov - Praha; nehoda; s1x OA  bez zranění, bez úniku PHM - zvýšená opatrnost',137.433170490202,87.1417923816848,'{accindet,personal_cars}'
603,2013-06-20 05:25:00,'Od 20.6.2013 06:25 do 08:30; v ulici Vejprnická v obci Plzeň; Vejprnická,Plzeň, u viaduktu, u HZS stanice , blízko tram zasávky Malesická; nehoda; 3xOA, bez zranění, bez úniku PHM,tvoří překážku provozu, PČR jede namísto',137.489994667988,87.103042962028,{accindet}
604,2013-06-20 07:30:00,'Od 20.6.2013 08:30 do 09:35; v ulici Chrástecká v obci Plzeň; křižovatka ulic Jateční Chrástecká ,  vozidlo odstaveno na pravé krajnici; nehoda; střet OA s dopravní značkou',137.533193956883,87.0879448027367,'{accindet,personal_cars}'
605,2013-06-20 07:40:00,'Od 20.6.2013 08:40 do 10:45; v ulici Plzeňská v obci Chotěšov okres Plzeň-jih; před odbočkou na Dobřany, částečně blokován pravý jízdní pruh ve směru na Stod; nehoda; střet 3 OA, bez zraěnní, únik PK nezjištěn',137.38613333464,87.2011419041148,'{accindet,personal_cars}'
606,2013-06-20 11:55:00,'Od 20.6.2013 12:55 do 15:00; na silnici 18010 u obce Česká Bříza okres Plzeň-sever; ve směru od Hromnice ve směru k České Bříze, místo střetu průjezdné jedním jízdním pruhem; nehoda; střet 2 OA, bez zranění, bez úniku PK',137.546301867996,87.0032210363778,'{accindet,personal_cars}'
607,2013-06-20 12:10:00,'Od 20.6.2013 13:10 do 15:15; v ulici Rokycanská v obci Plzeň; nehoda; probíhá vyšetřování nehody, nebezpečí; DN 2x OA bez zranění',137.536112356883,87.0991428115049,'{accindet,personal_cars}'
608,2013-06-20 12:35:00,'Od 20.6.2013 13:35 do 14:00; v ulici Nepomucká v obci Plzeň; od Olympie ve směru do města za BČS; všechny nehody byly odstraněny, nejsou hlášeny žádné další problémy; střet 2 OA, bez zranění, bez úniku, druhý účastním z místa DN ujel, vozidlo odstaveno na krajnici, částečně blokován pravý jízdní pruh, bez úniku PK a bez zranění',137.546314667996,87.1531429195561,'{accindet,personal_cars}'
609,2013-06-20 13:45:00,'Od 20.6.2013 14:45 do 15:50; v ulici Edvarda Beneše v obci Plzeň; křižovatka ulic Klatovská a E. Beneše, částečně blokován pravý jízdní pruh; nehoda; střte 2 OA, bez zranění a úniku PK',137.508172801324,87.1100479909785,'{accindet,personal_cars}'
