ID,od,popis,x,y,ts_flags
6220,2015-05-05 14:25:00,'Od 5.5.2015 15:25 do 16:30; v ulici Železničářská v obci Plzeň; křiž. s ul. V Homolkách; nehoda; neprůjezdný pruh, 2 havarovaná vozidla; 2 x OA bez zranění, na místo PČR.',137.539716979106,87.092208996133,'{accindet,personal_cars}'
6221,2015-05-05 15:25:00,'Od 5.5.2015 16:25 do 17:30; v ulici Žatecká v obci Kralovice okres Plzeň-sever; nehoda; 2 x OA bez zranění, na místo PČR.',137.592163556891,86.8366852779738,'{accindet,personal_cars}'
6222,2015-05-06 04:10:00,'Od 6.5.2015 05:10 do 06:15; na silnici 27 u obce Horní Bříza okres Plzeň-sever; nehoda; - střet OA s mrtvým zvířetem na vozovce, OA v sjelo do příkopu, na místo PČR',137.520006401325,86.9593879852543,'{accindet,personal_cars}'
6223,2015-05-06 04:15:00,'Od 6.5.2015 05:15 do 06:15; D5 - 99.5-100.4km na trase Praha - Rozvadov; D5 - 99.5-100.4km na trase Praha - Rozvadov; nehoda; - srážka OA se zvěří, na místo PČR',137.359554134636,87.1373110974884,'{accindet,personal_cars,animal_hit}'
6224,2015-05-06 05:20:00,'Od 6.5.2015 06:20 do 11:25; na silnici 117 u obce Chocenice okres Plzeň-jih; nehoda, doprava odkloněna po objízdné trase; 2 havarovaná vozidla; dopravu řídí policie; NA x OA, se zraněním, na místě PČR, ZZS.',137.605784179115,87.3109560584291,'{accindet,injury,personal_cars,trucks}'
6225,2015-05-06 05:35:00,'Od 6.5.2015 06:35 do 07:40; na silnici 203 u obce Tlučná okres Plzeň-sever; - u odbočky na Vochov; nehoda; probíhají záchranné a vyprošťovací práce, nebezpečí; - havárie OA do příkopu, se zraněním, na místo PČR, ZZS',137.426981690201,87.1216934955928,'{accindet,injury,personal_cars}'
6226,2015-05-06 06:05:00,'Od 6.5.2015 07:05 do 10:10; na silnici 27 u obce Horní Bříza okres Plzeň-sever; nehoda; probíhají záchranné a vyprošťovací práce, nebezpečí; - 3 x OA, se zraněním, na místo PČR, ZZS',137.520155023547,86.9760415331812,'{accindet,injury,personal_cars}'
6227,2015-05-06 08:20:00,'Od 6.5.2015 09:20 do 10:20; na silnici v obci Nepomuk okres Plzeň-jih; Křižovatka se sil. I/20 u BČS.; nehoda; 2 havarovaná vozidla; 2 x OA, bez zranění a úniku provozních kapalin. Místo je průjezdné.',137.662458312456,87.3906319757023,'{accindet,personal_cars}'
6228,2015-05-06 08:25:00,'Od 6.5.2015 09:25 do 11:25; na silnici 20 v obci Nepomuk okres Plzeň-jih; V křižovatce před OD Norma.; nehoda s únikem oleje; 2 havarovaná vozidla; probíhá vyšetřování nehody; 2 x OA se zraněním, s únikem oleje. Na místě RZS, HZS a PČR.',137.657434312455,87.3902083819597,'{accindet,injury,personal_cars}'
6229,2015-05-06 12:10:00,'Od 6.5.2015 13:10 do 14:10; v ulici Vejprnická v obci Plzeň; křižovatka s ul. Lábkova.; nehoda; 2 havarovaná vozidla; překážka na vozovce, průjezd se zvýšenou opatrností; DOD x OA, bez zranění a úniku provozních kapalin. Na místě PČR.',137.480530490209,87.1057808207366,'{accindet,personal_cars}'
