ID,od,popis,x,y,ts_flags
6240,2015-05-07 02:55:00,'Od 7.5.2015 03:55 do 04:55; na silnici 26 u obce Plzeň; v lesním úseku; nehoda; havarované těžké nákladní vozidlo; zvěř na vozovce; střet NA se zvěří, bez zranění osob, bez úniku provozních kapalin.',137.457543823539,87.1298553869536,'{accindet,animal_hit,trucks}'
6241,2015-05-07 05:55:00,'Od 7.5.2015 06:55 do 07:55; v ulici alej Svobody v obci Plzeň; křižovatka s ulicí Lidickou; nehoda; 2 havarovaná vozidla; probíhá vyšetřování nehody; 2x OA, bez zranění osob.',137.509993245768,87.0790388706704,'{accindet,personal_cars}'
6242,2015-05-07 06:00:00,'Od 7.5.2015 07:00 do 08:00; na silnici 204 u obce Mrtník okres Plzeň-sever; cca 200 m za Mrtníkem ve směru na Kaznějov; nehoda nákladního vozidla; 2 havarovaná vozidla; probíhá vyšetřování nehody; NA x traktor, bez zranění osob.',137.470153245763,86.936863491386,'{accindet,trucks}'
6243,2015-05-07 06:45:00,'Od 7.5.2015 07:45 do 10:50; v ulici Slovanská v obci Plzeň; křiž. s ul. Částkova; nehoda nákladního vozidla; OA x NA bez zranění, bez úniku PHM, překáží provozu.',137.524564623548,87.1178794187007,'{accindet,personal_cars,trucks}'
6244,2015-05-07 06:50:00,'Od 7.5.2015 07:50 do 09:55; v ulici Luční v obci Blovice okres Plzeň-jih; nehoda nákladního vozidla; OA x NA bez zranění, bez úniku kapalin, překáží provozu, na místo policie.',137.630950401341,87.277714969299,'{accindet,personal_cars,trucks}'
6245,2015-05-07 06:50:00,'Od 7.5.2015 07:50 do 09:55; na silnici 26 u obce Zbůch okres Plzeň-sever; nehoda; kyvadlový provoz jedním jízdním pruhem; 3 x OA bez zranění, bez úniku PHM, překáží provozu.',137.400580267975,87.180296136937,'{accindet,personal_cars}'
6246,2015-05-07 06:55:00,'Od 7.5.2015 07:55 do 10:00; v ulici Lobezská v obci Plzeň; nehoda; 2 x OA bez zranění, bez úniku PHM, překáží provozu.',137.528495645771,87.1080453903747,'{accindet,personal_cars}'
6247,2015-05-07 08:30:00,'Od 7.5.2015 09:30 do 11:35; v ulici Karlovarská v obci Plzeň; nehoda; 2 x OA bez zranění, bez úniku PHM, překáží provozu, na místo policie.',137.500532623545,87.071898740604,'{accindet,personal_cars}'
6248,2015-05-07 09:40:00,'Od 7.5.2015 10:40 do 13:45; v ulici Sladkovského v obci Plzeň; nehoda nákladního vozidla; OA x NA bez zranění, bez úniku PHM, zvýšená opatrnost ohrožení BESIP.',137.522525156881,87.1090136901555,'{accindet,personal_cars,trucks}'
6249,2015-05-07 09:50:00,'Od 7.5.2015 10:50 do 13:55; na silnici 26 v obci Plzeň; nehoda nákladního vozidla; OA x NA bez zranění, bez úniku PHM, překáží provozu.',137.472096001319,87.1177088954888,'{accindet,personal_cars,trucks}'
