ID,od,popis,x,y,ts_flags
6270,2015-05-10 15:40:00,'Od 10.5.2015 16:40 do 18:45; v ulici Kardinála Berana v obci Plzeň; všechny nehody byly odstraněny, nejsou hlášeny žádné další problémy; BUS s OA bez zranění, průjezdné',137.507840001324,87.1035733780971,'{accindet,personal_cars}'
6271,2015-05-10 16:05:00,'Od 10.5.2015 17:05 do 18:40; v ulici Studentská v obci Plzeň; křižovatka s Gerskou; všechny nehody byly odstraněny, nejsou hlášeny žádné další problémy; 3 x OA bez zranění, průjezdné s opatrností',137.505825423545,87.0688684382997,'{accindet,personal_cars}'
6272,2015-05-10 16:30:00,'Od 10.5.2015 17:30 do 20:35; na silnici 206 u obce Žihle okres Plzeň-sever; směr Manětín; nehoda; probíhají záchranné a vyprošťovací práce, nebezpečí; OA se zraněním',137.495288890211,86.7695493947673,'{accindet,injury,personal_cars}'
6273,2015-05-10 18:30:00,'Od 10.5.2015 19:30 do 21:35; na silnici 230 u obce Ves Touškov okres Plzeň-jih; nehoda; havarované vozidlo; probíhá vyšetřování nehody; havárie OA mimo komunikaci, se zraněním, složky IZS jedou na místo.',137.330979556854,87.1892247545074,'{accindet,injury,personal_cars}'
6274,2015-05-10 20:45:00,'Od 10.5.2015 21:45 do 22:45; na silnici 27 u obce Horní Bříza okres Plzeň-sever; nehoda; havarované vozidlo; zvěř na vozovce; střet OA se zvěří, bez zranění osob.',137.520519112436,86.9629728817379,'{accindet,personal_cars,animal_hit}'
6275,2015-05-11 04:25:00,'Od 11.5.2015 05:25 do 08:25; na silnici 26 v obci Plzeň; ulice Domažlická, kruhový objezd; nehoda nákladního vozidla; neprůjezdný pruh, havarované vozidlo; Pozor! Vysypaný náklad; havárie NA, PČR jede na místo.',137.472102401319,87.1170278973611,{accindet}
6276,2015-05-11 05:45:00,'Od 11.5.2015 06:45 do 07:10; na silnici 20 u obce Nevřeň okres Plzeň-sever; Nová Hospoda; nehoda odstraněna; 2x OA, bez zranění osob.',137.42591857909,87.020144155211,'{accindet,personal_cars}'
6277,2015-05-11 06:30:00,'Od 11.5.2015 07:30 do 08:35; v ulici Karlovarská v obci Plzeň; ve směru do centra; nehoda; neprůjezdný pruh, 2 havarovaná vozidla; probíhá vyšetřování nehody; 2x OA, bez zranění osob, PČR jede na místo.',137.508666312435,87.0880119493613,'{accindet,personal_cars}'
6278,2015-05-11 07:55:00,'Od 11.5.2015 08:55 do 10:00; v ulici Majerova v obci Plzeň; křižovatka s ul. Politických vězňů.; nehoda; 2 havarovaná vozidla; překážka na vozovce, průjezd se zvýšenou opatrností; 2 x OA, bez zranění, na místě PČR.',137.508493512435,87.1208552361141,'{accindet,personal_cars}'
6279,2015-05-11 09:30:00,'Od 11.5.2015 10:30 do 11:35; v ulici Tyršova v obci Plzeň; ve směru na Prahu.; nehoda, neprůjezdný pravý jízdní pruh; 2 havarovaná vozidla, silný provoz; probíhá vyšetřování nehody; 2 x OA bez zranění, na místě PČR.',137.518505245769,87.1011083292954,'{accindet,personal_cars}'
