ID,od,popis,x,y,ts_flags
6330,2015-05-16 22:40:00,'Od 16.5.2015 23:40 do 17.5.2015 01:45; na silnici 26 u obce Líně okres Plzeň-sever; nehoda; srážka OA se zvěří, průjezdné',137.434504534647,87.1500589521586,'{accindet,personal_cars,animal_hit}'
6331,2015-05-17 11:10:00,'Od 17.5.2015 12:10 do 13:15; na silnici 18015 u obce Dýšina okres Plzeň-město; nehoda; probíhají záchranné a vyprošťovací práce, nebezpečí; 2 x OA se zraněním, na místě PČR a ZZS.',137.587327290223,87.069267056208,'{accindet,injury,personal_cars}'
6332,2015-05-17 12:20:00,'Od 17.5.2015 13:20 do 15:20; D5 - 104.8km na trase Praha - Rozvadov; nehoda nákladního vozidla; havárie kamionu do středových vozidel, bez zranění. Místo průjezdné PJP.',137.306820267962,87.1264796831581,{accindet}
6333,2015-05-17 15:00:00,'Od 17.5.2015 16:00 do 17:05; na silnici 20 u obce Losiná okres Plzeň-město; - ve směru na Plzeň; nehoda; 2 x OA bez zranění, na místo PČR.',137.563121067998,87.1787642995004,'{accindet,personal_cars}'
6334,2015-05-17 19:55:00,'Od 17.5.2015 20:55 do 22:00; v ulici Plzeňská v obci Plasy okres Plzeň-sever; nehoda; 2 havarovaná vozidla; probíhá vyšetřování nehody; 2x OA, bez zranění osob, PČR jede na místo.',137.520177779103,86.8950660262973,'{accindet,personal_cars}'
6335,2015-05-17 20:30:00,'Od 17.5.2015 21:30 do 22:35; v ulici Vejprnická v obci Plzeň; ve směru do centra; nehoda; 2 havarovaná vozidla; probíhá vyšetřování nehody; střet OA s tramvají, bez zranění osob, PČR jede na místo.',137.493614934655,87.1019700088472,'{accindet,personal_cars}'
6336,2015-05-17 22:20:00,'Od 17.5.2015 23:20 do 18.5.2015 00:20; D5 - 92.7-93km na trase Praha - Rozvadov; nehoda nákladního vozidla; havarované vozidlo; zvěř na vozovce; střet NA se zvěří, bez zranění osob, PČR jede na místo.',137.40776960131,87.1440455283115,'{accindet,animal_hit,trucks}'
6337,2015-05-18 00:35:00,'Od 18.5.2015 01:35 do 02:40; na silnici 20 u obce Všeruby okres Plzeň-sever; nehoda; havarované vozidlo; zvěř na vozovce; střet OA se zvěří, bez zranění osob, PČR jede na místo.',137.409617779088,87.0094300372706,'{accindet,personal_cars,animal_hit}'
6338,2015-05-18 09:10:00,'Od 18.5.2015 10:10 do 12:15; v ulici Domažlická v obci Plzeň; u kruh. objezdu; nehoda; 2x OA bez zranění, překáží provozu, zvýšená opatrnost, ohrožení BESIP',137.472992001319,87.1164514075055,'{accindet,personal_cars}'
6339,2015-05-18 10:05:00,'Od 18.5.2015 11:05 do 13:10; v ulici Štefánikova v obci Plzeň; nehoda; OA x moto, bez zranění, bez úniku PHM, na místo policie',137.540435201328,87.1480050740365,'{accindet,personal_cars}'
