ID,od,popis,x,y,ts_flags
6370,2015-05-20 11:10:00,'Od 20.5.2015 12:10 do 14:15; na silnici 180 v obci Kozolupy okres Plzeň-sever; odbočka na Nýřany; nehoda; probíhá vyšetřování nehody, nebezpečí; 2 x OA bez zranění, průjezdné s opatrností',137.418124801311,87.0817911715031,'{accindet,personal_cars}'
6371,2015-05-20 11:55:00,'Od 20.5.2015 12:55 do 15:00; v ulici Klatovská třída v obci Plzeň; Klatovská třída v Plzni u zastávek tramvaje Náměstí Míru, ve směru do centra; nehoda; nehoda, neprůjezdný pravý jízdní pruh; střet dvou OA bez zranění, na místo PČR',137.507615290212,87.1182875720479,'{accindet,personal_cars}'
6372,2015-05-20 11:55:00,'Od 20.5.2015 12:55 do 15:00; v ulici Pražská v obci Plzeň; Pražská ulice v Plzni před domem čp. 43; nehoda; střet OA s dopravní značkou bez zranění, na místo PČR',137.514758401324,87.0992363568249,'{accindet,personal_cars}'
6373,2015-05-20 12:30:00,'Od 20.5.2015 13:30 do 15:35; v ulici Lobezská v obci Plzeň; nehoda; probíhá vyšetřování nehody, nebezpečí; 2 x OA bez zranění, průjezdné s opatrností',137.531865601327,87.1118557686642,'{accindet,personal_cars}'
6374,2015-05-20 12:50:00,'Od 20.5.2015 13:50 do 15:55; na silnici 27 u obce Plasy okres Plzeň-sever; všechny nehody byly odstraněny, nejsou hlášeny žádné další problémy; OA bez zranění, průjezdné',137.529609956882,86.876195675532,'{accindet,personal_cars}'
6375,2015-05-20 13:00:00,'Od 20.5.2015 14:00 do 15:55; v ulici Hlavní v obci Tlučná okres Plzeň-sever; všechny nehody byly odstraněny, nejsou hlášeny žádné další problémy; 1 x OA bez zranění, náraz do plotu, průjezdné',137.410203023532,87.1260902920637,'{accindet,personal_cars}'
6376,2015-05-20 13:55:00,'Od 20.5.2015 14:55 do 17:00; na silnici u obce Kozolupy okres Plzeň-sever; směr Myslinka; nehoda; probíhá vyšetřování nehody, nebezpečí; 1 x OA bez zranění, průjezdné  s opatrností',137.41017600131,87.0892150704668,'{accindet,personal_cars}'
6377,2015-05-20 14:15:00,'Od 20.5.2015 15:15 do 17:20; na silnici 17716 v obci Čížkov okres Plzeň-jih; nehoda; probíhá vyšetřování nehody, nebezpečí; OA se zraněním, průjezdné s opatrností, náraz do stromu',137.722678756909,87.3060734392758,'{accindet,injury,personal_cars}'
6378,2015-05-20 14:55:00,'Od 20.5.2015 15:55 do 17:30; v ulici Lukavická v obci Plzeň; všechny nehody byly odstraněny, nejsou hlášeny žádné další problémy; 2 x OA bez zranění, průjezdné s opatrností',137.511662223546,87.1091061178528,'{accindet,personal_cars}'
6379,2015-05-20 15:00:00,'Od 20.5.2015 16:00 do 18:05; na silnici 27 u obce Plasy okres Plzeň-sever; 1 kma za Plasama směr Kralovice; všechny nehody byly odstraněny, nejsou hlášeny žádné další problémy; 2 x OA bez zranění, provoz řízen kyvadlově',137.522546490214,86.8809188631165,'{accindet,personal_cars}'
