ID,od,popis,x,y,ts_flags
6480,2015-05-30 13:20:00,'Od 30.5.2015 14:20 do 15:20; na silnici 18323 u obce Merklín okres Plzeň-jih; nehoda; zvěř na vozovce; překážka na vozovce, průjezd se zvýšenou opatrností; OA x srna, bez zranění osob.',137.337911467967,87.3176434497187,'{accindet,personal_cars,animal_hit}'
6481,2015-05-30 23:35:00,'Od 31.5.2015 00:35 do 02:40; na silnici 204 u obce Plasy okres Plzeň-sever; silnice č. 204 mezi Kaznějovem a Mrtníkem; nehoda; střet OA se zvěří bez zranění, na místo PČR',137.489124267988,86.9260387668173,'{accindet,personal_cars,animal_hit}'
6482,2015-05-31 12:35:00,'Od 31.5.2015 13:35 do 15:40; na silnici 183 u obce Nezbavětice okres Plzeň-město; za obcí Losiná, odbočka na Starý Plzenec; nehoda; 2 x OA bez zranění. Vozidla v křižovatce. PČR na místo.',137.576049779111,87.1931249254005,'{accindet,personal_cars}'
6483,2015-05-31 15:30:00,Od 31.5.2015 16:30 do 18:35; v ulici tř. 1. máje v obci Dobřany okres Plzeň-jih; u BČS; nehoda; 2 x OA bez zranění. PČR na místo.,137.45296284576,87.2023754322262,'{accindet,personal_cars}'
6484,2015-06-01 03:10:00,'Od 1.6.2015 04:10 do 06:15; v ulici Sukova v obci Plzeň; Kruhový objezd ul. Sukova a Folmavská.; nehoda; havarované vozidlo; probíhá vyšetřování nehody; OA x obrubník, bez zranění osob. PČR na místě.',137.499328001322,87.1191016691377,'{accindet,personal_cars}'
6485,2015-06-01 06:35:00,'Od 1.6.2015 07:35 do 09:55; na silnici 230 v obci Ves Touškov okres Plzeň-jih; - ve směru na Stříbro; všechny nehody byly odstraněny, nejsou hlášeny žádné další problémy; havárie OA, se zraněním, na místo PČR, ZZS, HZS',137.332767290188,87.1922053896201,'{accindet,injury,personal_cars}'
6486,2015-06-01 07:15:00,'Od 1.6.2015 08:15 do 10:20; v ulici Klatovská třída v obci Plzeň; - křižovatka s ul. Sukova, ve směru z centra; nehoda, tvoří se kolona vozidel; neprůjezdný pruh, 4 havarovaná vozidla; 4x OA, bez zranění, na místo PČR',137.507430401323,87.1187166247637,'{accindet,personal_cars}'
6487,2015-06-01 08:00:00,'Od 1.6.2015 09:00 do 10:05; v ulici sady Pětatřicátníků v obci Plzeň; - ve směru na Bory; Pozor! Silný provoz; nehoda, neprůjezdný pravý jízdní pruh; OA x autobus, bez zranění, na místo PČR',137.509453512435,87.1020360373579,'{accindet,personal_cars}'
6488,2015-06-01 09:30:00,'Od 1.6.2015 10:30 do 11:35; v ulici Husovo náměstí v obci Plzeň; nehoda; NA x OA, bez zranění, na místo PČR',137.504263112434,87.1022264191066,'{accindet,personal_cars,trucks}'
6489,2015-06-01 12:20:00,'Od 1.6.2015 13:20 do 14:25; na silnici 1808 u obce Plzeň; nehoda; - 2x OA, bez zranění, na místo PČR',137.509829690213,87.0587125877039,'{accindet,personal_cars}'
