ID,od,popis,x,y,ts_flags
6530,2015-06-05 06:40:00,Od 5.6.2015 07:40 do 08:40; na silnici 19 u obce Nezbavětice okres Plzeň-město; Za Losinou ve směru na Spálené Poříčí za odbočkou na Štěnovický Borek.; nehoda; 2 havarovaná vozidla; probíhá vyšetřování nehody; MOTO x OA. bez zranění  a úniku provozních kapalin. Místo průjezdné.,137.578823823556,87.1951441133401,'{accindet,personal_cars}'
6531,2015-06-05 07:35:00,'Od 5.6.2015 08:35 do 09:35; v ulici Sukova v obci Plzeň; U Kauflandu na prvním kruhovém objezdu od ulice Klatovská třída.; nehoda nákladního vozidla; 2 havarovaná vozidla; překážka na vozovce, průjezd se zvýšenou opatrností; NA x OA, bez zranění a úniku provozních kapalin. Místo je s opatrností průjezdné.',137.499308090211,87.1191038693833,'{accindet,personal_cars,trucks}'
6532,2015-06-05 08:35:00,'Od 5.6.2015 09:35 do 10:35; na silnici 20 u obce Krsy okres Plzeň-sever; Mezi odbočkami na obce Polínka a Krsy.; nehoda; zvěř na vozovce; probíhá vyšetřování nehody; Srážka OA se srnou bez zranění osob, únik provozních kapalin nehlášen.',137.301309867961,86.9009540450841,'{accindet,personal_cars,animal_hit}'
6533,2015-06-05 09:20:00,'Od 5.6.2015 10:20 do 11:20; v ulici Jízdecká v obci Plzeň; V odbočovacím pruhu pro směr vlevo na ulici Palackého náměstí.; nehoda; 2 havarovaná vozidla; probíhá vyšetřování nehody; 2 x OA, bez zranění a  úniku provozních kapalin. Místo je průjezdné.',137.508463645768,87.0983339127839,'{accindet,personal_cars}'
6534,2015-06-05 09:25:00,'Od 5.6.2015 10:25 do 11:25; v ulici nám. ČSA v obci Stod okres Plzeň-jih; Před mostem ve směru od Plzně.; nehoda; neprůjezdný pruh, 2 havarovaná vozidla; probíhá vyšetřování nehody; OA x NA, bez zranění a úniku provozních kapalin. Místo průjezdné jedním pruhem. Na místě PČR.',137.361953423525,87.2191971240101,'{accindet,personal_cars}'
6535,2015-06-05 09:50:00,'Od 5.6.2015 10:50 do 12:50; v ulici Domažlická v obci Plzeň; hned za železničním přejezdem ve směru do centra.; nehoda, neprůjezdné dva jízdní pruhy; 3 havarovaná vozidla; překážka na vozovce, průjezd se zvýšenou opatrností; 2 x OA x dodávka bez zranění, únik chladící kapalin, lze objíždět bočními komunikacemi. Na místě hlídka PČR.',137.488125156876,87.1071618015011,'{accindet,personal_cars}'
6536,2015-06-05 11:00:00,Od 5.6.2015 12:00 do 13:00; na silnici 201 v obci Mladotice okres Plzeň-sever; U železničního viaduktu.; nehoda nákladního vozidla; 2 havarovaná vozidla; probíhá vyšetřování nehody; OA x NA bez zranění a bez úniku provozních kapalin. Na místě PČR.,137.501505423545,86.8367859209322,'{accindet,personal_cars,trucks}'
6537,2015-06-05 13:20:00,'Od 5.6.2015 14:20 do 15:20; v ulici U Velkého rybníka v obci Plzeň; U zastávky autobusu č. 30.; nehoda; 2 havarovaná vozidla; 2 x OA, bez zranění a úniku provozních kapalin. Na místě PČR.',137.527209245771,87.0737749752521,'{accindet,personal_cars}'
6538,2015-06-05 13:45:00,'Od 5.6.2015 14:45 do 17:00; v ulici Částkova v obci Plzeň; Na kruhovém objezdu, kde se odbočuje do ul. Koterovská.; nehoda; 3 havarovaná vozidla; 3 x OA, bez zranění a bez úniku provozních kapalin. Na místě PČR.',137.52933333466,87.115043161839,'{accindet,personal_cars}'
6539,2015-06-05 14:40:00,Od 5.6.2015 15:40 do 17:40; na silnici 27 u obce Třemošná okres Plzeň-sever; Na velké křižovatce za Třemošnou ve směru na Kaznějov.; nehoda s únikem paliva; 2 havarovaná vozidla; probíhá vyšetřování nehody; OA x NA bez zranění. na místě HZS a PČR.,137.520827734659,87.0065990342136,'{accindet,personal_cars,trucks}'
