ID,od,popis,x,y,ts_flags
6540,2015-06-05 14:55:00,Od 5.6.2015 15:55 do 16:55; na silnici 20125 u obce Slatina okres Plzeň-sever; Mezi obcemi Slatina a Chříč.; nehoda; havarované vozidlo; probíhá vyšetřování nehody; Havárie cyklisty se zraněním. Na místě ZZS a PČR.,137.69820800135,86.8422115111456,'{accindet,injury,cyclist}'
6541,2015-06-05 15:40:00,'Od 5.6.2015 16:40 do 17:40; v ulici Lidická v obci Dobřany okres Plzeň-jih; nehoda; zvěř na vozovce; probíhá vyšetřování nehody; OA x zvěř, bez zranění osob. Na místě PČR.',137.452377601316,87.2014154136942,'{accindet,personal_cars,animal_hit}'
6542,2015-06-05 19:35:00,'Od 5.6.2015 20:35 do 21:35; v ulici U Borského parku v obci Plzeň; křižovatka s ulicí Politických vězňů; nehoda autobusu; 2 havarovaná vozidla; probíhá vyšetřování nehody; OA x BUS, bez zranění osob, PČR je na místě.',137.506097779101,87.1242719960649,'{accindet,personal_cars}'
6543,2015-06-05 22:45:00,'Od 5.6.2015 23:45 do 6.6.2015 01:40; v ulici náměstí Republiky v obci Plzeň; všechny nehody byly odstraněny, nejsou hlášeny žádné další problémy; OA x motocykl, se zraněním, složky IZS jedou na místo.',137.513365334658,87.100910240076,'{accindet,injury,personal_cars}'
6544,2015-06-06 14:50:00,'Od 6.6.2015 15:50 do 17:00; v ulici Náves republiky v obci Šťáhlavy okres Plzeň-město; na kruhovém objezdu; všechny nehody byly odstraněny, nejsou hlášeny žádné další problémy; požár OA bez zraněním, na místě HZS a PČR.',137.603097601337,87.1789060567453,'{accindet,personal_cars}'
6545,2015-06-06 15:10:00,'Od 6.6.2015 16:10 do 18:15; v ulici U Světovaru v obci Plzeň; nehoda; probíhá vyšetřování nehody, nebezpečí; 2 x OA bez zranění, průjezdné s opatrností.',137.535800179105,87.1173623466383,'{accindet,personal_cars}'
6546,2015-06-06 19:50:00,'Od 6.6.2015 20:50 do 22:55; na silnici 205 u obce Nevřeň okres Plzeň-sever; nehoda; 2 havarovaná vozidla; překážka na vozovce, průjezd se zvýšenou opatrností; 2 x OA bez zranění.',137.427962312423,87.0191874675992,'{accindet,personal_cars}'
6547,2015-06-07 06:30:00,'Od 7.6.2015 07:30 do 09:35; na silnici 20 u obce Klášter okres Plzeň-jih; 1 km za obcí Nepomuk, směr Plzeň.; nehoda; Havárie OA do svodidel. PČR na místo.',137.649365334677,87.381055969287,'{accindet,personal_cars}'
6548,2015-06-07 09:20:00,'Od 7.6.2015 10:20 do 12:25; v ulici Božkovská v obci Plzeň; Plzeň, křižovatka ulic Božkovská a Sladkovského.; nehoda; Střet 2x OA. PČR na místo.',137.523613156881,87.1078275205039,'{accindet,personal_cars}'
6549,2015-06-07 13:45:00,'Od 7.6.2015 14:45 do 16:50; v ulici V Úhlu v obci Plzeň; Plzeň - Litice, křižovatka ulic Řepná a V Úlu.; nehoda; Střet OA a MOTO. PČR na místo. IZS na místo.',137.497620623544,87.1540708235677,'{accindet,personal_cars}'
