ID,od,popis,x,y,ts_flags
6570,2015-06-09 10:55:00,Od 9.6.2015 11:55 do 12:55; v ulici náměstí Emila Škody v obci Plzeň; V ulici náměstí Emila Škody v Plzni.; nehoda; 2 havarovaná vozidla; DN 2 x OA bez zranění a bez úniku provozních kapalin.,137.5011249791,87.1014736919275,'{accindet,personal_cars}'
6571,2015-06-09 11:25:00,'Od 9.6.2015 12:25 do 15:25; na silnici 0274 u obce Mladotice okres Plzeň-sever; na silnici 0274 u obce Mladotice okres Plzeň-sever; nehoda; havarované vozidlo; Havárie  BUS do vodního příkopu, vozidlo na boku, uvnitř cca 10 osob, jedna údajně zaklíněná. Zranění pravděpodobně 2 osob. Únik provozních kapalin nehlášen. Na místo ZZS, HZS, hlídka PČR již na místě',137.50472746799,86.8421584301874,'{accindet,injury}'
6572,2015-06-09 12:00:00,Od 9.6.2015 13:00 do 14:00; v ulici Liliová v obci Plzeň; V ulici Liliová v obci Plzeň.; nehoda; 2 havarovaná vozidla; DN BUS x SUV bez zranění a bez úniku provozních kapalin. Ulice Liliová neprůjezdná.,137.522381512437,87.1161103514163,{accindet}
6573,2015-06-09 12:50:00,'Od 9.6.2015 13:50 do 14:50; na silnici 18211 u obce Lužany okres Plzeň-jih; Na křižovatce u obce Zálesí ve směru na Lužany.; nehoda; havarované vozidlo; DN OA x chodec se zraněním, únik provozních kapalin nehlášen.',137.492418845766,87.3357141906497,'{accindet,pedestrian_involvement,injury,personal_cars}'
6574,2015-06-09 13:50:00,'Od 9.6.2015 14:50 do 15:50; na silnici 230 u obce Stod okres Plzeň-jih; Mezi obcemi Stod a Ves Touškov.; nehoda; havarované vozidlo; Havárie OA do pole bez zranění, únik provozních kapalin nehlášen.',137.342104890189,87.2039153801795,'{accindet,personal_cars}'
6575,2015-06-09 13:50:00,Od 9.6.2015 14:50 do 15:50; v ulici Masarykova v obci Plzeň; U domu čp. 589/150 v ulici Masarykova v Plzni.; nehoda; havarované vozidlo; DN OA x dodávka bez zranění a bez úniku provozních kapalin.,137.53932302355,87.0945610912698,'{accindet,personal_cars}'
6576,2015-06-09 13:55:00,'Od 9.6.2015 14:55 do 15:55; v ulici Rokycanská v obci Plzeň , délka 101m; V ulici Rokycanyská ve směru do centra.; nehoda; 2 havarovaná vozidla; DN 2 x OA bez zranění a bez úniku provozních kapalin.',137.534937601327,87.0988302588943,'{accindet,personal_cars}'
6577,2015-06-09 15:10:00,'Od 9.6.2015 16:10 do 17:10; v ulici Přemyslova v obci Plzeň; V ulici Přemyslova ve směru na Sady pětatřicátníků.; nehoda; 3 havarovaná vozidla; DN 3 x OA bez zranění, únik provozních kapalin nehlášen.',137.507977245768,87.0987477182867,'{accindet,personal_cars}'
6578,2015-06-09 15:30:00,'Od 9.6.2015 16:30 do 17:30; v ulici Wenzigova v obci Plzeň; U domu čp. 79/8 v ul. Wenzigova v Plzni.; nehoda; 2 havarovaná vozidla; DN 2 x OA s únikem oleje, bez zranění. Na místo HZS a hlídka PČR.',137.521595023548,87.101609051545,'{accindet,personal_cars}'
6579,2015-06-09 22:30:00,'Od 9.6.2015 23:30 do 10.6.2015 00:05; na silnici 26 u obce Vejprnice okres Plzeň-sever; všechny nehody byly odstraněny, nejsou hlášeny žádné další problémy; střet OA se zvěří, bez zranění osob.',137.449919290204,87.137227516592,'{accindet,personal_cars,animal_hit}'
