ID,od,popis,x,y,ts_flags
660,2013-06-27 18:05:00,'Od 27.6.2013 19:05 do 21:10; na silnici 18051 u obce Chotíkov okres Plzeň-sever; na výjezdu na Melesice; nehoda; 2 x OA bez zranění, na místo PČR.',137.46952462354,87.053399323157,'{accindet,personal_cars}'
661,2013-06-28 05:50:00,'Od 28.6.2013 06:50 do 08:55; na silnici 18044 u obce Nová Ves okres Plzeň-jih; ze Lhoty ve směru na Novou Ves za dálničním mostem,  OA a srna na pravé krajnici,; nehoda; střet OA se zvěří - srna na místě, bez zranění,',137.457281423539,87.1665904549392,'{accindet,personal_cars,animal_hit}'
662,2013-06-28 06:32:00,'I/27, v katastru obce Přeštice - v katastru obce Dolní Lukavice, okr. Plzeň-jih, nehoda, Od 28.06.2013 07:32 Do 28.06.2013 09:02',137.476740267986,87.2787931751589,{accindet}
663,2013-06-28 08:05:00,Od 28.6.2013 09:05 do 13:10; v ulici U Prazdroje v obci Plzeň; nehoda nákladního vozidla; jízdní pruh uzavřen; DN 2 x NA bez zranění,137.522259912437,87.1000661516633,'{accindet,trucks}'
664,2013-06-28 08:30:00,'Od 28.6.2013 09:30 do 11:35; na silnici 20 u obce Nevřeň okres Plzeň-sever; nehoda nákladního vozidla; probíhá vyšetřování nehody, nebezpečí; DN NA x OA bez zranění',137.435860623536,87.0256624087633,'{accindet,personal_cars,trucks}'
665,2013-06-28 10:33:00,'III/18010, v katastru obce Česká Bříza, okr. Plzeň-sever, nehoda, Od 28.06.2013 11:33 Do 28.06.2013 13:03',137.54407111244,87.0042717224741,{accindet}
666,2013-06-28 10:45:00,'Od 28.6.2013 11:45 do 14:50; na silnici 27 u obce Hromnice okres Plzeň-sever; nehoda; probíhají záchranné a vyprošťovací práce, nebezpečí; DN  2 x OA se zraněním, na místě složky IZS',137.522156090214,86.9845753561094,'{accindet,injury,personal_cars}'
667,2013-06-28 11:45:00,'Od 28.6.2013 12:45 do 15:50; v ulici Karlovarská v obci Plzeň; nehoda nákladního vozidla; DN, 1 NA, 1 OA, bez zranění, na místo PČR',137.510547912435,87.0898876176579,'{accindet,personal_cars}'
668,2013-06-28 11:50:00,'Od 28.6.2013 12:50 do 14:55; na silnici 27 v obci Lužany okres Plzeň-jih; nehoda; DN, 1 OA, střed se zvěří, na místo PČR',137.469144890207,87.3189290956691,'{accindet,personal_cars,animal_hit}'
669,2013-06-28 15:40:00,Od 28.6.2013 16:40 do 18:45; na silnici 26 v obci Líně okres Plzeň-sever; nehoda; DN 2 x OA bez zranění,137.441395912425,87.1450989434711,'{accindet,personal_cars}'
