ID,od,popis,x,y,ts_flags
6660,2015-06-18 12:40:00,'Od 18.6.2015 13:40 do 15:45; v ulici Tyršova v obci Plzeň; směrem z centra před odbočením do Sadů 5. května; nehoda; 2 havarovaná vozidla, neprůjezdný levý jízdní pruh; probíhá vyšetřování nehody; 2x OA, bez zranění osob.',137.516138667991,87.0976053431722,'{accindet,personal_cars}'
6661,2015-06-18 12:45:00,'Od 18.6.2015 13:45 do 14:50; na silnici u obce Plzeň; nehoda; neprůjezdný pruh, 2 havarovaná vozidla; probíhá vyšetřování nehody; 2x OA, bez zranění osob.',137.560665601331,87.1248165013605,'{accindet,personal_cars}'
6662,2015-06-18 12:50:00,'Od 18.6.2015 13:50 do 15:55; na silnici 1806 u obce Třemošná okres Plzeň-sever; nehoda; havarované vozidlo; probíhají záchranné a vyprošťovací práce; havárie OA, se zraněním, složky IZS jedou na místo.',137.499997156878,87.0178438877016,'{accindet,injury,personal_cars}'
6663,2015-06-18 14:35:00,'Od 18.6.2015 15:35 do 16:40; v ulici Folmavská v obci Plzeň; nehoda; neprůjezdný pruh, 2 havarovaná vozidla; probíhá vyšetřování nehody; 2x OA, bez zranění osob.',137.484222579098,87.1180554420902,'{accindet,personal_cars}'
6664,2015-06-18 15:10:00,'Od 18.6.2015 16:10 do 17:15; v ulici Vejprnická v obci Plzeň; ve směru z centra; nehoda, silný provoz; neprůjezdný pruh, 2 havarovaná vozidla; probíhá vyšetřování nehody; 2x OA, bez zranění osob.',137.482660267987,87.1051546909954,'{accindet,personal_cars}'
6665,2015-06-18 17:30:00,'Od 18.6.2015 18:30 do 19:35; v ulici Žižkova v obci Plzeň; nehoda; havarované vozidlo; probíhá vyšetřování nehody; OA x cyklista, bez zranění osob.',137.506195201323,87.1181346524261,'{accindet,personal_cars,cyclist}'
6666,2015-06-18 20:05:00,'Od 18.6.2015 21:05 do 23:10; v ulici Jateční v obci Plzeň; křižovatka Jateční x Těšínská v Plzni; nehoda; střet dvou OA bez zranění, na místo PČR',137.53075413466,87.096903177551,'{accindet,personal_cars}'
6667,2015-06-18 23:10:00,'Od 19.6.2015 00:10 do 20.6.2015 04:00; na silnici 20 v obci Bezvěrov okres Plzeň-sever; Aktuální stav: 01.35 hod. - NN v katastru Bezvěrov; Pozor! Nadměrný náklad; Nadměrný náklad PLZEŇ - LOVOSICEPřeprava turbíny.Parametry NN: d = 28 m; š = 4 m; v = 5,05 m; hmotnost = 216,99 t.Zbývající trasa přepravy: I/20 Toužim, II/198 Kojšovice, Bochov, I/6 Bošov, Herstošice, Budov, Skřipová, Bošov, Libkovice, Lubenec, Bukov, I/27 Blšany, Pšov, Radíčeves, Žatec, II/225, Drahomyšl, Zeměchy, I/7 Raná, I/28, II/249 Libčeves, I/15 Želkovice, Jenčice, nájezd na D8 směr Praha, sjezd exit 45, II/247 Lukavec, Lovosice-přístav.',137.283513601292,86.8242737674692,{accindet}
6668,2015-06-19 05:40:00,'Od 19.6.2015 06:40 do 08:45; na silnici 27 u obce Plzeň; - ve směru na Plzeň; nehoda; - havárie OA do příkopu, bez zranění, na místo PČR',137.503591823545,87.1520203980197,'{accindet,personal_cars}'
6669,2015-06-19 05:50:00,'Od 19.6.2015 06:50 do 07:55; na silnici 205 u obce Loza okres Plzeň-sever; - ve směru na Lozu; nehoda; - srážka OA se zvěří, na místo PČR',137.452435201316,86.925279131893,'{accindet,personal_cars,animal_hit}'
