ID,od,popis,x,y,ts_flags
6680,2015-06-19 21:25:00,'Od 19.6.2015 22:25 do 23:25; v ulici Husova v obci Plzeň; před vchodem do autobusového nádraží; nehoda; 2 havarovaná vozidla; probíhá vyšetřování nehody; 2x OA, bez zranění osob.',137.502396445767,87.1011699569027,'{accindet,personal_cars}'
6681,2015-06-19 21:40:00,'Od 19.6.2015 22:40 do 23:40; na silnici 2313 v obci Hromnice okres Plzeň-sever; na křižovatce u JZD; nehoda; 2 havarovaná vozidla; probíhá vyšetřování nehody; 2x OA, bez zranění osob.',137.574446934666,87.0005749355857,'{accindet,personal_cars}'
6682,2015-06-19 22:00:00,'Od 19.6.2015 23:00 do 20.6.2015 00:00; na silnici 26 v obci Plzeň; u Makra; nehoda; havarované vozidlo; probíhá vyšetřování nehody; havárie OA, bez zranění osob.',137.47264071243,87.1180763448292,'{accindet,personal_cars}'
6683,2015-06-20 01:40:00,'D5 - 93km na trase Praha - Rozvadov, nehoda, havarované vozidlo, probíhá vyšetřování nehody, Od 20.06.2015 02:40 Do 20.06.2015 04:30, nehoda; 2 havarovaná vozidla; probíhá vyšetřování nehody; 2x OA, bez zranění osob.',137.404563201309,87.1448603324625,'{accindet,personal_cars}'
6684,2015-06-20 07:50:00,'Od 20.6.2015 08:50 do 10:55; na silnici 182 u obce Kbel okres Plzeň-jih; nehoda; zvěř na vozovce; probíhá vyšetřování nehody; srážka OA se zvěří, bez zranění osob, průjezdné',137.513516801324,87.3815836355842,'{accindet,personal_cars,animal_hit}'
6685,2015-06-20 08:10:00,'Od 20.6.2015 09:10 do 11:15; na silnici u obce Plasy okres Plzeň-sever; mezi Plasy a Horním Hradištěm.; nehoda; havarované vozidlo; překážka na vozovce, průjezd se zvýšenou opatrností; havárie OA bez zranění, na místo PČR a HZS - OA visí ve stráni',137.510798223546,86.8816912865357,'{accindet,personal_cars}'
6686,2015-06-20 11:45:00,'Od 20.6.2015 12:45 do 14:00; v ulici Husova v obci Plzeň; u Husova náměstí.; nehoda odstraněna; provoz v jízdním pruhu obnoven; 2 x OA bez zranění, průjezdné  s opatrností.',137.504338490212,87.1014747924136,'{accindet,personal_cars}'
6687,2015-06-20 12:20:00,'Od 20.6.2015 13:20 do 15:15; v ulici Rokycanská v obci Šťáhlavy okres Plzeň-město; nehoda odstraněna; provoz v jízdním pruhu obnoven; NA x pevná překážka, průjezdné s opatrností',137.605542401337,87.1781983656673,'{accindet,trucks}'
6688,2015-06-20 13:20:00,Od 20.6.2015 14:20 do 16:25; v ulici Dobřanská v obci Plzeň; nehoda; 2 havarovaná vozidla; probíhá vyšetřování nehody; OA x MOTO se zraněním.,137.480162134653,87.1427963577336,'{accindet,injury,personal_cars}'
6689,2015-06-20 14:10:00,'Od 20.6.2015 15:10 do 17:15; v ulici Bzenecká v obci Plzeň; nehoda; 2 havarovaná vozidla; probíhá vyšetřování nehody; 2 x OA bez zranění, průjezdné.',137.494894934655,87.0860074211231,'{accindet,personal_cars}'
