ID,od,popis,x,y,ts_flags
6710,2015-06-22 14:50:00,'Od 22.6.2015 15:50 do 18:55; v ulici Dobrovského v obci Plzeň; Klatovská x Dobrovského; nehoda autobusu; trolejbus + OA bez zranění, překáží provozu, zvýšená opatrnost, ohrožení BESIP',137.507928890212,87.1135776667568,'{accindet,personal_cars}'
6711,2015-06-22 14:55:00,'Od 22.6.2015 15:55 do 18:00; na silnici 203 u obce Vejprnice okres Plzeň-sever; nehoda; 2x OA v příkopu, bez zranění bez úniku PHM, na místě HZS a PČR',137.428694756868,87.1211489584527,'{accindet,personal_cars}'
6712,2015-06-22 15:50:00,'Od 22.6.2015 16:50 do 18:55; na silnici 18027 v obci Dolní Lukavice okres Plzeň-jih; nehoda; 2x OA se zraněním, zvýšená opatrnost, ohrožení BESIP, na místo RZS, policie',137.484136534654,87.2723444566089,'{accindet,injury,personal_cars}'
6713,2015-06-22 15:55:00,'Od 22.6.2015 16:55 do 19:00; v ulici Benešova třída v obci Nýřany okres Plzeň-sever; nehoda; 2x OA, bez zranění, bez úniku PHM, na místo policie',137.398112001308,87.1348816994013,'{accindet,personal_cars}'
6714,2015-06-22 16:30:00,'Od 22.6.2015 17:30 do 19:35; v ulici Chebská v obci Plzeň; nehoda; OA x cyklistka, bez zranění, překáží provozu, zvýšená opatrnost',137.459878401317,87.0890708734847,'{accindet,personal_cars,cyclist}'
6715,2015-06-22 16:50:00,'Od 22.6.2015 17:50 do 19:55; v ulici Zborovská v obci Plzeň; nehoda; 2x OA bez zranění, bez úniku PHM, zvýšená opatrnost, ohrožení BESIP',137.516850490214,87.1205736131788,'{accindet,personal_cars}'
6716,2015-06-22 20:00:00,'Od 22.6.2015 21:00 do 23.6.2015 00:05; v ulici Dlouhá v obci Plzeň; nehoda nákladního vozidla; kamion x souprava bez zranění, překáží provozu, zvýšená opatrnost, na místo hlídka policie.',137.538358045772,87.0994718701986,{accindet}
6717,2015-06-23 05:20:00,'Od 23.6.2015 06:20 do 08:25; v ulici Univerzitní v obci Plzeň; nehoda; 2 x OA bez zranění, únik PHM, na místo policie a HZS, zvýšená opatrnost, ohrožení BESIP.',137.490241423543,87.1266116794949,'{accindet,personal_cars}'
6718,2015-06-23 05:30:00,'Od 23.6.2015 06:30 do 08:35; na silnici 180 u obce Dobřany okres Plzeň-jih; nehoda; havárie OA bez zranění, bez úniku PHM, překáží provozu, zvýšená opatrnost.',137.488004979099,87.1961701567657,'{accindet,personal_cars}'
6719,2015-06-23 13:00:00,'Od 23.6.2015 14:00 do 16:05; na silnici 180 v obci Čeminy okres Plzeň-sever; nehoda; 2 havarovaná vozidla; probíhá vyšetřování nehody; 2x OA, bez zranění osob.',137.424041956867,87.042486967671,'{accindet,personal_cars}'
