ID,od,popis,x,y,ts_flags
6760,2015-06-27 11:45:00,'Od 27.6.2015 12:45 do 16:45; na silnici 27 u obce Třemošná okres Plzeň-sever; za výjezdem z obce; nehoda nákladního vozidla; probíhají záchranné a vyprošťovací práce, nebezpečí; NA x OA, osoba zaklíněna ve vozidle, jede HZS, ZZS, PČR, v místě DN je řízena doprava kyvadlově (jeden jízdní pruh blokován)',137.521495467992,87.0034790241787,'{accindet,personal_cars,trucks}'
6761,2015-06-27 15:45:00,'Od 27.6.2015 16:45 do 17:35; v ulici Koterovská v obci Plzeň; u Galerie Dvořák, provoz není omezen; všechny nehody byly odstraněny, nejsou hlášeny žádné další problémy; 2x OA bez zranění, jede PČR',137.529540267993,87.1157516900823,'{accindet,personal_cars}'
6762,2015-06-27 21:35:00,Od 27.6.2015 22:35 do 23:35; na silnici 203 u obce Vejprnice okres Plzeň-sever; mezi Vejprnicemi a Tlučnou; nehoda; 2 havarovaná vozidla; 2 x OA se zraněním a únikem provozních kapalin. Na místo všechny složky IZS.,137.433680356869,87.1193612974912,'{accindet,injury,personal_cars}'
6763,2015-06-27 23:25:00,'Od 28.6.2015 00:25 do 02:30; na silnici 1939 u obce Bezvěrov okres Plzeň-sever; za obcí ve směru na Služetín; nehoda; střet se zvěří, na místo PČR.',137.292361245738,86.8146221787678,'{accindet,animal_hit}'
6764,2015-06-28 07:50:00,'Od 28.6.2015 08:50 do 09:50; v ulici Hřbitovní v obci Plzeň; křižovatka s ulicí Rokycanskou; nehoda; 2 havarovaná vozidla; probíhá vyšetřování nehody; 2x OA, bez zranění osob.',137.549115023551,87.1002620429926,'{accindet,personal_cars}'
6765,2015-06-28 16:20:00,'Od 28.6.2015 17:20 do 18:20; na silnici u obce Vrčeň okres Plzeň-jih; nehoda; havarované vozidlo; zvěř na vozovce; střet OA se zvěří, bez zranění osob.',137.692070401349,87.3506220706275,'{accindet,personal_cars,animal_hit}'
6766,2015-06-28 18:05:00,'Od 28.6.2015 19:05 do 20:05; na silnici 2312 v obci Hromnice okres Plzeň-sever; č. p. 119; nehoda; probíhá vyšetřování nehody; havárie cyklisty, se zraněním, ZZS a PČR jedou na místo.',137.558033067997,86.9879060110269,'{accindet,injury,cyclist}'
6767,2015-06-28 20:30:00,'Od 28.6.2015 21:30 do 22:30; na silnici třídy III u obce Plzeň; Na Klatovské u přehrady u F.a. Bergr.; nehoda; havarované vozidlo; Havárie OA bez zranění, únik provozních kapalin nehlášen.',137.496999112433,87.14668562459,'{accindet,personal_cars}'
6768,2015-06-28 23:10:00,Od 29.6.2015 00:10 do 01:10; v ulici Tyršova v obci Plzeň; Křižovatka ul. Tyršova x Sirkova x U Prazdroje.; nehoda; 2 havarovaná vozidla; OA x kamion beuz zranění a bez úniku provozních kapalin.,137.518596979103,87.1012546947464,'{accindet,injury,personal_cars}'
6769,2015-06-29 08:00:00,'Od 29.6.2015 09:00 do 11:05; na silnici 187 u obce Neurazy okres Plzeň-jih; nehoda; OA v příkopu, se zraněním, na místo hlídka a RZS, zvýšená opatrnost',137.616548268005,87.4337969031367,'{accindet,injury,personal_cars}'
