ID,od,popis,x,y,ts_flags
6800,2015-07-02 08:05:00,'Od 2.7.2015 09:05 do 11:10; v ulici Nádražní v obci Nepomuk okres Plzeň-jih; nehoda; 2 havarovaná vozidla; probíhá vyšetřování nehody, nebezpečí; 2x OA, bez zranění osob.',137.660955734678,87.3894629801904,'{accindet,personal_cars}'
6801,2015-07-02 10:05:00,'Od 2.7.2015 11:05 do 13:10; v ulicích Karlovarská, Gerská v obci Plzeň , délka 60m; nehoda; 2 havarovaná vozidla; překážka na vozovce, průjezd se zvýšenou opatrností; 2x OA, bez zranění osob.',137.504160001323,87.0725076432334,'{accindet,personal_cars}'
6802,2015-07-02 11:50:00,'Od 2.7.2015 12:50 do 14:55; na silnici 2038 v obci Přehýšov okres Plzeň-sever; nehoda; 2 havarovaná vozidla; překážka na vozovce, průjezd se zvýšenou opatrností; 2x OA, bez zranění osob.',137.335547023522,87.1491089883672,'{accindet,personal_cars}'
6803,2015-07-02 15:50:00,'Od 2.7.2015 16:50 do 18:55; na silnici 20 u obce Plzeň; nehoda, tvoří se kolona vozidel; 3 havarovaná vozidla; překážka na vozovce, průjezd se zvýšenou opatrností; 3x OA, bez zranění osob.',137.491587556877,87.0688871579918,'{accindet,personal_cars}'
6804,2015-07-02 16:30:00,'Od 2.7.2015 17:30 do 19:35; v ulici Sukova v obci Plzeň; nehoda; 2 havarovaná vozidla; překážka na vozovce, průjezd se zvýšenou opatrností; 2x OA, bez zranění osob.',137.502631112434,87.118908047171,'{accindet,personal_cars}'
6805,2015-07-02 17:30:00,'Od 2.7.2015 18:30 do 20:35; v ulici Americká v obci Plzeň; nehoda; 2 havarovaná vozidla; překážka na vozovce, průjezd se zvýšenou opatrností; 2x OA, bez zranění osob.',137.513570134658,87.1042413427037,'{accindet,personal_cars}'
6806,2015-07-02 21:30:00,'Od 2.7.2015 22:30 do 3.7.2015 00:30; na silnici 27 v obci Výrov okres Plzeň-sever; nehoda; OA x srnka, zvýšená opatrnost, ohrožení BESIP',137.565099379109,86.8608927191611,'{accindet,personal_cars}'
6807,2015-07-03 06:10:00,'Od 3.7.2015 07:10 do 09:15; na silnici 18036 u obce Chlumčany okres Plzeň-jih; nehoda; OA v příkopu, zvýšená opatrnost, ohrožení BESIP',137.459763912428,87.2199328218099,'{accindet,personal_cars}'
6808,2015-07-03 06:15:00,Od 3.7.2015 07:15 do 08:15; na silnici 233 u obce Chrást okres Plzeň-město; Za obcí Chrást cca 1 km ve směru na Plzeň u rozvodny.; nehoda; 2 havarovaná vozidla; 2x OA bez zranění a bez úniku provozních kapalin.,137.581372445778,87.0630562069154,'{accindet,personal_cars}'
6809,2015-07-03 07:20:00,Od 3.7.2015 08:20 do 09:20; na silnici 231 u obce Hromnice okres Plzeň-sever; Křižovatka Žichlice x Dolany na silnici II/231.; nehoda; 2 havarovaná vozidla; DN 2 x OA bez zranění a bez úniku provozních kapalin. Místo je průjezdné.,137.576932268,87.0054723237359,'{accindet,personal_cars}'
