ID,od,popis,x,y,ts_flags
6830,2015-07-05 15:45:00,'Od 5.7.2015 16:45 do 20:30; na silnici 20 u obce Úněšov okres Plzeň-sever; nehoda; probíhají záchranné a vyprošťovací práce, nebezpečí; Havárie DOD do mostku, se smrtelným zraněním. Zaklíněná osoba. IZS na místě. Průjezd s opatrností umožněn.',137.322963201298,86.9275215694732,'{accindet,injury,death}'
6831,2015-07-05 16:45:00,Od 5.7.2015 17:45 do 19:50; na silnici 20 u obce Seč okres Plzeň-jih; nehoda; Havárie OA. PČR na místo.,137.597209601336,87.2730728420478,'{accindet,personal_cars}'
6832,2015-07-05 16:55:00,Od 5.7.2015 17:55 do 20:00; v ulici Slovanská v obci Plzeň; nehoda; Střet 2x OA. PČR na místo.,137.527979379104,87.1237725863267,'{accindet,personal_cars}'
6833,2015-07-05 20:00:00,Od 5.7.2015 21:00 do 23:05; na silnici 11731 u obce Nezvěstice okres Plzeň-město; nehoda; Střet OA se srnou. PČR na místo.,137.62805760134,87.2171030750123,'{accindet,personal_cars,animal_hit}'
6834,2015-07-06 06:45:00,'Od 6.7.2015 07:45 do 09:50; na silnici 2318 u obce Jarov okres Plzeň-sever; nehoda; převrácené vozidlo; probíhá vyšetřování nehody; havárie OA, bez zranění osob.',137.556189867997,86.9524801177007,'{accindet,personal_cars}'
6835,2015-07-06 10:50:00,'Od 6.7.2015 11:50 do 12:50; v ulici Ke střílně v obci Zruč-Senec okres Plzeň-sever; všechny nehody byly odstraněny, nejsou hlášeny žádné další problémy; havárie cyklisty, ZZS a PČR jedou na místo.',137.537937779105,87.0448908298359,'{accindet,cyclist}'
6836,2015-07-06 11:30:00,'Od 6.7.2015 12:30 do 15:35; v ulici Skrétova v obci Plzeň; č. p. 29; nehoda nákladního vozidla; 2 havarovaná vozidla; probíhá vyšetřování nehody; OA x NA, bez zranění osob.',137.506777601323,87.105386877046,'{accindet,personal_cars}'
6837,2015-07-06 11:35:00,'Od 6.7.2015 12:35 do 14:40; na silnici 2058 u obce Pláně okres Plzeň-sever; nehoda; havarované vozidlo; probíhá vyšetřování nehody; havárie OA, se zraněním, ZZS a PČR jedou na místo.',137.475574045763,86.8784258149246,'{accindet,injury,personal_cars}'
6838,2015-07-06 12:15:00,'Od 6.7.2015 13:15 do 15:20; v ulici Bzenecká v obci Plzeň; nehoda; 2 havarovaná vozidla; probíhá vyšetřování nehody, nebezpečí; 2x OA, bez zranění osob.',137.494510223544,87.0860360420451,'{accindet,personal_cars}'
6839,2015-07-06 12:20:00,'Od 6.7.2015 13:20 do 15:25; na silnici 204 v obci Dolní Bělá okres Plzeň-sever; nehoda; havarované vozidlo; probíhá vyšetřování nehody; střet OA s cyklistou, se zraněním, ZZS a PČR jedou na místo.',137.438733512425,86.9360808288339,'{accindet,injury,personal_cars,cyclist}'
