ID,od,popis,x,y,ts_flags
690,2013-07-02 11:45:00,'Od 2.7.2013 12:45 do 14:50; v ulici Tyršova v obci Plzeň; křižovatka s ul.  Sady 5.května.; nehoda; 2 havarovaná vozidla; překážka na vozovce, průjezd se zvýšenou opatrností; OA x motocykl, se zraněním, únik PHM, PČR a RZS jede na místo.',137.511902579102,87.0964585412532,'{accindet,injury,personal_cars}'
691,2013-07-02 13:10:00,'Od 2.7.2013 14:10 do 16:15; na silnici 232 u obce Kozojedy okres Plzeň-sever; nehoda; převrácené vozidlo; OA na střeše, se zrněním, složky IZS jedou na místo.',137.630778312452,86.8931127835495,'{accindet,personal_cars}'
692,2013-07-02 13:10:00,'III/20132, v katastru obce Kozojedy, okr. Plzeň-sever, nehoda, Od 02.07.2013 14:10 Do 02.07.2013 15:10, Pozor!, Dopravní nehoda, převrácené osobní vozidlo',137.615609601339,86.8807531055573,{accindet}
693,2013-07-02 13:10:00,'Od 2.7.2013 14:10 do 16:15; v ulici Mikulášské náměstí v obci Plzeň; nehoda; 2 havarovaná vozidla; překážka na vozovce, průjezd se zvýšenou opatrností; OA x tram bez zraněníl osob.',137.52075804577,87.1087419077852,'{accindet,personal_cars}'
694,2013-07-02 13:30:00,'Od 2.7.2013 14:30 do 16:35; v ulici Solní v obci Plzeň; u pošty.; nehoda; 2 havarovaná vozidla; 2 x OA se zraněním, bez úniku PHM, RZS a PČR  jedou na místo.',137.510852267991,87.0987499193712,'{accindet,injury,personal_cars}'
695,2013-07-02 13:50:00,'Od 2.7.2013 14:50 do 16:55; na silnici u obce Druztová okres Plzeň-sever; křižovatka Zruč a Druztová.; nehoda; 2 havarovaná vozidla; OA x dodávka bez zranění a úniku PHM, PČR jede na místo.',137.552873245774,87.0477451377725,'{accindet,personal_cars}'
696,2013-07-02 16:15:00,'Od 2.7.2013 17:15 do 19:20; v ulici Blatenská v obci Plzeň; nehoda; 2 havarovaná vozidla; OA x motocykl se zraněním, RZS a PČR jede na místo.',137.534065779105,87.1148638278889,'{accindet,injury,personal_cars}'
697,2013-07-02 17:30:00,'Od 2.7.2013 18:30 do 20:35; v ulici Slovanská v obci Plzeň; nehoda; 2 havarovaná vozidla; překážka na vozovce, průjezd se zvýšenou opatrností; 2 x OA bez zranění, a úniku PHM.',137.523877690215,87.1167022473678,'{accindet,personal_cars}'
698,2013-07-03 03:40:00,'Od 3.7.2013 04:40 do 07:45; na silnici 20 u obce Nepomuk okres Plzeň-jih; Nepomuk odbočka na Krasavce; nehoda nákladního vozidla; NA x prase, bez zranění, bez úniku',137.665932090234,87.3901033039239,'{accindet,animal_hit,trucks}'
699,2013-07-03 05:25:00,'Od 3.7.2013 06:25 do 08:30; v ulici Plaská v obci Plzeň; Plaská,PlzeŇ; nehoda; 2xOA bez zranění, bez úniku PHM, překáží provozu, PČR jede na místo',137.516238934658,87.0638370076618,{accindet}
