ID,od,popis,x,y,ts_flags
6900,2015-07-14 04:40:00,'Od 14.7.2015 05:40 do 07:45; na silnici 18054 u obce Všeruby okres Plzeň-sever; křižovatka ul. Chrančovice a Chrástov.; nehoda; 2 havarovaná vozidla; 2 x OA bez zranění, průjezdné',137.353043912413,86.9961810156331,'{accindet,personal_cars}'
6901,2015-07-14 06:00:00,'Od 14.7.2015 07:00 do 10:05; na silnici 180 u obce Dýšina okres Plzeň-město; mezi Kyšicemi a Dýšinou.; nehoda nákladního vozidla; 2 havarovaná vozidla; překážka na vozovce, průjezd se zvýšenou opatrností; NA x OA bez zranění.',137.595178668002,87.0781548015257,'{accindet,personal_cars,trucks}'
6902,2015-07-14 07:45:00,'Od 14.7.2015 08:45 do 09:45; v ulici Klatovská třída v obci Plzeň; nehoda; OA + NA, bez zranění',137.508315023546,87.1089454696096,'{accindet,personal_cars}'
6903,2015-07-14 13:40:00,'Od 14.7.2015 14:40 do 15:40; v ulici Plzeňská v obci Zbůch okres Plzeň-sever; nehoda; probíhají záchranné a vyprošťovací práce, nebezpečí; OA s cyklistou',137.404460090198,87.1762180995275,'{accindet,personal_cars,cyclist}'
6904,2015-07-14 16:00:00,Od 14.7.2015 17:00 do 18:00; na silnici 203 u obce Blatnice okres Plzeň-sever; nehoda; havárie OA,137.364994845748,87.1349355894663,'{accindet,personal_cars}'
6905,2015-07-14 16:35:00,Od 14.7.2015 17:35 do 18:35; na silnici 19 u obce Žákava okres Plzeň-jih; nehoda; 2x OA,137.626254223562,87.2262978322383,'{accindet,personal_cars}'
6906,2015-07-15 08:15:00,'Od 15.7.2015 09:15 do 11:20; na silnici 205 u obce Všeruby okres Plzeň-sever; nehoda; havarované vozidlo; probíhají záchranné a vyprošťovací práce; havárie OA, se zraněním, složky IZS jedou na místo.',137.430608356868,87.0039387685756,'{accindet,injury,personal_cars}'
6907,2015-07-15 09:50:00,'Od 15.7.2015 10:50 do 12:55; v ulici Tř. 1. máje v obci Přeštice okres Plzeň-jih; nehoda s únikem paliva; 5 havarovaných vozidel; probíhá vyšetřování nehody, nebezpečí; 5x OA, bez zranění osob.',137.477046045764,87.2814595299331,'{accindet,personal_cars}'
6908,2015-07-15 12:35:00,'Od 15.7.2015 13:35 do 15:40; na silnici 180 u obce Kozolupy okres Plzeň-sever; nehoda; 3 havarovaná vozidla; probíhá vyšetřování nehody; 3x OA, bez zranění osob.',137.4214648902,87.0792128202848,'{accindet,personal_cars}'
6909,2015-07-15 14:45:00,'Od 15.7.2015 15:45 do 17:50; na silnici 27 u obce Plzeň; nehoda s únikem paliva; 2 havarovaná vozidla; probíhá vyšetřování nehody; 2x OA, bez zranění osob, HZS a PČR jedou na místo.',137.502482490212,87.1450989434711,'{accindet,personal_cars}'
