ID,od,popis,x,y,ts_flags
7090,2015-08-02 09:40:00,'Od 2.8.2015 10:40 do 11:40; v ulici Novoveská v obci Plzeň; nehoda; neprůjezdný pruh, 2 havarovaná vozidla; probíhá vyšetřování nehody; OA x karavan, bez zranění, na místě PČR.',137.463974401317,87.1644547731323,'{accindet,personal_cars}'
7091,2015-08-02 16:15:00,'Od 2.8.2015 17:15 do 18:20; v ulici Plzeňská v obci Zbůch okres Plzeň-sever; nehoda; neprůjezdný pruh, 2 havarovaná vozidla; probíhá vyšetřování nehody; 3 x OA bez zranění, na místě PČR',137.40515911242,87.175510372853,'{accindet,personal_cars}'
7092,2015-08-02 17:00:00,'Od 2.8.2015 18:00 do 20:05; na silnici 27 u obce Dobřany okres Plzeň-jih; Odklon vozidel směr Plzeň  na Hradčanské křižovatce. Objízdná trasa je před Chlumčany a Dobřany zpět na silnici I/27; nehoda, doprava odkloněna po objízdné trase; neprůjezdný pruh, 3 havarovaná vozidla; probíhá vyšetřování nehody; 3 x OA, bez zranění, na místě PČR, ZZS, HZS.',137.483094756876,87.2165013090033,'{accindet,personal_cars}'
7093,2015-08-02 17:40:00,'Od 2.8.2015 18:40 do 21:50; v ulici Skvrňanská v obci Plzeň; U CAN.; nehoda; 2 havarovaná vozidla; probíhá vyšetřování nehody; Tramvaje x OA, jedna lehce zranění osoba.',137.500039823545,87.1006384164508,'{accindet,injury,personal_cars}'
7094,2015-08-02 18:30:00,'Od 2.8.2015 19:30 do 20:35; na silnici 2038 u obce Kotovice okres Plzeň-jih; nehoda; - srážka OA se zvěří, na místo PČR',137.365100090193,87.1863692095012,'{accindet,personal_cars,animal_hit}'
7095,2015-08-03 05:55:00,'Od 3.8.2015 06:55 do 08:00; na silnici 2033 u obce Tlučná okres Plzeň-sever; nehoda s únikem oleje; - 2 x OA, bez zranění, na místo PČR, HZS',137.426085690201,87.1116027054784,'{accindet,personal_cars}'
7096,2015-08-03 08:45:00,'Od 3.8.2015 09:45 do 11:50; v ulici Klatovská třída v obci Plzeň; nehoda; 4x OA, bez zranění, na místo PČR',137.509410845768,87.1022132134581,'{accindet,personal_cars}'
7097,2015-08-03 13:00:00,'Od 3.8.2015 14:00 do 16:05; v ulici Koterovská v obci Plzeň; Koterovská ulice v Plzni; nehoda; střet dvou OA bez zranění, na místo PČR',137.532164979105,87.1174745627029,'{accindet,personal_cars}'
7098,2015-08-03 13:00:00,'Od 3.8.2015 14:00 do 16:05; v ulici Mikulášské náměstí v obci Plzeň; nehoda; 2x OA, bez zranění, na místo PČR',137.51942044577,87.1075546317348,'{accindet,personal_cars}'
7099,2015-08-03 15:05:00,'Od 3.8.2015 16:05 do 18:10; na silnici 27 u obce Horní Lukavice okres Plzeň-jih; nehoda; 2x OA, bez zranění, na místo PČR',137.477213867986,87.2389893581299,'{accindet,personal_cars}'
