ID,od,popis,x,y,ts_flags
7140,2015-08-08 07:50:00,'Od 8.8.2015 08:50 do 10:50; v ulici Koterovská v obci Plzeň; nehoda; havarované vozidlo; překážka na vozovce, průjezd se zvýšenou opatrností; havárie OA, bez zranění osob.',137.537390934661,87.1208321342886,'{accindet,personal_cars}'
7141,2015-08-08 09:15:00,'Od 8.8.2015 10:15 do 12:20; na silnici 20 u obce Životice okres Plzeň-jih; nehoda; havarované vozidlo; zvěř na vozovce; střet OA se zvěří, bez zranění osob.',137.726377245798,87.4100611505148,'{accindet,personal_cars,animal_hit}'
7142,2015-08-09 05:50:00,Od 9.8.2015 06:50 do 08:55; na silnici 23110 u obce Plasy okres Plzeň-sever; nehoda; Havárie motocyklu se zraněním. IZS a PČR na místo.,137.563272534665,86.8927758198323,'{accindet,injury}'
7143,2015-08-09 06:25:00,'Od 9.8.2015 07:25 do 08:30; na silnici 201 u obce Chříč okres Plzeň-sever; - ve směru na Chříč; nehoda; havárie OA do příkopu, bez zranění, na místo PČR',137.739818668022,86.8634263836026,'{accindet,personal_cars}'
7144,2015-08-09 15:05:00,'Od 9.8.2015 16:05 do 18:10; na silnici 20 u obce Kasejovice okres Plzeň-jih; nehoda; převrácené vozidlo; probíhají záchranné a vyprošťovací práce; havárie OA mimo vozovku, se zraněním osob, na místě PČR, ZZS a HZS.',137.780674845806,87.4157373338432,'{accindet,injury,personal_cars}'
7145,2015-08-09 18:35:00,'Od 9.8.2015 19:35 do 20:40; na silnici 27 u obce Kralovice okres Plzeň-sever; nehoda; havarované vozidlo; zvěř na vozovce; střet OA se zvěří, bez zranění osob.',137.589230934668,86.824485056159,'{accindet,personal_cars,animal_hit}'
7146,2015-08-09 20:20:00,'Od 9.8.2015 21:20 do 22:25; na silnici 26 u obce Zbůch okres Plzeň-sever; směr Domažlice; nehoda; havarované vozidlo; zvěř na vozovce; střet OA se zvěří, bez zranění osob.',137.414991645755,87.1668146800899,'{accindet,personal_cars,animal_hit}'
7147,2015-08-10 09:20:00,Od 10.8.2015 10:20 do 11:20; na silnici 19 v obci Spálené Poříčí okres Plzeň-jih; nehoda; OA x sanita bez zranění.,137.70387769024,87.2530430179948,'{accindet,personal_cars}'
7148,2015-08-10 09:25:00,Od 10.8.2015 10:25 do 11:25; na silnici u obce Plzeň; nehoda; havárie OA bez zranění.,137.508862579101,87.1431768300351,'{accindet,personal_cars}'
7149,2015-08-10 11:50:00,Od 10.8.2015 12:50 do 13:50; na silnici 20 u obce Plzeň; nehoda; havárie OA bez zranění.,137.554033067997,87.1655286701252,'{accindet,personal_cars}'
