ID,od,popis,x,y,ts_flags
7200,2015-08-15 12:55:00,'Od 15.8.2015 13:55 do 16:00; na silnici 27 u obce Přeštice okres Plzeň-jih; nehoda; havárie OA, bez zranění, na místo PČR, vozidlo s vlekem mimo vozovku',137.474174579097,87.3022659150932,'{accindet,personal_cars}'
7201,2015-08-15 15:20:00,'Od 15.8.2015 16:20 do 18:30; v ulici Karlovarská v obci Plzeň; nehoda; probíhá vyšetřování nehody, nebezpečí; DN 2x OA bez zranění, bez úniku kapalin, provoz omezen na křižovatce Karlovarská-Lidická',137.506664534657,87.0857333199779,'{accindet,personal_cars}'
7202,2015-08-15 18:15:00,'Od 15.8.2015 19:15 do 22:10; na silnici 27 u obce Chlumčany okres Plzeň-jih; nehoda; havarované vozidlo; probíhá vyšetřování nehody; havárie OA mimo komunikaci,  bez zranění osob.',137.480227556875,87.2286242702363,'{accindet,personal_cars}'
7203,2015-08-16 02:15:00,'Od 16.8.2015 03:15 do 05:15; v ulici Plzeňská v obci Plasy okres Plzeň-sever; nehoda; havarované vozidlo; probíhají záchranné a vyprošťovací práce; havárie OA mimo komunikaci, se zraněním osob. Na místo jede ZZS, HZS a PČR.',137.522890667992,86.8931967479471,'{accindet,injury,personal_cars}'
7204,2015-08-16 08:55:00,'Od 16.8.2015 09:55 do 12:00; v ulici Studentská v obci Plzeň , délka 46m; nehoda; havarované vozidlo; probíhá vyšetřování nehody, nebezpečí; střet OA s chodcem, se zraněním, ZZS a PČR jedou na místo.',137.501659023545,87.0685920467864,'{accindet,pedestrian_involvement,injury,personal_cars}'
7205,2015-08-16 09:25:00,'Od 16.8.2015 10:25 do 12:30; na silnici 27 u obce Plasy okres Plzeň-sever; nehoda; havarované vozidlo; probíhá vyšetřování nehody; havárie OA, bez zranění osob.',137.527854223549,86.8895773203129,'{accindet,personal_cars}'
7206,2015-08-16 10:50:00,'Od 16.8.2015 11:50 do 13:55; v ulici Tylova v obci Plzeň; nehoda; 2 havarovaná vozidla; probíhá vyšetřování nehody; 2x OA, bez zranění osob.',137.498883556878,87.1014351749005,'{accindet,personal_cars}'
7207,2015-08-16 14:00:00,'Od 16.8.2015 15:00 do 15:55; v ulicích Osvobozených politických vězňů, Revoluční v obci Nýřany okres Plzeň-sever , délka 82m; všechny nehody byly odstraněny, nejsou hlášeny žádné další problémy; 2x OA, bez zranění osob.',137.383332979084,87.1384273298175,'{accindet,personal_cars}'
7208,2015-08-16 16:40:00,'Od 16.8.2015 17:40 do 19:45; na silnici v obci Hromnice okres Plzeň-sever; nehoda; havarované vozidlo; zvěř na vozovce; střet OA se zvěří, bez zranění osob.',137.564482134665,86.9928166931062,'{accindet,personal_cars,animal_hit}'
7209,2015-08-16 16:45:00,'Od 16.8.2015 17:45 do 19:50; na silnici 20 u obce Chválenice okres Plzeň-město; nehoda; 3 havarovaná vozidla; probíhají záchranné a vyprošťovací práce; 3x OA, složky IZS jedou na místo.',137.578407112444,87.2055047093326,'{accindet,personal_cars}'
