ID,od,popis,x,y,ts_flags
7240,2015-08-18 08:40:00,'Od 18.8.2015 09:40 do 11:45; na silnici 27 u obce Plzeň; směr od Plzně, před kruhovým objezdem.; nehoda; havarované vozidlo; překážka na vozovce, průjezd se zvýšenou opatrností; havárie OA bez zranění, OA mimo komunikaci',137.52137884577,87.0369374001106,'{accindet,personal_cars}'
7241,2015-08-18 10:15:00,'Od 18.8.2015 11:15 do 13:20; na silnici 231 u obce Hromnice okres Plzeň-sever; nehoda; 2 havarovaná vozidla; překážka na vozovce, průjezd se zvýšenou opatrností; 2 x OA bez zranění.',137.571466667999,87.0059574074865,'{accindet,personal_cars}'
7242,2015-08-18 13:20:00,'Od 18.8.2015 14:20 do 16:25; v ulici Břeňkova v obci Plzeň; nehoda; 2 havarovaná vozidla; překážka na vozovce, průjezd se zvýšenou opatrností; 2 x OA bez zranění, průjezdné s opatrností',137.502673779101,87.1069527310106,'{accindet,personal_cars}'
7243,2015-08-18 13:45:00,'Od 18.8.2015 14:45 do 16:50; v ulici Domažlická v obci Plzeň; na kruhovém objezdu u prodejny MAKRO.; nehoda; 2 havarovaná vozidla; 2 x OA bez zranění, průjezdné s opatrností',137.473016179096,87.1163479907279,'{accindet,personal_cars}'
7244,2015-08-18 14:05:00,'Od 18.8.2015 15:05 do 17:10; na silnici 20 u obce Chotíkov okres Plzeň-sever; směr Plzeň.; nehoda; 2 havarovaná vozidla; překážka na vozovce, průjezd se zvýšenou opatrností; 2 x OA bez zranění.',137.478191645764,87.0528441754352,'{accindet,personal_cars}'
7245,2015-08-18 21:20:00,'Od 18.8.2015 22:20 do 19.8.2015 00:25; na silnici 605 u obce Plešnice okres Plzeň-sever; nehoda; srážka se zveří, bez zranění',137.383086934639,87.0785896817022,{accindet}
7246,2015-08-19 00:40:00,'Od 19.8.2015 01:40 do 04:45; na silnici 20 u obce Losiná okres Plzeň-město; nehoda nákladního vozidla; NA srážka se zvěří, bez zranění, průjezdné',137.560081779109,87.1751872771246,'{accindet,animal_hit,trucks}'
7247,2015-08-19 10:25:00,'Od 19.8.2015 11:25 do 12:30; na silnici 20 u obce Nezbavětice okres Plzeň-město; nehoda; 3 havarovaná vozidla; probíhá vyšetřování nehody; 3x OA, bez zranění osob.',137.576925868,87.1945816486295,'{accindet,personal_cars}'
7248,2015-08-19 11:20:00,'Od 19.8.2015 12:20 do 13:25; na silnici v obci Plzeň; pod viaduktem; nehoda; neprůjezdný pruh, 2 havarovaná vozidla; probíhá vyšetřování nehody; 2x OA, bez zranění osob.',137.467066312429,87.1120043051929,'{accindet,personal_cars}'
7249,2015-08-19 12:35:00,'Od 19.8.2015 13:35 do 14:40; v ulici Hřbitovní v obci Plzeň; nehoda; 2 havarovaná vozidla; probíhá vyšetřování nehody; 2x OA, bez zranění osob.',137.549152001329,87.0960028952644,'{accindet,personal_cars}'
