ID,od,popis,x,y,ts_flags
7250,2015-08-19 13:05:00,'Od 19.8.2015 14:05 do 16:10; v ulici 17. listopadu v obci Plzeň; nehoda; 2 havarovaná vozidla; probíhá vyšetřování nehody; 2x OA, bez zranění osob.',137.508377601324,87.1191720769515,'{accindet,personal_cars}'
7251,2015-08-19 13:20:00,'Od 19.8.2015 14:20 do 15:25; na silnici 180 u obce Chotěšov okres Plzeň-jih; nehoda; havarované vozidlo; probíhá vyšetřování nehody, nebezpečí; havárie OA do stromu, bez zranění osob.',137.412721067977,87.1986835503819,'{accindet,personal_cars}'
7252,2015-08-19 14:10:00,'Od 19.8.2015 15:10 do 16:15; na silnici 02017 u obce Hradiště okres Plzeň-jih; nehoda; 2 havarovaná vozidla; probíhají záchranné a vyprošťovací práce; 2x OA, se zraněním, složky IZS jedou na místo.',137.801613512476,87.442440591822,'{accindet,injury,personal_cars}'
7253,2015-08-19 16:40:00,'Od 19.8.2015 17:40 do 18:45; v ulici Jateční v obci Plzeň; nehoda; neprůjezdný pruh, 4 havarovaná vozidla; probíhá vyšetřování nehody, nebezpečí; 4x OA, bez zranění osob.',137.530774756882,87.0934065193826,'{accindet,personal_cars}'
7254,2015-08-19 20:05:00,'Od 19.8.2015 21:05 do 22:10; v ulici Přemyslova v obci Plzeň; křižovatka s ul. Kotkova.; nehoda; neprůjezdný pruh, 2 havarovaná vozidla; 2 x OA, bez zranění, na místě PČR.',137.504557512434,87.0988390632183,'{accindet,personal_cars}'
7255,2015-08-20 00:40:00,'Od 20.8.2015 01:40 do 02:40; v ulici Pod Krkavcem v obci Třemošná okres Plzeň-sever; nehoda; zvěř na vozovce; probíhá vyšetřování nehody; OA x zvěř, bez zranění osob. Na místě PČR.',137.493252267988,87.0366244829377,'{accindet,personal_cars,animal_hit}'
7256,2015-08-20 09:35:00,'Od 20.8.2015 10:35 do 12:40; v ulici Přemyslova v obci Plzeň; nehoda; porucha NA, překáží provozu, na místo police, zvýšená opatrnost',137.505068090212,87.0986508704778,{accindet}
7257,2015-08-20 11:10:00,'Od 20.8.2015 12:10 do 14:15; v ulici U Radbuzy v obci Plzeň; nehoda; 2x OA bez zranění, bez úniku PHM, nepřekáží provozu',137.51602915688,87.1082907680031,'{accindet,personal_cars}'
7258,2015-08-20 13:55:00,'Od 20.8.2015 14:55 do 17:00; na silnici 20 u obce Vlčtejn okres Plzeň-jih; nehoda; převrácená dodávka, bez zranění, bez úniku PHM, překáží provozu, zvýšená opatrnost',137.593639112447,87.2467843547569,{accindet}
7259,2015-08-20 14:10:00,'Od 20.8.2015 15:10 do 17:15; na silnici 27 u obce Borovy okres Plzeň-jih; nehoda; dodávka v příkopu, bez zranění, únik kapalin, na místo HZS a PČR',137.461664712428,87.3337715223987,{accindet}
