ID,od,popis,x,y,ts_flags
7260,2015-08-20 16:10:00,'Od 20.8.2015 17:10 do 19:15; na silnici 27 u obce Dobřany okres Plzeň-jih; směr Plzeň; nehoda; porouchané OA, bez zranění, bez úniku PHM překáží provozu, zvýšená opatrnost',137.490407112432,87.1926360463397,'{accindet,personal_cars}'
7261,2015-08-20 16:25:00,'Od 20.8.2015 17:25 do 19:30; v ulici Bezručova v obci Plzeň; nehoda; 2x OA bez zranění, bez úniku PHM, překáží provozu, na místo policie',137.511733334657,87.1016684776102,'{accindet,personal_cars}'
7262,2015-08-20 18:50:00,'Od 20.8.2015 19:50 do 21:55; v ulici Pod Vinicemi v obci Plzeň; nehoda; havarované vozidlo; probíhají záchranné a vyprošťovací práce, nebezpečí; havárie OA do sloupu, se zraněním, složky IZS jedou na místo.',137.497491912433,87.089305330975,'{accindet,injury,personal_cars}'
7263,2015-08-21 09:20:00,'Od 21.8.2015 10:20 do 10:30; v ulici Studentská v obci Plzeň; nehoda; DN OA x chodec, se zraněním',137.511953779102,87.0691767618045,'{accindet,pedestrian_involvement,injury,personal_cars}'
7264,2015-08-21 09:20:00,'Od 21.8.2015 10:20 do 11:25; v ulici Studentská v obci Plzeň; nehoda; probíhají záchranné a vyprošťovací práce, nebezpečí; - OA x chodec, se zraněním, na místo PČR, ZZS',137.505360356879,87.0688298977363,'{accindet,pedestrian_involvement,injury,personal_cars}'
7265,2015-08-21 13:20:00,'Od 21.8.2015 14:20 do 15:25; na silnici 180 u obce Dobřany okres Plzeň-jih; - ve směru na Plzeň; nehoda; - dodávka x OA, bez zranění, na místo PČR',137.471298134652,87.2001741742475,'{accindet,personal_cars}'
7266,2015-08-21 14:50:00,'Od 21.8.2015 15:50 do 18:05; na silnici 20 u obce Chlum okres Plzeň-jih; - objízdná trasa v obou směrech přes obec Zdemyslice; všechny nehody byly odstraněny, nejsou hlášeny žádné další problémy; - 2 x OA, se zraněním, na místo PČR, ZZS, HZS, vrtulník',137.596196979114,87.2624620068639,'{accindet,injury,personal_cars}'
7267,2015-08-21 16:40:00,'Od 21.8.2015 17:40 do 18:45; v ulici Studentská v obci Plzeň; - křiž. s ul. Gerská; nehoda; - 2 x OA, bez zranění, na místo PČR',137.505551645768,87.0688398081695,'{accindet,personal_cars}'
7268,2015-08-21 18:05:00,'Od 21.8.2015 19:05 do 20:10; v ulici Letkovská v obci Kyšice okres Plzeň-město; nehoda; - OA x motocykl, bez zranění, na místo PČR',137.59008995689,87.0935463020551,'{accindet,personal_cars}'
7269,2015-08-21 18:05:00,'Od 21.8.2015 19:05 do 20:10; na silnici 20 u obce Líšťany okres Plzeň-sever; nehoda; - 2 x OA, bez zranění, na místo PČR',137.395775290197,86.9999828525529,'{accindet,personal_cars}'
