ID,od,popis,x,y,ts_flags
7280,2015-08-24 04:45:00,'Od 24.8.2015 05:45 do 07:50; na silnici 26 v obci Plzeň; na kruhovém objezdu u OC Makro.; nehoda; havarované vozidlo; překážka na vozovce, průjezd se zvýšenou opatrností; havárie OA bez zranění,',137.472542579096,87.1167099485731,'{accindet,personal_cars}'
7281,2015-08-24 06:00:00,'Od 24.8.2015 07:00 do 09:05; v ulici Zahradní v obci Plzeň; nehoda; 2 havarovaná vozidla; překážka na vozovce, průjezd se zvýšenou opatrností; 2 x OA, bez zranění a úniku PHM.',137.517127112436,87.1113254348717,'{accindet,personal_cars}'
7282,2015-08-24 06:40:00,'Od 24.8.2015 07:40 do 08:45; na silnici 20 u obce Plzeň; nehoda; - havárie OA mimo vozovku, na místo PČR',137.551572623552,87.1618331427304,'{accindet,personal_cars}'
7283,2015-08-24 08:00:00,'Od 24.8.2015 09:00 do 10:05; na silnici 180 u obce Úherce okres Plzeň-sever; nehoda; - 2 x OA, bez zranění, na místo PČR',137.405366756865,87.1490573116116,'{accindet,personal_cars}'
7284,2015-08-24 11:30:00,'Od 24.8.2015 12:30 do 13:35; v ulici 5. května v obci Zbůch okres Plzeň-sever; nehoda; probíhají záchranné a vyprošťovací práce, nebezpečí; - OA x cyklista, se zraněním, na místo PČR, ZZS',137.403882667976,87.1749872645042,'{accindet,injury,personal_cars,cyclist}'
7285,2015-08-24 11:50:00,'Od 24.8.2015 12:50 do 14:55; na silnici 18051 u obce Plzeň; cca 0,5 km za Malesicemi; nehoda; probíhá vyšetřování nehody, nebezpečí; DN OA bez zranění, automobil v příkopu',137.460406756872,87.0662663371907,'{accindet,personal_cars}'
7286,2015-08-24 15:30:00,'Od 24.8.2015 16:30 do 17:35; v ulici Vojanova v obci Plzeň; nehoda; - OA x NA, bez zranění, na místo PČR',137.472616534652,87.1011952682207,'{accindet,personal_cars}'
7287,2015-08-24 16:20:00,'Od 24.8.2015 17:20 do 18:25; na silnici 27 u obce Plzeň; nehoda; - 2 x OA, se zraněním, na místo PČR, ZZS',137.502533690212,87.1542511253207,'{accindet,injury,personal_cars}'
7288,2015-08-24 17:45:00,'Od 24.8.2015 18:45 do 20:50; v ulici Borská v obci Plzeň; nehoda; probíhají záchranné a vyprošťovací práce, nebezpečí; - OA x motocykl, se zraněním, na místo PČR',137.497883023544,87.111356242788,'{accindet,injury,personal_cars}'
7289,2015-08-24 20:00:00,'Od 24.8.2015 21:00 do 22:05; na silnici 201 u obce Kožlany okres Plzeň-sever; nehoda; - srážka OA se zvěří, na místo PČR',137.631700623563,86.8694737486306,'{accindet,personal_cars,animal_hit}'
