ID,od,popis,x,y,ts_flags
7380,2015-09-04 14:30:00,'Od 4.9.2015 15:30 do 16:30; v ulici Uhelná v obci Chrást okres Plzeň-město , délka 392m; V ulici Uhelná v obci Chrást.; nehoda; 2 havarovaná vozidla; DN 2 x OA bez zranění a bez úniku provozních kapalin.',137.594730668002,87.0513769715055,'{accindet,personal_cars}'
7381,2015-09-04 14:50:00,Od 4.9.2015 15:50 do 17:50; v ulici Palackého v obci Plzeň; Křižovatka ulice Palackého x Sady Pětatřicátníků.; nehoda; 2 havarovaná vozidla; DN OA x NA bez zranění a bez úniku provozních kapalin. Řidič NA s vozidlem od DN ujel.,137.509950579102,87.100178404086,'{accindet,personal_cars,trucks}'
7382,2015-09-04 15:00:00,'Od 4.9.2015 16:00 do 17:00; v ulici U Prazdroje v obci Plzeň , délka 162m; Na úrovni OC Hornbach v ulici U Prazdroje v Plzni.; nehoda; 2 havarovaná vozidla; DN OA x dodávka bez zranění, únik provozních kapalin nehlášen. Jedná se o zaďour.',137.524445156881,87.0997337950669,'{accindet,personal_cars}'
7383,2015-09-04 17:00:00,'Od 4.9.2015 18:00 do 20:00; v ulici Mohylová v obci Plzeň; Křižovatka ulic Mohylová x Masarykova v Plzni.; nehoda; 2 havarovaná vozidla; DN OA x BUS bez zranění, únik provozních kapalin nehlášen.',137.54147982355,87.0918512748776,'{accindet,personal_cars}'
7384,2015-09-04 17:40:00,Od 4.9.2015 18:40 do 19:40; v ulici Částkova v obci Plzeň; Křižovatka ul .Částkova x Slovanská; nehoda; 2 havarovaná vozidla; Srážka NA s TRAM bez zranění a bez úniku provozních kapalin. NA z místa ujel. Místo plně průjezdné.,137.524743112437,87.1179421270998,'{accindet,trucks}'
7385,2015-09-04 21:15:00,'Od 4.9.2015 22:15 do 23:15; na silnici 20 u obce Chotíkov okres Plzeň-sever; před odbočkou na Ledce; nehoda; havarované vozidlo; zvěř na vozovce; střet OA se zvěří, bez zranění osob.',137.463091201317,87.0412078749496,'{accindet,personal_cars,animal_hit}'
7386,2015-09-05 08:55:00,Od 5.9.2015 09:55 do 11:55; na silnici 2033 u obce Vochov okres Plzeň-sever; nehoda; 2 havarovaná vozidla; probíhá vyšetřování nehody; 2 x OA bez zranění.,137.433400890202,87.1020679511088,'{accindet,personal_cars}'
7387,2015-09-05 11:05:00,Od 5.9.2015 12:05 do 17:00; na silnici 27 u obce Plzeň; nehoda; 2 havarovaná vozidla; probíhá vyšetřování nehody; 2 x OA bez zranění. Na místě ZZS a PČR.,137.503089779101,87.1535760900222,'{accindet,personal_cars}'
7388,2015-09-05 13:20:00,'Od 5.9.2015 14:20 do 15:20; v ulici Lazaretní v obci Plzeň; U čp. 827/5.; nehoda; 2 havarovaná vozidla; probíhá vyšetřování nehody; 2 x OA bez zranění, na místě PČR.',137.539880534661,87.0863486695778,'{accindet,personal_cars}'
7389,2015-09-05 14:55:00,'Od 5.9.2015 15:55 do 20:05; na silnici 230 u obce Dnešice okres Plzeň-jih; nehoda; havarované vozidlo; probíhá vyšetřování nehody; havárie motorkáře se zraněním, na  místo jede PČR a ZZS.',137.4176888902,87.2505157167941,'{accindet,injury}'
