ID,od,popis,x,y,ts_flags
740,2013-07-09 22:50:00,'Od 9.7.2013 23:50 do 10.7.2013 13:30; na silnici 20 u obce Všeruby okres Plzeň-sever; Aktuální stav: V 01.35 hod. NN je vza obcí Nová Hospoda na sil. č. I/20.; Pozor! Nadměrný náklad; Pozor! Očekávejte zdržení; Přeprava transformátoru Plzeň - Lovosice.Parametry NN: d 42,0 m; š 3,0 m; v 5,35 m; hmotnost 206,0 t.Přepravní trasa: Plzeň (Edvarda Beneše, 17. listopadu, Sukova, Nová Folmavská, vpravo Domažlická, vlevo Vejprnická, vpravo Křimická), II/605, Křimice, vpravo II/180, Město Touškov II/180, Čeminy, Nová Hospoda vlevo I/20, Úněšov, Bezvěrov, Třebouň, Toužim sjezdem na II/198 (po MK okolo SUS), Kojšovice, Kozlov, Bochov vpravo na I/6, Bošov vlevo po MK, Libkovice vpravo po sil.III/tř., vlevo I/6, Lubenec, vlevo I/27, Blšany, Pšov, Žatec vpravo II/225, Trnovany, Louny I/28, Raná, vpravo II/249, Libčeves vpravo sil.III/tř., vpravo I/15, Třebenice, Lovosice,  vpravo výjezdem na D8, výjezdem na II/247, Lukavec, Lovosice přístav.',137.376222579083,86.9903277737943,{accindet}
741,2013-07-10 04:35:00,'Od 10.7.2013 05:35 do 07:40; na silnici 11745 u obce Blovice okres Plzeň-jih; nehoda; probíhají záchranné a vyprošťovací práce, nebezpečí; - havárie motocyklu, se zraněním, na místo PČR, ZZS',137.641548090231,87.3014600841501,'{accindet,injury}'
742,2013-07-10 06:45:00,Od 10.7.2013 07:45 do 08:45; na silnici v obci Plzeň; nehoda; 2 havarovaná vozidla; probíhá vyšetřování nehody; 2 x OA bez zranění. Na místě RZS a PČR.,137.501459201323,87.132432393542,'{accindet,personal_cars}'
743,2013-07-10 08:05:00,Od 10.7.2013 09:05 do 10:05; na silnici 26 u obce Líně okres Plzeň-sever; asi 50 m za cdulí začátek obce  ve směru na Plzeň.; nehoda; 3 havarovaná vozidla; 3 x OA bez zranění a  úniku provozních kapalin.,137.440077512425,87.1460016971356,'{accindet,personal_cars}'
744,2013-07-10 09:20:00,Od 10.7.2013 10:20 do 12:20; v ulici K Cihelně v obci Přeštice okres Plzeň-jih; na žel. přejezdu č. P 870.; nehoda; havarované vozidlo; havárie  NA bez zranění a úniku provozních kapalin. Na místě PČR.,137.472879645763,87.284801334522,'{accindet,trucks}'
745,2013-07-10 11:05:00,'Od 10.7.2013 12:05 do 13:05; v ulici Majerova v obci Plzeň; Křižovatka s ul. Klatovská třída.; nehoda, neprůjezdný pravý jízdní pruh; 2 havarovaná vozidla; 2 x OA bez zranění a  úniku provozních kapalin.',137.506931912434,87.1202325834172,'{accindet,personal_cars}'
746,2013-07-10 12:00:00,Od 10.7.2013 13:00 do 14:00; v ulici Samaritská v obci Plzeň; u hotelu Hazuka.; nehoda; 2 havarovaná vozidla; 2 x OA bez zranění.,137.516719645769,87.1207628287522,'{accindet,personal_cars}'
747,2013-07-10 13:35:00,'Od 10.7.2013 14:35 do 15:35; v ulici Revoluční v obci Nýřany okres Plzeň-sever; nehoda; 2 havarovaná vozidla; 2 x OA bez zranění, na místě PČR.',137.38734293464,87.1384878146469,'{accindet,personal_cars}'
748,2013-07-10 13:55:00,Od 10.7.2013 14:55 do 15:55; v ulici Domažlická v obci Plzeň; Na kruhovém objezdu ve směru do centra.; nehoda; 2 havarovaná vozidla; 2 x OA bez zranění a  úniku provozních kapalin. Místo je průjezdné.,137.472964979096,87.1165350209239,'{accindet,personal_cars}'
749,2013-07-10 14:20:00,'Od 10.7.2013 15:20 do 16:20; v ulici Americká v obci Plzeň; Křižovatka s  ul. Reslova a Martinská.; nehoda s únikem paliva; havarované vozidlo; havárie OA do obrubníku, bez zranění osob, na místě HZS a PČR.',137.512996267991,87.1042083298223,'{accindet,personal_cars}'
