ID,od,popis,x,y,ts_flags
7450,2015-09-10 17:10:00,'Od 10.9.2015 18:10 do 21:15; v ulici Revoluční v obci Nýřany okres Plzeň-sever; nehoda nákladního vozidla; 2 havarovaná vozidla; probíhají záchranné a vyprošťovací práce; OA x NA, se zraněním, složky IZS jedou na místo.',137.382624001306,87.1379071574572,'{accindet,injury,personal_cars}'
7451,2015-09-10 17:30:00,'Od 10.9.2015 18:30 do 20:35; na silnici 27 u obce Plasy okres Plzeň-sever; nehoda; havarované vozidlo; probíhá vyšetřování nehody, nebezpečí; havárie OA do příkopu, složky IZS jedou na místo.',137.524793601326,86.8888878776245,'{accindet,personal_cars}'
7452,2015-09-10 18:45:00,Od 10.9.2015 19:45 do 21:50; v ulici Thámova v obci Plzeň; Křižovatka s ul. Hřímalého.; nehoda; 2 havarovaná vozidla; probíhá vyšetřování nehody; 2 x OA. PČR na místě..,137.507038579101,87.1099401605516,'{accindet,personal_cars}'
7453,2015-09-10 20:05:00,Od 10.9.2015 21:05 do 23:10; na silnici 20 u obce Kasejovice okres Plzeň-jih; nehoda; zvěř na vozovce; probíhá vyšetřování nehody; Střet OA se zvěří. PČR na místo.,137.71721457913,87.4060979692467,'{accindet,personal_cars,animal_hit}'
7454,2015-09-10 20:40:00,Od 10.9.2015 21:40 do 23:45; v ulici K Plzenci v obci Plzeň; nehoda; 2 havarovaná vozidla; probíhá vyšetřování nehody; 2 x OA. PČR na místě.,137.543468801328,87.1530450709188,'{accindet,personal_cars}'
7455,2015-09-10 20:45:00,Od 10.9.2015 21:45 do 23:50; na silnici 2319 u obce Koryta okres Plzeň-sever; nehoda; havarované vozidlo; probíhá vyšetřování nehody; Havárie OA do stromu se zraněním. ZZS a PČR na místě.,137.589348979113,86.919892921193,'{accindet,injury,personal_cars}'
7456,2015-09-11 01:05:00,'Od 11.9.2015 02:05 do 02:20; na silnici 2053 v obci Nekmíř okres Plzeň-sever; nehoda odstraněna; provoz v jízdním pruhu obnoven; OA x srna, bez zranění osob. Na místě PČR.',137.432062579091,86.9812136099134,'{accindet,personal_cars,animal_hit}'
7457,2015-09-11 01:35:00,Od 11.9.2015 02:35 do 03:05; na silnici 20 u obce Seč okres Plzeň-jih; nehoda odstraněna; provoz v jízdním pruhu obnoven; Střet OA se srnou. PČR na místě.,137.599133868003,87.2768221150432,'{accindet,personal_cars,animal_hit}'
7458,2015-09-11 06:50:00,'Od 11.9.2015 07:50 do 08:50; v ulici Masarykova v obci Plzeň; křiž. u pošty; nehoda; 2 havarovaná vozidla; 2 x OA bez zranění, únik provozních kapalin nehlášen.',137.542520179106,87.0906129904817,'{accindet,personal_cars}'
7459,2015-09-11 07:50:00,'Od 11.9.2015 08:50 do 11:55; v ulici Revoluční v obci Plzeň; před křiž. s Rokycanskou ulicí; nehoda nákladního vozidla; NA x OA bez zranění, na místo PČR.',137.534896356883,87.0992869812826,'{accindet,personal_cars,trucks}'
