ID,od,popis,x,y,ts_flags
7460,2015-09-11 07:50:00,Od 11.9.2015 08:50 do 09:50; v ulici Revoluční v obci Nýřany okres Plzeň-sever; u OD Lidl; nehoda; 2 havarovaná vozidla; 2 x OA bez zranění a bez úniku provozních kapalin. Místo je průjezdné.,137.387832179085,87.1379720418125,'{accindet,personal_cars}'
7461,2015-09-11 10:55:00,Od 11.9.2015 11:55 do 12:55; v ulici Tyršova v obci Plzeň; na křižovatce u parkovacího domu Rychtářka; nehoda nákladního vozidla; 2 havarovaná vozidla; OA x NA bez zranění a bez úniku provozních kapalin.,137.515867023547,87.0975261023732,'{accindet,personal_cars,trucks}'
7462,2015-09-11 14:05:00,Od 11.9.2015 15:05 do 16:05; v ulici Sladovnická v obci Plzeň; křiž. s ul. Petřínská; nehoda; 2 havarovaná vozidla; 2 x OA bez zranění a bez úniku provozních kapalin.,137.534702223549,87.1174283561166,'{accindet,personal_cars}'
7463,2015-09-11 14:35:00,Od 11.9.2015 15:35 do 16:35; v ulici Kardinála Berana v obci Plzeň; Křižovatka s ulicí Plachého v Plzni.; nehoda; 2 havarovaná vozidla; 2 x OA bez zranění a bez úniku provozních kapalin. Místo je průjezdné.,137.507746134657,87.1045978805226,'{accindet,personal_cars}'
7464,2015-09-11 14:40:00,Od 11.9.2015 15:40 do 16:40; v ulici Sukova v obci Plzeň; křiž. s ul. Klatovská třída; nehoda; 2 havarovaná vozidla; 2 x OA bez zranění a bez úniku provozních kapalin.,137.507311645768,87.1189850559918,'{accindet,personal_cars}'
7465,2015-09-11 15:55:00,'Od 11.9.2015 16:55 do 18:55; v ulici sady Pětatřicátníků v obci Plzeň; křiž. s ul. Palackého; nehoda; 2 havarovaná vozidla; 2 x OA bez zranění, bez úniku provozních kapalin.',137.510363023546,87.0986849873397,'{accindet,personal_cars}'
7466,2015-09-11 16:25:00,Od 11.9.2015 17:25 do 18:25; v ulici náměstí Míru v obci Plzeň; křiž. s ul. Klatovská třída; nehoda; 2 havarovaná vozidla; 2 x OA bez zranění a bez úniku provozních kapalin.,137.50765866799,87.1173909507557,'{accindet,personal_cars}'
7467,2015-09-11 19:05:00,'Od 11.9.2015 20:05 do 21:05; na silnici 27 u obce Kralovice okres Plzeň-sever; nehoda; zvěř na vozovce; probíhá vyšetřování nehody; střet OA se zvěří, bez zranění osob.',137.586904890223,86.8187401386511,'{accindet,personal_cars,animal_hit}'
7468,2015-09-11 19:45:00,'Od 11.9.2015 20:45 do 22:45; na silnicích 180, 20 v obcích Čeminy a Nevřeň okres Plzeň-sever , délka 573m; nehoda; 4 havarovaná vozidla; probíhá vyšetřování nehody; 4x OA, bez zranění osob.',137.42695537909,87.0218194193656,'{accindet,personal_cars}'
7469,2015-09-11 22:15:00,'Od 11.9.2015 23:15 do 12.9.2015 01:15; na silnici v obci Kasejovice okres Plzeň-jih; na návsi; nehoda; havarované vozidlo; probíhá vyšetřování nehody, nebezpečí; havárie OA do sloupu, bez zranění osob.',137.750324623579,87.4369214336699,'{accindet,personal_cars}'
