ID,od,popis,x,y,ts_flags
7510,2015-09-16 13:00:00,'Od 16.9.2015 14:00 do 16:05; na silnici 20 u obce Životice okres Plzeň-jih; - ve směru na Kasejovice; nehoda; - havárie dodávky, bez zranění, na místo PČR',137.738141156911,87.4103478187466,{accindet}
7511,2015-09-16 13:15:00,'Od 16.9.2015 14:15 do 15:20; na silnici v obci Plzeň; nehoda nákladního vozidla; - 3 x NA, bez zranění, na místo PČR',137.525873067993,87.1249529018176,{accindet}
7512,2015-09-16 13:30:00,'Od 16.9.2015 14:30 do 15:35; v ulici Zahradní v obci Plzeň; nehoda; neprůjezdný pruh, 2 havarovaná vozidla; - 2 x OA, se zraněním, na místo PČR, ZZS, HZS',137.52227484577,87.1161961657342,'{accindet,injury,personal_cars}'
7513,2015-09-16 14:00:00,'Od 16.9.2015 15:00 do 17:05; v ulici Malostranská v obci Plzeň; Malostranská ulice v Plzni; nehoda; střet dvou OA se zraněním, na místo PČR',137.527159467993,87.1242873962909,'{accindet,injury,personal_cars}'
7514,2015-09-16 14:00:00,'Od 16.9.2015 15:00 do 16:05; v ulici sady Pětatřicátníků v obci Plzeň; - ve směru do centra; nehoda, silný provoz; 3 havarovaná vozidla; Pozor! Olej na vozovce; - 3 x OA, bez zranění, na místo PČR, HZS',137.510668801324,87.0974072409541,'{accindet,personal_cars}'
7515,2015-09-16 14:00:00,'Od 16.9.2015 15:00 do 16:05; v ulici Jiráskovo náměstí v obci Plzeň; nehoda; - 2 x OA, bez zranění, na místo PČR',137.523707023548,87.1127359790997,'{accindet,personal_cars}'
7516,2015-09-16 21:35:00,'Od 16.9.2015 22:35 do 23:40; na silnici 230 v obci Horšice okres Plzeň-jih; nehoda nákladního vozidla; neprůjezdný pruh, 2 havarovaná vozidla; probíhá vyšetřování nehody; OA x NA, bez zranění osob.',137.531289601327,87.3289972773936,'{accindet,personal_cars}'
7517,2015-09-17 05:10:00,'Od 17.9.2015 06:10 do 08:15; na silnici 20 u obce Všeruby okres Plzeň-sever; mezi odbočkami na Všeruby; nehoda; zvěř na vozovce; probíhá vyšetřování nehody; střet OA se zvěří, bez zranění osob.',137.405010490198,87.0064502039595,'{accindet,personal_cars,animal_hit}'
7518,2015-09-17 13:20:00,'Od 17.9.2015 14:20 do 16:25; v ulici Tylova v obci Plzeň; nehoda; 2 havarovaná vozidla; překážka na vozovce, průjezd se zvýšenou opatrností; 2 x OA bez zranění, na místě ZZS a PČR.',137.501606401323,87.1019513007543,'{accindet,personal_cars}'
7519,2015-09-17 14:40:00,'Od 17.9.2015 15:40 do 17:45; v ulici Plaská v obci Plzeň; nehoda; 2 havarovaná vozidla; překážka na vozovce, průjezd se zvýšenou opatrností; 2 x OA bez zranění.',137.517257245769,87.0616586661924,'{accindet,personal_cars}'
