ID,od,popis,x,y,ts_flags
7590,2015-09-24 04:55:00,'Od 24.9.2015 05:55 do 06:15; na silnici 20 u obce Měcholupy okres Plzeň-jih; Silnice č. 20 mezi Měcholupy a Zhůří; všechny nehody byly odstraněny, nejsou hlášeny žádné další problémy; střet NA s OA bez zranění, na místo PČR',137.61937351245,87.3441042179624,'{accindet,personal_cars,trucks}'
7591,2015-09-24 05:10:00,'Od 24.9.2015 06:10 do 08:15; na silnici 26 u obce Líně okres Plzeň-sever; nehoda; probíhá vyšetřování nehody, nebezpečí; 2x OA bez zranění, průjezdné',137.421651201312,87.1617287145368,'{accindet,personal_cars}'
7592,2015-09-24 08:10:00,'Od 24.9.2015 09:10 do 11:15; v ulici Sirková v obci Plzeň; nehoda; OA x mtocykl, bez zranění,únik oleje, zvýšená opatrnost, ohrožení BESIP',137.519022934658,87.103541465246,'{accindet,personal_cars}'
7593,2015-09-24 08:25:00,'Od 24.9.2015 09:25 do 11:30; v ulici Americká v obci Plzeň; Klatovská x Americká; nehoda; 2xOA bez zranění, překáží provozu, zvýšená opatrnaost, na místo policie',137.509432890213,87.1032806595072,{accindet}
7594,2015-09-24 08:45:00,'Od 24.9.2015 09:45 do 11:50; v ulici Lidická v obci Plzeň; Lidická x Alej Svobody; nehoda; OA x sanita, bez zranění, bez úniku PHM, překáží provozu, na místo policie',137.509827556879,87.0789342804395,'{accindet,personal_cars}'
7595,2015-09-24 09:05:00,'Od 24.9.2015 10:05 do 12:10; na silnici 180 u obce Kyšice okres Plzeň-město; nehoda; 3xOA bez zranění, bez úniku PHM, zvýšená opatrnost, ohrožení BESIP, překáží provozu, na místo policie',137.586162490223,87.0986321612217,{accindet}
7596,2015-09-24 10:55:00,'Od 24.9.2015 11:55 do 14:00; v ulici Staniční v obci Plzeň; nehoda; 2xOA bez zranění, bez úniku PHM, zvýšená opatrnost,ohrožení BESIP,na místo policie',137.536425956883,87.0949408067863,{accindet}
7597,2015-09-24 11:10:00,'Od 24.9.2015 12:10 do 14:15; na silnici 20 u obce Seč okres Plzeň-jih; nehoda; 2xOA bez zranění, bez úniku PHM, překáží provozu, na místo policie',137.597228090225,87.2731298838623,{accindet}
7598,2015-09-24 13:05:00,'Od 24.9.2015 14:05 do 16:10; v ulici Boettingerova v obci Plzeň; nehoda; 2xOA bez zranění, překáží provozu, na místo policie, zvýšená opatrnost',137.505374579101,87.1199597580399,{accindet}
7599,2015-09-24 13:40:00,'Od 24.9.2015 14:40 do 16:45; v ulici Jiráskovo náměstí v obci Plzeň; nehoda; 2xOA bez zranění, bez úniku PHM, překáží provozu, na místo policie',137.523622401326,87.1115179840569,{accindet}
