ID,od,popis,x,y,ts_flags
760,2013-07-11 18:00:00,'Od 11.7.2013 19:00 do 20:55; na silnici třídy I u obce Plzeň; mezi Liticemi a Šlovicemi.; nehoda; havarované vozidlo; překážka na vozovce, průjezd se zvýšenou opatrností; havárie  motocyklisty se zranění, průjezdné s opatrností.',137.494363023544,87.1672257570889,'{accindet,injury}'
761,2013-07-11 18:30:00,'Od 11.7.2013 19:30 do 21:35; v ulici Korandova v obci Plzeň; křižovatka s ul. Tylova.; nehoda; 2 havarovaná vozidla; překážka na vozovce, průjezd se zvýšenou opatrností; 2 x OA bez zranění, průjezdné s opatrností.',137.504245334656,87.1024399099711,'{accindet,personal_cars}'
762,2013-07-12 09:15:00,'Od 12.7.2013 10:15 do 11:50; na silnici 27 u obce Chlumčany okres Plzeň-jih; nehoda; - 2 x OA, bez zranění, na místo PČR',137.482660979098,87.2196736816501,'{accindet,personal_cars}'
763,2013-07-12 13:10:00,'Od 12.7.2013 14:10 do 15:15; v ulici Folmavská v obci Plzeň; - Folmavská x Borská; nehoda; 2 havarovaná vozidla; - 2 x OA, bez zranění, na místo PČR',137.490717156877,87.11811374971,'{accindet,personal_cars}'
764,2013-07-12 19:00:00,'Od 12.7.2013 20:00 do 21:05; v ulici Arbesova v obci Plzeň; nehoda; 2 x OA bez zranění, na místo PČR.',137.510990934657,87.1175834780693,'{accindet,personal_cars}'
765,2013-07-12 20:50:00,'Od 12.7.2013 21:50 do 22:55; na silnici 20 u obce Kasejovice okres Plzeň-jih; nehoda; srážka OA se srnou, na místo PČR.',137.710584179129,87.4037803243877,'{accindet,personal_cars,animal_hit}'
766,2013-07-13 08:05:00,'Od 13.7.2013 09:05 do 11:15; na silnici 182 u obce Zemětice okres Plzeň-jih; ze obcí ve směru na Ćelákovy, místo průjezdné bez omezení; nehoda; OA v příkopu, bez zranění,',137.373861690194,87.2810537173333,'{accindet,personal_cars}'
767,2013-07-13 16:55:00,'Od 13.7.2013 17:55 do 20:00; na silnici 1873 u obce Neurazy okres Plzeň-jih; za obcí Neurazy ve směru na Mlýnské Struhadlo,, provoz neomezen; nehoda; OA v příkopu, bez zranění, bez úniku',137.599473068003,87.4379658196279,'{accindet,personal_cars}'
768,2013-07-14 00:25:00,'Od 14.7.2013 01:25 do 02:30; v ulici Americká v obci Plzeň; křižovatka ulic Juingmanova X Americká; nehoda; sražený chodec, lehké zranění,, provoz neblokován',137.51152995688,87.1040817802543,'{accindet,pedestrian_involvement,injury}'
769,2013-07-14 09:05:00,'Od 14.7.2013 10:05 do 11:05; v ulici Tachovská v obci Plzeň; poslední světelná křižovatka.; nehoda; 2 havarovaná vozidla; probíhá vyšetřování nehody; OA x MOTO se zraněním, na místě PČR a RZS.',137.513025423546,87.0606201232559,'{accindet,injury,personal_cars}'
