ID,od,popis,x,y,ts_flags
7600,2015-09-24 15:00:00,'Od 24.9.2015 16:00 do 18:05; na silnici 27 u obce Přeštice okres Plzeň-jih; nehoda; 2xOA bez zranění, bez úńiku PHM, překáží provozu, na místo policie',137.47498951243,87.3002365135656,{accindet}
7601,2015-09-24 16:05:00,'Od 24.9.2015 17:05 do 19:10; v ulici Skvrňanská v obci Plzeň; nehoda; OA x tram bez zranění, bez úniku PHM, překáží provozu, na místo policie',137.499601067989,87.101035696667,'{accindet,personal_cars}'
7602,2015-09-24 16:50:00,'Od 24.9.2015 17:50 do 19:55; v ulici Kalikova v obci Plzeň; nehoda; 2xOA bez zranění, bez úniku PHM, překáží provozu',137.504718223545,87.0975932369466,{accindet}
7603,2015-09-24 17:10:00,'Od 24.9.2015 18:10 do 20:15; v ulici Jateční v obci Plzeň; u staré čističky; nehoda; DN cyklista se zraněním, na místo ZZS',137.530482490216,87.0953029097918,'{accindet,injury,cyclist}'
7604,2015-09-24 17:45:00,'Od 24.9.2015 18:45 do 20:50; v ulici Žlutická v obci Plzeň; u Remusu; nehoda; 2xOA bez zranění, bez  úniku PHM, zvýšená opatrnost, ohrožení BESIP, na místo policie',137.500211201322,87.0659590980877,{accindet}
7605,2015-09-24 18:45:00,'Od 24.9.2015 19:45 do 21:50; v ulici Dobřanská v obci Plzeň; vážná nehoda; 2 x OA se zraněním, bez úniku PHM, zvýšená opatrnost, na místo policie a RZS.',137.480962845764,87.1424840605246,'{accindet,injury,personal_cars}'
7606,2015-09-24 19:05:00,'Od 24.9.2015 20:05 do 22:10; na silnici 188 u obce Oselce okres Plzeň-jih; nehoda; OA x cyklista se zraněním, zvýšená opatrnost, ohrožení BESIP, na místo policie a ZZS.',137.727756090243,87.4334206785703,'{accindet,injury,personal_cars,cyclist}'
7607,2015-09-24 19:20:00,'Od 24.9.2015 20:20 do 22:25; na silnici 20 u obce Všeruby okres Plzeň-sever; nehoda; střet OA se srnou, zvýšená opatrnost, ohrožení BESIP.',137.414485334644,87.0117582262118,'{accindet,personal_cars,animal_hit}'
7608,2015-09-25 07:20:00,'Od 25.9.2015 08:20 do 09:20; na silnici 605 u obce Úlice okres Plzeň-sever; ve směru od Stříbra před křižovatkou na obec Pňovany.; nehoda; zvěř na vozovce; probíhá vyšetřování nehody; Srážka OA se zvěří, bez zranění osob, únik provozních kapalin nehlášen. Na místě PČR.',137.33118151241,87.0818627294316,'{accindet,personal_cars,animal_hit}'
7609,2015-09-25 07:35:00,'Od 25.9.2015 08:35 do 10:35; v ulici Tylova v obci Plzeň; Křižovatka s ul. nám. Emila škody.; nehoda; 2 havarovaná vozidla; překážka na vozovce, průjezd se zvýšenou opatrností; 2 x OA, bez zranění a úniku provozních kapalin.',137.501065245767,87.1018731668837,'{accindet,personal_cars}'
