ID,od,popis,x,y,ts_flags
770,2013-07-14 11:15:00,'Od 14.7.2013 12:15 do 15:20; v ulici Skvrňanská v obci Plzeň; nehoda autobusu; 2 havarovaná vozidla; Tramvaj x OA bez zranění, na místě PČR.',137.501499734656,87.1001960122878,'{accindet,personal_cars}'
771,2013-07-14 13:40:00,'Od 14.7.2013 14:40 do 15:40; na silnici 26 v obci Plzeň; požár vozidla; probíhají odklízecí práce; probíhá vyšetřování nehody; požár OA, na místě PČR, HZS.',137.47329351243,87.1177760046888,'{accindet,personal_cars}'
772,2013-07-14 17:25:00,'Od 14.7.2013 18:25 do 20:30; v ulici Pod Rozhlednou v obci Plzeň; nehoda; 2 havarovaná vozidla; 2 x  OA se zraněním, na místě PČR, RZS.',137.552721779108,87.0836604532946,'{accindet,injury,personal_cars}'
773,2013-07-14 20:20:00,'Od 14.7.2013 21:20 do 23:25; v ulici Skrétova v obci Plzeň; nehoda; 2x OA, bez zranění, na místo PČR',137.506780445768,87.1054055839351,'{accindet,personal_cars}'
774,2013-07-15 06:40:00,'Od 15.7.2013 07:40 do 14:45; D5 - 82.4km na trase Praha - Rozvadov; před BČS Šlovice ve směru na Rozvadov, doprava odkloněna na Exit 80 na silnici I/27**  ve směru na Prahu omezen provoz vzhledem k DN /levý jiídní pruh uzavřen; nehoda; uzavřeno, probíhají záchranné a vyprošťovací práce; nehoda, neprůjezdný levý jízdní pruh; převrácený kamion na boku, únik PHM, ve směru na Rozvadov, bez zranění',137.487751112432,87.173443185837,{accindet}
775,2013-07-15 06:45:00,'D5, km 82, ve směru Rozvadov, nehoda, nehoda nákladního vozidla, Od 15.07.2013 07:45 Do 15.07.2013 09:45',137.491540623543,87.1716155105098,{accindet}
776,2013-07-15 06:55:00,'Od 15.7.2013 07:55 do 08:15; D5 - 82.5km na trase Praha - Rozvadov; všechny nehody byly odstraněny, nejsou hlášeny žádné další problémy; NA přes levý a pravý jízdní pruh, průjezdný odstavný pruh směr Rozvadov, v protisměru omezen provoz v levém jízdním pruhu. HZS, RZS a PČR jedou na místo. Odklon dopravy na přivaděč I/27 Plzeň - Klatovy.',137.487008001321,87.1737970640347,'{accindet,trucks}'
777,2013-07-15 06:57:00,'D5, km 82.1, ve směru Praha, nehoda, nehoda, neprůjezdný levý jízdní pruh, Od 15.07.2013 07:57 Do 15.07.2013 09:57',137.490727823543,87.1721694247272,{accindet}
778,2013-07-15 08:15:00,'Od 15.7.2013 09:15 do 11:00; v ulici U Prazdroje v obci Plzeň; před křižovatku OMV ve směru z města, částečně zasahuje do levého jízdního pruhu; nehoda; OA po DN na středním travnatém pruh, bez zranění, bez úniku',137.521421512436,87.1004645366449,'{accindet,personal_cars}'
779,2013-07-15 09:19:00,'D5, mezi km 82.2 a 82, ve směru Praha, nehoda, nehoda, neprůjezdný levý jízdní pruh, Od 15.07.2013 10:19 Do 15.07.2013 14:45',137.489835379099,87.1725947478185,{accindet}
