ID,od,popis,x,y,ts_flags
7720,2015-10-06 07:10:00,'Od 6.10.2015 08:10 do 10:15; v ulici Tachovská v obci Plzeň; nehoda; havarované vozidlo; probíhají záchranné a vyprošťovací práce, nebezpečí; havárie OA, se zraněním, složky IZS jedou na místo.',137.510427734657,87.0617368589569,'{accindet,injury,personal_cars}'
7721,2015-10-06 08:45:00,'Od 6.10.2015 09:45 do 11:50; v ulici sady 5. května v obci Plzeň; nehoda; 2 havarovaná vozidla; probíhá vyšetřování nehody; 2x OA, bez zranění osob.',137.515537067991,87.0979168023952,'{accindet,personal_cars}'
7722,2015-10-06 10:00:00,'Od 6.10.2015 11:00 do 13:00; na dálnici D5 , délka 268m; nehoda; převrácené vozidlo; probíhá vyšetřování nehody, nebezpečí; havárie OA, bez zranění osob.',137.554168179108,87.147433316611,'{accindet,personal_cars}'
7723,2015-10-06 10:05:00,'Od 6.10.2015 11:05 do 13:10; v ulici Mikulášská v obci Plzeň , délka 91m; nehoda; 2 havarovaná vozidla; probíhá vyšetřování nehody, nebezpečí; 2x OA, bez zranění osob.',137.518982401325,87.1057797203393,'{accindet,personal_cars}'
7724,2015-10-06 10:40:00,'Od 6.10.2015 11:40 do 13:45; v ulici Domažlická v obci Plzeň; nehoda; havarované vozidlo; probíhá vyšetřování nehody; havárie OA, bez zranění osob.',137.485787023543,87.1085196393934,'{accindet,personal_cars}'
7725,2015-10-06 11:00:00,'Od 6.10.2015 12:00 do 14:05; v ulici Domažlická v obci Plzeň; nehoda; 2 havarovaná vozidla; probíhá vyšetřování nehody; 2x OA, bez zranění osob.',137.494151823544,87.1037989683963,'{accindet,personal_cars}'
7726,2015-10-06 11:10:00,'Od 6.10.2015 12:10 do 14:15; na silnici třídy I u obce Plzeň; nehoda; 3 havarovaná vozidla; probíhá vyšetřování nehody; 3x OA, bez zranění osob.',137.494246401322,87.1640942378797,'{accindet,personal_cars}'
7727,2015-10-06 11:20:00,'Od 6.10.2015 12:20 do 14:25; v ulici Přemyslova v obci Plzeň; nehoda; havarované vozidlo; probíhá vyšetřování nehody, nebezpečí; střet OA s cyklistou, se zraněním, složky IZS jedou na místo.',137.507126756879,87.0984670792664,'{accindet,injury,personal_cars,cyclist}'
7728,2015-10-06 14:00:00,'Od 6.10.2015 15:00 do 17:05; na silnici 20 u obce Nezbavětice okres Plzeň-město; nehoda; 2 havarovaná vozidla; probíhá vyšetřování nehody; 2x OA, bez zranění osob.',137.576943645778,87.1948288262333,'{accindet,personal_cars}'
7729,2015-10-06 15:50:00,'Od 6.10.2015 16:50 do 18:55; v ulici Domažlická v obci Plzeň; nehoda; 2 havarovaná vozidla; probíhá vyšetřování nehody; 2x OA, bez zranění osob.',137.480325690209,87.1116566190403,'{accindet,personal_cars}'
