ID,od,popis,x,y,ts_flags
7760,2015-10-08 04:35:00,'Od 8.10.2015 05:35 do 07:35; na silnici 1774 u obce Střížovice okres Plzeň-jih; nehoda; havarované vozidlo; probíhá vyšetřování nehody; havárie OA, bez zranění osob.',137.559881245775,87.245775744861,'{accindet,personal_cars}'
7761,2015-10-08 06:35:00,'Od 8.10.2015 07:35 do 09:40; v ulici Slovanská v obci Plzeň; nehoda; OA x tram, bez zranění, bez úniku PHM, zvýšená opatrnost, ohrožení BESIP, překáží provozu, na místo policie',137.521126401325,87.1119679963018,'{accindet,personal_cars}'
7762,2015-10-08 06:40:00,'Od 8.10.2015 07:40 do 09:45; v ulici Plaská v obci Plzeň; nehoda; 2xOA bez zranění, bez úniku PHM, zvýšen opatrnost, překáží provozu, na místo policie',137.516345601325,87.0622985219253,{accindet}
7763,2015-10-08 06:55:00,'Od 8.10.2015 07:55 do 10:00; na silnici 183 u obce Šťáhlavy okres Plzeň-město; nehoda; OA x traktor, bez zranění, bez úniku PHM,zvýšená opatrnost',137.606995912448,87.1725332025677,'{accindet,personal_cars}'
7764,2015-10-08 07:10:00,'Od 8.10.2015 08:10 do 12:15; na silnici 232 u obce Kozojedy okres Plzeň-sever; nehoda; převrácené OA se zraněním, na místo policie a ZZS, zvýšená opatrnost, ohrožení BESIP',137.636462934675,86.9068535624233,'{accindet,injury,personal_cars}'
7765,2015-10-08 07:45:00,'Od 8.10.2015 08:45 do 10:50; na silnici 27 u obce Třemošná okres Plzeň-sever; nehoda; 2xOA bez zranění, bez úniku PHM,překáží provozu',137.515675734658,87.0236841909916,{accindet}
7766,2015-10-08 09:55:00,'Od 8.10.2015 10:55 do 13:00; na silnici 27 u obce Dobřany okres Plzeň-jih; silnice č. 27 u odbočky na Dobřany, směr Přeštice; nehoda; OA přes střechu, se zraněním, na místo všechny složky IZS, zvýšená opatrnost, ohrožení BESIP',137.485430756876,87.2015889652318,'{accindet,injury,personal_cars}'
7767,2015-10-08 11:15:00,'Od 8.10.2015 12:15 do 14:20; na silnici 19 u obce Nezvěstice okres Plzeň-město; nehoda; 2xOA se zraněním,  zvýšená opatrnost, překáží provozu, na místo policie',137.607293156893,87.2125347548405,'{accindet,injury}'
7768,2015-10-08 12:45:00,'Od 8.10.2015 13:45 do 15:50; v ulici Morseova v obci Plzeň; Teslova x Morseova; nehoda; 2xOA bez zranění, bez úniku PHM překáží provozu,na místo policie',137.48162560132,87.1252565015841,{accindet}
7769,2015-10-08 12:55:00,'Od 8.10.2015 13:55 do 16:00; v ulici Kaplířova v obci Plzeň; Kaplířova x Klatovská; nehoda; 2xOA bez zranění, bez úniku PHM, překáží provozu, zvýšená opatrnost, ohrožení BESIP',137.504526934656,87.1225306418611,{accindet}
