ID,od,popis,x,y,ts_flags
7780,2015-10-09 06:10:00,'Od 9.10.2015 07:10 do 09:15; na silnici 1875 u obce Kramolín okres Plzeň-jih; nehoda; zvěř na vozovce; překážka na vozovce, průjezd se zvýšenou opatrností; OA x srna, zvýšená opatrnost, překáží provozu, na místo policie a myslivec.',137.657607112455,87.421467612503,'{accindet,personal_cars,animal_hit}'
7781,2015-10-09 07:50:00,'Od 9.10.2015 08:50 do 10:55; na silnici 18023 v obci Tymákov okres Plzeň-město; nehoda; probíhá vyšetřování nehody, nebezpečí; 3 havarovaná vozidla; 3x OA bez zranění, průjezdné s opatrností',137.602621868003,87.1289149630563,'{accindet,personal_cars}'
7782,2015-10-09 08:50:00,'Od 9.10.2015 09:50 do 11:50; v ulici Plaská v obci Kaznějov okres Plzeň-sever; nehoda; probíhá vyšetřování nehody, nebezpečí; havárie OA bez zranění, průjezdné s opatrností',137.512009245769,86.9329401278986,'{accindet,personal_cars}'
7783,2015-10-09 12:00:00,'Od 9.10.2015 13:00 do 15:05; v ulici Obchodní v obci Plzeň; kruhový objezd u Makra; nehoda; probíhá vyšetřování nehody, nebezpečí; 2x OA bez zranění, průjezdné s opatrností',137.473081601319,87.1180884464112,'{accindet,personal_cars}'
7784,2015-10-09 13:00:00,'Od 9.10.2015 14:00 do 16:05; v ulici Škroupova v obci Plzeň; nehoda; probíhá vyšetřování nehody, nebezpečí; 2 x OA bez zranění, průjezdné',137.511424001324,87.1048289685779,'{accindet,personal_cars}'
7785,2015-10-09 14:50:00,'Od 9.10.2015 15:50 do 17:55; v ulici Folmavská v obci Plzeň; kruhový objezd u Makra; nehoda; probíhá vyšetřování nehody, nebezpečí; 2x OA bez zranění, průjezdné s opatrností',137.473737245763,87.1172182256607,'{accindet,personal_cars}'
7786,2015-10-09 18:15:00,'Od 9.10.2015 19:15 do 21:20; v ulici Gerská v obci Plzeň; nehoda; probíhá vyšetřování nehody, nebezpečí; srážka OA s chodcem',137.507945245768,87.0641387527033,'{accindet,pedestrian_involvement,personal_cars}'
7787,2015-10-09 18:55:00,'Od 9.10.2015 19:55 do 22:00; v ulici Rokycanská v obci Plzeň; směr Praha u Tesco; nehoda; probíhá vyšetřování nehody, nebezpečí; 2 x OA bez zranění, průjezdné s opatrností',137.553319823552,87.1005459740929,'{accindet,personal_cars}'
7788,2015-10-09 19:35:00,'Od 9.10.2015 20:35 do 22:40; na silnici 20 u obce Plzeň; směr od Losiné na Plzeň; nehoda; probíhá vyšetřování nehody, nebezpečí; 2 x OA bez zranění, průjezdné s opatrností',137.551323734663,87.1615715222394,'{accindet,personal_cars}'
7789,2015-10-10 09:00:00,Od 10.10.2015 10:00 do 12:05; na silnici u obce Chocenice okres Plzeň-jih; nehoda; střet OA se zvěří. PČR na místo.,137.609814756893,87.3132503190799,'{accindet,personal_cars,animal_hit}'
