ID,od,popis,x,y,ts_flags
7830,2015-10-15 14:50:00,'Od 15.10.2015 15:50 do 16:50; v ulicích Tlučenská, Plzeňská v obci Líně okres Plzeň-sever , délka 36m; nehoda nákladního vozidla; 2 havarovaná vozidla; probíhá vyšetřování nehody, nebezpečí; OA x NA, bez zranění osob.',137.426971023534,87.1572688905572,'{accindet,personal_cars}'
7831,2015-10-15 14:55:00,'Od 15.10.2015 15:55 do 17:55; v ulicích Klatovská třída, Dobrovského v obci Plzeň , délka 34m; nehoda; havarované vozidlo; probíhají záchranné a vyprošťovací práce; havárie OA, se zraněním, složky IZS jedou na místo.',137.50786986799,87.1138461238201,'{accindet,injury,personal_cars}'
7832,2015-10-15 15:20:00,'Od 15.10.2015 16:20 do 18:20; v ulici U Prazdroje v obci Plzeň; nehoda nákladního vozidla; 2 havarovaná vozidla; probíhá vyšetřování nehody; OA x NA, bez zranění osob.',137.521950579103,87.100333576164,'{accindet,personal_cars}'
7833,2015-10-15 16:00:00,'Od 15.10.2015 17:00 do 18:00; na silnici 20 u obce Plzeň; na sjezdu od Losiné ve směru k OC Olympia; nehoda; havarované vozidlo; probíhá vyšetřování nehody, nebezpečí; havárie OA, bez zranění osob.',137.549234490218,87.1570995923942,'{accindet,personal_cars}'
7834,2015-10-15 16:05:00,'Od 15.10.2015 17:05 do 18:05; v ulici Karlovarská v obci Plzeň; u BČS Shell; nehoda; 2 havarovaná vozidla; probíhá vyšetřování nehody, nebezpečí; 2x OA, bez zranění osob.',137.50944426799,87.0885337087794,'{accindet,personal_cars}'
7835,2015-10-15 17:30:00,'Od 15.10.2015 18:30 do 20:30; v ulici Klatovská třída v obci Plzeň; nehoda; 3 havarovaná vozidla; probíhá vyšetřování nehody, nebezpečí; 3x OA, bez zranění osob.',137.507184356879,87.1198541478422,'{accindet,personal_cars}'
7836,2015-10-15 17:30:00,'Od 15.10.2015 18:30 do 19:30; v ulici Domažlická v obci Plzeň; nehoda autobusu; 2 havarovaná vozidla; probíhá vyšetřování nehody; BUS x cyklista, se zraněním, ZZS a PČR jedou na místo.',137.497581512433,87.1020646496872,'{accindet,injury,cyclist}'
7837,2015-10-15 18:20:00,'Od 15.10.2015 19:20 do 20:20; v ulici Plzeňská v obci Vejprnice okres Plzeň-sever; nehoda; havarované vozidlo; zvěř na vozovce; střet OA se zvěří, bez zranění osob.',137.443239823537,87.1168111643096,'{accindet,personal_cars,animal_hit}'
7838,2015-10-15 21:25:00,'Od 15.10.2015 22:25 do 23:25; na silnici 26 v obci Plzeň; Na kruhovém objezdu u MAKRA.; nehoda; havarované vozidlo; Havárie 1 x OA bez zranění, únik provozních kapalin nehlášen.',137.473363201319,87.1171852208018,'{accindet,personal_cars}'
7839,2015-10-16 05:35:00,Od 16.10.2015 06:35 do 07:35; v ulici Rabštejnská v obci Plzeň; V ulici Rabštejnská v Plzni.; nehoda; 2 havarovaná vozidla; 2x OA bez zranění a bez úniku provozních kapalin.,137.503221334656,87.0627555570369,'{accindet,personal_cars}'
