ID,od,popis,x,y,ts_flags
7840,2015-10-16 05:40:00,'Od 16.10.2015 06:40 do 07:40; na silnici 117 u obce Letiny okres Plzeň-jih , délka 422m; Mezi obcemi Letiny a Drahkov.; nehoda; havarované vozidlo; Srážka OA se srnou bez zranění osob.',137.566730667998,87.3216416744642,'{accindet,personal_cars,animal_hit}'
7841,2015-10-16 06:15:00,Od 16.10.2015 07:15 do 08:15; v ulici Edvarda Beneše v obci Plzeň; Před vjezdem do vojenské nemocnice.; nehoda; 2 havarovaná vozidla; 2x OA bez zranění a bez úniku provozních kapalin.,137.509713779102,87.1129747336785,'{accindet,personal_cars}'
7842,2015-10-16 06:40:00,'Od 16.10.2015 07:40 do 08:45; v ulici Zborovská v obci Plzeň; nehoda; - havárie OA do sloupu, bez zranění, na místo PČR',137.517489067992,87.1373121972362,'{accindet,personal_cars}'
7843,2015-10-16 07:25:00,'Od 16.10.2015 08:25 do 10:30; v ulici Červenohrádecká v obci Plzeň; nehoda; probíhají záchranné a vyprošťovací práce, nebezpečí; - 2 x OA, se zraněním, na místo PČR, ZZS',137.566557867998,87.0898336821074,'{accindet,injury,personal_cars}'
7844,2015-10-16 08:30:00,'Od 16.10.2015 09:30 do 10:35; v ulici Železničářská v obci Plzeň; nehoda; - 2 x OA, bez zranění, na místo PČR',137.539472356883,87.0925061781221,'{accindet,personal_cars}'
7845,2015-10-16 08:45:00,'Od 16.10.2015 09:45 do 10:50; na silnici 27 u obce Plasy okres Plzeň-sever; nehoda nákladního vozidla; - NA x OA, bez zranění, na místo PČR',137.520899556881,86.9009639867791,'{accindet,personal_cars,trucks}'
7846,2015-10-16 12:10:00,'Od 16.10.2015 13:10 do 14:15; v ulici Americká v obci Plzeň; nehoda; - 2 x OA, bez zranění, na místo PČR',137.509454934657,87.1032971662374,'{accindet,personal_cars}'
7847,2015-10-16 13:05:00,'Od 16.10.2015 14:05 do 15:10; na silnici 1776 u obce Střížovice okres Plzeň-jih; nehoda; probíhají záchranné a vyprošťovací práce, nebezpečí; - havárie OA se zraněním, na místo PČR, ZZS',137.57282417911,87.2497859267531,'{accindet,injury,personal_cars}'
7848,2015-10-16 17:55:00,'Od 16.10.2015 18:55 do 20:00; v ulici Folmavská v obci Plzeň; nehoda nákladního vozidla; - NA x OA, bez zranění, na místo PČR',137.493673245766,87.1182633689715,'{accindet,personal_cars,trucks}'
7849,2015-10-16 18:05:00,'Od 16.10.2015 19:05 do 20:10; na silnici 20 u obce Seč okres Plzeň-jih; nehoda nákladního vozidla; - srážka NA se zvěří, na místo PČR',137.597000534669,87.272007684688,'{accindet,animal_hit,trucks}'
