ID,od,popis,x,y,ts_flags
8050,2015-11-05 21:35:00,'Od 5.11.2015 21:35 do 23:35; na silnici 20 u obce Plzeň; mezi Plzní a Losinou; nehoda; třet OA s lesní zvěří, bez zranění, na místo PČR.',137.554097779108,87.1656286942325,'{accindet,personal_cars,animal_hit}'
8051,2015-11-06 06:05:00,'Od 6.11.2015 06:05 do 08:10; na silnici 205 u obce Všeruby okres Plzeň-sever; nehoda; OA x srna, zvýšená opatrnoast, ohrožení BESIP',137.429501867979,87.0009597309029,'{accindet,personal_cars,animal_hit}'
8052,2015-11-06 07:50:00,'Od 6.11.2015 07:50 do 10:30; na silnici 20 u obce Losiná okres Plzeň-město; nehoda; probíhá vyšetřování nehody, nebezpečí; 4 x OA bez zranění, průjezdné s opatrností.',137.559465245775,87.1742014933911,'{accindet,personal_cars}'
8053,2015-11-06 12:40:00,'Od 6.11.2015 12:40 do 14:45; v ulici Folmavská v obci Plzeň; nehoda; probíhá vyšetřování nehody, nebezpečí; OA srazilo chodce se zraněním.',137.485612090209,87.1179432272464,'{accindet,pedestrian_involvement,injury,personal_cars}'
8054,2015-11-06 13:25:00,'Od 6.11.2015 13:25 do 15:30; na silnici 18050 u obce Město Touškov okres Plzeň-sever; směr Malesice; nehoda; probíhá vyšetřování nehody, nebezpečí; 2 x OA bez zranění, průjezdné.',137.43019377909,87.0684433894044,'{accindet,personal_cars}'
8055,2015-11-06 13:50:00,'Od 6.11.2015 13:50 do 15:55; v ulici Domažlická v obci Plzeň; kruhový objezd u Makra; nehoda; probíhá vyšetřování nehody, nebezpečí; 2 x OA bez zranění, průjezdné.',137.474112001319,87.1150893704893,'{accindet,personal_cars}'
8056,2015-11-06 14:15:00,'Od 6.11.2015 14:15 do 16:20; v ulici Blatenská v obci Plzeň; křiž. s ul. Koterovská; nehoda nákladního vozidla; probíhá vyšetřování nehody, nebezpečí; NA x OA bez zranění, špatně průjezdné.',137.532525512438,87.117478963328,'{accindet,personal_cars,trucks}'
8057,2015-11-06 14:50:00,'Od 6.11.2015 14:50 do 16:55; na silnici 26 u obce Líně okres Plzeň-sever; nehoda nákladního vozidla; probíhá vyšetřování nehody, nebezpečí; NA x OA bez zranění, průjezdné s opatrností.',137.431273245757,87.1535167216888,'{accindet,personal_cars,trucks}'
8058,2015-11-06 15:05:00,'Od 6.11.2015 15:05 do 17:10; v ulici Klatovská třída v obci Plzeň; nehoda; probíhá vyšetřování nehody, nebezpečí; 3 x OA bez zranění, průjezdné s opatrností.',137.507859912435,87.1112759221119,'{accindet,personal_cars}'
8059,2015-11-06 15:05:00,'Od 6.11.2015 15:05 do 17:10; v ulici Benešova třída v obci Nýřany okres Plzeň-sever; nehoda; probíhá vyšetřování nehody, nebezpečí; 2 x OA bez zranění, průjezdné s opatrností.',137.39582222353,87.1357560314953,'{accindet,personal_cars}'
