ID,od,popis,x,y,ts_flags
8060,2015-11-06 15:25:00,'Od 6.11.2015 15:25 do 17:30; v ulici Goethova v obci Plzeň; nehoda; probíhá vyšetřování nehody, nebezpečí; 2 x OA bez zranění, průjezdné s opatrností.',137.513622045769,87.1034633337027,'{accindet,personal_cars}'
8061,2015-11-06 20:10:00,'Od 6.11.2015 20:10 do 22:15; v ulici K Sinoru v obci Plzeň; nehoda; probíhá vyšetřování nehody, nebezpečí; srážka OA s motocyklem, bez zranění',137.474134045763,87.1554802393509,'{accindet,personal_cars}'
8062,2015-11-07 01:10:00,'Od 7.11.2015 01:10 do 03:15; v ulici Americká v obci Plzeň; nehoda; probíhá vyšetřování nehody, nebezpečí; 2 x OA bez zranění',137.512642845769,87.1041830199327,'{accindet,personal_cars}'
8063,2015-11-07 07:55:00,'Od 7.11.2015 07:55 do 08:55; na silnici 27 u obce Plasy okres Plzeň-sever; Před obcí Plasy ve směru od obce Kaznějov.; nehoda; havarované vozidlo; Havárie OA mimo komunikaci, bez zranění osob a úniku provozních kapalin. Na místě PČR.',137.518900623547,86.8976820219705,'{accindet,personal_cars}'
8064,2015-11-07 10:15:00,'Od 7.11.2015 10:15 do 11:15; na silnici 20 u obce Plzeň; Na nájezdu  na D-5 u Olympie.; nehoda; havarované vozidlo; překážka na vozovce, průjezd se zvýšenou opatrností; Havárie OA, bez zranění osob a úniku provozních kapalin,.',137.54949831244,87.1577284114384,'{accindet,personal_cars}'
8065,2015-11-07 10:20:00,'Od 7.11.2015 10:20 do 11:20; na silnici 182 u obce Líšina okres Plzeň-jih; Za Líšinou v zatáčcce směr Čelákovy.; nehoda; 2 havarovaná vozidla; překážka na vozovce, průjezd se zvýšenou opatrností; 2 x OA, bez zranění a úniku provozních kapalin. Na místě PČR.',137.361278579081,87.2608974108447,'{accindet,personal_cars}'
8066,2015-11-07 12:10:00,Od 7.11.2015 12:10 do 13:10; v ulici Domažlická v obci Plzeň; na Nové Hospodě.; nehoda; cyklisté na vozovce; probíhá vyšetřování nehody; Pád cyklisty na vozovku se zraněním. Na místě RZS a PČR.,137.46661262354,87.1197694395119,'{accindet,injury,cyclist}'
8067,2015-11-07 15:30:00,'Od 7.11.2015 15:30 do 16:30; v ulici Tylova v obci Plzeň; Křižovatka s ul. Korandova.; nehoda; 2 havarovaná vozidla; překážka na vozovce, průjezd se zvýšenou opatrností; 2 x OA bez zranění, s únikem chladící kapaliny.',137.50424746799,87.1023892885031,'{accindet,personal_cars}'
8068,2015-11-07 18:15:00,'Od 7.11.2015 18:15 do 19:15; v ulici Mikulášská v obci Plzeň; '' U Ježíška ''.; nehoda; 2 havarovaná vozidla; probíhá vyšetřování nehody; 2 x OA,  bez zranění a úniku provozních kapalin. Na místě PČR.',137.51925404577,87.1071794073998,'{accindet,personal_cars}'
8069,2015-11-07 18:35:00,'Od 7.11.2015 18:35 do 19:35; na silnici 27 u obce Plzeň; Mezi Plzní a Třemošnou.; nehoda; havarované vozidlo; probíhá vyšetřování nehody; Havárie OA do příkopu, zranění osob a  ani únik provozních kapalin nejsou hlášeny.  Na místě PČR.',137.519603912436,87.0436305233094,'{accindet,injury,personal_cars}'
