ID,od,popis,x,y,ts_flags
8110,2015-11-12 15:55:00,Od 12.11.2015 15:55 do 18:00; v ulici Dubová v obci Plzeň; nehoda; 2 havarovaná vozidla; probíhá vyšetřování nehody; 2 x OA bez zranění. PČR na místě.,137.491399823543,87.1569006113998,'{accindet,personal_cars}'
8111,2015-11-12 19:20:00,Od 12.11.2015 19:20 do 21:25; na silnici u obce Úněšov okres Plzeň-sever; nehoda; zvěř na vozovce; probíhá vyšetřování nehody; Střet OA se zvěří. PČR na místě.,137.331591823521,86.935167891976,'{accindet,personal_cars,animal_hit}'
8112,2015-11-13 06:05:00,Od 13.11.2015 06:05 do 08:10; na silnici 27 u obce Dolní Lukavice okres Plzeň-jih; nehoda; Střet 2x OA. PČR na místo.,137.477398045764,87.2692541930579,'{accindet,personal_cars}'
8113,2015-11-13 09:50:00,Od 13.11.2015 09:50 do 10:50; v ulici Čechova v obci Plzeň; u domu čp. 2642/65; nehoda; 2 havarovaná vozidla; 2 x OA bez zranění a bez úniku provozních kapalin.,137.509942045768,87.1190235603606,'{accindet,personal_cars}'
8114,2015-11-13 10:20:00,'Od 13.11.2015 10:20 do 11:20; na silnici 19 u obce Nezbavětice okres Plzeň-město; Za Losinou směr Chválenice odbočka na Rožmitál.; nehoda; havarované vozidlo; havárie OA bez zranění, únik provozních kapalin nehlášen, vozidlo v příkopu.',137.577225245778,87.194715673961,'{accindet,personal_cars}'
8115,2015-11-13 10:40:00,'Od 13.11.2015 10:40 do 11:40; v ulici Petřínská v obci Plzeň; u domu čp. 111/34; nehoda; 2 havarovaná vozidla; 2 x OA bez zranění, únik provozních kapalin nehlášen.',137.535416179105,87.1162093679247,'{accindet,personal_cars}'
8116,2015-11-13 11:00:00,'Od 13.11.2015 11:00 do 12:00; v ulici Borová v obci Plzeň; u domu čp. 397/34 na křižovatce; nehoda; 2 havarovaná vozidla; 2 x OA bez zranění, únik provozních kapalin nehlášen.',137.542993779106,87.0940140760529,'{accindet,personal_cars}'
8117,2015-11-13 12:30:00,'Od 13.11.2015 12:30 do 13:30; v ulici Malostranská v obci Plzeň; ve směru na Slovany; nehoda; 2 havarovaná vozidla; 2 x OA bez zranění, únik provozních kapalin nehlášen.',137.522277690214,87.1239991913241,'{accindet,personal_cars}'
8118,2015-11-13 14:15:00,'Od 13.11.2015 14:15 do 15:15; v ulici Americká v obci Plzeň; křiž. s ul. Klatovská tř. x U Práce; nehoda; 2 havarovaná vozidla; probíhají záchranné a vyprošťovací práce; 2 x OA se zraněním, únik provozních kapalin nehlášen.',137.509410134657,87.1032641527721,'{accindet,injury,personal_cars}'
8119,2015-11-13 16:25:00,Od 13.11.2015 16:25 do 17:25; v ulici Tyršova v obci Plzeň; asi 50 m za světelnou křiž. s ul. Sirkova x U Prazdroje; nehoda; 2 havarovaná vozidla; 2 x OA bez zranění a bez úniku provozních kapalin.,137.518619023547,87.1007407631604,'{accindet,personal_cars}'
