ID,od,popis,x,y,ts_flags
8140,2015-11-15 12:05:00,'Od 15.11.2015 12:05 do 14:10; na silnici 27 v obci Plzeň; nehoda; 2 havarovaná vozidla; probíhá vyšetřování nehody; 2x OA, bez zranění osob.',137.497914312433,87.1192567862295,'{accindet,personal_cars}'
8141,2015-11-15 12:55:00,'Od 15.11.2015 12:55 do 15:00; v ulici Prešovská v obci Plzeň; nehoda, silný provoz; 2 havarovaná vozidla; probíhá vyšetřování nehody; 2x OA, bez zranění osob.',137.510043734657,87.1007253561414,'{accindet,personal_cars}'
8142,2015-11-15 15:05:00,'Od 15.11.2015 15:05 do 17:10; na silnici třídy I u obce Plzeň; nehoda; 3 havarovaná vozidla; probíhá vyšetřování nehody, nebezpečí; 3x OA, bez zranění osob.',137.496347023544,87.1188552410582,'{accindet,personal_cars}'
8143,2015-11-15 17:10:00,'Od 15.11.2015 17:10 do 19:15; v ulici Domažlická v obci Plzeň; nehoda, silný provoz; 2 havarovaná vozidla; probíhá vyšetřování nehody; 2x OA, bez zranění osob.',137.478023823542,87.1129890369143,'{accindet,personal_cars}'
8144,2015-11-15 20:00:00,'Od 15.11.2015 20:00 do 22:05; na silnici 27 u obce Plzeň; nehoda; OA, sražené prase, na místo PČR',137.504876090212,87.1575338301123,'{accindet,personal_cars,animal_hit}'
8145,2015-11-16 04:55:00,'Od 16.11.2015 04:55 do 07:00; na silnici 19 u obce Žákava okres Plzeň-jih; nehoda; střet OA se srnou, na místo PČR',137.625627023562,87.2261627881328,'{accindet,personal_cars,animal_hit}'
8146,2015-11-16 05:25:00,'Od 16.11.2015 05:25 do 07:30; na silnici 18020 u obce Plzeň; nehoda; střet OA se zvěří-kanec, na místo PČR',137.555635912441,87.1358605104737,'{accindet,personal_cars}'
8147,2015-11-16 06:55:00,'Od 16.11.2015 06:55 do 09:00; na silnici 1803 u obce Žilov okres Plzeň-sever; mezi Žilovem a Ledcemi; nehoda; havárie OA bez zranění, na místo PČR',137.469472712429,87.0021846625464,'{accindet,personal_cars}'
8148,2015-11-16 09:00:00,'Od 16.11.2015 09:00 do 10:05; v ulici Husova v obci Plzeň; nehoda; neprůjezdný pruh, 2 havarovaná vozidla; - 2 x OA, bez zranění, na místo PČR',137.504950756879,87.1015617307422,'{accindet,personal_cars}'
8149,2015-11-16 09:35:00,'Od 16.11.2015 09:35 do 10:40; v ulici Plzeňská v obci Líně okres Plzeň-sever; nehoda nákladního vozidla; Pozor! Tvoří se kolona vozidel; - NA x OA, bez zranění, na místo PČR',137.427997156868,87.1568709290885,'{accindet,personal_cars,trucks}'
