ID,od,popis,x,y,ts_flags
8280,2015-11-27 17:00:00,Od 27.11.2015 17:00 do 18:00; na silnici 27 v obci Výrov okres Plzeň-sever; v obci Hadačka ve druhé zatáčce ve směru od Kralovic; nehoda; 2 havarovaná vozidla; OA x dodávka bez zranění a bez úniku provozních kapalin.,137.569149867999,86.8592952989048,'{accindet,personal_cars}'
8281,2015-11-27 17:05:00,Od 27.11.2015 17:05 do 18:05; v ulici Rokycanská v obci Plzeň; Naproti divadlu ALFA; nehoda; 2 havarovaná vozidla; DN 2 x Oa bez zranění a bez úniku provozních kapalin. Místo průjezdné,137.544624356884,87.0999318886516,'{accindet,personal_cars}'
8282,2015-11-27 17:35:00,Od 27.11.2015 17:35 do 18:35; v ulici náměstí Generála Píky v obci Plzeň; Na kruhovém objezdu.; nehoda; 2 havarovaná vozidla; 2 x OA bez zranění a bez úniku provozních kapalin.,137.528519112437,87.1151960903144,'{accindet,personal_cars}'
8283,2015-11-27 18:40:00,Od 27.11.2015 18:40 do 19:40; na silnici 27 u obce Lužany okres Plzeň-jih; odbočka na Vlčí a k nádraží; nehoda; 2 havarovaná vozidla; 2 x OA bez zranění a bez úniku provozních kapalin. Na místo hlídka PČR.,137.468707556874,87.3161254051644,'{accindet,personal_cars}'
8284,2015-11-27 19:05:00,Od 27.11.2015 19:05 do 20:05; v ulici Pražská v obci Plzeň; u domu čp. 41; nehoda; havarované vozidlo; probíhají záchranné a vyprošťovací práce; střet chodce s tramvají se zraněním. Na místo RZS a PČR.,137.516644267991,87.1008805266297,'{accindet,pedestrian_involvement,injury}'
8285,2015-11-27 19:40:00,Od 27.11.2015 19:40 do 20:40; v ulici Karlovarská v obci Plzeň; Mezi BČS Shell a křižovatkou s ul. Lidická; nehoda; 2 havarovaná vozidla; 2x OA bez zranění a bez úniku provozních kapalin.,137.507835734657,87.0867471569474,'{accindet,personal_cars}'
8286,2015-11-27 22:00:00,Od 27.11.2015 22:00 do 23:00; na silnici 2038 u obce Přehýšov okres Plzeň-sever; Mezi obcemi Heřmanova Huť a Přehýšov; nehoda; Srážka OA s prasetem bez zranění osob.,137.323620267965,87.1457949777894,'{accindet,personal_cars,animal_hit}'
8287,2015-11-28 09:00:00,Od 28.11.2015 09:00 do 11:05; na silnici 205 u obce Nekmíř okres Plzeň-sever; nehoda; Havárie OA. PČR na místo.,137.429338312424,86.9836797935234,'{accindet,personal_cars}'
8288,2015-11-28 13:45:00,Od 28.11.2015 13:45 do 15:50; v ulici Revoluční v obci Plzeň; nehoda; Střet 2x OA. PČR na místo.,137.534910579105,87.0991141976097,'{accindet,personal_cars}'
8289,2015-11-28 17:20:00,'Od 28.11.2015 17:20 do 19:25; v ulicích Mánesova, Hlavní v obci Tlučná okres Plzeň-sever , délka 1.2km; nehoda; Střet OA se srnou. PČR na místo.',137.406626845754,87.1289930573671,'{accindet,personal_cars,animal_hit}'
