ID,od,popis,x,y,ts_flags
8300,2015-11-30 14:00:00,'Od 30.11.2015 14:00 do 16:05; na silnici 26 v obci Plzeň; kruhový objezd.; nehoda; neprůjezdný pruh, 2 havarovaná vozidla; 2 x OA bez zranění, na místě PČR.',137.472456534652,87.116733052182,'{accindet,personal_cars}'
8301,2015-11-30 14:10:00,'Od 30.11.2015 14:10 do 15:15; na silnici 180 u obce Kyšice okres Plzeň-město; nehoda; neprůjezdný pruh, 2 havarovaná vozidla; probíhá vyšetřování nehody; OA x dodávka bez zranění, na místě PČR.',137.594901334669,87.0799691642312,'{accindet,personal_cars}'
8302,2015-11-30 14:15:00,'Od 30.11.2015 14:15 do 15:20; v ulici Podnikatelská v obci Plzeň; nehoda; neprůjezdný pruh, 2 havarovaná vozidla; probíhá vyšetřování nehody; 2 x OA bez zranění, na místě PČR',137.483504356876,87.1229178588234,'{accindet,personal_cars}'
8303,2015-11-30 15:55:00,'Od 30.11.2015 15:55 do 17:10; v ulici Klatovská třída v obci Plzeň; nehoda odstraněna; provoz v jízdním pruhu obnoven; tramvaj x OA, bez zranění osob, na místě PČR.',137.507828623546,87.1118612700245,'{accindet,personal_cars}'
8304,2015-11-30 16:45:00,'Od 30.11.2015 16:45 do 20:50; na silnici 1783 u obce Nové Mitrovice okres Plzeň-jih; vážná nehoda; probíhá vyšetřování nehody; OA x chodec se smrtelným zraněním, na místě PČR,  ZZS a vrtulník LZS.',137.734376534688,87.2717169840944,'{accindet,pedestrian_involvement,injury,death,personal_cars}'
8305,2015-11-30 17:40:00,'Od 30.11.2015 17:40 do 18:45; v ulici Čemínská v obci Město Touškov okres Plzeň-sever; nehoda; probíhá vyšetřování nehody, nebezpečí; OA x chodec se zraněním, na místě PČR a ZZS.',137.422701512423,87.0672023593962,'{accindet,pedestrian_involvement,injury,personal_cars}'
8306,2015-11-30 18:05:00,'Od 30.11.2015 18:05 do 19:10; na silnici 204 v obci Loza okres Plzeň-sever; nehoda; 2 havarovaná vozidla; probíhá vyšetřování nehody; 2 x OA se zraněním, na místě PČR a ZZS.',137.450795379093,86.9386760451317,'{accindet,injury,personal_cars}'
8307,2015-11-30 21:30:00,'Od 30.11.2015 21:30 do 23:30; v ulici Koterovská v obci Plzeň; nehoda; havarované vozidlo; probíhá vyšetřování nehody; havárie OA, bez zranění osob.',137.540035556884,87.1278436295732,'{accindet,personal_cars}'
8308,2015-12-01 06:45:00,'Od 1.12.2015 06:45 do 07:50; na silnici 20 u obce Seč okres Plzeň-jih; směr Nepomuk; nehoda; havarované vozidlo; zvěř na vozovce; střet OA se zvěří, bez zranění osob.',137.596798579114,87.2700627031034,'{accindet,personal_cars,animal_hit}'
8309,2015-12-01 07:30:00,Od 1.12.2015 07:30 do 10:35; na silnici u obce Plzeň; nehoda autobusu; 2 havarovaná vozidla; autobus x OA bez zranění.,137.52381724577,87.0714175594705,'{accindet,personal_cars}'
