ID,od,popis,x,y,ts_flags
8360,2015-12-07 15:40:00,Od 7.12.2015 15:40 do 16:40; v ulici Hornická v obci Líně okres Plzeň-sever; U domu čp. 190; nehoda; 2 havarovaná vozidla; DN 2 x OA bez zranění a bez úniku provozních kapalin.,137.425459201312,87.1557319953544,'{accindet,personal_cars}'
8361,2015-12-07 16:05:00,'Od 7.12.2015 16:05 do 17:05; v ulici Edvarda Beneše v obci Plzeň; Na křižovatce u kostela.; nehoda; 3 havarovaná vozidla; DN 3 x OA bez zranění, únik provozních kapalin nehlášen.',137.508691201324,87.110968941976,'{accindet,personal_cars}'
8362,2015-12-07 16:30:00,'Od 7.12.2015 16:30 do 17:30; v ulici Plaská v obci Kaznějov okres Plzeň-sever; Za žel. přejezdem ve směru na Most.; nehoda; 2 havarovaná vozidla; DN 2 x OA bez zranění, únik provozních kapalin nehlášen.',137.513428623547,86.9374838729962,'{accindet,personal_cars}'
8363,2015-12-07 16:50:00,'Od 7.12.2015 16:50 do 17:50; v ulici Tyršova v obci Plzeň; Křižovatka '' Na Rychtářce ''; nehoda; 2 havarovaná vozidla; DN 2 x OA bez zranění, únik provozních kapalin nehlášen, místo je průjezdné.',137.515991467991,87.0975569182535,'{accindet,personal_cars}'
8364,2015-12-07 17:55:00,'D5, km 89, ve směru Praha, nehoda, havarované vozidlo, Od 07.12.2015 17:55 Do 07.12.2015 18:55, Havárie Oa bez zranění, únik provozních kapalin nehlášen.',137.442921245759,87.1418935498962,'{accindet,personal_cars}'
8365,2015-12-07 21:45:00,'Od 7.12.2015 21:45 do 22:45; v ulici Malesická v obci Město Touškov okres Plzeň-sever; u domu čp. 146; nehoda; havárie OA do domu, bez zranění a bez úniku provozních kapalin. Na místo hlídka PČR.',137.42497777909,87.0702580823027,'{accindet,personal_cars}'
8366,2015-12-08 05:10:00,'Od 8.12.2015 05:10 do 06:10; na silnici 18017 u obce Kyšice okres Plzeň-město , délka 417m; ve směru na Ejpovice; nehoda; havarované vozidlo; havárie OA do stromu, bez zranění a bez úniku provozních kapalin. Na místo PČR.',137.599275379114,87.1018390520593,'{accindet,personal_cars}'
8367,2015-12-08 07:15:00,'Od 8.12.2015 07:15 do 08:15; na silnici 183 u obce Přeštice okres Plzeň-jih , délka 1.8km; mezi obcemi Skočice a Horušany; nehoda; havarované vozidlo; místy mlha; havárie OA do příkopu, bez zranění a bez úniku provozních kapalin. Místo průjezdné, v místě mlha.',137.451494401316,87.3042360384389,'{accindet,personal_cars}'
8368,2015-12-08 07:50:00,Od 8.12.2015 07:50 do 09:55; v ulici Fügnerova v obci Blovice okres Plzeň-jih; nehoda; 3 havarovaná vozidla; probíhá vyšetřování nehody; 3 x OA. PČR na místě.,137.624191290229,87.2870550429023,'{accindet,personal_cars}'
8369,2015-12-08 08:05:00,Od 8.12.2015 08:05 do 10:10; v ulici Vejprnická v obci Plzeň; nehoda; 2 havarovaná vozidla; probíhá vyšetřování nehody; 2 x OA. PČR na místě.,137.4957937791,87.1010059832905,'{accindet,personal_cars}'
