ID,od,popis,x,y,ts_flags
8370,2015-12-08 09:25:00,'Od 8.12.2015 09:25 do 11:30; v ulici Kaplířova v obci Plzeň; nehoda; 2 havarovaná vozidla; 2 x OA bez zranění, na místě PČR.',137.500844090211,87.1226516474634,'{accindet,personal_cars}'
8371,2015-12-08 09:25:00,'Od 8.12.2015 09:25 do 11:30; na silnici 117 u obce Letiny okres Plzeň-jih; nehoda odstraněna; provoz v jízdním pruhu obnoven; Havárie OA do stromu, se zraněním osoby. PČR a ZZS na místě.',137.56926577911,87.3189356717838,'{accindet,injury,personal_cars}'
8372,2015-12-08 09:50:00,Od 8.12.2015 09:50 do 11:55; v ulici Tleskačova v obci Plzeň; požár vozidla; probíhají odklízecí práce; probíhá vyšetřování nehody; Zahoření motorové části. HZS a PČR na místo.,137.498190934655,87.0758812563318,{accindet}
8373,2015-12-08 10:20:00,Od 8.12.2015 10:20 do 12:25; v ulici Švihovská v obci Plzeň; nehoda; havarované vozidlo; probíhá vyšetřování nehody; Havárie OA do sloupu. PČR na místě.,137.524251023548,87.1013548392975,'{accindet,personal_cars}'
8374,2015-12-08 12:00:00,'Od 8.12.2015 12:00 do 14:05; v ulici Únorová v obci Plzeň; nehoda; 2 havarovaná vozidla; probíhá vyšetřování nehody; 2 x OA bez zranění, na místě PČR.',137.503949512434,87.1371439355648,'{accindet,personal_cars}'
8375,2015-12-08 14:15:00,'Od 8.12.2015 14:15 do 16:20; v ulici Revoluční v obci Nýřany okres Plzeň-sever; nehoda; 2 havarovaná vozidla; probíhá vyšetřování nehody; 2 x OA bez zranění, na místě PČR.',137.386705779084,87.1383657451936,'{accindet,personal_cars}'
8376,2015-12-08 15:00:00,'Od 8.12.2015 15:00 do 17:05; na silnici 26 v obci Plzeň; nehoda; 2 havarovaná vozidla; probíhá vyšetřování nehody; 2 x OA bez zranění, na místě PČR.',137.472299379096,87.1168177653293,'{accindet,personal_cars}'
8377,2015-12-08 17:20:00,Od 8.12.2015 17:20 do 19:25; v ulici Štefánikova v obci Plzeň; nehoda; 3 havarovaná vozidla; probíhá vyšetřování nehody; 3 x OA bez zranění. PČR na místě.,137.541298490217,87.1528042965427,'{accindet,personal_cars}'
8378,2015-12-08 18:10:00,'Od 8.12.2015 18:10 do 19:10; D5 - 71.5-72km na trase Praha - Rozvadov; nehoda nákladního vozidla; překážka na vozovce, průjezd se zvýšenou opatrností; střet NA s pneumatikou, bez zranění osob.',137.570991645777,87.1296761027396,'{accindet,trucks}'
8379,2015-12-08 21:20:00,Od 8.12.2015 21:20 do 23:25; v ulici Domažlická v obci Plzeň; nehoda; 3 havarovaná vozidla; Střet 3x OA. PČR na místo.,137.487713423543,87.1074049824628,'{accindet,personal_cars}'
