ID,od,popis,x,y,ts_flags
840,2013-07-20 12:10:00,'Od 20.7.2013 13:10 do 15:15; na silnici 203 u obce Tlučná okres Plzeň-sever; nehoda; probíhají záchranné a vyprošťovací práce, nebezpečí; - havárie OA do příkopu, se zraněním, na místo PČR, ZZS, HZS',137.427172267979,87.121634091811,'{accindet,injury,personal_cars}'
841,2013-07-20 12:50:00,'Od 20.7.2013 13:50 do 14:55; na silnici 18055 u obce Újezd nade Mží okres Plzeň-sever; nehoda; probíhají záchranné a vyprošťovací práce, nebezpečí; - pád cyklisty z kola, se zraněním, na místo PČR, ZZS',137.405292801309,87.0689752505726,'{accindet,injury,cyclist}'
842,2013-07-20 12:55:00,'Od 20.7.2013 13:55 do 16:00; na silnici 18027 u obce Čižice okres Plzeň-jih; nehoda; probíhají záchranné a vyprošťovací práce, nebezpečí; - OA x cyklista, se zraněním, na místo PČR, ZZS, na místě bude přistávat vrtulník LZS',137.52743893466,87.1990833975616,'{accindet,injury,personal_cars,cyclist}'
843,2013-07-20 13:30:00,'Od 20.7.2013 14:30 do 15:35; v ulici Krašovská v obci Plzeň; nehoda; neprůjezdný pruh, 2 havarovaná vozidla; - 2 x OA, bez zranění, na místo PČR',137.496705423544,87.0670746208627,'{accindet,personal_cars}'
844,2013-07-20 19:10:00,'Od 20.7.2013 20:10 do 21:15; v ulici Borská v obci Plzeň; nehoda; - 2 x OA, bez zranění, na místo PČR',137.505504712434,87.1081125117215,'{accindet,personal_cars}'
845,2013-07-20 21:10:00,'Od 20.7.2013 22:10 do 23:15; na silnici 182 v obci Líšina okres Plzeň-jih; nehoda; - srážka OA s divokým prasetem, na místo PČR',137.360800712414,87.2561901805774,'{accindet,personal_cars,animal_hit}'
846,2013-07-21 08:15:00,'Od 21.7.2013 09:15 do 10:25; v ulici Pod Továrnou v obci Kaznějov okres Plzeň-sever; všechny nehody byly odstraněny, nejsou hlášeny žádné další problémy; 2x OA bez zranění, průjezdné s opatrností',137.511896179102,86.9442226063216,'{accindet,personal_cars}'
847,2013-07-21 12:20:00,'Od 21.7.2013 13:20 do 14:30; na silnici 19335 u obce Honezovice okres Plzeň-jih; mezi obcemi Naedražice a Honezovice; nehoda; havárie OA do stromu, bez zranění, osádka na místě není, průjezdné s opatrností',137.278685867958,87.2083844929282,'{accindet,personal_cars}'
848,2013-07-21 20:40:00,'Od 21.7.2013 21:40 do 23:45; na silnici 2312 u obce Dolany okres Plzeň-sever; 1 km za Dolany směr Žichlice; nehoda; dopravní nehoda 2 x OA bez zranění, průjezdné s opatrností',137.579277512445,87.0248138229402,'{accindet,personal_cars}'
849,2013-07-22 04:15:00,'Od 22.7.2013 05:15 do 06:00; na silnici 19321 v obci Pňovany okres Plzeň-sever; směr Čerňovice, před železničním přejezdem; nehoda odstraněna; havárie OA, vozidlo v příkopu průjezdné s opatrností',137.315968001297,87.0521887852728,'{accindet,personal_cars}'
