ID,od,popis,x,y,ts_flags
8430,2015-12-12 18:15:00,'Od 12.12.2015 18:15 do 20:20; na silnici 20 u obce Chotíkov okres Plzeň-sever; nehoda; zvěř na vozovce; překážka na vozovce, průjezd se zvýšenou opatrností; OA x zvěř, bez zranění osob.',137.477982579097,87.0524553482934,'{accindet,personal_cars,animal_hit}'
8431,2015-12-13 05:35:00,'Od 13.12.2015 05:35 do 07:40; v ulici Karlovarská v obci Plzeň; nehoda; OA x osoba, se zraněním, na místo RZS a policie, zvýšená opatrnost',137.505138490212,87.0840336412894,'{accindet,injury,personal_cars}'
8432,2015-12-13 06:00:00,'D5, mezi km 131 a 80, ve směru Praha, nárazový vítr, ztížené jízdní podmínky, Od 13.12.2015 06:00 Do 13.12.2015 08:00, zvýšené nebezpečí nehody',137.058542934594,87.1095132379482,{accindet}
8433,2015-12-13 17:30:00,'Od 13.12.2015 17:30 do 19:35; v ulici Hlavní v obci Tlučná okres Plzeň-sever; nehoda; probíhá vyšetřování nehody, nebezpečí; 2 havarovaná vozidla; 2 x OA bez zranění.',137.405930667976,87.1295914099875,'{accindet,personal_cars}'
8434,2015-12-13 18:45:00,'Od 13.12.2015 18:45 do 20:50; na silnici u obce Nová Ves okres Plzeň-jih; před obcí ve směru od Líní; nehoda; střet OA se zvěří, bez zranění osob, na místo PČR.',137.446720001315,87.1644822528536,'{accindet,personal_cars,animal_hit}'
8435,2015-12-13 20:10:00,'Od 13.12.2015 20:10 do 22:15; D5 - 73km na trase Rozvadov - Praha; porouchané vozidlo, očekávejte zdržení; probíhá vyšetřování nehody, nebezpečí; pro poruchu odstavené vozidlo - (v odstavném pruhu ...)',137.557982579108,87.1413756106191,{accindet}
8436,2015-12-13 20:35:00,'Od 13.12.2015 20:35 do 22:45; v ulici Univerzitní v obci Plzeň; nehoda; havárie OA do lampy VO, bez zranění, na místo PČR.',137.491170134655,87.1266193792712,'{accindet,personal_cars}'
8437,2015-12-13 20:50:00,'Od 13.12.2015 20:50 do 23:50; v ulici Studentská v obci Plzeň; směrem do centra; nehoda autobusu; Střet OA + BUS, bez zranění, na místo PČR.',137.500780090211,87.0687869525043,'{accindet,personal_cars}'
8438,2015-12-14 00:00:00,'Od 14.12.2015 00:00 do 02:00; na silnici 26 u obce Zbůch okres Plzeň-sever; směr Plzeň; všechny nehody byly odstraněny, nejsou hlášeny žádné další problémy; havárie OA se zraněním',137.417982579089,87.1645339146914,'{accindet,injury,personal_cars}'
8439,2015-12-14 01:40:00,'Od 14.12.2015 01:40 do 03:45; na silnici 27 u obce Dolní Lukavice okres Plzeň-jih; mezi Přešticemi a Horní Lukavicí; nehoda; havárie OA se zraněním, na místo PČR',137.477187556875,87.2679991681901,'{accindet,injury,personal_cars}'
