ID,od,popis,x,y,ts_flags
8580,2015-12-29 10:10:00,'Od 29.12.2015 10:10 do 12:15; v ulicích Koterovská, Blatenská v obci Plzeň , délka 46m; nehoda; 2 havarovaná vozidla; probíhají záchranné a vyprošťovací práce, nebezpečí; OA x tramvaj, se zraněním, složky IZS jsou na místě.',137.532215467994,87.1176065813003,'{accindet,injury,personal_cars}'
8581,2015-12-29 10:30:00,'Od 29.12.2015 10:30 do 12:35; v ulici Plzeňská v obci Líně okres Plzeň-sever; nehoda; 2 havarovaná vozidla; probíhá vyšetřování nehody, nebezpečí; 2x OA, bez zranění osob.',137.429429334646,87.1558001561645,'{accindet,personal_cars}'
8582,2015-12-29 13:05:00,'Od 29.12.2015 13:05 do 15:05; v ulici Kotkova v obci Plzeň; nehoda; 2 havarovaná vozidla; probíhá vyšetřování nehody; 2x OA, bez zranění osob, PČR jede na místo.',137.504521245767,87.099585224396,'{accindet,personal_cars}'
8583,2015-12-29 17:00:00,'Od 29.12.2015 17:00 do 19:05; v ulici U Prazdroje v obci Plzeň; u vjezdu k prodejně Hornbach; nehoda; 2 havarovaná vozidla; probíhá vyšetřování nehody, nebezpečí; 2x OA, bez zranění osob.',137.523308801326,87.1000067238145,'{accindet,personal_cars}'
8584,2015-12-29 17:35:00,'Od 29.12.2015 17:35 do 19:40; na silnici 27 v obci Plzeň; nehoda; 2 havarovaná vozidla; probíhá vyšetřování nehody, nebezpečí; 2x OA, bez zranění osob, PČR jede na místo.',137.499167290211,87.1194262043823,'{accindet,personal_cars}'
8585,2015-12-29 19:40:00,'Od 29.12.2015 19:40 do 21:45; na silnici 26 u obce Chotěšov okres Plzeň-jih; nehoda; 2x OA bez zranění, bez úniku PHM, zvýšená opatrnost, ohrožení BESIP',137.388349156862,87.1941026701084,'{accindet,personal_cars}'
8586,2015-12-30 08:10:00,'Od 30.12.2015 08:10 do 08:25; v ulici Hlávkova v obci Přeštice okres Plzeň-jih; nehoda odstraněna; OA x srna, bez zranění osob. Na místě PČR.',137.476477156875,87.2964187058551,'{accindet,personal_cars,animal_hit}'
8587,2015-12-30 17:25:00,'Od 30.12.2015 17:25 do 18:25; na silnici 180 u obce Čeminy okres Plzeň-sever; V křižovatce se sil. I/20, u restaurace u Krystlů.; nehoda; 2 havarovaná vozidla; překážka na vozovce, průjezd se zvýšenou opatrností; 2 x OA, bez zranění a úniku provozních kapalin. Na místě PČR.',137.427140267979,87.0213289691896,'{accindet,personal_cars}'
8588,2015-12-30 18:15:00,'Od 30.12.2015 18:15 do 19:15; na silnici 18050 u obce Plzeň; nehoda; 2 havarovaná vozidla; probíhá vyšetřování nehody; 2 x OA se zraněním, na místě ZZS a PČR.',137.444408179092,87.0714560981651,'{accindet,injury,personal_cars}'
8589,2015-12-31 06:20:00,'Od 31.12.2015 06:20 do 07:20; na silnici 2057 u obce Pláně okres Plzeň-sever; nehoda; havarované vozidlo; zvěř na vozovce; střet OA se zvěří, bez zranění osob.',137.495234845766,86.8904766760403,'{accindet,personal_cars,animal_hit}'
