ID,od,popis,x,y,ts_flags
8590,2015-12-31 11:20:00,'Od 31.12.2015 11:20 do 13:25; v ulici Na Okraji v obci Plzeň; nehoda; probíhá vyšetřování nehody, nebezpečí; 2 havarovaná vozidla; 2 x OA bez zranění osob, průjezdné.',137.491035734655,87.1010224907239,'{accindet,personal_cars}'
8591,2015-12-31 15:45:00,'Od 31.12.2015 15:45 do 18:50; v ulici Borská v obci Plzeň; nehoda autobusu; 2 havarovaná vozidla; autobus x OA bez zranění, na místo PČR.',137.505203201323,87.1080982071792,'{accindet,personal_cars}'
8592,2015-12-31 16:15:00,'Od 31.12.2015 16:15 do 18:20; na silnici 19 u obce Nezvěstice okres Plzeň-město; nehoda; probíhá vyšetřování nehody, nebezpečí; havárie OA mimo komunikaci, bez zranění osob.',137.604870401337,87.2040614642366,'{accindet,personal_cars}'
8593,2015-12-31 17:30:00,'Od 31.12.2015 17:30 do 19:35; na silnici 20 u obce Nevřeň okres Plzeň-sever; křižovatka Nová Hospoda; nehoda; kyvadlový provoz jedním jízdním pruhem; 2 havarovaná vozidla; 4 x OA se zranění, průjezdné s opatrností.',137.427759645757,87.0215251498012,'{accindet,injury,personal_cars}'
8594,2015-12-31 20:05:00,'Od 31.12.2015 20:05 do 21:05; v ulici Písecká v obci Plzeň; nehoda; havarované vozidlo; probíhá vyšetřování nehody; OA x svodidla, se zraněním. Na místě ZZS a PČR.',137.549277867996,87.1503140321516,'{accindet,injury,personal_cars}'
8595,2015-12-31 21:10:00,'Od 31.12.2015 21:10 do 1.1.2016 01:15; v ulici Plzeňská v obci Chotěšov okres Plzeň-jih; silnice uzavřena, nehoda; 2 havarovaná vozidla; probíhá vyšetřování nehody; OA x BUS, bez zranění osob. Na místě PČR.',137.384268801306,87.2028191878266,'{accindet,personal_cars}'
8596,2015-12-31 21:40:00,'Od 31.12.2015 21:40 do 22:40; na silnici v obci Vysoká Libyně okres Plzeň-sever; U požární nádrže.; nehoda; havarované vozidlo; probíhá vyšetřování nehody; havárie OA mimo komunikaci, bez zranění osob. Na místě HZS a PČR.',137.56740337911,86.797656848691,'{accindet,personal_cars}'
8597,2015-12-31 22:10:00,'Od 31.12.2015 22:10 do 1.1.2016 00:10; na silnici 201 v obci Manětín okres Plzeň-sever; nehoda; havarované vozidlo; probíhá vyšetřování nehody; OA x plot, bez zranění osob. Na místo jede PČR.',137.407322312421,86.8302802338948,'{accindet,personal_cars}'
8598,2016-01-01 16:10:00,'Od 1.1.2016 16:10 do 18:15; na silnici 11739 u obce Spálené Poříčí okres Plzeň-jih; nehoda; havárie OA do příkopu se zraněním, na místo RZS a PČR.',137.68711111246,87.2378883961715,'{accindet,injury,personal_cars}'
8599,2016-01-01 17:25:00,'Od 1.1.2016 17:25 do 19:30; na silnici 233 u obce Chrást okres Plzeň-město; nehoda; OA x zvěř, zvýšená opatrnost, překáží provozu, na místo policie',137.601453512448,87.0416496666867,'{accindet,personal_cars,animal_hit}'
