ID,od,popis,x,y,ts_flags
8630,2016-01-05 07:05:00,'Od 5.1.2016 07:05 do 09:10; na silnici třídy I u obce Dobřany okres Plzeň-jih; nehoda; havarované vozidlo; překážka na vozovce, průjezd se zvýšenou opatrností; havárie OA, bez zranění a úniku PHM.',137.494281245766,87.173975101248,'{accindet,personal_cars}'
8631,2016-01-05 08:40:00,'Od 5.1.2016 08:40 do 09:45; v ulici Rokycanská v obci Plzeň; - ve směru z centra; nehoda, silný provoz; neprůjezdný pruh, 2 havarovaná vozidla; - 2x OA, bez zranění, na místo PČR',137.542635379106,87.099713985668,'{accindet,personal_cars}'
8632,2016-01-05 11:20:00,'Od 5.1.2016 11:20 do 12:25; v ulici Komenského v obci Dobřany okres Plzeň-jih; ve směru na Lhotu; nehoda nákladního vozidla; NA x OA, bez zranění, na místo PČR',137.445034667981,87.1996557010957,'{accindet,personal_cars,trucks}'
8633,2016-01-05 11:35:00,'Od 5.1.2016 11:35 do 12:40; v ulici Rokycanská v obci Plzeň; - křižovatka s ul. Hřbitovní; nehoda; 2x OA, bez zranění, na místo PČR',137.549030401329,87.1004249183821,'{accindet,personal_cars}'
8634,2016-01-05 12:00:00,'Od 5.1.2016 12:00 do 13:05; v ulici Koterovská v obci Plzeň; nehoda nákladního vozidla; NA x OA, bez zranění, na místo PČR',137.538045867994,87.1214030764758,'{accindet,personal_cars,trucks}'
8635,2016-01-05 14:35:00,'Od 5.1.2016 14:35 do 15:40; na silnici 180 u obce Třemošná okres Plzeň-sever; - ve směru na Ledce; nehoda; probíhají záchranné a vyprošťovací práce, nebezpečí; - havárie OA, se zraněním, na místo PČR, ZZS, HZS',137.502033067989,87.02487113046,'{accindet,injury,personal_cars}'
8636,2016-01-05 15:40:00,'Od 5.1.2016 15:40 do 16:45; v ulici Hřbitovní v obci Plzeň; nehoda; 2x OA, bez zranění, na místo PČR',137.549152001329,87.0960028952644,'{accindet,personal_cars}'
8637,2016-01-06 05:20:00,'Od 6.1.2016 05:20 do 06:25; v ulici Plzenecká v obci Plzeň; nehoda autobusu; 2 havarovaná vozidla; OA x trolejbus bez zranění, na místo PČR.',137.525694579104,87.1076008468664,'{accindet,personal_cars}'
8638,2016-01-06 09:40:00,'Od 6.1.2016 09:40 do 7.1.2016 09:45; na silnici v obci Hromnice okres Plzeň-sever; nehoda; havarované vozidlo; ledovka, průjezd se zvýšenou opatrností; havárie OA, bez zranění osob.',137.553059556885,86.9855602369994,'{accindet,personal_cars}'
8639,2016-01-06 15:35:00,'Od 6.1.2016 15:35 do 17:40; v ulici Husova v obci Plzeň; nehoda; 2 havarovaná vozidla; probíhá vyšetřování nehody, nebezpečí; 2x OA, bez zranění osob.',137.505533156879,87.1016530708589,'{accindet,personal_cars}'
