ID,od,popis,x,y,ts_flags
8830,2016-01-26 07:40:00,'Od 26.1.2016 07:40 do 09:45; na silnici 18032 u obce Plzeň; mezi Radobyčemi a Útušicemi; nehoda; probíhá vyšetřování nehody, nebezpečí; OA vozidlo mimo komunikaci',137.521924979103,87.1614264212468,'{accindet,personal_cars}'
8831,2016-01-26 09:10:00,'Od 26.1.2016 09:10 do 11:15; na silnici 205 u obce Nevřeň okres Plzeň-sever; nehoda; probíhá vyšetřování nehody, nebezpečí; OA se zraněním osoby',137.428593067979,87.0139661637575,'{accindet,injury,personal_cars}'
8832,2016-01-26 14:45:00,'Od 26.1.2016 14:45 do 16:50; v ulici Kaznějovská v obci Plzeň; nehoda; probíhá vyšetřování nehody, nebezpečí; 2 x OA bez zranění osob',137.510848712435,87.0660295760311,'{accindet,personal_cars}'
8833,2016-01-26 14:50:00,'Od 26.1.2016 14:50 do 16:55; v ulici Křimická v obci Plzeň; nehoda; probíhá vyšetřování nehody, nebezpečí; 2 x OA bez zranění osob',137.488426667987,87.1012601971992,'{accindet,personal_cars}'
8834,2016-01-26 17:20:00,'Od 26.1.2016 17:20 do 19:25; v ulici Přemyslova v obci Plzeň; nehoda; probíhá vyšetřování nehody, nebezpečí; 2 x OA bez zranění osob',137.505097245768,87.0986464683005,'{accindet,personal_cars}'
8835,2016-01-26 18:00:00,'Od 26.1.2016 18:00 do 20:05; v ulici Slovanská v obci Plzeň; nehoda; probíhá vyšetřování nehody, nebezpečí; 2 x OA bez zranění osob',137.521672534659,87.1128757111717,'{accindet,personal_cars}'
8836,2016-01-26 19:55:00,'Od 26.1.2016 19:55 do 22:00; na silnici 27 u obce Dobřany okres Plzeň-jih; nehoda; zvěř na vozovce; probíhá vyšetřování nehody; střet OA se zvěří, bez zranění osob.',137.483943823542,87.21094783113,'{accindet,personal_cars,animal_hit}'
8837,2016-01-27 06:20:00,'Od 27.1.2016 06:20 do 08:25; v ulici Borská v obci Plzeň; nehoda; 3 havarovaná vozidla; probíhá vyšetřování nehody, nebezpečí; 3x OA, bez zranění osob.',137.504441601323,87.108014580548,'{accindet,personal_cars}'
8838,2016-01-27 06:45:00,'Od 27.1.2016 06:45 do 08:50; v ulici Karlovarská v obci Plzeň; nehoda; 3 havarovaná vozidla; probíhá vyšetřování nehody, nebezpečí; 3x OA, bez zranění osob.',137.511545601324,87.0931786838485,'{accindet,personal_cars}'
8839,2016-01-27 08:10:00,Od 27.1.2016 08:10 do 09:10; na silnici 18025 v obci Losiná okres Plzeň-město; nehoda; 2 havarovaná vozidla; kyvadlový provoz jedním jízdním pruhem; 2 x OA bez zranění.,137.563591112442,87.185068287318,'{accindet,personal_cars}'
