ID,od,popis,x,y,ts_flags
9010,2016-02-18 18:50:00,Od 18.2.2016 18:50 do 20:55; na silnici 1875 u obce Kramolín okres Plzeň-jih; nehoda; Havárie MOTO do stromu se zraněním. IZS a PČR na místo.,137.646542223565,87.4358704655938,'{accindet,injury}'
9011,2016-02-19 05:15:00,Od 19.2.2016 05:15 do 07:20; v ulici Americká v obci Plzeň; nehoda; 2 havarovaná vozidla; 2 x OA bez zranění. PČR na místo.,137.513818312435,87.1042336396999,'{accindet,personal_cars}'
9012,2016-02-19 07:05:00,Od 19.2.2016 07:05 do 09:10; v ulici Hrádecká v obci Plzeň; nehoda; 2 x OA bez zranění. PČR na místo.,137.54566471244,87.0880339646297,'{accindet,personal_cars}'
9013,2016-02-19 07:30:00,'Od 19.2.2016 07:30 do 08:30; v ulicích Korandova, Nerudova v obci Plzeň , délka 35m; nehoda s únikem oleje; 2 havarovaná vozidla; probíhá vyšetřování nehody, nebezpečí; 2x OA, bez zranění osob.',137.50394666799,87.1054077847451,'{accindet,personal_cars}'
9014,2016-02-19 08:30:00,'Od 19.2.2016 08:30 do 10:30; na silnici 1806 u obce Třemošná okres Plzeň-sever; nehoda; havarované vozidlo; probíhají záchranné a vyprošťovací práce; havárie OA, složky IZS jsou na místě.',137.499843556878,87.0186088175686,'{accindet,personal_cars}'
9015,2016-02-19 09:20:00,'Od 19.2.2016 09:20 do 11:20; na silnicích 1804, 27 v obcích Hromnice a Horní Bříza okres Plzeň-sever , délka 86m; nehoda; 2 havarovaná vozidla; probíhá vyšetřování nehody; 2x OA, se zraněním, složky IZS jedou na místo.',137.522674490214,86.9838342019393,'{accindet,injury,personal_cars}'
9016,2016-02-19 12:55:00,'Od 19.2.2016 12:55 do 13:55; v ulici Karlovarská v obci Plzeň; nehoda nákladního vozidla; 2 havarovaná vozidla, neprůjezdný střední jízdní pruh; probíhá vyšetřování nehody, nebezpečí; OA x NA, bez zranění osob.',137.509337601324,87.0884203311117,'{accindet,personal_cars}'
9017,2016-02-19 14:55:00,'Od 19.2.2016 14:55 do 15:55; v ulici Domažlická v obci Plzeň; u hřbitova; nehoda; neprůjezdný pruh, 2 havarovaná vozidla; probíhá vyšetřování nehody, nebezpečí; 2x OA, bez zranění osob.',137.477629867986,87.1132200886542,'{accindet,personal_cars}'
9018,2016-02-19 15:20:00,'Od 19.2.2016 15:20 do 16:25; v ulici Karlovarská v obci Plzeň; všechny nehody byly odstraněny, nejsou hlášeny žádné další problémy; 3x OA, bez zranění osob.',137.511615290213,87.0926481644884,'{accindet,personal_cars}'
9019,2016-02-19 15:35:00,'Od 19.2.2016 15:35 do 16:35; na silnici 605 u obce Plešnice okres Plzeň-sever; nehoda; havarované vozidlo; zvěř na vozovce; OA x zvěř, bez zranění osob.',137.392635734641,87.077552569202,'{accindet,personal_cars,animal_hit}'
