ID,od,popis,x,y,ts_flags
9040,2016-02-23 18:15:00,'Od 23.2.2016 18:15 do 19:20; na silnici třídy I u obce Plzeň; - před kruhovým objezdem; nehoda; neprůjezdný pruh, 2 havarovaná vozidla; 2x OA, bez zranění, na místo PČR',137.495854934655,87.1187705311432,'{accindet,personal_cars}'
9041,2016-02-23 18:55:00,'Od 23.2.2016 18:55 do 20:00; v ulici Slovanská v obci Plzeň; nehoda; 2x OA, bez zranění, na místo PČR',137.521435023548,87.1124917221584,'{accindet,personal_cars}'
9042,2016-02-24 07:40:00,'Od 24.2.2016 07:40 do 09:45; v ulici Plaská v obci Kaznějov okres Plzeň-sever; nehoda; neprůjezdný pruh, 2 havarovaná vozidla; probíhá vyšetřování nehody, nebezpečí; 2x OA, bez zranění osob, PČR jede na místo.',137.511756090213,86.9321253920988,'{accindet,personal_cars}'
9043,2016-02-24 12:00:00,'Od 24.2.2016 12:00 do 13:00; v ulici Bendova v obci Plzeň; nehoda; havarované vozidlo; probíhá vyšetřování nehody; havárie OA do zaparkovaného vozidla, bez zranění osob.',137.505881601323,87.1064542596435,'{accindet,personal_cars}'
9044,2016-02-24 14:30:00,'Od 24.2.2016 14:30 do 16:35; v ulici 17. listopadu v obci Plzeň; nehoda; neprůjezdný pruh, 2 havarovaná vozidla; probíhá vyšetřování nehody, nebezpečí; 2x OA, bez zranění osob.',137.509142756879,87.119216081788,'{accindet,personal_cars}'
9045,2016-02-24 15:30:00,'Od 24.2.2016 15:30 do 17:35; na silnici 191 u obce Nepomuk okres Plzeň-jih; u keramičky; nehoda; havarované vozidlo; probíhá vyšetřování nehody, nebezpečí; havárie OA, bez zranění osob, PČR jede na místo.',137.670259201346,87.3792769730474,'{accindet,personal_cars}'
9046,2016-02-24 15:50:00,'Od 24.2.2016 15:50 do 17:55; na silnicích 18050, 18053 u obce Plzeň , délka 779m; nehoda; neprůjezdný pruh, 2 havarovaná vozidla; probíhá vyšetřování nehody, nebezpečí; 2x OA, bez zranění osob.',137.468311467985,87.0790168516915,'{accindet,personal_cars}'
9047,2016-02-24 16:00:00,'Od 24.2.2016 16:00 do 18:05; v ulici Karlovarská v obci Plzeň; směr centrum; nehoda; 2 havarovaná vozidla; probíhá vyšetřování nehody, nebezpečí; 2x OA, bez zranění osob.',137.511367112435,87.0930565107702,'{accindet,personal_cars}'
9048,2016-02-24 16:10:00,'Od 24.2.2016 16:10 do 18:15; na silnici třídy I u obce Dobřany okres Plzeň-jih; nehoda; 2 havarovaná vozidla; probíhá vyšetřování nehody, nebezpečí; 2x OA, bez zranění osob.',137.494628979099,87.172982701071,'{accindet,personal_cars}'
9049,2016-02-24 18:20:00,'Od 24.2.2016 18:20 do 20:25; v ulici Rokycanská v obci Plzeň; nehoda; 2 havarovaná vozidla; probíhá vyšetřování nehody, nebezpečí; 2x OA, bez zranění osob.',137.554049423552,87.1005547781339,'{accindet,personal_cars}'
