ID,od,popis,x,y,ts_flags
9070,2016-02-28 18:30:00,'Od 28.2.2016 18:30 do 20:35; v ulici Otýlie Beníškové v obci Plzeň; nehoda; 2x OA, bez zranění, bez úniku PHM, překáží provozu, zvýšená opatrnost.',137.512341334657,87.0921066330647,'{accindet,personal_cars}'
9071,2016-02-28 23:55:00,'Od 28.2.2016 23:55 do 29.2.2016 02:00; v ulici Setecká v obci Blovice okres Plzeň-jih; křiž. s ul. Kamenického; nehoda; havárie OA do zábradlí, bez zranění. Na místo policie, zvýšená opatrnost.',137.626062223562,87.2776107671746,'{accindet,personal_cars}'
9072,2016-02-29 05:00:00,'Od 29.2.2016 05:00 do 07:05; v ulici Dlouhá v obci Plzeň; nehoda nákladního vozidla; 2 havarovaná vozidla; NA x OA bez zranění, bez úniku PHM, překáží provozu, zvýšená opatrnost, na místo policie.',137.537336890216,87.1024289053082,'{accindet,personal_cars,trucks}'
9073,2016-02-29 05:40:00,'Od 29.2.2016 05:40 do 07:45; v ulici Křimická v obci Plzeň; nehoda; 2 havarovaná vozidla; 2 x OA bez zranění, bez úniku PHM, překáží provozu, na místo policie.',137.49294009021,87.1008111951907,'{accindet,personal_cars}'
9074,2016-02-29 08:25:00,'Od 29.2.2016 08:25 do 09:30; v ulici Sukova v obci Plzeň; všechny nehody byly odstraněny, nejsou hlášeny žádné další problémy; 2x OA, bez zranění osob, PČR je na místě.',137.503999290212,87.1190488632164,'{accindet,personal_cars}'
9075,2016-02-29 09:30:00,'Od 29.2.2016 09:30 do 11:35; na silnici 180 u obce Dobřany okres Plzeň-jih; nehoda; havarované vozidlo; zvěř na vozovce; OA x zvěř, bez zranění osob.',137.483906134653,87.1969962502227,'{accindet,personal_cars,animal_hit}'
9076,2016-02-29 14:05:00,'Od 29.2.2016 14:05 do 16:10; v ulici Klatovská třída v obci Plzeň; nehoda; 2 havarovaná vozidla; probíhá vyšetřování nehody, nebezpečí; 2x OA, bez zranění osob.',137.507740445768,87.1158870135066,'{accindet,personal_cars}'
9077,2016-02-29 15:10:00,'Od 29.2.2016 15:10 do 17:20; v ulici Masarykovo nám. v obci Přeštice okres Plzeň-jih; nehoda; 2 havarovaná vozidla; probíhá vyšetřování nehody, nebezpečí; 2x OA, bez zranění osob.',137.479433956875,87.2914689656276,'{accindet,personal_cars}'
9078,2016-02-29 15:35:00,'Od 29.2.2016 15:35 do 18:55; na silnicích 20, 20148 u obce Bezvěrov okres Plzeň-sever , délka 236m; nehoda; havarované vozidlo; probíhají záchranné a vyprošťovací práce, nebezpečí; havárie OA, se zraněním, složky IZS jedou na místo.',137.299159467961,86.8482458073542,'{accindet,injury,personal_cars}'
9079,2016-02-29 17:50:00,'Od 29.2.2016 17:50 do 19:55; v ulici Doudlevecká v obci Plzeň; nehoda; havarované vozidlo; probíhají záchranné a vyprošťovací práce, nebezpečí; OA x chodec, se zraněním, složky IZS jedou na místo.',137.513678934658,87.1126710640756,'{accindet,pedestrian_involvement,injury,personal_cars}'
