ID,od,popis,x,y,ts_flags
9090,2016-03-02 15:35:00,Od 2.3.2016 15:35 do 16:40; na silnici 20 u obce Klášter okres Plzeň-jih; směr Plzeň.; nehoda; 2 havarovaná vozidla; probíhá vyšetřování nehody; 2 x OA bez zranění. Na místě PČR.,137.645567290232,87.3737414537337,'{accindet,personal_cars}'
9091,2016-03-03 08:35:00,'Od 3.3.2016 08:35 do 10:40; v ulici Na Líše v obci Plzeň; nehoda; probíhá vyšetřování nehody, nebezpečí; 2 havarovaná vozidla; 2 x OA bez zranění.',137.539665067995,87.137482657866,'{accindet,personal_cars}'
9092,2016-03-03 12:05:00,'Od 3.3.2016 12:05 do 14:10; v ulici U Zastávky v obci Plzeň; nehoda; probíhá vyšetřování nehody, nebezpečí; havárie OA bez zranění osob.',137.539652267995,87.0886052576689,'{accindet,personal_cars}'
9093,2016-03-03 19:35:00,'Od 3.3.2016 19:35 do 21:40; v ulici Koterovská v obci Plzeň; kruhový objezd.; nehoda; 2 havarovaná vozidla; probíhá vyšetřování nehody; srážka OA s tramvají, se zraněním osoby. Na místě ZZS a PČR.',137.52914773466,87.1156614742755,'{accindet,injury,personal_cars}'
9094,2016-03-04 07:35:00,'Od 4.3.2016 07:35 do 09:40; v ulici Rokycanská v obci Plzeň; Rokycanská x Dítětova; nehoda; 2x OA se zraněním, zvýšená opatrnost, ohrožení BESIP, namísto RZS a policie',137.534947556883,87.0988291583537,'{accindet,injury,personal_cars}'
9095,2016-03-04 08:15:00,'Od 4.3.2016 08:15 do 11:20; na silnici 183 u obce Lhůta okres Plzeň-město; nehoda; probíhají záchranné a vyprošťovací práce, nebezpečí; 2x OA se zraněním, čelní střet vozidel',137.616782223561,87.1541312906868,'{accindet,injury,personal_cars}'
9096,2016-03-04 08:40:00,'Od 4.3.2016 08:40 do 10:45; v ulici Plzeňská v obci Zruč-Senec okres Plzeň-sever; Plznská x Třemošenská; nehoda; 2x OA bez zranění, bez úniku PHM, zvýšená optanost, ohrožení BESIP',137.543973690217,87.0326522585646,'{accindet,personal_cars}'
9097,2016-03-04 10:40:00,'Od 4.3.2016 10:40 do 12:45; v ulici Sukova v obci Plzeň; nehoda; 2x OA bez zranění, bez úniku PHM, zvýšená opatrnost',137.4994609791,87.119060964578,'{accindet,personal_cars}'
9098,2016-03-04 11:55:00,'Od 4.3.2016 11:55 do 14:00; v ulici Zborovská v obci Plzeň; nehoda; 2x OA bez zranění, bez úniku PHM, zvýšená opatrnost',137.517215290214,87.1209377425521,'{accindet,personal_cars}'
9099,2016-03-04 12:00:00,'Od 4.3.2016 12:00 do 14:05; v ulici Rokycanská v obci Plzeň; Rokycanská x Hřbitovní; nehoda; OA x pevná překážka, bez zranění, bez úniku PHM, překáží provozu, zvýšená opatrnost',137.54912071244,87.1002312286739,'{accindet,personal_cars}'
