ID,od,popis,x,y,ts_flags
910,2013-07-29 10:35:00,Od 29.7.2013 11:35 do 13:35; v ulici Červenkova v obci Přeštice okres Plzeň-jih; Křižovatka s ul. Masarykovo nám.; nehoda; 2 havarovaná vozidla; probíhá vyšetřování nehody; 2 x OA bez zranění a  úniku provozních kapalin. Na místě PČR.,137.478836623542,87.2909415073048,'{accindet,personal_cars}'
911,2013-07-29 10:40:00,'Od 29.7.2013 11:40 do 13:40; na silnici 20 u obce Losiná okres Plzeň-město; Za Losinou ve směru od Plzně, kousek od odbočky na Nezvěstice.; nehoda; 2 havarovaná vozidla; překážka na vozovce, průjezd se zvýšenou opatrností; sanita x dodávka bez zranění, únik provozních kapalin nehlášen. Místo je částečně průjezdné',137.575708445777,87.1923778724473,{accindet}
912,2013-07-29 13:20:00,'Od 29.7.2013 14:20 do 15:20; v ulici náměstí Generála Píky v obci Plzeň; Na silnici vedoucí k plaveckému bazénu.; nehoda; probíhá vyšetřování nehody; OA x chodec se zraněním, únik provozních kapalin nehlášen. Místo průjezdné. Na místo jede RZS a PČR.',137.527945956882,87.1134522396335,'{accindet,pedestrian_involvement,injury,personal_cars}'
913,2013-07-29 13:25:00,'Od 29.7.2013 14:25 do 15:25; na silnici 203 v obci Plzeň; Mezi Vejprnicemi a Plzní.; nehoda; havarované vozidlo; Havárie OAi bez zranění, únik provozních kapalin nehlášen. Na místě PČR.',137.466195201318,87.1108071990439,{accindet}
914,2013-07-29 16:50:00,'Od 29.7.2013 17:50 do 22:50; na silnici 17711 u obce Blovice okres Plzeň-jih; u viaduktu.; nehoda, doprava odkloněna po objízdné trase; 2 havarovaná vozidla; neprůjezdná komunikace; 2 x OA se zraněním, únik provozních kapalin nehlášen. Na místo jede RZS a PČR. Objížďka po MK, bude řízeno PČR.',137.637626312453,87.2830059767687,'{accindet,injury,personal_cars}'
915,2013-07-29 18:25:00,'Od 29.7.2013 19:25 do 20:25; v ulici Karlovarská v obci Plzeň; Křižovatka ul. Gerská x Karlovarská; nehoda; 2 havarovaná vozidla; DN 2 x OA bez zranění, únik provozních kapalin nehlášen.',137.503976534656,87.0724151521423,'{accindet,personal_cars}'
916,2013-07-30 04:25:00,'Od 30.7.2013 05:25 do 06:25; v ulici Pod Nádražím v obci Plasy okres Plzeň-sever , délka 165m; V ulici Pod Nádražím bez bližšího určení.; nehoda; 2 havarovaná vozidla; DN 2 x NA bez zraněn a bez úniku provozních kapalin.',137.514182401324,86.8965618436133,'{accindet,injury,trucks}'
917,2013-07-30 09:00:00,'Od 30.7.2013 10:00 do 11:05; na silnici 1806 u obce Třemošná okres Plzeň-sever; nehoda; zvěř na vozovce; srážka OA se srnou, na místo PČR a myslivecký hospodář k odklizení zvěře.',137.496029156877,87.0125739501826,'{accindet,personal_cars,animal_hit}'
918,2013-07-30 13:35:00,'Od 30.7.2013 14:35 do 15:40; v ulici Teslova v obci Plzeň; - u hotelu IBIS; nehoda; Pozor! Předmět na vozovce; 2 x OA bez zranění, na místo PČR, HZS k úklidu střepů na vozovce.',137.480814223542,87.125170701825,'{accindet,personal_cars}'
919,2013-07-30 17:00:00,Od 30.7.2013 18:00 do 19:00; v ulici Hlavní v obci Tlučná okres Plzeň-sever; nehoda nákladního vozidla; NA x OA bez zranění.,137.409016179088,87.1268734712644,'{accindet,personal_cars,trucks}'
