ID,od,popis,x,y,ts_flags
9110,2016-03-05 20:30:00,'Od 5.3.2016 20:30 do 21:30; na silnici 18050 u obce Plzeň; Za obcí Radčice ve  směru na Malesice v poli.; nehoda; havarované vozidlo; Havárie OA, vozidlo v poli, bez zranění, únik provozních kapalin nehlášen.',137.466989512429,87.078338662691,'{accindet,personal_cars}'
9111,2016-03-05 23:35:00,'Od 5.3.2016 23:35 do 6.3.2016 00:35; na silnici 0209 u obce Všeruby okres Plzeň-sever; Na začátkumobce Klenovice ve směru od sil. č. I/20; nehoda; 2 havarovaná vozidla; 2x OA bez zranění, únik provozních kapalin nehlášen.',137.375075556861,86.9822967153365,'{accindet,personal_cars}'
9112,2016-03-05 23:45:00,Od 5.3.2016 23:45 do 6.3.2016 00:45; v ulici Sedláčkova v obci Plzeň; V ul. Sedláčkova u domu čp. 189/5.; nehoda; 2 havarovaná vozidla; 2x OA bez zranění a bez úniku provozních kapalin.,137.511131023546,87.1009201445544,'{accindet,personal_cars}'
9113,2016-03-06 09:15:00,'Od 6.3.2016 09:15 do 11:20; na silnici 27 u obce Rybnice okres Plzeň-sever; nehoda; probíhá vyšetřování nehody, nebezpečí; OA se zraněním osob',137.510934045768,86.9294095160922,'{accindet,injury,personal_cars}'
9114,2016-03-06 09:45:00,'Od 6.3.2016 09:45 do 11:50; na silnici 27 u obce Plasy okres Plzeň-sever; smer od Kaznějova; nehoda; probíhá vyšetřování nehody, nebezpečí; 2 x OA bez zranění osob',137.517543112436,86.9110185085923,'{accindet,personal_cars}'
9115,2016-03-06 15:00:00,'Od 6.3.2016 15:00 do 17:05; na silnici 20 u obce Nezbavětice okres Plzeň-město; nehoda; probíhá vyšetřování nehody, nebezpečí; 2 x OA se zraněním osoby',137.576482845777,87.1989241181369,'{accindet,injury,personal_cars}'
9116,2016-03-06 17:45:00,'Od 6.3.2016 17:45 do 19:50; na silnici 20 u obce Chocenice okres Plzeň-jih; nehoda; probíhá vyšetřování nehody, nebezpečí; srážka OA se zvěří, bez zranění osob',137.609663290227,87.3128337859891,'{accindet,personal_cars,animal_hit}'
9117,2016-03-07 07:50:00,'Od 7.3.2016 07:50 do 10:55; v ulici Domažlická v obci Plzeň; nehoda autobusu; trolejbus x OA bez zranění, bez úniku PHM, zvýšená opatrnost, ohrožení BESIP',137.494308979099,87.1035854829666,'{accindet,personal_cars}'
9118,2016-03-07 09:55:00,'Od 7.3.2016 09:55 do 12:00; na silnici 27 u obce Dolní Lukavice okres Plzeň-jih; nehoda; 2x OA, bez zranění bez úniku PHM, zvýšená opatrnost,ohrožení BESIP',137.476177067986,87.2608985080529,'{accindet,personal_cars}'
9119,2016-03-07 10:25:00,'Od 7.3.2016 10:25 do 12:30; v ulici Domažlická v obci Plzeň; nehoda; 2x OA bez zranění, bez úniku PHM, zvýšená opatrnost, ohrožení BESIP',137.488209067987,87.1071188870988,'{accindet,personal_cars}'
