ID,od,popis,x,y,ts_flags
9150,2016-03-10 07:40:00,'Od 10.3.2016 07:40 do 09:45; na silnici 27 u obce Horní Lukavice okres Plzeň-jih; nehoda; 2 havarovaná vozidla; probíhá vyšetřování nehody, nebezpečí; 2x OA, bez zranění osob.',137.476273779097,87.2421680802372,'{accindet,personal_cars}'
9151,2016-03-10 07:40:00,'Od 10.3.2016 07:40 do 09:30; v ulici U Trati v obci Plzeň; všechny nehody byly odstraněny, nejsou hlášeny žádné další problémy; OA x NA, bez zranění osob.',137.516533334658,87.1065422902454,'{accindet,personal_cars}'
9152,2016-03-10 08:10:00,'Od 10.3.2016 08:10 do 10:15; na silnici 18051 u obce Plzeň; nehoda; havarované vozidlo; probíhá vyšetřování nehody, nebezpečí; havárie OA, bez zranění osob.',137.463714845762,87.0605099902638,'{accindet,personal_cars}'
9153,2016-03-10 11:15:00,'Od 10.3.2016 11:15 do 13:20; v ulici Sukova v obci Plzeň , délka 69m; nehoda; 2 havarovaná vozidla; probíhá vyšetřování nehody, nebezpečí; 2x OA, bez zranění osob.',137.499689956878,87.118925649197,'{accindet,personal_cars}'
9154,2016-03-10 13:40:00,'Od 10.3.2016 13:40 do 15:45; v ulici Karlovarská v obci Plzeň; směr centrum; nehoda nákladního vozidla; 2 havarovaná vozidla; probíhá vyšetřování nehody, nebezpečí; OA x NA, bez zranění osob.',137.511205690213,87.0941615615929,'{accindet,personal_cars}'
9155,2016-03-11 04:45:00,'Od 11.3.2016 04:45 do 06:50; v ulici Klatovská třída v obci Plzeň; křžovatka se Sukovo ul.; nehoda; probíhá vyšetřování nehody, nebezpečí; 2 x OA bez zranění osob',137.507449601323,87.1185131001874,'{accindet,personal_cars}'
9156,2016-03-11 05:40:00,'Od 11.3.2016 05:40 do 07:45; v ulici Rokycanská v obci Plzeň; směr od centra; nehoda; probíhá vyšetřování nehody, nebezpečí; havárie OA bez zranění',137.543965156884,87.0998625559806,'{accindet,personal_cars}'
9157,2016-03-11 07:55:00,Od 11.3.2016 07:55 do 08:55; na silnici 26 u obce Plzeň; nehoda; 2x OA bez zranění a bez úniku kapalin,137.56038969022,87.1005756877254,'{accindet,personal_cars}'
9158,2016-03-11 13:55:00,Od 11.3.2016 13:55 do 15:55; v ulici U Trati v obci Plzeň; nehoda; 2x OA bez zranění a úniku kapalin,137.513755734658,87.107575538585,'{accindet,personal_cars}'
9159,2016-03-11 15:40:00,'Od 11.3.2016 15:40 do 18:45; na silnici 27 u obce Chlumčany okres Plzeň-jih; nehoda autobusu; BUS x OA, bez zranění a úniku kapalin',137.480228979097,87.228634151069,'{accindet,personal_cars}'
