ID,od,popis,x,y,ts_flags
9160,2016-03-11 16:50:00,'Od 11.3.2016 16:50 do 17:50; v ulici Karlovarská v obci Plzeň; nehoda nákladního vozidla; Pozor! Silný provoz; NA x OA, bez zranění a úniku kapalin',137.509158401324,87.0882265978407,'{accindet,personal_cars,trucks}'
9161,2016-03-11 18:20:00,'Od 11.3.2016 18:20 do 20:25; na silnici 27 u obce Chlumčany okres Plzeň-jih; nehoda; 2x OA, bez zranění, únik kapalin',137.480265956875,87.2284178702012,'{accindet,personal_cars}'
9162,2016-03-11 22:15:00,'Od 11.3.2016 22:15 do 23:10; na silnici 20 v obci Chocenice okres Plzeň-jih; všechny nehody byly odstraněny, nejsou hlášeny žádné další problémy; OA x zvěř, bez zranění osob.',137.608438756893,87.3110952734157,'{accindet,personal_cars,animal_hit}'
9163,2016-03-12 09:25:00,Od 12.3.2016 09:25 do 11:30; v ulici 5. května v obci Zbůch okres Plzeň-sever; nehoda; 2 havarovaná vozidla; probíhá vyšetřování nehody; 2 x OA bez zranění.,137.404824179087,87.1754719091782,'{accindet,personal_cars}'
9164,2016-03-12 10:30:00,'Od 12.3.2016 10:30 do 11:30; v ulicích Karlovarská, Studentská, Gerská, Kotíkovská v obci Plzeň , délka 2.8km; nehoda; havarované vozidlo; probíhá vyšetřování nehody; DOD HZS x světelná signalizace, bez zranění osob. Na místě PČR.',137.494627556877,87.0722698086752,{accindet}
9165,2016-03-13 14:00:00,'Od 13.3.2016 14:00 do 16:05; na silnici 19 u obce Míšov okres Plzeň-jih; nehoda; 2 havarovaná vozidla; 2 x OA bez zranění, na místo PČR.',137.770774756916,87.2377094739916,'{accindet,personal_cars}'
9166,2016-03-13 21:00:00,'Od 13.3.2016 21:00 do 23:05; na silnici 20 v obci Kasejovice okres Plzeň-jih; nehoda; havarované vozidlo; probíhá vyšetřování nehody; havárie OA mimo vozovku, bez zranění osob. Na místě PČR.',137.765254401359,87.4105009996161,'{accindet,personal_cars}'
9167,2016-03-14 08:55:00,'Od 14.3.2016 08:55 do 12:00; na silnici 2032 u obce Vejprnice okres Plzeň-sever; mezi Vejprnicemi a dálničním přivaděčem na D5; nehoda nákladního vozidla; střet NA s dodávkou bez zranění, na místo PČR',137.447774579093,87.1304339319074,'{accindet,trucks}'
9168,2016-03-14 09:20:00,'Od 14.3.2016 09:20 do 11:25; v ulici Republikánská v obci Plzeň; nehoda; probíhá vyšetřování nehody, nebezpečí; 2x OA bez zranění osob',137.536241779105,87.1005943963004,'{accindet,personal_cars}'
9169,2016-03-14 15:50:00,'Od 14.3.2016 15:50 do 17:50; v ulici Toužimská v obci Plzeň; nehoda; probíhá vyšetřování nehody, nebezpečí; 2x OA bez zranění osob',137.497023290211,87.0667354515484,'{accindet,personal_cars}'
