ID,od,popis,x,y,ts_flags
9220,2016-03-19 10:15:00,'Od 19.3.2016 10:15 do 12:30; na silnici 2102 u obce Bezvěrov okres Plzeň-sever; mezi obcemi Dolní Jamné a Světec; nehoda; probíhá vyšetřování nehody, nebezpečí; havárie OA se smrtelným zraněním.',137.277651912403,86.8583169244119,'{accindet,injury,death,personal_cars}'
9221,2016-03-19 11:20:00,'Od 19.3.2016 11:20 do 13:25; v ulici Slovanská v obci Plzeň; nehoda; probíhá vyšetřování nehody, nebezpečí; 2x OA bez zranění osob',137.528157867993,87.1240959931658,'{accindet,personal_cars}'
9222,2016-03-19 14:05:00,'Od 19.3.2016 14:05 do 16:10; v ulici V Hliníku v obci Plzeň; nehoda; probíhá vyšetřování nehody, nebezpečí; 2x OA bez zranení osob',137.545985423551,87.1549228539344,'{accindet,personal_cars}'
9223,2016-03-19 15:45:00,'Od 19.3.2016 15:45 do 17:50; v ulici Domažlická v obci Plzeň; kruhový objezd u Makra; nehoda nákladního vozidla; probíhá vyšetřování nehody, nebezpečí; NA s OA se zraněním osoby',137.472950045763,87.1165680261846,'{accindet,injury,personal_cars,trucks}'
9224,2016-03-20 19:05:00,'Od 20.3.2016 19:05 do 20:05; na silnici 180 v obcích Plzeň a Štěnovice okres Plzeň-jih , délka 1.2km; nehoda; havarované vozidlo; zvěř na vozovce; OA x zvěř, bez zranění osob.',137.542791823551,87.1720804031866,'{accindet,personal_cars,animal_hit}'
9225,2016-03-20 19:50:00,Od 20.3.2016 19:50 do 21:55; na silnici 180 u obce Chotěšov okres Plzeň-jih; nehoda; Střet OA se zvěří. PČR na místo.,137.401558756864,87.1997765321525,'{accindet,personal_cars,animal_hit}'
9226,2016-03-20 20:35:00,Od 20.3.2016 20:35 do 22:40; na silnici 20 u obce Všeruby okres Plzeň-sever; nehoda; Srážka OA se zvěří. PČR na místo.,137.38542933464,86.9930052595724,'{accindet,personal_cars,animal_hit}'
9227,2016-03-21 05:30:00,Od 21.3.2016 05:30 do 07:35; na silnici 26 u obce Plzeň; nehoda; Srážka OA s prasetem. PČR na místo.,137.455063467983,87.1323664026071,'{accindet,personal_cars,animal_hit}'
9228,2016-03-21 06:30:00,Od 21.3.2016 06:30 do 08:35; v ulici Karlovarská v obci Plzeň; nehoda; 3 havarovaná vozidla; Střet 3x OA. PČR na místo.,137.505595734657,87.0842141796779,'{accindet,personal_cars}'
9229,2016-03-21 07:30:00,'Od 21.3.2016 07:30 do 08:35; na silnici 20 u obce Vlčtejn okres Plzeň-jih; nehoda; - 2 x OA, bez zranění, na místo PČR',137.594542223558,87.25028964756,'{accindet,personal_cars}'
