ID,od,popis,x,y,ts_flags
9300,2016-03-30 13:35:00,Od 30.3.2016 14:35 do 15:35; v ulici Edvarda Beneše v obci Plzeň; Křižovatka ulic E. Beneše x Samaritská x 17. Listopadu.; nehoda; 2 havarovaná vozidla; DN 2 x OA bez zranění a bez úniku provozních kapalin. Místo je průjezdné.,137.512421690213,87.1201170728429,'{accindet,personal_cars}'
9301,2016-03-30 13:55:00,Od 30.3.2016 14:55 do 15:55; v ulici Klatovská třída v obci Plzeň; V ulici Klatovská třída u domu čp. 777/90 ve směru z centra města.; nehoda; 2 havarovaná vozidla; DN 2 x OA bez zranění a bez úniku provozních kapalin.,137.507758223546,87.1130429490764,'{accindet,personal_cars}'
9302,2016-03-30 15:10:00,Od 30.3.2016 16:10 do 17:10; v ulici Schwarzova v obci Plzeň; V ulici Schwarzova u domu čp. 2253/3; nehoda; 2 havarovaná vozidla; DN 2 x OA bez zranění a beýz úniku provozních kapalin.,137.504961423545,87.110386885188,'{accindet,personal_cars}'
9303,2016-03-30 17:50:00,'Od 30.3.2016 18:50 do 19:50; v ulici Masarykova v obci Plzeň; V ulici Masarykova u domu čp. 571/24.; nehoda; 3 havarovaná vozidla; probíhá vyšetřování nehody; DN 3 x OA bez zranění, únik chladící kapaliny. Blokován jeden jízdní pruh.',137.542429156884,87.0907362698603,'{accindet,personal_cars}'
9304,2016-03-31 04:00:00,'Od 31.3.2016 05:00 do 06:00; v ulici Karlovarská v obci Plzeň; U ciziňáku ve směru do centra.; nehoda; 3 havarovaná vozidla; probíhá vyšetřování nehody; 3x OA bez zranění, únik porovozních kapalin. Na místě HZS a PČR.',137.504032712434,87.0823999612777,'{accindet,personal_cars}'
9305,2016-03-31 04:15:00,Od 31.3.2016 05:15 do 06:15; v ulici Radčická v obci Plzeň; Před Kalikovským mostem ve směru od Radčic.; nehoda; 2 havarovaná vozidla; 2x OA bez zranění a bez úniku PHM. Místo je průjezdné.,137.503593245767,87.0968239357098,'{accindet,personal_cars}'
9306,2016-03-31 04:55:00,'Od 31.3.2016 05:55 do 06:55; v ulici Masarykova v obci Plzeň; Křižovatka ulic Masarykova x Rokycanská x Dlouhá.; nehoda; havarované vozidlo; Havárie OA bez zranění, únik provozních kapalin nehlášen.',137.53842062355,87.0992924839382,'{accindet,personal_cars}'
9307,2016-03-31 06:35:00,Od 31.3.2016 07:35 do 08:40; na silnici 180 v obci Zruč-Senec okres Plzeň-sever; nehoda; 2 havarovaná vozidla; probíhá vyšetřování nehody; 2 x OA bez zranění. Na místě PČR.,137.543785245773,87.03246052652,'{accindet,personal_cars}'
9308,2016-03-31 08:50:00,'Od 31.3.2016 09:50 do 10:55; na silnici 180 u obce Nýřany okres Plzeň-sever , délka 428m; nehoda s únikem paliva; porouchané vozidlo, zdržení; probíhají odklízecí práce; únik nafty z NA na vozovku, na místě HZS.',137.404017067976,87.140002112507,'{accindet,trucks}'
9309,2016-03-31 09:25:00,'Od 31.3.2016 10:25 do 11:30; na silnici 20 u obce Starý Plzenec okres Plzeň-město; nehoda; havarované vozidlo; probíhá vyšetřování nehody; havárie OA mimo vozovku, bez zranění osob. Na místě PČR.',137.552961423552,87.149745597914,'{accindet,personal_cars}'
