ID,od,popis,x,y,ts_flags
9320,2016-04-02 17:15:00,Od 2.4.2016 18:15 do 20:20; v ulici U Trati v obci Plzeň; nehoda; 2 havarovaná vozidla; 2 x OA bez zranění. PČR na místo.,137.509415823546,87.1079771685916,'{accindet,personal_cars}'
9321,2016-04-02 20:30:00,Od 2.4.2016 21:30 do 23:35; na silnici 26 u obce Plzeň; nehoda; Střet 3x OA se zvěří. PČR na místo.,137.46162133465,87.1255172000062,'{accindet,personal_cars,animal_hit}'
9322,2016-04-03 13:25:00,'Od 3.4.2016 14:25 do 15:30; na silnici 230 u obce Klášter okres Plzeň-jih; - směr Přeštice; nehoda; - srážka OA se zvěří, na místo PČR',137.636359823564,87.381560646082,'{accindet,personal_cars,animal_hit}'
9323,2016-04-03 15:30:00,'Od 3.4.2016 16:30 do 17:35; v ulici Komenského v obci Chlumčany okres Plzeň-jih; nehoda; probíhají záchranné a vyprošťovací práce, nebezpečí; - havárie motocyklu, se zraněním, na místo PČR, ZZS',137.470013867985,87.2276603313304,'{accindet,injury}'
9324,2016-04-03 15:40:00,'Od 3.4.2016 16:40 do 17:45; v ulici Rooseveltova v obci Plzeň; - na Saském mostě; nehoda; neprůjezdný pruh, 2 havarovaná vozidla; 2x OA, bez zranění, na místo PČR',137.514124090213,87.0957695677934,'{accindet,personal_cars}'
9325,2016-04-03 15:45:00,'Od 3.4.2016 16:45 do 18:50; na silnici 27 u obce Horní Lukavice okres Plzeň-jih; nehoda; probíhají záchranné a vyprošťovací práce, nebezpečí; neprůjezdný pruh, 3 havarovaná vozidla; 3x OA, se zraněním, na místo PČR, ZZS',137.474958934652,87.2524317798018,'{accindet,injury,personal_cars}'
9326,2016-04-03 19:30:00,'Od 3.4.2016 20:30 do 21:35; na silnici 2033 u obce Líně okres Plzeň-sever; nehoda; 2 havarovaná vozidla; 2 x OA bez zranění, na místo PČR.',137.422751290201,87.1451462257103,'{accindet,personal_cars}'
9327,2016-04-03 21:30:00,'Od 3.4.2016 22:30 do 23:35; na silnici 27 u obce Plzeň; nehoda; srážka OA se zvěří, bez zranění osob. Na místo PČR.',137.505522490212,87.161074659629,'{accindet,personal_cars,animal_hit}'
9328,2016-04-04 06:35:00,'Od 4.4.2016 07:35 do 08:35; v ulici V Radčicích v obci Plzeň; nehoda; havarované vozidlo; probíhá vyšetřování nehody, nebezpečí; havárie OA, bez zranění osob.',137.47508551243,87.0819959370124,'{accindet,personal_cars}'
9329,2016-04-04 09:25:00,'Od 4.4.2016 10:25 do 11:25; v ulici tř. 1. máje v obci Dobřany okres Plzeň-jih; kruhový objezd; nehoda nákladního vozidla; 2 havarovaná vozidla; probíhá vyšetřování nehody, nebezpečí; OA x NA, bez zranění osob.',137.454206579094,87.2019745112516,'{accindet,personal_cars}'
