ID,od,popis,x,y,ts_flags
9370,2016-04-09 17:20:00,'Od 9.4.2016 18:20 do 20:25; v ulici tř. 1. máje v obci Dobřany okres Plzeň-jih; nehoda; 2 havarovaná vozidla; probíhá vyšetřování nehody, nebezpečí; 2x OA, bez zranění osob.',137.453959112427,87.2021821118029,'{accindet,personal_cars}'
9371,2016-04-09 20:15:00,'Od 9.4.2016 21:15 do 23:15; na silnici 180 u obce Kyšice okres Plzeň-město; nehoda; probíhá vyšetřování nehody, nebezpečí; havárie OA bez zranění osob',137.583352890223,87.1045802737726,'{accindet,personal_cars}'
9372,2016-04-10 12:50:00,'Od 10.4.2016 13:50 do 19:55; na silnici 18020 u obce Plzeň; nehoda; uzavřeno, probíhají záchranné a vyprošťovací práce; DN OA se smrtelným zraněním, komunikace na cca 2 hod. uzavřena, prováděn odklon dopravy po objízdné trase',137.557931379108,87.1352732259828,'{accindet,injury,death,personal_cars}'
9373,2016-04-10 12:55:00,'Od 10.4.2016 13:55 do 16:10; na silnici 17716 v obci Sedliště okres Plzeň-jih; nehoda; probíhá vyšetřování nehody, nebezpečí; DN 2x OA bez zranění',137.693670401349,87.3419098783515,'{accindet,personal_cars}'
9374,2016-04-10 17:10:00,'Od 10.4.2016 18:10 do 20:15; v ulici Klatovská třída v obci Plzeň; křižovatka Klatovská-Americká, blokují provoz; nehoda; probíhá vyšetřování nehody, nebezpečí; DN 2x OA bez zranění',137.509208890213,87.1031849203721,'{accindet,personal_cars}'
9375,2016-04-10 17:15:00,'Od 10.4.2016 18:15 do 20:35; v ulici V Brance v obci Plzeň; nehoda; probíhá vyšetřování nehody, nebezpečí; 2x OA bez zranění',137.554700090219,87.0828094868395,'{accindet,personal_cars}'
9376,2016-04-11 03:30:00,'Od 11.4.2016 04:30 do 05:30; na silnici 20 u obce Líšťany okres Plzeň-sever; nehoda nákladního vozidla; zvěř na vozovce; probíhá vyšetřování nehody; NA x zvěř, bez zranění osob.',137.395192179086,86.9995715880289,'{accindet,animal_hit,trucks}'
9377,2016-04-11 06:35:00,'Od 11.4.2016 07:35 do 08:35; na silnici 26 v obci Plzeň; na kruhovém objezdu u MAKRA (ul. Folmavská); nehoda nákladního vozidla; 2 havarovaná vozidla; NA x OA bez zranění, únik provozních kapalin nehlášen.',137.473379556874,87.1172930365984,'{accindet,personal_cars,trucks}'
9378,2016-04-11 06:50:00,'Od 11.4.2016 07:50 do 08:50; v ulici Studentská v obci Plzeň; křiž. s ul. Gerská, u KIKA; nehoda; 2 havarovaná vozidla; 2 x OA bez zranění, únik provozních kapalin nehlášen. Křižovatka částečně průjezdná.',137.505400890212,87.0688332012142,'{accindet,personal_cars}'
9379,2016-04-11 12:25:00,Od 11.4.2016 13:25 do 14:25; na silnici 26 v obci Plzeň; na kruhovém objezdu u MAKRA ul. Folmavská.; nehoda; 2 havarovaná vozidla; 2 x OA bez zranění a bez úniku provozních kapalin. Místo je průjezdné.,137.473349690208,87.1170972077453,'{accindet,personal_cars}'
