ID,od,popis,x,y,ts_flags
9450,2016-04-20 15:15:00,'Od 20.4.2016 16:15 do 18:20; na silnici 18033 u obce Dobřany okres Plzeň-jih; nehoda; neprůjezdná komunikace; OA x traktor, zvýšená opatrnost, ohrožení BESIP',137.46690062354,87.2046644686387,'{accindet,personal_cars}'
9451,2016-04-20 15:35:00,'Od 20.4.2016 16:35 do 18:40; v ulici Náves v obci Kyšice okres Plzeň-město; nehoda; 2xOA bez zranění, bez úniku, zvýšená opatrnost',137.589149868001,87.0927373185254,{accindet}
9452,2016-04-20 17:00:00,'Od 20.4.2016 18:00 do 20:05; v ulici Habrmannova v obci Plzeň; nehoda; OA x chodec , se zraněním, zvýšená opatrnost, ohržení BESIP, na místo policie a ZZS',137.523857067992,87.1143247222037,'{accindet,pedestrian_involvement,injury,personal_cars}'
9453,2016-04-20 18:35:00,'Od 20.4.2016 19:35 do 22:40; na silnici 180 u obce Letkov okres Plzeň-město; nehoda nákladního vozidla; havarované vozidlo; probíhají záchranné a vyprošťovací práce, nebezpečí; NA x motocykl, se zraněním, složky IZS jedou na místo.',137.581361779112,87.1077317895219,'{accindet,injury,trucks}'
9454,2016-04-20 19:25:00,'Od 20.4.2016 20:25 do 22:30; na silnici 18213 u obce Horšice okres Plzeň-jih; nehoda; havarované vozidlo; zvěř na vozovce; OA x zvěř, bez zranění osob.',137.529705956882,87.3306826114745,'{accindet,personal_cars,animal_hit}'
9455,2016-04-21 03:55:00,'Od 21.4.2016 04:55 do 07:00; na silnici 20 u obce Kasejovice okres Plzeň-jih; nehoda; havarované vozidlo; zvěř na vozovce; OA x zvěř, bez zranění osob.',137.719723379131,87.4069689751204,'{accindet,personal_cars,animal_hit}'
9456,2016-04-21 06:25:00,'Od 21.4.2016 07:25 do 09:30; v ulici Polní v obci Třemošná okres Plzeň-sever; nehoda; havarované vozidlo; probíhá vyšetřování nehody; havárie OA, bez zranění osob. Na místě PČR.',137.532557512438,87.0284527282493,'{accindet,personal_cars}'
9457,2016-04-21 06:55:00,'Od 21.4.2016 07:55 do 08:55; v ulici Masarykovo náměstí v obci Blovice okres Plzeň-jih; Křižovatka u gymnázia.; silnice uzavřena, nehoda; 2 havarovaná vozidla; probíhá vyšetřování nehody; 2 x OA bez zranění. Na místě PČR.',137.629238045785,87.2822996619141,'{accindet,personal_cars}'
9458,2016-04-21 13:15:00,'Od 21.4.2016 14:15 do 16:20; v ulici Slovanská v obci Plzeň; před konečnou tramvaje směrem z města.; nehoda; 2 havarovaná vozidla; probíhá vyšetřování nehody; OA x Tramvaj, bez zranění osob.',137.52822613466,87.1242158952038,'{accindet,personal_cars}'
9459,2016-04-21 15:25:00,Od 21.4.2016 16:25 do 18:30; v ulici Zahradní v obci Plzeň; křižovatka s Jetelovou.; nehoda; 2 havarovaná vozidla; probíhá vyšetřování nehody; OA x MOTO se zraněním osoby. Na místě ZZS a PČR.,137.522893512437,87.1171225115139,'{accindet,injury,personal_cars}'
