ID,od,popis,x,y,ts_flags
9460,2016-04-22 06:25:00,Od 22.4.2016 07:25 do 09:30; v ulici Karlovarská v obci Plzeň; nehoda; 2 havarovaná vozidla; 2 x OA bez zranění. PČR na místo.,137.506043734657,87.0847370770525,'{accindet,personal_cars}'
9461,2016-04-22 06:50:00,Od 22.4.2016 07:50 do 09:55; v ulici Plynární v obci Plzeň; nehoda; 2 havarovaná vozidla; 2 x OA bez zranění. PČR na místo.,137.513533867991,87.1130935604443,'{accindet,personal_cars}'
9462,2016-04-22 07:10:00,Od 22.4.2016 08:10 do 11:15; v ulici Klatovská třída v obci Plzeň; nehoda nákladního vozidla; 2 havarovaná vozidla; NA x OA bez zranění. PČR na místo.,137.508428801324,87.1073268565733,'{accindet,personal_cars,trucks}'
9463,2016-04-22 09:10:00,Od 22.4.2016 10:10 do 13:15; v ulici Přemyslova v obci Plzeň; nehoda nákladního vozidla; očekávejte silný provoz; 2 havarovaná vozidla; NA x OA bez zranění. PČR na místo.,137.507891912435,87.0985111011711,'{accindet,personal_cars,trucks}'
9464,2016-04-22 09:35:00,Od 22.4.2016 10:35 do 12:40; v ulici U Prazdroje v obci Plzeň; hromadná nehoda 4 vozidel; 4 x OA bez zranění. Silný provoz. PČR na místo.,137.529307023549,87.0985551230395,'{accindet,personal_cars}'
9465,2016-04-22 09:50:00,Od 22.4.2016 10:50 do 13:55; v ulici Těšínská v obci Plzeň; nehoda autobusu; 2 havarovaná vozidla; BUS x OA bez zranění. PČR na místo.,137.534127645772,87.096110753845,'{accindet,personal_cars}'
9466,2016-04-22 11:55:00,Od 22.4.2016 12:55 do 15:00; v ulici Brojova v obci Plzeň; nehoda; 2 havarovaná vozidla; 2 x OA bez zranění. PČR na místo.,137.533995379105,87.1186264139662,'{accindet,personal_cars}'
9467,2016-04-22 12:00:00,Od 22.4.2016 13:00 do 15:05; v ulici Hřbitovní v obci Plzeň; nehoda; 2 havarovaná vozidla; 2 x OA bez zranění. PČR na místo.,137.549238045774,87.0975007893154,'{accindet,personal_cars}'
9468,2016-04-22 14:30:00,Od 22.4.2016 15:30 do 17:35; v ulici Koterovská v obci Plzeň; nehoda; 3 havarovaná vozidla; 3 x OA bez zranění. PČR na místo.,137.539832890217,87.1270945633139,'{accindet,personal_cars}'
9469,2016-04-22 17:30:00,Od 22.4.2016 18:30 do 20:35; v ulici 28. října v obci Plzeň; nehoda; 2 havarovaná vozidla; 2 x OA bez zranění. PČR na místo.,137.535069867994,87.065460243733,'{accindet,personal_cars}'
