ID,od,popis,x,y,ts_flags
9610,2016-05-06 10:45:00,'Od 6.5.2016 11:45 do 12:50; na silnici 27 u obce Dobřany okres Plzeň-jih; ve směru na Plzeň; nehoda; neprůjezdný pruh, 3 havarovaná vozidla; 3 x OA bez zranění, na místo PČR.',137.487405512432,87.1973411844039,'{accindet,personal_cars}'
9611,2016-05-06 11:00:00,'Od 6.5.2016 12:00 do 13:05; na silnici 18050 u obce Město Touškov okres Plzeň-sever; směr Malesice; nehoda; 2 havarovaná vozidla; OA x dodávka bez zranění, na místo PČR.',137.433083023535,87.069110692632,'{accindet,personal_cars}'
9612,2016-05-06 13:40:00,'Od 6.5.2016 14:40 do 15:45; na silnici 20 v obci Losiná okres Plzeň-město; nehoda; 2 havarovaná vozidla; 2 x OA bez zranění, na místo PČR.',137.569587912443,87.1857198511196,'{accindet,personal_cars}'
9613,2016-05-06 14:15:00,'Od 6.5.2016 15:15 do 16:20; na silnici 26 u obce Líně okres Plzeň-sever; směr Plzeň; nehoda; probíhají záchranné a vyprošťovací práce, nebezpečí; OA x motocykl se zraněním, na místo PČR, ZZS.',137.445127112426,87.1417747871936,'{accindet,injury,personal_cars}'
9614,2016-05-06 14:25:00,'Od 6.5.2016 15:25 do 16:30; v ulici Sukova v obci Plzeň; nehoda; 2 havarovaná vozidla; 2 x OA bez zranění, na místo PČR.',137.504039823545,87.1190532637118,'{accindet,personal_cars}'
9615,2016-05-06 15:20:00,'Od 6.5.2016 16:20 do 17:25; v ulici Karlovarská v obci Plzeň; nehoda nákladního vozidla; 2 havarovaná vozidla; NA x OA bez zranění, na místo PČR.',137.510261334657,87.0895111683921,'{accindet,personal_cars,trucks}'
9616,2016-05-06 20:00:00,'Od 6.5.2016 21:00 do 22:05; na silnici 233 u obce Chrást okres Plzeň-město; nehoda; - srážka OA se zvěří, na místo PČR',137.583512890223,87.0609505208682,'{accindet,personal_cars,animal_hit}'
9617,2016-05-06 21:05:00,'Od 6.5.2016 22:05 do 23:10; na silnici 18050 u obce Plzeň; nehoda; - havárie OA do příkopu, bez zranění, na místo PČR',137.486796801321,87.0886250711906,'{accindet,personal_cars}'
9618,2016-05-07 07:00:00,Od 7.5.2016 08:00 do 11:05; v ulici Liliová v obci Plzeň; nehoda autobusu; Střet BUS x OA. PČR na místo.,137.522234312437,87.1161917650033,'{accindet,personal_cars}'
9619,2016-05-07 11:10:00,Od 7.5.2016 12:10 do 14:15; v ulici Mikulášská v obci Plzeň; nehoda; Střet OA x MOTO se zraněním. IZS na místo.,137.519249779103,87.107019853731,'{accindet,injury,personal_cars}'
