ID,od,popis,x,y,ts_flags
9640,2016-05-09 23:00:00,'Od 10.5.2016 00:00 do 02:10; na silnici 180 u obce Úherce okres Plzeň-sever; nehoda; havarované vozidlo; zvěř na vozovce; OA x zvěř, bez zranění osob.',137.402750579087,87.1542324355331,'{accindet,personal_cars,animal_hit}'
9641,2016-05-09 23:05:00,'Od 10.5.2016 00:05 do 02:10; na silnici 178 u obce Blovice okres Plzeň-jih; nehoda; havarované vozidlo; zvěř na vozovce; OA x zvěř, bez zranění osob.',137.613479112449,87.2769877439237,'{accindet,personal_cars,animal_hit}'
9642,2016-05-10 06:05:00,'Od 10.5.2016 07:05 do 09:10; v ulicích Dobrovského, Klatovská třída v obci Plzeň , délka 33m; nehoda; neprůjezdný pruh, 2 havarovaná vozidla; probíhá vyšetřování nehody, nebezpečí; 2x OA, bez zranění osob.',137.508217601324,87.1135732658101,'{accindet,personal_cars}'
9643,2016-05-10 08:45:00,'Od 10.5.2016 09:45 do 10:50; v ulici Jateční v obci Plzeň; - křižovatka s ul. Těšínská; nehoda; probíhají záchranné a vyprošťovací práce, nebezpečí; neprůjezdný pruh, 3 havarovaná vozidla; 3 x OA se zraněním. Na místo PČR, ZZS a HZS.',137.530711467993,87.0969505024835,'{accindet,injury,personal_cars}'
9644,2016-05-10 12:15:00,'Od 10.5.2016 13:15 do 14:20; na silnici 26 u obce Střelice okres Plzeň-jih; nehoda nákladního vozidla; srážka NA se zvěří, bez zranění osob. Na místo PČR.',137.344905956856,87.238898252467,'{accindet,animal_hit,trucks}'
9645,2016-05-10 14:40:00,'Od 10.5.2016 15:40 do 16:45; v ulici Domažlická v obci Stod okres Plzeň-jih; u BČS Silmet směr Plzeň; nehoda nákladního vozidla; neprůjezdný pruh, 2 havarovaná vozidla; NA x OA bez zranění, na místo PČR.',137.360690490192,87.2234695202379,'{accindet,personal_cars,trucks}'
9646,2016-05-10 15:55:00,'Od 10.5.2016 16:55 do 18:00; v ulici Samaritská v obci Plzeň; nehoda; 3 havarovaná vozidla; 3 x OA bez zranění, na místo PČR.',137.512827023546,87.1200257643074,'{accindet,personal_cars}'
9647,2016-05-10 17:00:00,'Od 10.5.2016 18:00 do 19:05; v ulici Edvarda Beneše v obci Plzeň; křiž. s ul. 17. listopadu; nehoda; 2 havarovaná vozidla; 2 x OA bez zranění, na místo PČR.',137.51238755688,87.120022463996,'{accindet,personal_cars}'
9648,2016-05-11 08:15:00,'Od 11.5.2016 09:15 do 11:20; v ulici Třemošenská v obci Třemošná okres Plzeň-sever; nehoda; probíhá vyšetřování nehody, nebezpečí; 2 havarovaná vozidla; 2 x OA bez zranění osob.',137.508482134657,87.0266035517935,'{accindet,personal_cars}'
9649,2016-05-11 11:20:00,'Od 11.5.2016 12:20 do 14:25; v ulici Edvarda Beneše v obci Plzeň; nehoda; probíhá vyšetřování nehody, nebezpečí; srážka OA s pevnou překážkou, bez zranění.',137.51426915688,87.1280999156167,'{accindet,personal_cars}'
