ID,od,popis,x,y,ts_flags
9680,2016-05-15 17:25:00,'Od 15.5.2016 18:25 do 20:30; na silnici 26 u obce Líně okres Plzeň-sever; nehoda; 3 havarovaná vozidla; probíhají záchranné a vyprošťovací práce, nebezpečí; 3x OA, se zraněním, složky IZS jedou na místo.',137.434129779091,87.1503470165445,'{accindet,injury,personal_cars}'
9681,2016-05-15 18:45:00,'Od 15.5.2016 19:45 do 21:50; na silnici 20 u obce Kasejovice okres Plzeň-jih; nehoda; havarované vozidlo; zvěř na vozovce; OA x zvěř, bez zranění osob.',137.749571556913,87.4093849575446,'{accindet,personal_cars,animal_hit}'
9682,2016-05-15 19:35:00,Od 15.5.2016 20:35 do 22:40; na silnici 20314 u obce Heřmanova Huť okres Plzeň-sever; nehoda; Havárie OA. PČR na místo.,137.300791467961,87.1303954357648,'{accindet,personal_cars}'
9683,2016-05-15 19:50:00,Od 15.5.2016 20:50 do 22:55; na silnici 20 u obce Úněšov okres Plzeň-sever; nehoda; Střet OA se zvěří. PČR na místo.,137.32642702352,86.9309297613096,'{accindet,personal_cars,animal_hit}'
9684,2016-05-15 19:50:00,Od 15.5.2016 20:50 do 22:55; na silnici u obce Chotíkov okres Plzeň-sever; nehoda; Střet OA se zvěří. PČR na místo.,137.482792534653,87.0603051422939,'{accindet,personal_cars,animal_hit}'
9685,2016-05-15 21:05:00,Od 15.5.2016 22:05 do 16.5.2016 00:10; na silnici 27 u obce Horní Bříza okres Plzeň-sever; nehoda; Střet OA se zvěří. PČR na místo.,137.52053404577,86.9698838020794,'{accindet,personal_cars,animal_hit}'
9686,2016-05-16 03:45:00,'Od 16.5.2016 04:45 do 06:35; na silnici 201 u obce Kožlany okres Plzeň-sever; nehoda; střet OA se zvěří,bez zranění osob, na místo jede policie.',137.611411201338,86.8566917880413,'{accindet,personal_cars,animal_hit}'
9687,2016-05-16 06:50:00,Od 16.5.2016 07:50 do 10:55; v ulici Koterovská v obci Plzeň; nehoda; jízdní pruh uzavřen; 2 havarovaná vozidla; 2 x OA bez zranění.,137.539381334661,87.1239716907689,'{accindet,personal_cars}'
9688,2016-05-16 09:55:00,'Od 16.5.2016 10:55 do 13:00; v ulici Dvořákova v obci Plzeň; křiž. s ul. Politických vězňů; nehoda; 2 havarovaná vozidla; 2 x OA bez zranění, na místo PČR.',137.507496534657,87.1221786240043,'{accindet,personal_cars}'
9689,2016-05-16 12:25:00,'Od 16.5.2016 13:25 do 15:30; v ulici Staniční v obci Plzeň; .; nehoda; 2 havarovaná vozidla; 2 x OA bez zranění, na místo PČR.',137.537848890217,87.0929926724739,'{accindet,personal_cars}'
