ID,od,popis,x,y,ts_flags
9690,2016-05-16 12:35:00,'Od 16.5.2016 13:35 do 15:40; na silnici 26 v obci Plzeň; ul. Domažlická, kruhý objezd u Makra; nehoda; 2 x OA se zraněním. Na místo PČR, ZZS a HZS.',137.472413156874,87.1180213376038,'{accindet,injury,personal_cars}'
9691,2016-05-16 17:35:00,'Od 16.5.2016 18:35 do 20:40; na silnici 19 u obce Spálené Poříčí okres Plzeň-jih; výjezd z obce ve směru na Míšov; nehoda; havárie OA bez zranění, na místo PČR.',137.680050490236,87.2483197320047,'{accindet,personal_cars}'
9692,2016-05-16 19:35:00,'Od 16.5.2016 20:35 do 21:00; na silnici 27 v obci Horní Lukavice okres Plzeň-jih; všechny nehody byly odstraněny, nejsou hlášeny žádné další problémy; 2x OA, bez zranění osob, PČR jede na místo.',137.475714134652,87.2462070678513,'{accindet,personal_cars}'
9693,2016-05-16 23:15:00,'D5 - 73.5km na trase Praha - Rozvadov, nehoda nákladního vozidla, havarované vozidlo, probíhá vyšetřování nehody, nebezpečí, Od 17.05.2016 00:15 Do 17.05.2016 03:20, nehoda nákladního vozidla; 3 havarovaná vozidla; probíhá vyšetřování nehody, nebezpečí; 2x OA x NA, bez zranění osob.',137.55470720133,87.14505166119,'{accindet,personal_cars}'
9694,2016-05-17 00:15:00,'Od 17.5.2016 01:15 do 03:20; na silnici 27 u obce Plzeň; nehoda; havarované vozidlo; zvěř na vozovce; OA x zvěř, bez zranění osob.',137.502451201323,87.1436441694711,'{accindet,personal_cars,animal_hit}'
9695,2016-05-17 05:15:00,'Od 17.5.2016 06:15 do 08:20; na silnici 2318 u obce Jarov okres Plzeň-sever; nehoda; havarované vozidlo; zvěř na vozovce; OA x zvěř, bez zranění osob.',137.552033423552,86.9517947995801,'{accindet,personal_cars,animal_hit}'
9696,2016-05-17 07:30:00,'Od 17.5.2016 08:30 do 10:35; na silnici 210 u obce Krsy okres Plzeň-sever; nehoda nákladního vozidla; NA x OA bez zranění, bez úniku PHM, zvýšená opatrnost, ohrožení BESIP.',137.279956623514,86.904348473705,'{accindet,personal_cars,trucks}'
9697,2016-05-17 13:25:00,'Od 17.5.2016 14:25 do 17:30; v ulici Nádražní v obci Nepomuk okres Plzeň-jih; nehoda nákladního vozidla; havárie NA bez zranění, bez úniku PHM, zvýšená opatrnost.',137.661550934678,87.38338444928,'{accindet,trucks}'
9698,2016-05-17 14:10:00,'Od 17.5.2016 15:10 do 17:15; v ulici Petřínská v obci Plzeň; nehoda; havárie OA se zraněním, zvýšená opatrnost, ohrožení BESIP. Na místo policie a RZS.',137.534968890216,87.1169475852162,'{accindet,injury,personal_cars}'
9699,2016-05-17 15:35:00,'Od 17.5.2016 16:35 do 18:40; v ulici Palackého náměstí v obci Plzeň; u zastávky tramvaje; nehoda; sražený chodec, se zraněním, zvýšená opatrnost, ohrožení BESIP, na místo ZZS a policie.',137.507916090212,87.0987367128628,'{accindet,pedestrian_involvement,injury}'
