ID,od,popis,x,y,ts_flags
970,2013-08-05 05:35:00,Od 5.8.2013 06:35 do 09:40; na silnici 20 u obce Kasejovice okres Plzeň-jih; nehoda; jízdní pruh uzavřen; DN 1 x OA se zvěří,137.746188801357,87.4093772983521,'{accindet,personal_cars,animal_hit}'
971,2013-08-05 07:30:00,'Od 5.8.2013 08:30 do 09:35; v ulici Klatovská třída v obci Plzeň; - ve směru na Bory; nehoda; 2 havarovaná vozidla; - 2 x OA, bez zranění, na místo PČR',137.507718401324,87.1135688648631,'{accindet,personal_cars}'
972,2013-08-05 08:05:00,'Od 5.8.2013 09:05 do 10:10; na silnici v obci Plzeň; - most Milénia ve směru na Slovany; nehoda; - 2 x OA, bez zranění, na místo PČR',137.523404801326,87.1037461473386,'{accindet,personal_cars}'
973,2013-08-05 09:35:00,'Od 5.8.2013 10:35 do 11:40; v ulici Havlíčkova v obci Plzeň; - Havlíčkova 1; nehoda; - dodávka x OA, bez zranění, na místo PČR',137.509134934657,87.1049368093281,'{accindet,personal_cars}'
974,2013-08-05 16:00:00,'Od 5.8.2013 17:00 do 18:05; v ulici Zábělská v obci Plzeň; - Masarykova x Zábělská; nehoda; - OA x sanita, bez zranění, sanita z místa odjela, na místo PČR',137.54424391244,87.0876784169346,'{accindet,personal_cars}'
975,2013-08-06 08:25:00,'Od 6.8.2013 09:25 do 12:30; v ulici Rokycanská v obci Plzeň; nehoda nákladního vozidla; nehoda, neprůjezdný pravý jízdní pruh; dopravní nehoda OA s NA bez zranění, průjezdné, blokován jeden jízdní pruh směrem od centra',137.538314667994,87.0993188966769,'{accindet,personal_cars,trucks}'
976,2013-08-06 08:35:00,'Od 6.8.2013 09:35 do 10:55; v ulici Karlovarská v obci Plzeň; naproti čerpací stanici Shell; nehoda odstraněna; dopravní nehoda NA s OA bez zranění, směr od centra, neprůjezdné dva jízdní pruhy',137.509324801324,87.0884016182696,'{accindet,personal_cars,trucks}'
977,2013-08-06 08:40:00,'Od 6.8.2013 09:40 do 13:25; na silnici 1804 u obce Hromnice okres Plzeň-sever; železniční přejezd P 1678; nehoda odstraněna; srážka OA s vlakem na železničním přejezdu,  DN se zraněním,',137.531182223549,86.9633480185539,'{accindet,injury,personal_cars}'
978,2013-08-06 10:05:00,'Od 6.8.2013 11:05 do 13:20; v ulici Skladová v obci Plzeň; nehoda odstraněna; dopravní nehoda 2 x OA bez zranění, průjezdné s opatrností',137.537423645772,87.1267293759535,'{accindet,personal_cars}'
979,2013-08-06 10:25:00,'Od 6.8.2013 11:25 do 11:55; v ulici Oborská v obci Kaznějov okres Plzeň-sever; nehoda odstraněna; dopraní nehoda 2 x OA bez zranění, průjezdné s opatrností',137.523047112437,86.9418417949757,'{accindet,personal_cars}'
