ID,od,popis,x,y,ts_flags
9700,2016-05-18 10:50:00,'Od 18.5.2016 11:50 do 12:55; na silnici 19 u obce Nezbavětice okres Plzeň-město; nehoda; 2x OA, bez zranění, na místo PČR',137.578566401333,87.1950232718117,'{accindet,personal_cars}'
9701,2016-05-18 13:55:00,'Od 18.5.2016 14:55 do 16:00; na silnici u obce Plzeň; nehoda autobusu; - OA x autobus, bez zranění, na místo PČR',137.483369956876,87.1419166426133,'{accindet,personal_cars}'
9702,2016-05-18 15:25:00,'Od 18.5.2016 16:25 do 17:25; v ulici Studentská v obci Plzeň; křižovatka s ul. Krašovská; nehoda; 2x OA, bez zranění, na místo PČR',137.497231645766,87.0693584516071,'{accindet,personal_cars}'
9703,2016-05-18 16:55:00,'Od 18.5.2016 17:55 do 19:00; na silnici 26 u obce Plzeň; - ve směru z centra; nehoda nákladního vozidla; - NA x OA, bez zranění, na místo PČR',137.560207645775,87.1006934415879,'{accindet,personal_cars,trucks}'
9704,2016-05-18 23:20:00,'Od 19.5.2016 00:20 do 01:25; na silnici 20 u obce Kasejovice okres Plzeň-jih; nehoda nákladního vozidla; srážka NA se zvěří, bez zranění osob. Na místo PČR.',137.75760142358,87.4088258336144,'{accindet,animal_hit,trucks}'
9705,2016-05-19 05:05:00,'Od 19.5.2016 06:05 do 07:10; v ulici Do Štěnovic v obci Plzeň; nehoda; neprůjezdný pruh, 2 havarovaná vozidla; 2 x OA se zraněním, na místo PČR, ZZS.',137.523967290215,87.1550866620862,'{accindet,injury,personal_cars}'
9706,2016-05-19 07:10:00,'Od 19.5.2016 08:10 do 10:15; na silnici v obci Plzeň; od OC Olympie směr Písek; nehoda; probíhá vyšetřování nehody, nebezpečí; 2x OA bez zranění osob',137.547650134662,87.1538003697972,'{accindet,personal_cars}'
9707,2016-05-19 08:20:00,'Od 19.5.2016 09:20 do 11:30; v ulici Stříbrská v obci Stod okres Plzeň-jih; nehoda nákladního vozidla; probíhá vyšetřování nehody, nebezpečí; 2x kamion bez zranění',137.360456534636,87.2160829239,{accindet}
9708,2016-05-19 12:20:00,'Od 19.5.2016 13:20 do 15:25; v ulici Rokycanská v obci Plzeň; Křiživatka Rokacanská x Jateční v Plzni; nehoda; střet OA + DOD s ujetím dodávky, bez zranění, na místo PČR',137.53065173466,87.0984703809106,'{accindet,personal_cars}'
9709,2016-05-19 13:10:00,'Od 19.5.2016 14:10 do 16:15; v ulici Rokycanská v obci Plzeň; nehoda; probíhá vyšetřování nehody, nebezpečí; 2x OA bez zranění osob',137.542026667995,87.0996457532378,'{accindet,personal_cars}'
