ID,od,popis,x,y,ts_flags
9740,2016-05-23 11:50:00,'Od 23.5.2016 12:50 do 13:50; v ulici Na Strži v obci Horní Bříza okres Plzeň-sever; U obecního úřadu.; nehoda; havarované vozidlo; probíhá vyšetřování nehody; OA se zraněním, únik provozních kapalin nehlášen.',137.502038045767,86.9941785470419,'{accindet,injury,personal_cars}'
9741,2016-05-23 13:00:00,'Od 23.5.2016 14:00 do 16:00; v ulici Plaská v obci Kaznějov okres Plzeň-sever; Na železničníím přejezdu P 1681 v obci Kaznějov.; nehoda; 3 havarovaná vozidla; probíhá vyšetřování nehody, nebezpečí; 2 x OA x kamion bez zranění, únik chladící kapaliny.',137.513905779102,86.9381241169042,'{accindet,personal_cars}'
9742,2016-05-23 18:00:00,'Od 23.5.2016 19:00 do 21:00; D5 - 98.1km na trase Rozvadov - Praha; Na km 99,5 ve směru Rozvadov - Praha; nehoda; havarované vozidlo; probíhá vyšetřování nehody, nebezpečí; Oa do svodidel bez zranění, únik provozních kaplain nehlášen.',137.342784712412,87.1357252376521,'{accindet,personal_cars}'
9743,2016-05-24 08:15:00,Od 24.5.2016 09:15 do 10:15; v ulici Schwarzova v obci Plzeň; nehoda; 3 havarovaná vozidla; probíhá vyšetřování nehody; 3 x OA bez zranění. Na místě PČR.,137.504588801323,87.1131958832808,'{accindet,personal_cars}'
9744,2016-05-24 10:10:00,'Od 24.5.2016 11:10 do 12:15; v ulici Studentská v obci Plzeň; křižovatka s ul. Gerská.; nehoda; neprůjezdný pruh, 2 havarovaná vozidla; probíhá vyšetřování nehody; 2 x OA, bez zranění, na místě PČR.',137.505694579101,87.0688585278717,'{accindet,personal_cars}'
9745,2016-05-24 10:15:00,'Od 24.5.2016 11:15 do 12:20; v ulici Hlávkova v obci Přeštice okres Plzeň-jih; ve směru na Plzeň.; nehoda; 2 havarovaná vozidla; probíhá vyšetřování nehody; 2 x OA bez zranění, na místě PČR.',137.478857245764,87.2933024185706,'{accindet,personal_cars}'
9746,2016-05-24 10:20:00,'Od 24.5.2016 11:20 do 12:25; v ulici Lobezská v obci Plzeň; nehoda; 2 havarovaná vozidla; probíhá vyšetřování nehody; 2 x OA bez zranění, na místě PČR.',137.534963912438,87.1121561421062,'{accindet,personal_cars}'
9747,2016-05-24 13:00:00,'Od 24.5.2016 14:00 do 15:05; v ulici Klatovská třída v obci Plzeň; nehoda; probíhá vyšetřování nehody; OA x chodec se zraněním, na místě PČR, ZZS.',137.50879786799,87.1061395490547,'{accindet,pedestrian_involvement,injury,personal_cars}'
9748,2016-05-24 13:10:00,'Od 24.5.2016 14:10 do 15:15; v ulici Rokycanská v obci Plzeň; ve směru z centra.; nehoda nákladního vozidla; neprůjezdný pruh, 2 havarovaná vozidla; NA x OA, bez zranění, na místě PČR.',137.538455467994,87.09932660039,'{accindet,personal_cars,trucks}'
9749,2016-05-24 15:00:00,'Od 24.5.2016 16:00 do 17:05; v ulici tř. 1. máje v obci Dobřany okres Plzeň-jih; nehoda; probíhá vyšetřování nehody; OA x chodec,se zraněním. Na místě PČR, ZZS',137.451431112427,87.2022007848288,'{accindet,pedestrian_involvement,injury,personal_cars}'
