ID,od,popis,x,y,ts_flags
9890,2016-06-07 05:45:00,'Od 7.6.2016 06:45 do 08:50; na silnici 183 u obce Soběkury okres Plzeň-jih; nehoda; zvěř na vozovce; překážka na vozovce, průjezd se zvýšenou opatrností; srážka OA se zvěří, bez zranění osob.',137.399670045753,87.308107004507,'{accindet,personal_cars,animal_hit}'
9891,2016-06-07 07:40:00,Od 7.6.2016 08:40 do 09:40; v ulici Karlovarská v obci Plzeň; Před křižovatkou Karlovarská - Lidická ve směru ven z města.; nehoda; 2 havarovaná vozidla; probíhá vyšetřování nehody; 2x OA bez zranění a bez úniku provozních kapalin.,137.507185779101,87.0860151267575,'{accindet,personal_cars}'
9892,2016-06-07 08:05:00,'Od 7.6.2016 09:05 do 10:05; na silnici 205 v obci Loza okres Plzeň-sever; V obci Loza.; nehoda; 2 havarovaná vozidla; OA x Traktor se zraněním, únik provozních kapalin nehlášen.',137.450606223538,86.9378315926251,'{accindet,injury,personal_cars}'
9893,2016-06-07 09:10:00,Od 7.6.2016 10:10 do 11:10; v ulici Plzeňská v obci Kaznějov okres Plzeň-sever; Za železničním přejezdem ve směru na Plzeň.; nehoda; 2 havarovaná vozidla; 2x OA bez zranění a bez úniku provozních kapalin. Místo průjezdné.,137.514071467991,86.9382289837075,'{accindet,personal_cars}'
9894,2016-06-07 09:15:00,'Od 7.6.2016 10:15 do 11:15; v ulici Rokycanská v obci Plzeň; V ulici rokycanská u čp. 1424/128; nehoda; 2 havarovaná vozidla; probíhá vyšetřování nehody; 2x OA se zraněním, únik provozních kapalin nehlášen.',137.553669690219,87.1005525771238,'{accindet,injury,personal_cars}'
9895,2016-06-07 13:40:00,'Od 7.6.2016 14:40 do 15:40; na silnici v obci Plzeň; V obci Radčice.; nehoda; 3 havarovaná vozidla; probíhá vyšetřování nehody, nebezpečí; 2x NA + 1x OA bez zranění, bez úniku provozních kapalin. Jeden z účastníků z DN ujel.',137.475099734652,87.0821533637247,'{accindet,personal_cars,trucks}'
9896,2016-06-07 13:55:00,'Od 7.6.2016 14:55 do 15:55; v ulici K Letišti v obci Zbůch okres Plzeň-sever; Křižovatka se sil. I/26; nehoda; 3 havarovaná vozidla; probíhá vyšetřování nehody; 3x OA bez zranění, únik provozních kapalin nehlášen.',137.414935467977,87.1669037104034,'{accindet,personal_cars}'
9897,2016-06-07 14:25:00,Od 7.6.2016 15:25 do 16:25; v ulici Tř. 1. máje v obci Přeštice okres Plzeň-jih; U PENNY marketu.; nehoda; 2 havarovaná vozidla; 2x OA bez zranění a bez úniku provozních kapalin.,137.476970667986,87.2808332610904,'{accindet,personal_cars}'
9898,2016-06-07 15:25:00,Od 7.6.2016 16:25 do 17:25; v ulici Karlova v obci Přeštice okres Plzeň-jih; V ulici Karlova u domu čp. 910; nehoda; 2 havarovaná vozidla; OA x MOTO bez zranění a bez úniku provozních kapalin.,137.480541156875,87.2885464960206,'{accindet,personal_cars}'
9899,2016-06-07 16:05:00,'Od 7.6.2016 17:05 do 18:05; na silnici 20 u obce Chocenice okres Plzeň-jih; Za obcí Chocenice ve směru na Nepomuk.; nehoda; 3 havarovaná vozidla; probíhá vyšetřování nehody; 3x OA bez zranění, únik provozních kapalin nehlášen.',137.614294756894,87.33530440637,'{accindet,personal_cars}'
