ID,od,popis,x,y,ts_flags
990,2013-08-07 14:05:00,Od 7.8.2013 15:05 do 16:05; v ulici Stromořadí v obci Dobřany okres Plzeň-jih; V ulici Stromořadí.; nehoda; 2 havarovaná vozidla; DN 2 x Oa bez zranění a bez úniku provozních kapalin.,137.456943645761,87.2026731003748,'{accindet,personal_cars}'
991,2013-08-07 21:30:00,'Od 7.8.2013 22:30 do 23:30; v ulici Rooseveltova v obci Plzeň; na Saském mostě; nehoda; havarované vozidlo; střet OA s chodcem se zraněním, únik provozních kapalin nehlášen. Na místo RZS a hlídky PČR.',137.514148267991,87.0958664208297,'{accindet,pedestrian_involvement,injury,personal_cars}'
992,2013-08-08 00:10:00,'Od 8.8.2013 01:10 do 04:00; na silnici 19 u obce Spálené Poříčí okres Plzeň-jih; Asi 1 km za obcí ve směru na Rožmitál; nehoda odstraněna; běžný provoz obnoven; havárie OA se zraněním, únik provozních kapalin nehlášen.',137.696674134683,87.2569966934866,'{accindet,injury,personal_cars}'
993,2013-08-08 08:15:00,'Od 8.8.2013 09:15 do 10:20; na silnici 18012 u obce Druztová okres Plzeň-sever; nehoda; havarované vozidlo; zvěř na vozovce; srážka OA se srnou, na místo jede PČR.',137.555421867997,87.0468286032017,'{accindet,personal_cars,animal_hit}'
994,2013-08-08 11:55:00,Od 8.8.2013 12:55 do 13:55; v ulici Skrétova v obci Plzeň; křižovatka s ul. Plachého.; nehoda; 2 havarovaná vozidla; BUS x zaparkované OA bez zranění osob.,137.506848712434,87.1045351564493,'{accindet,personal_cars}'
995,2013-08-08 13:00:00,'Od 8.8.2013 14:00 do 15:05; v ulici Karlovarská v obci Plzeň; nehoda, silný provoz; neprůjezdný pruh, 2 havarovaná vozidla; 2 x O, bez zranění, na místě PČR.',137.510467556879,87.0900802441794,{accindet}
996,2013-08-08 15:05:00,'Od 8.8.2013 16:05 do 17:10; v ulici Sirková v obci Plzeň; nehoda; havarované vozidlo; havárie OA do sloupu, bez zranění osob, na místo jede PČR.',137.518931912436,87.1049170018597,'{accindet,personal_cars}'
997,2013-08-08 17:25:00,'Od 8.8.2013 18:25 do 19:30; v ulici Karlovarská v obci Plzeň; nehoda; neprůjezdný pruh, 3 havarovaná vozidla; - 3 x OA, bez zranění, na místo PČR',137.510875023546,87.0905986812497,'{accindet,personal_cars}'
998,2013-08-08 18:30:00,'Od 8.8.2013 19:30 do 20:35; v ulici Plzeňská v obci Vejprnice okres Plzeň-sever; nehoda; neprůjezdný pruh, 2 havarovaná vozidla; - 2 x OA, bez zranění, na místo PČR.',137.458105601317,87.1124070021476,'{accindet,personal_cars}'
999,2013-08-08 23:20:00,'Od 9.8.2013 00:20 do 01:20; na silnici 18054 u obce Líšťany okres Plzeň-sever; nehoda; - srážka dodávky s krávou, na místo PČR',137.374742756861,87.0227253626613,{accindet}
