ID,od,popis,x,y,ts_flags
9900,2016-06-07 17:30:00,Od 7.6.2016 18:30 do 19:30; na silnici u obce Kozolupy okres Plzeň-sever; Hned za značkou konec obce ve směru na Město Touškov.; nehoda; 2 havarovaná vozidla; 2x OA bez zranění a bez úniku provozních kapalin. Místo průjezdné.,137.421486934645,87.0786381238316,'{accindet,personal_cars}'
9901,2016-06-07 20:45:00,'Od 7.6.2016 21:45 do 22:45; na silnici třídy I u obce Plzeň; nájezd z Litic na přivaděč ve směru na Přeštice; nehoda; 2 havarovaná vozidla; Pozor! Olej na vozovce; 2 x OA bez zranění, s únikem oleje na vozovku.',137.494312534655,87.1663035772716,'{accindet,personal_cars}'
9902,2016-06-07 20:50:00,Od 7.6.2016 21:50 do 22:50; na silnici u obce Šťáhlavy okres Plzeň-město; křiž. ul. V Cihelně x Radyňská; nehoda; 2 havarovaná vozidla; 2 x OA bez zranění a bez úniku provozních kapalin. Na místo hlídka PČR.,137.596983468003,87.1809257819165,'{accindet,personal_cars}'
9903,2016-06-07 21:50:00,'Od 7.6.2016 22:50 do 23:50; na silnici 27 u obce Plzeň; za rybníkem Kameňák ve směru na Třemošnou; nehoda; havarované vozidlo; srážka OA se zvěří, bez zranění osob, únik provozních kapalin nehlášen. Na místo hlídka PČR.',137.518254223547,87.0503580561473,'{accindet,personal_cars,animal_hit}'
9904,2016-06-08 11:20:00,'Od 8.6.2016 12:20 do 17:25; na silnici 19 u obce Spálené Poříčí okres Plzeň-jih; silnice uzavřena, nehoda; 2 havarovaná vozidla; probíhají záchranné a vyprošťovací práce; OA x NA bez zranění, objízdná trasa přes obec Štítov.',137.661208890234,87.2426312622337,'{accindet,personal_cars,trucks}'
9905,2016-06-08 14:30:00,'Od 8.6.2016 15:30 do 17:35; v ulici Univerzitní v obci Plzeň; nehoda; 2 havarovaná vozidla; překážka na vozovce, průjezd se zvýšenou opatrností; 2x OA bez zranění.',137.490990223543,87.1266171793352,'{accindet,personal_cars}'
9906,2016-06-08 16:45:00,'Od 8.6.2016 17:45 do 19:50; na silnici 18043 u obce Plzeň; nehoda; probíhají záchranné a vyprošťovací práce, nebezpečí; havárie cyklisty se zraněním.',137.477922134653,87.1485900195311,'{accindet,injury,cyclist}'
9907,2016-06-08 16:55:00,'Od 8.6.2016 17:55 do 19:40; na silnici 19 v obci Spálené Poříčí okres Plzeň-jih; všechny nehody byly odstraněny, nejsou hlášeny žádné další problémy; vyprošťování NA po nehodě.',137.656041245789,87.2405995976693,'{accindet,trucks}'
9908,2016-06-09 01:50:00,'Od 9.6.2016 02:50 do 04:55; na silnici 203 u obce Přehýšov okres Plzeň-sever; nehoda; OA x srna, zvýšená opatrnost, ohrožení BESIP',137.329777779076,87.1385307038481,'{accindet,personal_cars,animal_hit}'
9909,2016-06-09 05:25:00,'Od 9.6.2016 06:25 do 09:30; v ulici Gerská v obci Plzeň; Gerská x Studentská; nehoda nákladního vozidla; NA x OA bez zranění, bez úniku PHM, překáží provozu, zvýšená opatrnost',137.505954134657,87.0685281792211,'{accindet,personal_cars,trucks}'
