ID,od,popis,x,y,ts_flags
9920,2016-06-10 10:55:00,Od 10.6.2016 11:55 do 14:00; v ulici Plzeňská v obci Nepomuk okres Plzeň-jih; nehoda; 2 havarovaná vozidla; 2 x OA bez zranění. PČR na místo.,137.654862223566,87.3894586018822,'{accindet,personal_cars}'
9921,2016-06-10 11:30:00,Od 10.6.2016 12:30 do 15:35; v ulici Písecká v obci Plzeň; nehoda nákladního vozidla; 2 havarovaná vozidla; NA x OA bez zranění. PČR na místo.,137.548600179107,87.1521666240026,'{accindet,personal_cars,trucks}'
9922,2016-06-10 11:50:00,'Od 10.6.2016 12:50 do 15:55; na silnici 183 mezi obcemi Nezbavětice a Štěnovický Borek okres Plzeň-město , délka 2.8km; nehoda; neprůjezdná komunikace; 2 x OA bez zranění. PČR na místo. Od křiž. s I/20 ke křižovatce Štěnovický Borek, Chválenice, Nebílovy komunikace uzavřena. Provoz řízen PČR.',137.576135823555,87.1928326971062,'{accindet,personal_cars}'
9923,2016-06-10 12:30:00,Od 10.6.2016 13:30 do 16:35; v ulici Malý Bolevec v obci Plzeň; nehoda autobusu; 2 havarovaná vozidla; BUS x OA se zraněním. PČR a IZS na místo.,137.523173690215,87.0644548122855,'{accindet,injury,personal_cars}'
9924,2016-06-10 13:20:00,Od 10.6.2016 14:20 do 16:25; na silnici 605 u obce Úlice okres Plzeň-sever; nehoda; 2 havarovaná vozidla; 2 x OA bez zranění. PČR na místo.,137.333043201299,87.0812418235944,'{accindet,personal_cars}'
9925,2016-06-10 13:45:00,Od 10.6.2016 14:45 do 16:50; na silnici 27 u obce Kaznějov okres Plzeň-sever; vážná nehoda; OA x MOTO se zraněním. IZS a PČR na místo.,137.518343112436,86.9495842850868,'{accindet,injury,personal_cars}'
9926,2016-06-10 15:55:00,Od 10.6.2016 16:55 do 19:00; v ulici Klatovská třída v obci Plzeň; nehoda; tramvaj x OA se zraněním. IZS a PČR na místo.,137.506189512434,87.1211269568354,'{accindet,injury,personal_cars}'
9927,2016-06-10 16:25:00,Od 10.6.2016 17:25 do 19:30; na silnici 19 u obce Nezbavětice okres Plzeň-město; nehoda; OA x MOTO se zraněním. IZS a PČR na místo.,137.586559290223,87.1977717997484,'{accindet,injury,personal_cars}'
9928,2016-06-10 16:45:00,Od 10.6.2016 17:45 do 21:50; na silnici 18043 u obce Plzeň; nehoda; neprůjezdná komunikace; 2 x OA se zraněním. IZS a PČR na místo. Provoz řídí PČR.,137.484073245765,87.1397876720642,'{accindet,injury,personal_cars}'
9929,2016-06-10 18:25:00,Od 10.6.2016 19:25 do 21:30; v ulici Otýlie Beníškové v obci Plzeň; nehoda; 2 havarovaná vozidla; probíhá vyšetřování nehody; 2 x OA bez zranění. Na místě PČR.,137.512563912435,87.0923234664284,'{accindet,personal_cars}'
