ID,od,popis,x,y,ts_flags
9970,2016-06-14 16:00:00,Od 14.6.2016 17:00 do 21:05; na silnici 188 u obce Oselce okres Plzeň-jih; vážná nehoda; uzavřeno; havárie OA se zraněním.,137.727848534687,87.4354647273505,'{accindet,injury,personal_cars}'
9971,2016-06-14 16:45:00,'Od 14.6.2016 17:45 do 20:50; v ulici Karlovarská v obci Plzeň; nehoda nákladního vozidla; NA x OA bez zranění, na místo PČR.',137.511482312435,87.0913768777613,'{accindet,personal_cars,trucks}'
9972,2016-06-14 17:00:00,'Od 14.6.2016 18:00 do 20:05; na silnici 18044 u obce Nová Ves okres Plzeň-jih; nehoda; 3 havarovaná vozidla; 2 OA x traktor bez zranění, na místo PČR.',137.460145779095,87.1657616930302,'{accindet,personal_cars}'
9973,2016-06-14 18:20:00,'Od 14.6.2016 19:20 do 21:25; v ulici U Jam v obci Plzeň; nehoda; OA x motocykl bez zranění, na místo PČR.',137.508615823546,87.0633557538276,'{accindet,personal_cars}'
9974,2016-06-14 18:20:00,'Od 14.6.2016 19:20 do 21:25; v ulici U Husa v obci Horní Bříza okres Plzeň-sever; nehoda; 2 havarovaná vozidla; 2 x OA bez zranění, na místo PČR.',137.501690312434,86.9936701991564,'{accindet,personal_cars}'
9975,2016-06-15 07:05:00,'Od 15.6.2016 08:05 do 09:10; v ulici Klatovská třída v obci Plzeň; nehoda; neprůjezdný pruh, 2 havarovaná vozidla; OA x dodávka, bez zranění, na místo PČR',137.508438045768,87.1072553327713,'{accindet,personal_cars}'
9976,2016-06-15 07:05:00,'Od 15.6.2016 08:05 do 09:10; v ulici Karlovarská v obci Plzeň; - ve směru do centra; nehoda; 2x OA, bez zranění, na místo PČR',137.503643734656,87.0812176037167,'{accindet,personal_cars}'
9977,2016-06-15 07:35:00,'Od 15.6.2016 08:35 do 10:00; D5 - 71.3km na trase Rozvadov - Praha; km 71,5 směr Praha; všechny nehody byly odstraněny, nejsou hlášeny žádné další problémy; 2x OA, se zraněním, na místo PČR, ZZS, HZS',137.568691912443,87.1322245218209,'{accindet,injury,personal_cars}'
9978,2016-06-15 07:55:00,'Od 15.6.2016 08:55 do 10:00; na silnici 27 u obce Vysoká Libyně okres Plzeň-sever; - směr Jesenice; nehoda nákladního vozidla; neprůjezdný pruh, 2 havarovaná vozidla; - NA x OA, bez zranění, na místo PČR',137.567849245776,86.7869399294052,'{accindet,personal_cars,trucks}'
9979,2016-06-15 08:10:00,'Od 15.6.2016 09:10 do 10:10; na silnici 26 v obci Plzeň; nehoda; 2x OA, bez zranění, na místo PČR',137.473300623541,87.1177551018323,'{accindet,personal_cars}'
