ID,od,popis,x,y,ts_flags
9990,2016-06-15 20:15:00,'Od 15.6.2016 21:15 do 22:20; na silnici 20 u obce Chotíkov okres Plzeň-sever; směr Karlovy Vary; nehoda; srážka OA se zvěří, bez zranění osob. Na místo PČR.',137.482306134653,87.059407546486,'{accindet,personal_cars,animal_hit}'
9991,2016-06-16 05:00:00,'Od 16.6.2016 06:00 do 08:05; na silnici 27 u obce Třemošná okres Plzeň-sever; nehoda; srážka OA se zvěří, bez zranění osob. Na místo PČR.',137.51656675688,87.0263346554796,'{accindet,personal_cars,animal_hit}'
9992,2016-06-16 05:30:00,'Od 16.6.2016 06:30 do 07:35; na silnici 20 u obce Chválenice okres Plzeň-město; - směr Plzeň; nehoda; neprůjezdný pruh, 2 havarovaná vozidla; OA x dodávka bez zranění. Na místo PČR.',137.586468268001,87.2287615038612,'{accindet,personal_cars}'
9993,2016-06-16 06:00:00,'Od 16.6.2016 07:00 do 08:05; na silnici 20 u obce Chválenice okres Plzeň-město; v obci Želčany směr Nepomuk; nehoda; probíhají záchranné a vyprošťovací práce, nebezpečí; neprůjezdný pruh, 2 havarovaná vozidla; 2 x OA se zraněním. Na místo PČR, ZZS a HZS.',137.588590223557,87.2320253646083,'{accindet,injury,personal_cars}'
9994,2016-06-16 10:40:00,'Od 16.6.2016 11:40 do 13:45; D5 - 102km na trase Rozvadov - Praha; nehoda; havarované vozidlo; probíhá vyšetřování nehody, nebezpečí; havárie OA bez zranění.',137.32193422352,87.1276533391401,'{accindet,personal_cars}'
9995,2016-06-16 11:00:00,'Od 16.6.2016 12:00 do 14:05; na silnici 182 u obce Stod okres Plzeň-jih; nehoda; havarované vozidlo; probíhají záchranné a vyprošťovací práce, nebezpečí; havárie OA se zraněním.',137.362179556859,87.2374427361336,'{accindet,injury,personal_cars}'
9996,2016-06-16 12:25:00,'Od 16.6.2016 13:25 do 15:30; v ulici Slovanská alej v obci Plzeň; nehoda; 2 havarovaná vozidla; probíhá vyšetřování nehody, nebezpečí; 2x OA se zraněním.',137.53082453466,87.1240508923296,'{accindet,injury,personal_cars}'
9997,2016-06-16 13:00:00,'Od 16.6.2016 14:00 do 16:05; v ulicích Dlouhá, Masarykova, Rokycanská v obci Plzeň , délka 84m; nehoda; 2 havarovaná vozidla; překážka na vozovce, průjezd se zvýšenou opatrností; 2x OA bez zranění.',137.538263467994,87.0997062820109,'{accindet,personal_cars}'
9998,2016-06-16 14:20:00,'Od 16.6.2016 15:20 do 17:25; v ulici Škroupova v obci Plzeň; nehoda; 2 havarovaná vozidla; probíhá vyšetřování nehody, nebezpečí; 2x OA bez zranění.',137.511340090213,87.1055915520637,'{accindet,personal_cars}'
9999,2016-06-16 19:05:00,'Od 16.6.2016 20:05 do 22:10; D5 - 92.6km na trase Rozvadov - Praha; nehoda; probíhá vyšetřování nehody, nebezpečí; havárie OA bez zranění osob',137.409018312421,87.1438618932711,'{accindet,personal_cars}'
